codon_pos,nt_pos,codon,aa,ref_codon_pos,ref_aa,sample,count,freq,ref_label
1,58,AAC,N,31,L,pool,2518,0.00262480324399829,31L
1,58,AAG,K,31,L,pool,3254,0.0033920213486777,31L
1,58,ACC,T,31,L,pool,2833,0.00295316425347385,31L
1,58,AGA,R,31,L,pool,3463,0.00360988627242497,31L
1,58,AGC,S,31,L,pool,2523,0.00263001532351378,31L
1,58,ATC,I,31,L,pool,3336,0.00347749945273165,31L
1,58,ATG,M,31,L,pool,3083,0.00321376822924811,31L
1,58,CAC,H,31,L,pool,2662,0.00277491113404426,31L
1,58,CAG,Q,31,L,pool,3089,0.00322002272466669,31L
1,58,CCT,P,31,L,pool,3462,0.00360884385652188,31L
1,58,GAG,E,31,L,pool,2223,0.00231729055258467,31L
1,58,GAT,D,31,L,pool,2970,0.00309597523219814,31L
1,58,GCT,A,31,L,pool,2872,0.00299381847369463,31L
1,58,GGT,G,31,L,pool,4427,0.0046147752030105,31L
1,58,GTG,V,31,L,pool,3160,0.00329403425378658,31L
1,58,TAC,Y,31,L,pool,2830,0.00295003700576456,31L
1,58,TGC,C,31,L,pool,2500,0.00260603975774254,31L
1,58,TGG,W,31,L,pool,4244,0.00442401309274374,31L
1,58,TTC,F,31,L,pool,3586,0.00373810342850591,31L
2,61,AAC,N,32,D,pool,1724,0.00179712501693926,32D
2,61,AAG,K,32,D,pool,2406,0.00250805266285142,32D
2,61,ACC,T,32,D,pool,1847,0.00192534217302019,32D
2,61,AGA,R,32,D,pool,1803,0.00187947587328392,32D
2,61,AGC,S,32,D,pool,2665,0.00277803838175355,32D
2,61,ATC,I,32,D,pool,1578,0.00164493229508709,32D
2,61,ATG,M,32,D,pool,2484,0.00258936110329299,32D
2,61,CAC,H,32,D,pool,2055,0.00214216468086437,32D
2,61,CAG,Q,32,D,pool,2364,0.00246427119492135,32D
2,61,CCT,P,32,D,pool,2594,0.00270402685263366,32D
2,61,CTG,L,32,D,pool,1864,0.00194306324337284,32D
2,61,GAG,E,32,D,pool,4084,0.00425722654824822,32D
2,61,GCT,A,32,D,pool,2094,0.00218281890108515,32D
2,61,GGT,G,32,D,pool,2327,0.00242570180650676,32D
2,61,GTG,V,32,D,pool,1839,0.00191700284579542,32D
2,61,TAC,Y,32,D,pool,2091,0.00217969165337586,32D
2,61,TGC,C,32,D,pool,1462,0.00152401205032784,32D
2,61,TGG,W,32,D,pool,2094,0.00218281890108515,32D
2,61,TTC,F,32,D,pool,1940,0.00202228685200821,32D
3,64,AAC,N,33,S,pool,1458,0.00151984238671545,33S
3,64,AAG,K,33,S,pool,1202,0.00125298391552262,33S
3,64,ACC,T,33,S,pool,1811,0.0018878152005087,33S
3,64,AGA,R,33,S,pool,1726,0.00179920984874545,33S
3,64,ATC,I,33,S,pool,1839,0.00191700284579542,33S
3,64,ATG,M,33,S,pool,1907,0.00198788712720601,33S
3,64,CAC,H,33,S,pool,1620,0.00168871376301717,33S
3,64,CAG,Q,33,S,pool,1213,0.00126445049045668,33S
3,64,CCT,P,33,S,pool,1397,0.00145625501662653,33S
3,64,CTG,L,33,S,pool,1542,0.0016074053225756,33S
3,64,GAG,E,33,S,pool,2082,0.00217030991024799,33S
3,64,GAT,D,33,S,pool,1991,0.00207545006306616,33S
3,64,GCT,A,33,S,pool,2057,0.00214424951267057,33S
3,64,GGT,G,33,S,pool,1813,0.00188990003231489,33S
3,64,GTG,V,33,S,pool,1531,0.00159593874764153,33S
3,64,TAC,Y,33,S,pool,1378,0.00143644911446769,33S
3,64,TGC,C,33,S,pool,1833,0.00191074835037683,33S
3,64,TGG,W,33,S,pool,1056,0.00110079119367045,33S
3,64,TTC,F,33,S,pool,1327,0.00138328590340974,33S
4,67,AAC,N,34,G,pool,1600,0.00166786544495523,34G
4,67,AAG,K,34,G,pool,1760,0.00183465198945075,34G
4,67,ACC,T,34,G,pool,1626,0.00169496825843575,34G
4,67,AGA,R,34,G,pool,1563,0.00162929605654064,34G
4,67,AGC,S,34,G,pool,1544,0.0016094901543818,34G
4,67,ATC,I,34,G,pool,2010,0.00209525596522501,34G
4,67,ATG,M,34,G,pool,1638,0.00170747724927291,34G
4,67,CAC,H,34,G,pool,2050,0.00213695260134889,34G
4,67,CAG,Q,34,G,pool,2247,0.002342308534259,34G
4,67,CCT,P,34,G,pool,2102,0.00219115822830993,34G
4,67,CTG,L,34,G,pool,2659,0.00277178388633497,34G
4,67,GAG,E,34,G,pool,2255,0.00235064786148377,34G
4,67,GAT,D,34,G,pool,2410,0.00251222232646381,34G
4,67,GCT,A,34,G,pool,2720,0.00283537125642389,34G
4,67,GTG,V,34,G,pool,3394,0.00353795957511128,34G
4,67,TAC,Y,34,G,pool,1853,0.00193159666843877,34G
4,67,TGC,C,34,G,pool,1397,0.00145625501662653,34G
4,67,TGG,W,34,G,pool,1917,0.00199831128623698,34G
4,67,TTC,F,34,G,pool,2130,0.00222034587359665,34G
5,70,AAC,N,35,I,pool,2985,0.0031116114707446,35I
5,70,AAG,K,35,I,pool,2142,0.00223285486443381,35I
5,70,ACC,T,35,I,pool,2669,0.00278220804536594,35I
5,70,AGA,R,35,I,pool,1408,0.0014677215915606,35I
5,70,AGC,S,35,I,pool,2469,0.00257372486474654,35I
5,70,ATG,M,35,I,pool,3333,0.00347437220502236,35I
5,70,CAC,H,35,I,pool,3196,0.00333156122629807,35I
5,70,CAG,Q,35,I,pool,2452,0.00255600379439389,35I
5,70,CCT,P,35,I,pool,2886,0.00300841229633799,35I
5,70,CTG,L,35,I,pool,3267,0.00340557275541796,35I
5,70,GAG,E,35,I,pool,2436,0.00253932513994434,35I
5,70,GAT,D,35,I,pool,1909,0.00198997195901221,35I
5,70,GCT,A,35,I,pool,3294,0.00343371798480158,35I
5,70,GGT,G,35,I,pool,3235,0.00337221544651885,35I
5,70,GTG,V,35,I,pool,4000,0.00416966361238807,35I
5,70,TAC,Y,35,I,pool,2896,0.00301883645536896,35I
5,70,TGC,C,35,I,pool,3127,0.00325963452898437,35I
5,70,TGG,W,35,I,pool,3546,0.00369640679238202,35I
5,70,TTC,F,35,I,pool,3667,0.00382253911665676,35I
6,73,AAC,N,36,H,pool,2451,0.00255496137849079,36H
6,73,AAG,K,36,H,pool,2412,0.00251430715827001,36H
6,73,ACC,T,36,H,pool,2336,0.00243508354963463,36H
6,73,AGA,R,36,H,pool,2771,0.00288853446748184,36H
6,73,AGC,S,36,H,pool,2829,0.00294899458986146,36H
6,73,ATC,I,36,H,pool,2401,0.00250284058333594,36H
6,73,ATG,M,36,H,pool,2501,0.00260708217364564,36H
6,73,CAG,Q,36,H,pool,3580,0.00373184893308732,36H
6,73,CCT,P,36,H,pool,2866,0.00298756397827605,36H
6,73,CTG,L,36,H,pool,2379,0.0024799074334678,36H
6,73,GAG,E,36,H,pool,4018,0.00418842709864382,36H
6,73,GAT,D,36,H,pool,3173,0.00330758566052684,36H
6,73,GCT,A,36,H,pool,3504,0.00365262532445195,36H
6,73,GGT,G,36,H,pool,2781,0.00289895862651281,36H
6,73,GTG,V,36,H,pool,2321,0.00241944731108818,36H
6,73,TAC,Y,36,H,pool,2462,0.00256642795342486,36H
6,73,TGC,C,36,H,pool,3265,0.00340348792361176,36H
6,73,TGG,W,36,H,pool,2578,0.00268734819818411,36H
6,73,TTC,F,36,H,pool,2183,0.00227559391646079,36H
7,76,AAC,N,37,S,pool,2439,0.00254245238765363,37S
7,76,AAG,K,37,S,pool,3072,0.00320230165431404,37S
7,76,ACC,T,37,S,pool,3186,0.0033211370672671,37S
7,76,AGA,R,37,S,pool,2800,0.00291876452867165,37S
7,76,ATC,I,37,S,pool,2458,0.00256225828981247,37S
7,76,ATG,M,37,S,pool,2532,0.00263939706664165,37S
7,76,CAC,H,37,S,pool,2985,0.0031116114707446,37S
7,76,CAG,Q,37,S,pool,2518,0.00262480324399829,37S
7,76,CCT,P,37,S,pool,2295,0.00239234449760766,37S
7,76,CTG,L,37,S,pool,2525,0.00263210015531997,37S
7,76,GAG,E,37,S,pool,3139,0.00327214351982154,37S
7,76,GAT,D,37,S,pool,3231,0.00336804578290646,37S
7,76,GCT,A,37,S,pool,2727,0.00284266816774557,37S
7,76,GGT,G,37,S,pool,2181,0.0022735090846546,37S
7,76,GTG,V,37,S,pool,2976,0.00310222972761672,37S
7,76,TAC,Y,37,S,pool,2304,0.00240172624073553,37S
7,76,TGC,C,37,S,pool,2781,0.00289895862651281,37S
7,76,TGG,W,37,S,pool,2986,0.00311265388664769,37S
7,76,TTC,F,37,S,pool,2285,0.00238192033857669,37S
8,79,AAC,N,38,G,pool,2680,0.00279367462030001,38G
8,79,AAG,K,38,G,pool,3361,0.00350355985030908,38G
8,79,ACC,T,38,G,pool,2689,0.00280305636342788,38G
8,79,AGA,R,38,G,pool,2908,0.00303134544620613,38G
8,79,AGC,S,38,G,pool,2922,0.00304593926884949,38G
8,79,ATC,I,38,G,pool,3438,0.00358382587484755,38G
8,79,ATG,M,38,G,pool,3591,0.00374331550802139,38G
8,79,CAC,H,38,G,pool,3467,0.00361405593603736,38G
8,79,CAG,Q,38,G,pool,3604,0.00375686691476165,38G
8,79,CCT,P,38,G,pool,3158,0.00329194942198038,38G
8,79,CTG,L,38,G,pool,3211,0.00334719746484452,38G
8,79,GAG,E,38,G,pool,4116,0.00429058385714733,38G
8,79,GAT,D,38,G,pool,2762,0.00287915272435396,38G
8,79,GCT,A,38,G,pool,3220,0.0033565792079724,38G
8,79,GTG,V,38,G,pool,3574,0.00372559443766874,38G
8,79,TAC,Y,38,G,pool,3786,0.00394658660912531,38G
8,79,TGC,C,38,G,pool,3418,0.00356297755678561,38G
8,79,TGG,W,38,G,pool,4204,0.00438231645661986,38G
8,79,TTC,F,38,G,pool,3190,0.00332530673087949,38G
9,82,AAC,N,39,A,pool,3830,0.00399245290886158,39A
9,82,AAG,K,39,A,pool,3277,0.00341599691444893,39A
9,82,ACC,T,39,A,pool,3375,0.00351815367295243,39A
9,82,AGA,R,39,A,pool,4024,0.0041946815940624,39A
9,82,AGC,S,39,A,pool,3475,0.00362239526326214,39A
9,82,ATC,I,39,A,pool,2958,0.00308346624136098,39A
9,82,ATG,M,39,A,pool,4471,0.00466064150274677,39A
9,82,CAC,H,39,A,pool,3958,0.004125882144458,39A
9,82,CAG,Q,39,A,pool,4537,0.00472944095235117,39A
9,82,CCT,P,39,A,pool,3870,0.00403414954498546,39A
9,82,CTG,L,39,A,pool,4425,0.0046126903712043,39A
9,82,GAG,E,39,A,pool,3615,0.00376833348969572,39A
9,82,GAT,D,39,A,pool,3845,0.00400808914740803,39A
9,82,GGT,G,39,A,pool,4303,0.00448551563102647,39A
9,82,GTG,V,39,A,pool,3973,0.00414151838300445,39A
9,82,TAC,Y,39,A,pool,3170,0.00330445841281755,39A
9,82,TGC,C,39,A,pool,3686,0.00384234501881561,39A
9,82,TGG,W,39,A,pool,4174,0.00435104397952695,39A
9,82,TTC,F,39,A,pool,3241,0.00337846994193743,39A
10,85,AAC,N,40,T,pool,3581,0.00373289134899042,40T
10,85,AAG,K,40,T,pool,3367,0.00350981434572766,40T
10,85,AGA,R,40,T,pool,4683,0.00488163367420333,40T
10,85,AGC,S,40,T,pool,3156,0.00328986459017419,40T
10,85,ATC,I,40,T,pool,4566,0.00475967101354098,40T
10,85,ATG,M,40,T,pool,3406,0.00355046856594844,40T
10,85,CAC,H,40,T,pool,3867,0.00403102229727617,40T
10,85,CAG,Q,40,T,pool,4186,0.00436355297036412,40T
10,85,CCT,P,40,T,pool,3565,0.00371621269454087,40T
10,85,CTG,L,40,T,pool,4020,0.00419051193045001,40T
10,85,GAG,E,40,T,pool,3785,0.00394554419322221,40T
10,85,GAT,D,40,T,pool,3449,0.00359529244978161,40T
10,85,GCT,A,40,T,pool,3459,0.00360571660881258,40T
10,85,GGT,G,40,T,pool,4027,0.00419780884177169,40T
10,85,GTG,V,40,T,pool,3674,0.00382983602797844,40T
10,85,TAC,Y,40,T,pool,3325,0.00346603287779758,40T
10,85,TGC,C,40,T,pool,3843,0.00400600431560184,40T
10,85,TGG,W,40,T,pool,3782,0.00394241694551292,40T
10,85,TTC,F,40,T,pool,3485,0.00363281942229311,40T
11,88,AAC,N,41,T,pool,3413,0.00355776547727012,41T
11,88,AAG,K,41,T,pool,2082,0.00217030991024799,41T
11,88,AGA,R,41,T,pool,2126,0.00221617620998426,41T
11,88,AGC,S,41,T,pool,2583,0.0026925602776996,41T
11,88,ATC,I,41,T,pool,2245,0.0023402237024528,41T
11,88,ATG,M,41,T,pool,1872,0.00195140257059762,41T
11,88,CAC,H,41,T,pool,2992,0.00311890838206628,41T
11,88,CAG,Q,41,T,pool,2932,0.00305636342788046,41T
11,88,CCT,P,41,T,pool,2732,0.00284788024726105,41T
11,88,CTG,L,41,T,pool,3332,0.00347332978911926,41T
11,88,GAG,E,41,T,pool,2588,0.00269777235721508,41T
11,88,GAT,D,41,T,pool,2557,0.00266545746421907,41T
11,88,GCT,A,41,T,pool,3070,0.00320021682250784,41T
11,88,GGT,G,41,T,pool,2646,0.00275823247959471,41T
11,88,GTG,V,41,T,pool,2090,0.00217864923747277,41T
11,88,TAC,Y,41,T,pool,2756,0.00287289822893538,41T
11,88,TGC,C,41,T,pool,2083,0.00217135232615109,41T
11,88,TGG,W,41,T,pool,2285,0.00238192033857669,41T
11,88,TTC,F,41,T,pool,2163,0.00225474559839885,41T
12,91,AAC,N,42,T,pool,2495,0.00260082767822706,42T
12,91,AAG,K,42,T,pool,3234,0.00337117303061576,42T
12,91,AGA,R,42,T,pool,1426,0.00148648507781635,42T
12,91,AGC,S,42,T,pool,1876,0.00195557223421001,42T
12,91,ATC,I,42,T,pool,3225,0.00336179128748788,42T
12,91,ATG,M,42,T,pool,2361,0.00246114394721206,42T
12,91,CAC,H,42,T,pool,3012,0.00313975670012822,42T
12,91,CAG,Q,42,T,pool,1455,0.00151671513900616,42T
12,91,CCT,P,42,T,pool,3410,0.00355463822956083,42T
12,91,CTG,L,42,T,pool,2554,0.00266233021650978,42T
12,91,GAG,E,42,T,pool,3277,0.00341599691444893,42T
12,91,GAT,D,42,T,pool,3155,0.00328882217427109,42T
12,91,GCT,A,42,T,pool,3581,0.00373289134899042,42T
12,91,GGT,G,42,T,pool,3242,0.00337951235784053,42T
12,91,GTG,V,42,T,pool,1824,0.00190136660724896,42T
12,91,TAC,Y,42,T,pool,2948,0.00307304208233001,42T
12,91,TGC,C,42,T,pool,2456,0.00256017345800628,42T
12,91,TGG,W,42,T,pool,3216,0.00335240954436001,42T
12,91,TTC,F,42,T,pool,2644,0.00275614764778851,42T
13,94,AAC,N,43,A,pool,2578,0.00268734819818411,43A
13,94,AAG,K,43,A,pool,2351,0.00245071978818109,43A
13,94,ACC,T,43,A,pool,2357,0.00245697428359967,43A
13,94,AGA,R,43,A,pool,2653,0.00276552939091639,43A
13,94,AGC,S,43,A,pool,2686,0.00279992911571859,43A
13,94,ATC,I,43,A,pool,2588,0.00269777235721508,43A
13,94,ATG,M,43,A,pool,2184,0.00227663633236389,43A
13,94,CAC,H,43,A,pool,2403,0.00250492541514213,43A
13,94,CAG,Q,43,A,pool,2539,0.00264669397796333,43A
13,94,CCT,P,43,A,pool,3119,0.0032512952017596,43A
13,94,CTG,L,43,A,pool,4086,0.00425931138005441,43A
13,94,GAG,E,43,A,pool,3189,0.00332426431497639,43A
13,94,GAT,D,43,A,pool,2443,0.00254662205126601,43A
13,94,GGT,G,43,A,pool,3124,0.00325650728127508,43A
13,94,GTG,V,43,A,pool,2169,0.00226100009381743,43A
13,94,TAC,Y,43,A,pool,1920,0.00200143853394627,43A
13,94,TGC,C,43,A,pool,2765,0.00288227997206325,43A
13,94,TGG,W,43,A,pool,3395,0.00353900199101438,43A
13,94,TTC,F,43,A,pool,3110,0.00324191345863172,43A
14,97,AAC,N,44,P,pool,2484,0.00258936110329299,44P
14,97,AAG,K,44,P,pool,2478,0.00258310660787441,44P
14,97,ACC,T,44,P,pool,2935,0.00305949067558975,44P
14,97,AGA,R,44,P,pool,2687,0.00280097153162169,44P
14,97,AGC,S,44,P,pool,2346,0.0024455077086656,44P
14,97,ATC,I,44,P,pool,2019,0.00210463770835288,44P
14,97,ATG,M,44,P,pool,2218,0.00231207847306919,44P
14,97,CAC,H,44,P,pool,2171,0.00226308492562363,44P
14,97,CAG,Q,44,P,pool,3518,0.00366721914709531,44P
14,97,CTG,L,44,P,pool,2429,0.00253202822862266,44P
14,97,GAG,E,44,P,pool,3124,0.00325650728127508,44P
14,97,GAT,D,44,P,pool,1909,0.00198997195901221,44P
14,97,GCT,A,44,P,pool,2614,0.0027248751706956,44P
14,97,GGT,G,44,P,pool,3112,0.00324399829043792,44P
14,97,GTG,V,44,P,pool,3343,0.00348479636405333,44P
14,97,TAC,Y,44,P,pool,2336,0.00243508354963463,44P
14,97,TGC,C,44,P,pool,2937,0.00306157550739594,44P
14,97,TGG,W,44,P,pool,3344,0.00348583877995643,44P
14,97,TTC,F,44,P,pool,3095,0.00322627722008527,44P
15,100,AAC,N,45,S,pool,2414,0.0025163919900762,45S
15,100,AAG,K,45,S,pool,2245,0.0023402237024528,45S
15,100,ACC,T,45,S,pool,3773,0.00393303520238505,45S
15,100,AGA,R,45,S,pool,2358,0.00245801669950277,45S
15,100,ATC,I,45,S,pool,3437,0.00358278345894445,45S
15,100,ATG,M,45,S,pool,2129,0.00221930345769355,45S
15,100,CAC,H,45,S,pool,2987,0.00311369630255079,45S
15,100,CAG,Q,45,S,pool,2239,0.00233396920703422,45S
15,100,CCT,P,45,S,pool,3093,0.00322419238827908,45S
15,100,CTG,L,45,S,pool,2832,0.00295212183757075,45S
15,100,GAG,E,45,S,pool,2011,0.0020962983811281,45S
15,100,GAT,D,45,S,pool,3791,0.00395179868864079,45S
15,100,GCT,A,45,S,pool,2783,0.002901043458319,45S
15,100,GGT,G,45,S,pool,4056,0.0042280389029615,45S
15,100,GTG,V,45,S,pool,2487,0.00259248835100228,45S
15,100,TAC,Y,45,S,pool,3295,0.00343476040070467,45S
15,100,TGC,C,45,S,pool,3343,0.00348479636405333,45S
15,100,TGG,W,45,S,pool,3653,0.00380794529401341,45S
15,100,TTC,F,45,S,pool,2183,0.00227559391646079,45S
16,103,AAC,N,46,L,pool,3065,0.00319500474299236,46L
16,103,AAG,K,46,L,pool,3400,0.00354421407052986,46L
16,103,ACC,T,46,L,pool,2376,0.00247678018575851,46L
16,103,AGA,R,46,L,pool,2773,0.00289061929928803,46L
16,103,AGC,S,46,L,pool,1454,0.00151567272310306,46L
16,103,ATC,I,46,L,pool,3345,0.00348688119585952,46L
16,103,ATG,M,46,L,pool,3958,0.004125882144458,46L
16,103,CAC,H,46,L,pool,2448,0.0025518341307815,46L
16,103,CAG,Q,46,L,pool,4001,0.00417070602829117,46L
16,103,CCT,P,46,L,pool,2296,0.00239338691351075,46L
16,103,GAG,E,46,L,pool,3419,0.0035640199726887,46L
16,103,GAT,D,46,L,pool,3287,0.0034264210734799,46L
16,103,GCT,A,46,L,pool,2219,0.00231312088897228,46L
16,103,GGT,G,46,L,pool,3456,0.00360258936110329,46L
16,103,GTG,V,46,L,pool,3898,0.00406333719027217,46L
16,103,TAC,Y,46,L,pool,3122,0.00325442244946889,46L
16,103,TGC,C,46,L,pool,1807,0.00188364553689631,46L
16,103,TGG,W,46,L,pool,4236,0.00441567376551897,46L
16,103,TTC,F,46,L,pool,2983,0.0031095266389384,46L
17,106,AAC,N,47,S,pool,2949,0.0030740844982331,47S
17,106,AAG,K,47,S,pool,2496,0.00260187009413016,47S
17,106,ACC,T,47,S,pool,3157,0.00329090700607728,47S
17,106,AGA,R,47,S,pool,3043,0.00317207159312422,47S
17,106,ATC,I,47,S,pool,3148,0.00328152526294941,47S
17,106,ATG,M,47,S,pool,3237,0.00337430027832505,47S
17,106,CAC,H,47,S,pool,3445,0.00359112278616923,47S
17,106,CAG,Q,47,S,pool,2860,0.00298130948285747,47S
17,106,CCT,P,47,S,pool,2910,0.00303343027801232,47S
17,106,CTG,L,47,S,pool,2980,0.00310639939122911,47S
17,106,GAG,E,47,S,pool,3202,0.00333781572171665,47S
17,106,GAT,D,47,S,pool,2942,0.00306678758691143,47S
17,106,GCT,A,47,S,pool,3816,0.00397785908621822,47S
17,106,GGT,G,47,S,pool,3867,0.00403102229727617,47S
17,106,GTG,V,47,S,pool,3302,0.00344205731202635,47S
17,106,TAC,Y,47,S,pool,3283,0.00342225140986751,47S
17,106,TGC,C,47,S,pool,2435,0.00253828272404124,47S
17,106,TGG,W,47,S,pool,2702,0.00281660777016814,47S
17,106,TTC,F,47,S,pool,3397,0.00354108682282057,47S
18,109,AAC,N,48,G,pool,2097,0.00218594614879445,48G
18,109,AAG,K,48,G,pool,1313,0.00136869208076638,48G
18,109,ACC,T,48,G,pool,2616,0.0027269600025018,48G
18,109,AGA,R,48,G,pool,959,0.00099967685107004,48G
18,109,AGC,S,48,G,pool,2462,0.00256642795342486,48G
18,109,ATC,I,48,G,pool,1762,0.00183673682125695,48G
18,109,ATG,M,48,G,pool,2162,0.00225370318249575,48G
18,109,CAC,H,48,G,pool,2784,0.0029020858742221,48G
18,109,CAG,Q,48,G,pool,1894,0.00197433572046575,48G
18,109,CCT,P,48,G,pool,2378,0.00247886501756471,48G
18,109,CTG,L,48,G,pool,2601,0.00271132376395534,48G
18,109,GAG,E,48,G,pool,2243,0.00233813887064661,48G
18,109,GAT,D,48,G,pool,2304,0.00240172624073553,48G
18,109,GCT,A,48,G,pool,4434,0.00462207211433218,48G
18,109,GTG,V,48,G,pool,3677,0.00383296327568773,48G
18,109,TAC,Y,48,G,pool,2599,0.00270923893214915,48G
18,109,TGC,C,48,G,pool,4346,0.00453033951485964,48G
18,109,TGG,W,48,G,pool,3561,0.00371204303092848,48G
18,109,TTC,F,48,G,pool,2711,0.00282598951329601,48G
