%!PS-Adobe-3.0 EPSF-3.0
%%DocumentNeededResources: font Helvetica
%%+ font Helvetica-Bold
%%+ font Helvetica-Oblique
%%+ font Helvetica-BoldOblique
%%+ font Symbol
%%Title: R Graphics Output
%%Creator: R Software
%%Pages: (atend)
%%BoundingBox: 0 0 432 432
%%EndComments
%%BeginProlog
/bp  { gs sRGB gs } def
% begin .ps.prolog
/gs  { gsave } bind def
/gr  { grestore } bind def
/ep  { showpage gr gr } bind def
/m   { moveto } bind def
/l  { rlineto } bind def
/np  { newpath } bind def
/cp  { closepath } bind def
/f   { fill } bind def
/o   { stroke } bind def
/c   { newpath 0 360 arc } bind def
/r   { 4 2 roll moveto 1 copy 3 -1 roll exch 0 exch rlineto 0 rlineto -1 mul 0 exch rlineto closepath } bind def
/p1  { stroke } bind def
/p2  { gsave bg fill grestore newpath } bind def
/p3  { gsave bg fill grestore stroke } bind def
/p6  { gsave bg eofill grestore newpath } bind def
/p7  { gsave bg eofill grestore stroke } bind def
/t   { 5 -2 roll moveto gsave rotate
       1 index stringwidth pop
       mul neg 0 rmoveto show grestore } bind def
/ta  { 4 -2 roll moveto gsave rotate show } bind def
/tb  { 2 -1 roll 0 rmoveto show } bind def
/cl  { grestore gsave newpath 3 index 3 index moveto 1 index
       4 -1 roll lineto  exch 1 index lineto lineto
       closepath clip newpath } bind def
/rgb { setrgbcolor } bind def
/s   { scalefont setfont } bind def
% end   .ps.prolog
/sRGB { [ /CIEBasedABC
          << /DecodeLMN
               [ { dup 0.03928 le
                        {12.92321 div}
                        {0.055 add 1.055 div 2.4 exp }
                     ifelse
                 } bind dup dup
               ]
             /MatrixLMN [0.412457 0.212673 0.019334
                         0.357576 0.715152 0.119192
                         0.180437 0.072175 0.950301]
             /WhitePoint [0.9505 1.0 1.0890]
           >>
         ] setcolorspace } bind def
/srgb { setcolor } bind def
%%IncludeResource: font Helvetica
/Helvetica findfont
dup length dict begin
  {1 index /FID ne {def} {pop pop} ifelse} forall
  /Encoding ISOLatin1Encoding def
  currentdict
  end
/Font1 exch definefont pop
%%IncludeResource: font Helvetica-Bold
/Helvetica-Bold findfont
dup length dict begin
  {1 index /FID ne {def} {pop pop} ifelse} forall
  /Encoding ISOLatin1Encoding def
  currentdict
  end
/Font2 exch definefont pop
%%IncludeResource: font Helvetica-Oblique
/Helvetica-Oblique findfont
dup length dict begin
  {1 index /FID ne {def} {pop pop} ifelse} forall
  /Encoding ISOLatin1Encoding def
  currentdict
  end
/Font3 exch definefont pop
%%IncludeResource: font Helvetica-BoldOblique
/Helvetica-BoldOblique findfont
dup length dict begin
  {1 index /FID ne {def} {pop pop} ifelse} forall
  /Encoding ISOLatin1Encoding def
  currentdict
  end
/Font4 exch definefont pop
%%IncludeResource: font Symbol
/Symbol findfont
dup length dict begin
  {1 index /FID ne {def} {pop pop} ifelse} forall
  currentdict
  end
/Font5 exch definefont pop
%%EndProlog
%%Page: 1 1
bp
0.00 0.00 432.00 432.00 cl
0.00 0.00 432.00 432.00 cl
0.00 0.00 432.00 432.00 cl
0.00 0.00 432.00 432.00 cl
0.00 0.00 432.00 432.00 cl
0.00 0.00 432.00 432.00 cl
0.00 0.00 432.00 432.00 cl
0.00 0.00 432.00 432.00 cl
0.00 0.00 432.00 432.00 cl
0.00 0.00 432.00 432.00 cl
0.00 0.00 432.00 432.00 cl
0.00 0.00 432.00 432.00 cl
0.00 0.00 432.00 432.00 cl
0.00 0.00 432.00 432.00 cl
0.00 0.00 432.00 432.00 cl
0.00 0.00 432.00 432.00 cl
0.00 0.00 432.00 432.00 cl
0.00 0.00 432.00 432.00 cl
0.00 0.00 432.00 432.00 cl
0.00 0.00 432.00 432.00 cl
0.00 0.00 432.00 432.00 cl
0.00 0.00 432.00 432.00 cl
0.00 0.00 432.00 432.00 cl
0.00 0.00 432.00 432.00 cl
0.00 0.00 432.00 432.00 cl
0.00 0.00 432.00 432.00 cl
0.00 0.00 432.00 432.00 cl
0.00 0.00 432.00 432.00 cl
0.00 0.00 432.00 432.00 cl
0.00 0.00 432.00 432.00 cl
0.00 0.00 432.00 432.00 cl
0.00 0.00 432.00 432.00 cl
0.00 0.00 432.00 432.00 cl
0.00 0.00 432.00 432.00 cl
0.00 0.00 432.00 432.00 cl
0.00 0.00 432.00 432.00 cl
0.00 0.00 432.00 432.00 cl
0.00 0.00 432.00 432.00 cl
0.00 0.00 432.00 432.00 cl
0.00 0.00 432.00 432.00 cl
0.00 0.00 432.00 432.00 cl
0.00 0.00 432.00 432.00 cl
0.00 0.00 432.00 432.00 cl
0.00 0.00 432.00 432.00 cl
0.00 0.00 432.00 432.00 cl
0.00 0.00 432.00 432.00 cl
0.00 0.00 432.00 432.00 cl
0.00 0.00 432.00 432.00 cl
0.00 0.00 432.00 432.00 cl
0.00 0.00 432.00 432.00 cl
0.00 0.00 432.00 432.00 cl
0.00 0.00 432.00 432.00 cl
/bg { 1 1 1 srgb } def
1 1 1 srgb
1.07 setlinewidth
[] 0 setdash
1 setlinecap
1 setlinejoin
10.00 setmiterlimit
0.00 0.00 432.00 432.00 r p3
0.00 0.00 432.00 432.00 cl
40.98 31.91 373.35 426.52 cl
/bg { 0.9216 0.9216 0.9216 srgb } def
40.98 31.91 332.36 394.61 r p2
1 1 1 srgb
0.53 setlinewidth
[] 0 setdash
0 setlinecap
1 setlinejoin
10.00 setmiterlimit
np
40.98 103.97 m
332.37 0 l
o
np
40.98 212.21 m
332.37 0 l
o
np
40.98 320.44 m
332.37 0 l
o
1.07 setlinewidth
[] 0 setdash
np
40.98 49.85 m
332.37 0 l
o
np
40.98 158.09 m
332.37 0 l
o
np
40.98 266.32 m
332.37 0 l
o
np
40.98 374.56 m
332.37 0 l
o
np
51.94 31.91 m
0 394.61 l
o
np
70.20 31.91 m
0 394.61 l
o
np
88.46 31.91 m
0 394.61 l
o
np
106.73 31.91 m
0 394.61 l
o
np
124.99 31.91 m
0 394.61 l
o
np
143.25 31.91 m
0 394.61 l
o
np
161.51 31.91 m
0 394.61 l
o
np
179.77 31.91 m
0 394.61 l
o
np
198.03 31.91 m
0 394.61 l
o
np
216.30 31.91 m
0 394.61 l
o
np
234.56 31.91 m
0 394.61 l
o
np
252.82 31.91 m
0 394.61 l
o
np
271.08 31.91 m
0 394.61 l
o
np
289.34 31.91 m
0 394.61 l
o
np
307.60 31.91 m
0 394.61 l
o
np
325.87 31.91 m
0 394.61 l
o
np
344.13 31.91 m
0 394.61 l
o
np
362.39 31.91 m
0 394.61 l
o
/bg { 0.9922 0.7490 0.4353 srgb } def
43.72 190.05 16.44 15.25 r p2
/bg { 0.9843 0.6039 0.6000 srgb } def
43.72 223.44 16.44 17.56 r p2
/bg { 1 0.0784 0.5765 srgb } def
43.72 105.70 16.44 16.29 r p2
/bg { 0.6902 0.1882 0.3765 srgb } def
43.72 136.92 16.44 16.77 r p2
/bg { 1 0.5137 0.9804 srgb } def
43.72 121.99 16.44 14.93 r p2
/bg { 0.4941 0.7529 0.9333 srgb } def
43.72 241.00 16.44 17.59 r p2
/bg { 0.7922 0.6980 0.8392 srgb } def
43.72 205.29 16.44 18.14 r p2
/bg { 1 0.8431 0 srgb } def
43.72 258.59 16.44 14.49 r p2
/bg { 0.9333 0.9020 0.5216 srgb } def
43.72 153.68 16.44 16.67 r p2
/bg { 0.7020 0.7020 0.7020 srgb } def
43.72 170.35 16.44 19.70 r p2
/bg { 0.4157 0.2392 0.6039 srgb } def
43.72 312.49 16.44 16.74 r p2
/bg { 0 0.5451 0 srgb } def
43.72 329.23 16.44 17.19 r p2
/bg { 0.1098 0.5255 0.9333 srgb } def
43.72 361.37 16.44 16.28 r p2
/bg { 0 0 0 srgb } def
43.72 273.08 16.44 17.06 r p2
/bg { 0 0 1 srgb } def
43.72 85.77 16.44 19.93 r p2
/bg { 0 0.8078 0.8196 srgb } def
43.72 49.85 16.44 15.65 r p2
/bg { 0.8902 0.1020 0.1098 srgb } def
43.72 346.42 16.44 14.95 r p2
/bg { 0.2118 0.3922 0.5451 srgb } def
43.72 65.50 16.44 20.27 r p2
/bg { 1 0.4980 0 srgb } def
43.72 290.14 16.44 22.36 r p2
/bg { 0.9922 0.7490 0.4353 srgb } def
61.98 171.26 16.44 13.86 r p2
/bg { 0.9843 0.6039 0.6000 srgb } def
61.98 212.74 16.44 15.85 r p2
/bg { 1 0.0784 0.5765 srgb } def
61.98 96.45 16.44 14.48 r p2
/bg { 0.6902 0.1882 0.3765 srgb } def
61.98 124.35 16.44 14.27 r p2
/bg { 1 0.5137 0.9804 srgb } def
61.98 110.92 16.44 13.43 r p2
/bg { 0.4941 0.7529 0.9333 srgb } def
61.98 228.58 16.44 13.22 r p2
/bg { 0.7922 0.6980 0.8392 srgb } def
61.98 185.12 16.44 14.14 r p2
/bg { 1 0.8431 0 srgb } def
61.98 241.80 16.44 11.93 r p2
/bg { 0.9333 0.9020 0.5216 srgb } def
61.98 138.63 16.44 16.10 r p2
/bg { 0.7020 0.7020 0.7020 srgb } def
61.98 154.73 16.44 16.53 r p2
/bg { 0.5647 0.9333 0.5647 srgb } def
61.98 199.26 16.44 13.48 r p2
/bg { 0.4157 0.2392 0.6039 srgb } def
61.98 286.64 16.44 19.44 r p2
/bg { 0.1098 0.5255 0.9333 srgb } def
61.98 319.52 16.44 16.52 r p2
/bg { 0 0 0 srgb } def
61.98 253.73 16.44 18.02 r p2
/bg { 0 0 1 srgb } def
61.98 80.80 16.44 15.64 r p2
/bg { 0 0.8078 0.8196 srgb } def
61.98 49.85 16.44 14.95 r p2
/bg { 0.8902 0.1020 0.1098 srgb } def
61.98 306.08 16.44 13.44 r p2
/bg { 0.2118 0.3922 0.5451 srgb } def
61.98 64.80 16.44 16.00 r p2
/bg { 1 0.4980 0 srgb } def
61.98 271.76 16.44 14.88 r p2
/bg { 0.9922 0.7490 0.4353 srgb } def
80.25 131.92 16.44 10.39 r p2
/bg { 0.9843 0.6039 0.6000 srgb } def
80.25 162.81 16.44 12.08 r p2
/bg { 1 0.0784 0.5765 srgb } def
80.25 84.50 16.44 12.04 r p2
/bg { 0.6902 0.1882 0.3765 srgb } def
80.25 96.53 16.44 12.36 r p2
/bg { 0.4941 0.7529 0.9333 srgb } def
80.25 174.89 16.44 11.97 r p2
/bg { 0.7922 0.6980 0.8392 srgb } def
80.25 142.31 16.44 9.75 r p2
/bg { 1 0.8431 0 srgb } def
80.25 186.86 16.44 10.71 r p2
/bg { 0.9333 0.9020 0.5216 srgb } def
80.25 108.90 16.44 12.31 r p2
/bg { 0.7020 0.7020 0.7020 srgb } def
80.25 121.21 16.44 10.71 r p2
/bg { 0.5647 0.9333 0.5647 srgb } def
80.25 152.06 16.44 10.75 r p2
/bg { 0.4157 0.2392 0.6039 srgb } def
80.25 221.28 16.44 13.72 r p2
/bg { 0 0.5451 0 srgb } def
80.25 235.00 16.44 15.03 r p2
/bg { 0.1098 0.5255 0.9333 srgb } def
80.25 261.23 16.44 12.83 r p2
/bg { 0 0 0 srgb } def
80.25 197.57 16.44 12.22 r p2
/bg { 0 0 1 srgb } def
80.25 73.02 16.44 11.48 r p2
/bg { 0 0.8078 0.8196 srgb } def
80.25 49.85 16.44 11.07 r p2
/bg { 0.8902 0.1020 0.1098 srgb } def
80.25 250.03 16.44 11.20 r p2
/bg { 0.2118 0.3922 0.5451 srgb } def
80.25 60.92 16.44 12.10 r p2
/bg { 1 0.4980 0 srgb } def
80.25 209.79 16.44 11.49 r p2
/bg { 0.9922 0.7490 0.4353 srgb } def
98.51 162.81 16.44 13.98 r p2
/bg { 0.9843 0.6039 0.6000 srgb } def
98.51 205.69 16.44 12.80 r p2
/bg { 1 0.0784 0.5765 srgb } def
98.51 92.51 16.44 12.21 r p2
/bg { 0.6902 0.1882 0.3765 srgb } def
98.51 116.99 16.44 14.26 r p2
/bg { 1 0.5137 0.9804 srgb } def
98.51 104.73 16.44 12.26 r p2
/bg { 0.4941 0.7529 0.9333 srgb } def
98.51 218.49 16.44 12.03 r p2
/bg { 0.7922 0.6980 0.8392 srgb } def
98.51 176.79 16.44 12.15 r p2
/bg { 1 0.8431 0 srgb } def
98.51 230.52 16.44 16.15 r p2
/bg { 0.9333 0.9020 0.5216 srgb } def
98.51 131.25 16.44 17.37 r p2
/bg { 0.7020 0.7020 0.7020 srgb } def
98.51 148.62 16.44 14.19 r p2
/bg { 0.5647 0.9333 0.5647 srgb } def
98.51 188.94 16.44 16.75 r p2
/bg { 0.4157 0.2392 0.6039 srgb } def
98.51 261.27 16.44 16.93 r p2
/bg { 0 0.5451 0 srgb } def
98.51 278.20 16.44 14.97 r p2
/bg { 0.1098 0.5255 0.9333 srgb } def
98.51 305.02 16.44 14.73 r p2
/bg { 0 0 1 srgb } def
98.51 76.67 16.44 15.84 r p2
/bg { 0 0.8078 0.8196 srgb } def
98.51 49.85 16.44 12.56 r p2
/bg { 0.8902 0.1020 0.1098 srgb } def
98.51 293.17 16.44 11.85 r p2
/bg { 0.2118 0.3922 0.5451 srgb } def
98.51 62.41 16.44 14.26 r p2
/bg { 1 0.4980 0 srgb } def
98.51 246.67 16.44 14.60 r p2
/bg { 0.9922 0.7490 0.4353 srgb } def
116.77 188.72 16.44 17.35 r p2
/bg { 0.9843 0.6039 0.6000 srgb } def
116.77 242.75 16.44 16.39 r p2
/bg { 1 0.0784 0.5765 srgb } def
116.77 103.15 16.44 17.06 r p2
/bg { 0.6902 0.1882 0.3765 srgb } def
116.77 138.74 16.44 9.64 r p2
/bg { 1 0.5137 0.9804 srgb } def
116.77 120.21 16.44 18.53 r p2
/bg { 0.7922 0.6980 0.8392 srgb } def
116.77 206.07 16.44 18.51 r p2
/bg { 1 0.8431 0 srgb } def
116.77 259.14 16.44 18.00 r p2
/bg { 0.9333 0.9020 0.5216 srgb } def
116.77 148.38 16.44 21.51 r p2
/bg { 0.7020 0.7020 0.7020 srgb } def
116.77 169.89 16.44 18.83 r p2
/bg { 0.5647 0.9333 0.5647 srgb } def
116.77 224.57 16.44 18.18 r p2
/bg { 0.4157 0.2392 0.6039 srgb } def
116.77 316.27 16.44 19.43 r p2
/bg { 0 0.5451 0 srgb } def
116.77 335.71 16.44 16.68 r p2
/bg { 0.1098 0.5255 0.9333 srgb } def
116.77 369.01 16.44 17.91 r p2
/bg { 0 0 0 srgb } def
116.77 277.14 16.44 19.65 r p2
/bg { 0 0 1 srgb } def
116.77 84.40 16.44 18.75 r p2
/bg { 0 0.8078 0.8196 srgb } def
116.77 49.85 16.44 16.44 r p2
/bg { 0.8902 0.1020 0.1098 srgb } def
116.77 352.39 16.44 16.62 r p2
/bg { 0.2118 0.3922 0.5451 srgb } def
116.77 66.29 16.44 18.11 r p2
/bg { 1 0.4980 0 srgb } def
116.77 296.79 16.44 19.48 r p2
/bg { 0.9922 0.7490 0.4353 srgb } def
135.03 174.22 16.44 12.90 r p2
/bg { 0.9843 0.6039 0.6000 srgb } def
135.03 217.48 16.44 14.53 r p2
/bg { 1 0.0784 0.5765 srgb } def
135.03 96.91 16.44 13.96 r p2
/bg { 0.6902 0.1882 0.3765 srgb } def
135.03 125.12 16.44 13.82 r p2
/bg { 1 0.5137 0.9804 srgb } def
135.03 110.87 16.44 14.25 r p2
/bg { 0.4941 0.7529 0.9333 srgb } def
135.03 232.01 16.44 12.30 r p2
/bg { 0.7922 0.6980 0.8392 srgb } def
135.03 187.12 16.44 13.38 r p2
/bg { 0.9333 0.9020 0.5216 srgb } def
135.03 138.95 16.44 18.02 r p2
/bg { 0.7020 0.7020 0.7020 srgb } def
135.03 156.97 16.44 17.25 r p2
/bg { 0.5647 0.9333 0.5647 srgb } def
135.03 200.50 16.44 16.98 r p2
/bg { 0.4157 0.2392 0.6039 srgb } def
135.03 272.42 16.44 17.16 r p2
/bg { 0 0.5451 0 srgb } def
135.03 289.58 16.44 15.28 r p2
/bg { 0.1098 0.5255 0.9333 srgb } def
135.03 321.60 16.44 16.06 r p2
/bg { 0 0 0 srgb } def
135.03 244.31 16.44 13.99 r p2
/bg { 0 0 1 srgb } def
135.03 81.84 16.44 15.07 r p2
/bg { 0 0.8078 0.8196 srgb } def
135.03 49.85 16.44 15.14 r p2
/bg { 0.8902 0.1020 0.1098 srgb } def
135.03 304.87 16.44 16.73 r p2
/bg { 0.2118 0.3922 0.5451 srgb } def
135.03 64.98 16.44 16.85 r p2
/bg { 1 0.4980 0 srgb } def
135.03 258.29 16.44 14.13 r p2
/bg { 0.9922 0.7490 0.4353 srgb } def
153.29 182.18 16.44 18.18 r p2
/bg { 0.9843 0.6039 0.6000 srgb } def
153.29 235.80 16.44 20.85 r p2
/bg { 1 0.0784 0.5765 srgb } def
153.29 104.01 16.44 18.35 r p2
/bg { 0.6902 0.1882 0.3765 srgb } def
153.29 122.36 16.44 21.06 r p2
/bg { 0.4941 0.7529 0.9333 srgb } def
153.29 256.66 16.44 19.01 r p2
/bg { 0.7922 0.6980 0.8392 srgb } def
153.29 200.35 16.44 17.55 r p2
/bg { 1 0.8431 0 srgb } def
153.29 275.67 16.44 16.58 r p2
/bg { 0.9333 0.9020 0.5216 srgb } def
153.29 143.42 16.44 19.76 r p2
/bg { 0.7020 0.7020 0.7020 srgb } def
153.29 163.18 16.44 18.99 r p2
/bg { 0.5647 0.9333 0.5647 srgb } def
153.29 217.91 16.44 17.90 r p2
/bg { 0.4157 0.2392 0.6039 srgb } def
153.29 329.76 16.44 20.63 r p2
/bg { 0 0.5451 0 srgb } def
153.29 350.39 16.44 19.76 r p2
/bg { 0.1098 0.5255 0.9333 srgb } def
153.29 387.96 16.44 20.63 r p2
/bg { 0 0 0 srgb } def
153.29 292.25 16.44 16.43 r p2
/bg { 0 0 1 srgb } def
153.29 86.69 16.44 17.32 r p2
/bg { 0 0.8078 0.8196 srgb } def
153.29 49.85 16.44 18.73 r p2
/bg { 0.8902 0.1020 0.1098 srgb } def
153.29 370.16 16.44 17.80 r p2
/bg { 0.2118 0.3922 0.5451 srgb } def
153.29 68.58 16.44 18.12 r p2
/bg { 1 0.4980 0 srgb } def
153.29 308.68 16.44 21.08 r p2
/bg { 0.9922 0.7490 0.4353 srgb } def
171.55 181.13 16.44 13.51 r p2
/bg { 0.9843 0.6039 0.6000 srgb } def
171.55 227.98 16.44 17.92 r p2
/bg { 1 0.0784 0.5765 srgb } def
171.55 103.73 16.44 13.25 r p2
/bg { 0.6902 0.1882 0.3765 srgb } def
171.55 130.69 16.44 17.90 r p2
/bg { 1 0.5137 0.9804 srgb } def
171.55 116.98 16.44 13.70 r p2
/bg { 0.4941 0.7529 0.9333 srgb } def
171.55 245.90 16.44 15.60 r p2
/bg { 0.7922 0.6980 0.8392 srgb } def
171.55 194.64 16.44 15.02 r p2
/bg { 1 0.8431 0 srgb } def
171.55 261.50 16.44 15.56 r p2
/bg { 0.9333 0.9020 0.5216 srgb } def
171.55 148.58 16.44 16.90 r p2
/bg { 0.7020 0.7020 0.7020 srgb } def
171.55 165.48 16.44 15.64 r p2
/bg { 0.5647 0.9333 0.5647 srgb } def
171.55 209.66 16.44 18.32 r p2
/bg { 0.4157 0.2392 0.6039 srgb } def
171.55 292.67 16.44 19.18 r p2
/bg { 0 0.5451 0 srgb } def
171.55 311.85 16.44 14.39 r p2
/bg { 0.1098 0.5255 0.9333 srgb } def
171.55 341.51 16.44 16.17 r p2
/bg { 0 0 1 srgb } def
171.55 86.09 16.44 17.64 r p2
/bg { 0 0.8078 0.8196 srgb } def
171.55 49.85 16.44 15.51 r p2
/bg { 0.8902 0.1020 0.1098 srgb } def
171.55 326.24 16.44 15.27 r p2
/bg { 0.2118 0.3922 0.5451 srgb } def
171.55 65.35 16.44 20.73 r p2
/bg { 1 0.4980 0 srgb } def
171.55 277.06 16.44 15.61 r p2
/bg { 0.9922 0.7490 0.4353 srgb } def
189.82 202.99 16.44 19.76 r p2
/bg { 0.9843 0.6039 0.6000 srgb } def
189.82 260.48 16.44 18.42 r p2
/bg { 1 0.0784 0.5765 srgb } def
189.82 102.44 16.44 20.30 r p2
/bg { 0.6902 0.1882 0.3765 srgb } def
189.82 141.84 16.44 19.77 r p2
/bg { 1 0.5137 0.9804 srgb } def
189.82 122.74 16.44 19.10 r p2
/bg { 0.4941 0.7529 0.9333 srgb } def
189.82 278.90 16.44 17.33 r p2
/bg { 0.7922 0.6980 0.8392 srgb } def
189.82 222.75 16.44 18.55 r p2
/bg { 1 0.8431 0 srgb } def
189.82 296.23 16.44 19.54 r p2
/bg { 0.9333 0.9020 0.5216 srgb } def
189.82 161.61 16.44 22.88 r p2
/bg { 0.7020 0.7020 0.7020 srgb } def
189.82 184.49 16.44 18.51 r p2
/bg { 0.5647 0.9333 0.5647 srgb } def
189.82 241.30 16.44 19.17 r p2
/bg { 0.4157 0.2392 0.6039 srgb } def
189.82 352.39 16.44 18.14 r p2
/bg { 0 0.5451 0 srgb } def
189.82 370.53 16.44 19.11 r p2
/bg { 0 0 0 srgb } def
189.82 315.77 16.44 18.91 r p2
/bg { 0 0 1 srgb } def
189.82 83.38 16.44 19.06 r p2
/bg { 0 0.8078 0.8196 srgb } def
189.82 49.85 16.44 15.44 r p2
/bg { 0.8902 0.1020 0.1098 srgb } def
189.82 389.64 16.44 17.74 r p2
/bg { 0.2118 0.3922 0.5451 srgb } def
189.82 65.28 16.44 18.09 r p2
/bg { 1 0.4980 0 srgb } def
189.82 334.67 16.44 17.72 r p2
/bg { 0.9922 0.7490 0.4353 srgb } def
208.08 178.90 16.44 16.17 r p2
/bg { 0.9843 0.6039 0.6000 srgb } def
208.08 230.70 16.44 18.06 r p2
/bg { 0.6902 0.1882 0.3765 srgb } def
208.08 122.11 16.44 20.18 r p2
/bg { 1 0.5137 0.9804 srgb } def
208.08 103.56 16.44 18.54 r p2
/bg { 0.4941 0.7529 0.9333 srgb } def
208.08 248.76 16.44 18.97 r p2
/bg { 0.7922 0.6980 0.8392 srgb } def
208.08 195.07 16.44 18.14 r p2
/bg { 1 0.8431 0 srgb } def
208.08 267.73 16.44 16.74 r p2
/bg { 0.9333 0.9020 0.5216 srgb } def
208.08 142.29 16.44 18.69 r p2
/bg { 0.7020 0.7020 0.7020 srgb } def
208.08 160.98 16.44 17.92 r p2
/bg { 0.5647 0.9333 0.5647 srgb } def
208.08 213.21 16.44 17.48 r p2
/bg { 0.4157 0.2392 0.6039 srgb } def
208.08 317.47 16.44 15.40 r p2
/bg { 0 0.5451 0 srgb } def
208.08 332.87 16.44 16.37 r p2
/bg { 0.1098 0.5255 0.9333 srgb } def
208.08 366.04 16.44 15.52 r p2
/bg { 0 0 0 srgb } def
208.08 284.46 16.44 14.92 r p2
/bg { 0 0 1 srgb } def
208.08 87.67 16.44 15.90 r p2
/bg { 0 0.8078 0.8196 srgb } def
208.08 49.85 16.44 18.35 r p2
/bg { 0.8902 0.1020 0.1098 srgb } def
208.08 349.24 16.44 16.80 r p2
/bg { 0.2118 0.3922 0.5451 srgb } def
208.08 68.20 16.44 19.47 r p2
/bg { 1 0.4980 0 srgb } def
208.08 299.39 16.44 18.08 r p2
/bg { 0.9922 0.7490 0.4353 srgb } def
226.34 174.49 16.44 19.66 r p2
/bg { 0.9843 0.6039 0.6000 srgb } def
226.34 229.42 16.44 15.58 r p2
/bg { 0.6902 0.1882 0.3765 srgb } def
226.34 121.20 16.44 18.41 r p2
/bg { 1 0.5137 0.9804 srgb } def
226.34 106.37 16.44 14.82 r p2
/bg { 0.4941 0.7529 0.9333 srgb } def
226.34 245.00 16.44 17.99 r p2
/bg { 0.7922 0.6980 0.8392 srgb } def
226.34 194.15 16.44 17.03 r p2
/bg { 1 0.8431 0 srgb } def
226.34 262.99 16.44 17.84 r p2
/bg { 0.9333 0.9020 0.5216 srgb } def
226.34 139.61 16.44 17.14 r p2
/bg { 0.7020 0.7020 0.7020 srgb } def
226.34 156.74 16.44 17.74 r p2
/bg { 0.5647 0.9333 0.5647 srgb } def
226.34 211.18 16.44 18.23 r p2
/bg { 0.4157 0.2392 0.6039 srgb } def
226.34 319.62 16.44 19.03 r p2
/bg { 0 0.5451 0 srgb } def
226.34 338.65 16.44 19.21 r p2
/bg { 0.1098 0.5255 0.9333 srgb } def
226.34 373.42 16.44 18.01 r p2
/bg { 0 0 0 srgb } def
226.34 280.83 16.44 20.17 r p2
/bg { 0 0 1 srgb } def
226.34 86.87 16.44 19.50 r p2
/bg { 0 0.8078 0.8196 srgb } def
226.34 49.85 16.44 17.63 r p2
/bg { 0.8902 0.1020 0.1098 srgb } def
226.34 357.86 16.44 15.56 r p2
/bg { 0.2118 0.3922 0.5451 srgb } def
226.34 67.48 16.44 19.39 r p2
/bg { 1 0.4980 0 srgb } def
226.34 301.00 16.44 18.63 r p2
/bg { 0.9922 0.7490 0.4353 srgb } def
244.60 132.13 16.44 14.78 r p2
/bg { 0.9843 0.6039 0.6000 srgb } def
244.60 172.93 16.44 12.66 r p2
/bg { 0.6902 0.1882 0.3765 srgb } def
244.60 98.07 16.44 7.19 r p2
/bg { 1 0.5137 0.9804 srgb } def
244.60 88.33 16.44 9.74 r p2
/bg { 0.4941 0.7529 0.9333 srgb } def
244.60 185.59 16.44 15.88 r p2
/bg { 0.7922 0.6980 0.8392 srgb } def
244.60 146.91 16.44 11.34 r p2
/bg { 1 0.8431 0 srgb } def
244.60 201.47 16.44 13.96 r p2
/bg { 0.9333 0.9020 0.5216 srgb } def
244.60 105.26 16.44 9.50 r p2
/bg { 0.7020 0.7020 0.7020 srgb } def
244.60 114.76 16.44 17.37 r p2
/bg { 0.5647 0.9333 0.5647 srgb } def
244.60 158.25 16.44 14.67 r p2
/bg { 0.4157 0.2392 0.6039 srgb } def
244.60 245.63 16.44 13.42 r p2
/bg { 0 0.5451 0 srgb } def
244.60 259.05 16.44 14.41 r p2
/bg { 0.1098 0.5255 0.9333 srgb } def
244.60 287.08 16.44 13.98 r p2
/bg { 0 0 0 srgb } def
244.60 215.43 16.44 14.75 r p2
/bg { 0 0 1 srgb } def
244.60 79.70 16.44 8.62 r p2
/bg { 0 0.8078 0.8196 srgb } def
244.60 49.85 16.44 15.26 r p2
/bg { 0.8902 0.1020 0.1098 srgb } def
244.60 273.46 16.44 13.63 r p2
/bg { 0.2118 0.3922 0.5451 srgb } def
244.60 65.11 16.44 14.60 r p2
/bg { 1 0.4980 0 srgb } def
244.60 230.18 16.44 15.45 r p2
/bg { 0.9922 0.7490 0.4353 srgb } def
262.86 147.71 16.44 12.99 r p2
/bg { 0.9843 0.6039 0.6000 srgb } def
262.86 187.42 16.44 11.12 r p2
/bg { 1 0.0784 0.5765 srgb } def
262.86 88.60 16.44 11.69 r p2
/bg { 0.6902 0.1882 0.3765 srgb } def
262.86 111.16 16.44 12.12 r p2
/bg { 1 0.5137 0.9804 srgb } def
262.86 100.30 16.44 10.86 r p2
/bg { 0.4941 0.7529 0.9333 srgb } def
262.86 198.53 16.44 12.56 r p2
/bg { 0.7922 0.6980 0.8392 srgb } def
262.86 160.70 16.44 12.76 r p2
/bg { 1 0.8431 0 srgb } def
262.86 211.09 16.44 12.07 r p2
/bg { 0.9333 0.9020 0.5216 srgb } def
262.86 123.28 16.44 11.29 r p2
/bg { 0.7020 0.7020 0.7020 srgb } def
262.86 134.57 16.44 13.14 r p2
/bg { 0.5647 0.9333 0.5647 srgb } def
262.86 173.46 16.44 13.96 r p2
/bg { 0.4157 0.2392 0.6039 srgb } def
262.86 250.24 16.44 15.85 r p2
/bg { 0 0.5451 0 srgb } def
262.86 266.09 16.44 15.06 r p2
/bg { 0 0 0 srgb } def
262.86 223.16 16.44 13.84 r p2
/bg { 0 0 1 srgb } def
262.86 74.76 16.44 13.85 r p2
/bg { 0 0.8078 0.8196 srgb } def
262.86 49.85 16.44 12.92 r p2
/bg { 0.8902 0.1020 0.1098 srgb } def
262.86 281.15 16.44 12.30 r p2
/bg { 0.2118 0.3922 0.5451 srgb } def
262.86 62.77 16.44 11.98 r p2
/bg { 1 0.4980 0 srgb } def
262.86 237.00 16.44 13.25 r p2
/bg { 0.9922 0.7490 0.4353 srgb } def
281.13 143.89 16.44 12.24 r p2
/bg { 0.9843 0.6039 0.6000 srgb } def
281.13 184.89 16.44 12.68 r p2
/bg { 1 0.0784 0.5765 srgb } def
281.13 90.65 16.44 13.09 r p2
/bg { 0.6902 0.1882 0.3765 srgb } def
281.13 115.45 16.44 13.54 r p2
/bg { 1 0.5137 0.9804 srgb } def
281.13 103.74 16.44 11.72 r p2
/bg { 0.4941 0.7529 0.9333 srgb } def
281.13 197.57 16.44 13.10 r p2
/bg { 0.7922 0.6980 0.8392 srgb } def
281.13 156.13 16.44 13.53 r p2
/bg { 1 0.8431 0 srgb } def
281.13 210.67 16.44 12.87 r p2
/bg { 0.9333 0.9020 0.5216 srgb } def
281.13 128.99 16.44 14.90 r p2
/bg { 0.5647 0.9333 0.5647 srgb } def
281.13 169.67 16.44 15.23 r p2
/bg { 0.4157 0.2392 0.6039 srgb } def
281.13 251.87 16.44 14.56 r p2
/bg { 0 0.5451 0 srgb } def
281.13 266.43 16.44 12.63 r p2
/bg { 0.1098 0.5255 0.9333 srgb } def
281.13 291.79 16.44 15.38 r p2
/bg { 0 0 0 srgb } def
281.13 223.53 16.44 13.55 r p2
/bg { 0 0 1 srgb } def
281.13 78.05 16.44 12.60 r p2
/bg { 0 0.8078 0.8196 srgb } def
281.13 49.85 16.44 12.64 r p2
/bg { 0.8902 0.1020 0.1098 srgb } def
281.13 279.07 16.44 12.72 r p2
/bg { 0.2118 0.3922 0.5451 srgb } def
281.13 62.49 16.44 15.56 r p2
/bg { 1 0.4980 0 srgb } def
281.13 237.09 16.44 14.79 r p2
/bg { 0.9922 0.7490 0.4353 srgb } def
299.39 165.95 16.44 16.18 r p2
/bg { 0.9843 0.6039 0.6000 srgb } def
299.39 216.34 16.44 12.56 r p2
/bg { 1 0.0784 0.5765 srgb } def
299.39 98.25 16.44 16.87 r p2
/bg { 0.6902 0.1882 0.3765 srgb } def
299.39 115.12 16.44 17.80 r p2
/bg { 0.4941 0.7529 0.9333 srgb } def
299.39 228.90 16.44 17.34 r p2
/bg { 0.7922 0.6980 0.8392 srgb } def
299.39 182.13 16.44 16.08 r p2
/bg { 1 0.8431 0 srgb } def
299.39 246.23 16.44 17.40 r p2
/bg { 0.9333 0.9020 0.5216 srgb } def
299.39 132.92 16.44 12.49 r p2
/bg { 0.7020 0.7020 0.7020 srgb } def
299.39 145.41 16.44 20.54 r p2
/bg { 0.5647 0.9333 0.5647 srgb } def
299.39 198.21 16.44 18.13 r p2
/bg { 0.4157 0.2392 0.6039 srgb } def
299.39 303.07 16.44 10.23 r p2
/bg { 0 0.5451 0 srgb } def
299.39 313.29 16.44 19.82 r p2
/bg { 0.1098 0.5255 0.9333 srgb } def
299.39 349.54 16.44 15.54 r p2
/bg { 0 0 0 srgb } def
299.39 263.63 16.44 20.78 r p2
/bg { 0 0 1 srgb } def
299.39 83.97 16.44 14.27 r p2
/bg { 0 0.8078 0.8196 srgb } def
299.39 49.85 16.44 16.95 r p2
/bg { 0.8902 0.1020 0.1098 srgb } def
299.39 333.11 16.44 16.43 r p2
/bg { 0.2118 0.3922 0.5451 srgb } def
299.39 66.80 16.44 17.17 r p2
/bg { 1 0.4980 0 srgb } def
299.39 284.41 16.44 18.66 r p2
/bg { 0.9922 0.7490 0.4353 srgb } def
317.65 178.79 16.44 13.96 r p2
/bg { 0.9843 0.6039 0.6000 srgb } def
317.65 213.68 16.44 18.56 r p2
/bg { 1 0.0784 0.5765 srgb } def
317.65 105.96 16.44 14.53 r p2
/bg { 0.6902 0.1882 0.3765 srgb } def
317.65 127.04 16.44 16.50 r p2
/bg { 1 0.5137 0.9804 srgb } def
317.65 120.49 16.44 6.55 r p2
/bg { 0.4941 0.7529 0.9333 srgb } def
317.65 232.25 16.44 16.12 r p2
/bg { 0.7922 0.6980 0.8392 srgb } def
317.65 192.75 16.44 20.93 r p2
/bg { 1 0.8431 0 srgb } def
317.65 248.37 16.44 13.86 r p2
/bg { 0.9333 0.9020 0.5216 srgb } def
317.65 143.55 16.44 19.67 r p2
/bg { 0.7020 0.7020 0.7020 srgb } def
317.65 163.22 16.44 15.57 r p2
/bg { 0.4157 0.2392 0.6039 srgb } def
317.65 297.38 16.44 16.20 r p2
/bg { 0 0.5451 0 srgb } def
317.65 313.58 16.44 16.32 r p2
/bg { 0.1098 0.5255 0.9333 srgb } def
317.65 340.14 16.44 12.40 r p2
/bg { 0 0 0 srgb } def
317.65 262.23 16.44 16.35 r p2
/bg { 0 0 1 srgb } def
317.65 88.00 16.44 17.96 r p2
/bg { 0 0.8078 0.8196 srgb } def
317.65 49.85 16.44 16.39 r p2
/bg { 0.8902 0.1020 0.1098 srgb } def
317.65 329.90 16.44 10.23 r p2
/bg { 0.2118 0.3922 0.5451 srgb } def
317.65 66.24 16.44 21.76 r p2
/bg { 1 0.4980 0 srgb } def
317.65 278.58 16.44 18.80 r p2
/bg { 0.9922 0.7490 0.4353 srgb } def
335.91 161.75 16.44 18.61 r p2
/bg { 0.9843 0.6039 0.6000 srgb } def
335.91 213.39 16.44 15.99 r p2
/bg { 1 0.0784 0.5765 srgb } def
335.91 90.78 16.44 17.24 r p2
/bg { 0.6902 0.1882 0.3765 srgb } def
335.91 108.02 16.44 18.77 r p2
/bg { 0.4941 0.7529 0.9333 srgb } def
335.91 229.38 16.44 17.22 r p2
/bg { 0.7922 0.6980 0.8392 srgb } def
335.91 180.36 16.44 18.18 r p2
/bg { 1 0.8431 0 srgb } def
335.91 246.60 16.44 17.22 r p2
/bg { 0.9333 0.9020 0.5216 srgb } def
335.91 126.80 16.44 16.93 r p2
/bg { 0.7020 0.7020 0.7020 srgb } def
335.91 143.73 16.44 18.02 r p2
/bg { 0.5647 0.9333 0.5647 srgb } def
335.91 198.53 16.44 14.86 r p2
/bg { 0.4157 0.2392 0.6039 srgb } def
335.91 297.45 16.44 19.46 r p2
/bg { 0 0.5451 0 srgb } def
335.91 316.92 16.44 20.16 r p2
/bg { 0.1098 0.5255 0.9333 srgb } def
335.91 349.33 16.44 16.49 r p2
/bg { 0 0 0 srgb } def
335.91 263.83 16.44 17.51 r p2
/bg { 0 0 1 srgb } def
335.91 76.72 16.44 14.07 r p2
/bg { 0 0.8078 0.8196 srgb } def
335.91 49.85 16.44 15.91 r p2
/bg { 0.8902 0.1020 0.1098 srgb } def
335.91 337.08 16.44 12.25 r p2
/bg { 0.2118 0.3922 0.5451 srgb } def
335.91 65.75 16.44 10.96 r p2
/bg { 1 0.4980 0 srgb } def
335.91 281.34 16.44 16.11 r p2
/bg { 0.9922 0.7490 0.4353 srgb } def
354.17 170.19 16.44 17.95 r p2
/bg { 0.9843 0.6039 0.6000 srgb } def
354.17 221.75 16.44 11.02 r p2
/bg { 1 0.0784 0.5765 srgb } def
354.17 100.91 16.44 14.91 r p2
/bg { 0.6902 0.1882 0.3765 srgb } def
354.17 133.19 16.44 8.25 r p2
/bg { 1 0.5137 0.9804 srgb } def
354.17 115.82 16.44 17.36 r p2
/bg { 0.4941 0.7529 0.9333 srgb } def
354.17 232.77 16.44 13.81 r p2
/bg { 0.7922 0.6980 0.8392 srgb } def
354.17 188.14 16.44 15.74 r p2
/bg { 1 0.8431 0 srgb } def
354.17 246.58 16.44 16.95 r p2
/bg { 0.9333 0.9020 0.5216 srgb } def
354.17 141.44 16.44 12.42 r p2
/bg { 0.7020 0.7020 0.7020 srgb } def
354.17 153.86 16.44 16.34 r p2
/bg { 0.5647 0.9333 0.5647 srgb } def
354.17 203.88 16.44 17.87 r p2
/bg { 0.4157 0.2392 0.6039 srgb } def
354.17 278.08 16.44 15.76 r p2
/bg { 0 0.5451 0 srgb } def
354.17 293.84 16.44 14.89 r p2
/bg { 0.1098 0.5255 0.9333 srgb } def
354.17 327.68 16.44 17.68 r p2
/bg { 0 0 1 srgb } def
354.17 83.59 16.44 17.33 r p2
/bg { 0 0.8078 0.8196 srgb } def
354.17 49.85 16.44 15.53 r p2
/bg { 0.8902 0.1020 0.1098 srgb } def
354.17 308.73 16.44 18.94 r p2
/bg { 0.2118 0.3922 0.5451 srgb } def
354.17 65.38 16.44 18.21 r p2
/bg { 1 0.4980 0 srgb } def
354.17 263.53 16.44 14.55 r p2
0.00 0.00 432.00 432.00 cl
0.00 0.00 432.00 432.00 cl
0.00 0.00 432.00 432.00 cl
0.00 0.00 432.00 432.00 cl
0.00 0.00 432.00 432.00 cl
0.00 0.00 432.00 432.00 cl
0.00 0.00 432.00 432.00 cl
0.00 0.00 432.00 432.00 cl
0.00 0.00 432.00 432.00 cl
0.00 0.00 432.00 432.00 cl
0.00 0.00 432.00 432.00 cl
0.00 0.00 432.00 432.00 cl
0.00 0.00 432.00 432.00 cl
0.00 0.00 432.00 432.00 cl
0.00 0.00 432.00 432.00 cl
0.00 0.00 432.00 432.00 cl
/Font1 findfont 9 s
0.3020 0.3020 0.3020 srgb
36.05 46.62 (0.00) 1 0 t
36.05 154.86 (0.02) 1 0 t
36.05 263.09 (0.04) 1 0 t
36.05 371.33 (0.06) 1 0 t
0.00 0.00 432.00 432.00 cl
0.00 0.00 432.00 432.00 cl
0.2000 0.2000 0.2000 srgb
1.07 setlinewidth
[] 0 setdash
0 setlinecap
1 setlinejoin
10.00 setmiterlimit
np
38.24 49.85 m
2.74 0 l
o
np
38.24 158.09 m
2.74 0 l
o
np
38.24 266.32 m
2.74 0 l
o
np
38.24 374.56 m
2.74 0 l
o
0.00 0.00 432.00 432.00 cl
0.00 0.00 432.00 432.00 cl
0.00 0.00 432.00 432.00 cl
0.00 0.00 432.00 432.00 cl
0.00 0.00 432.00 432.00 cl
0.00 0.00 432.00 432.00 cl
0.00 0.00 432.00 432.00 cl
0.00 0.00 432.00 432.00 cl
0.00 0.00 432.00 432.00 cl
0.00 0.00 432.00 432.00 cl
0.2000 0.2000 0.2000 srgb
1.07 setlinewidth
[] 0 setdash
0 setlinecap
1 setlinejoin
10.00 setmiterlimit
np
51.94 29.17 m
0 2.74 l
o
np
70.20 29.17 m
0 2.74 l
o
np
88.46 29.17 m
0 2.74 l
o
np
106.73 29.17 m
0 2.74 l
o
np
124.99 29.17 m
0 2.74 l
o
np
143.25 29.17 m
0 2.74 l
o
np
161.51 29.17 m
0 2.74 l
o
np
179.77 29.17 m
0 2.74 l
o
np
198.03 29.17 m
0 2.74 l
o
np
216.30 29.17 m
0 2.74 l
o
np
234.56 29.17 m
0 2.74 l
o
np
252.82 29.17 m
0 2.74 l
o
np
271.08 29.17 m
0 2.74 l
o
np
289.34 29.17 m
0 2.74 l
o
np
307.60 29.17 m
0 2.74 l
o
np
325.87 29.17 m
0 2.74 l
o
np
344.13 29.17 m
0 2.74 l
o
np
362.39 29.17 m
0 2.74 l
o
0.00 0.00 432.00 432.00 cl
0.00 0.00 432.00 432.00 cl
/Font1 findfont 9 s
0.3020 0.3020 0.3020 srgb
51.94 20.52 (31L) .5 0 t
70.20 20.52 (32D) .5 0 t
88.46 20.52 (33S) .5 0 t
106.73 20.52 (34G) .5 0 t
124.99 20.52 (35I) .5 0 t
143.25 20.52 (36H) .5 0 t
161.51 20.52 (37S) .5 0 t
179.77 20.52 (38G) .5 0 t
198.03 20.52 (39A) .5 0 t
216.30 20.52 (40T) .5 0 t
234.56 20.52 (41T) .5 0 t
252.82 20.52 (42T) .5 0 t
271.08 20.52 (43A) .5 0 t
289.34 20.52 (44P) .5 0 t
307.60 20.52 (45S) .5 0 t
325.87 20.52 (46L) .5 0 t
344.13 20.52 (47S) .5 0 t
362.39 20.52 (48G) .5 0 t
0.00 0.00 432.00 432.00 cl
0.00 0.00 432.00 432.00 cl
0.00 0.00 432.00 432.00 cl
0.00 0.00 432.00 432.00 cl
0.00 0.00 432.00 432.00 cl
0.00 0.00 432.00 432.00 cl
/Font1 findfont 11 s
0 0 0 srgb
207.16 7.90 (Codon position) .5 0 t
0.00 0.00 432.00 432.00 cl
0.00 0.00 432.00 432.00 cl
/Font1 findfont 11 s
0 0 0 srgb
13.38 229.22 (Frequency in plasmid sample) .5 90 t
0.00 0.00 432.00 432.00 cl
0.00 0.00 432.00 432.00 cl
0.00 0.00 432.00 432.00 cl
0.00 0.00 432.00 432.00 cl
0.00 0.00 432.00 432.00 cl
0.00 0.00 432.00 432.00 cl
0.00 0.00 432.00 432.00 cl
0.00 0.00 432.00 432.00 cl
/bg { 1 1 1 srgb } def
384.31 43.04 42.21 372.36 r p2
0.00 0.00 432.00 432.00 cl
0.00 0.00 432.00 432.00 cl
0.00 0.00 432.00 432.00 cl
0.00 0.00 432.00 432.00 cl
/Font1 findfont 11 s
0 0 0 srgb
389.79 400.81 (AA) 0 0 t
0.00 0.00 432.00 432.00 cl
0.00 0.00 432.00 432.00 cl
0.00 0.00 432.00 432.00 cl
/bg { 0.9490 0.9490 0.9490 srgb } def
389.79 376.84 17.28 17.28 r p2
0.00 0.00 432.00 432.00 cl
0.00 0.00 432.00 432.00 cl
/bg { 0.1098 0.5255 0.9333 srgb } def
390.49 377.55 15.86 15.86 r p2
0.00 0.00 432.00 432.00 cl
0.00 0.00 432.00 432.00 cl
/bg { 0.9490 0.9490 0.9490 srgb } def
389.79 359.56 17.28 17.28 r p2
0.00 0.00 432.00 432.00 cl
0.00 0.00 432.00 432.00 cl
/bg { 0.8902 0.1020 0.1098 srgb } def
390.49 360.27 15.86 15.86 r p2
0.00 0.00 432.00 432.00 cl
0.00 0.00 432.00 432.00 cl
/bg { 0.9490 0.9490 0.9490 srgb } def
389.79 342.28 17.28 17.28 r p2
0.00 0.00 432.00 432.00 cl
0.00 0.00 432.00 432.00 cl
/bg { 0 0.5451 0 srgb } def
390.49 342.99 15.86 15.86 r p2
0.00 0.00 432.00 432.00 cl
0.00 0.00 432.00 432.00 cl
/bg { 0.9490 0.9490 0.9490 srgb } def
389.79 325.00 17.28 17.28 r p2
0.00 0.00 432.00 432.00 cl
0.00 0.00 432.00 432.00 cl
/bg { 0.4157 0.2392 0.6039 srgb } def
390.49 325.71 15.86 15.86 r p2
0.00 0.00 432.00 432.00 cl
0.00 0.00 432.00 432.00 cl
/bg { 0.9490 0.9490 0.9490 srgb } def
389.79 307.72 17.28 17.28 r p2
0.00 0.00 432.00 432.00 cl
0.00 0.00 432.00 432.00 cl
/bg { 1 0.4980 0 srgb } def
390.49 308.43 15.86 15.86 r p2
0.00 0.00 432.00 432.00 cl
0.00 0.00 432.00 432.00 cl
/bg { 0.9490 0.9490 0.9490 srgb } def
389.79 290.44 17.28 17.28 r p2
0.00 0.00 432.00 432.00 cl
0.00 0.00 432.00 432.00 cl
/bg { 0 0 0 srgb } def
390.49 291.15 15.86 15.86 r p2
0.00 0.00 432.00 432.00 cl
0.00 0.00 432.00 432.00 cl
/bg { 0.9490 0.9490 0.9490 srgb } def
389.79 273.16 17.28 17.28 r p2
0.00 0.00 432.00 432.00 cl
0.00 0.00 432.00 432.00 cl
/bg { 1 0.8431 0 srgb } def
390.49 273.87 15.86 15.86 r p2
0.00 0.00 432.00 432.00 cl
0.00 0.00 432.00 432.00 cl
/bg { 0.9490 0.9490 0.9490 srgb } def
389.79 255.88 17.28 17.28 r p2
0.00 0.00 432.00 432.00 cl
0.00 0.00 432.00 432.00 cl
/bg { 0.4941 0.7529 0.9333 srgb } def
390.49 256.59 15.86 15.86 r p2
0.00 0.00 432.00 432.00 cl
0.00 0.00 432.00 432.00 cl
/bg { 0.9490 0.9490 0.9490 srgb } def
389.79 238.60 17.28 17.28 r p2
0.00 0.00 432.00 432.00 cl
0.00 0.00 432.00 432.00 cl
/bg { 0.9843 0.6039 0.6000 srgb } def
390.49 239.31 15.86 15.86 r p2
0.00 0.00 432.00 432.00 cl
0.00 0.00 432.00 432.00 cl
/bg { 0.9490 0.9490 0.9490 srgb } def
389.79 221.32 17.28 17.28 r p2
0.00 0.00 432.00 432.00 cl
0.00 0.00 432.00 432.00 cl
/bg { 0.5647 0.9333 0.5647 srgb } def
390.49 222.03 15.86 15.86 r p2
0.00 0.00 432.00 432.00 cl
0.00 0.00 432.00 432.00 cl
/bg { 0.9490 0.9490 0.9490 srgb } def
389.79 204.04 17.28 17.28 r p2
0.00 0.00 432.00 432.00 cl
0.00 0.00 432.00 432.00 cl
/bg { 0.7922 0.6980 0.8392 srgb } def
390.49 204.75 15.86 15.86 r p2
0.00 0.00 432.00 432.00 cl
0.00 0.00 432.00 432.00 cl
/bg { 0.9490 0.9490 0.9490 srgb } def
389.79 186.76 17.28 17.28 r p2
0.00 0.00 432.00 432.00 cl
0.00 0.00 432.00 432.00 cl
/bg { 0.9922 0.7490 0.4353 srgb } def
390.49 187.47 15.86 15.86 r p2
0.00 0.00 432.00 432.00 cl
0.00 0.00 432.00 432.00 cl
/bg { 0.9490 0.9490 0.9490 srgb } def
389.79 169.48 17.28 17.28 r p2
0.00 0.00 432.00 432.00 cl
0.00 0.00 432.00 432.00 cl
/bg { 0.7020 0.7020 0.7020 srgb } def
390.49 170.19 15.86 15.86 r p2
0.00 0.00 432.00 432.00 cl
0.00 0.00 432.00 432.00 cl
/bg { 0.9490 0.9490 0.9490 srgb } def
389.79 152.20 17.28 17.28 r p2
0.00 0.00 432.00 432.00 cl
0.00 0.00 432.00 432.00 cl
/bg { 0.9333 0.9020 0.5216 srgb } def
390.49 152.91 15.86 15.86 r p2
0.00 0.00 432.00 432.00 cl
0.00 0.00 432.00 432.00 cl
/bg { 0.9490 0.9490 0.9490 srgb } def
389.79 134.92 17.28 17.28 r p2
0.00 0.00 432.00 432.00 cl
0.00 0.00 432.00 432.00 cl
/bg { 0.6902 0.1882 0.3765 srgb } def
390.49 135.63 15.86 15.86 r p2
0.00 0.00 432.00 432.00 cl
0.00 0.00 432.00 432.00 cl
/bg { 0.9490 0.9490 0.9490 srgb } def
389.79 117.64 17.28 17.28 r p2
0.00 0.00 432.00 432.00 cl
0.00 0.00 432.00 432.00 cl
/bg { 1 0.5137 0.9804 srgb } def
390.49 118.35 15.86 15.86 r p2
0.00 0.00 432.00 432.00 cl
0.00 0.00 432.00 432.00 cl
/bg { 0.9490 0.9490 0.9490 srgb } def
389.79 100.36 17.28 17.28 r p2
0.00 0.00 432.00 432.00 cl
0.00 0.00 432.00 432.00 cl
/bg { 1 0.0784 0.5765 srgb } def
390.49 101.07 15.86 15.86 r p2
0.00 0.00 432.00 432.00 cl
0.00 0.00 432.00 432.00 cl
/bg { 0.9490 0.9490 0.9490 srgb } def
389.79 83.08 17.28 17.28 r p2
0.00 0.00 432.00 432.00 cl
0.00 0.00 432.00 432.00 cl
/bg { 0 0 1 srgb } def
390.49 83.79 15.86 15.86 r p2
0.00 0.00 432.00 432.00 cl
0.00 0.00 432.00 432.00 cl
/bg { 0.9490 0.9490 0.9490 srgb } def
389.79 65.80 17.28 17.28 r p2
0.00 0.00 432.00 432.00 cl
0.00 0.00 432.00 432.00 cl
/bg { 0.2118 0.3922 0.5451 srgb } def
390.49 66.51 15.86 15.86 r p2
0.00 0.00 432.00 432.00 cl
0.00 0.00 432.00 432.00 cl
/bg { 0.9490 0.9490 0.9490 srgb } def
389.79 48.52 17.28 17.28 r p2
0.00 0.00 432.00 432.00 cl
0.00 0.00 432.00 432.00 cl
/bg { 0 0.8078 0.8196 srgb } def
390.49 49.23 15.86 15.86 r p2
0.00 0.00 432.00 432.00 cl
0.00 0.00 432.00 432.00 cl
0.00 0.00 432.00 432.00 cl
0.00 0.00 432.00 432.00 cl
/Font1 findfont 9 s
0 0 0 srgb
412.55 382.25 (A) 0 0 t
0.00 0.00 432.00 432.00 cl
0.00 0.00 432.00 432.00 cl
0.00 0.00 432.00 432.00 cl
0.00 0.00 432.00 432.00 cl
0.00 0.00 432.00 432.00 cl
/Font1 findfont 9 s
0 0 0 srgb
412.55 364.97 (C) 0 0 t
0.00 0.00 432.00 432.00 cl
0.00 0.00 432.00 432.00 cl
0.00 0.00 432.00 432.00 cl
0.00 0.00 432.00 432.00 cl
0.00 0.00 432.00 432.00 cl
/Font1 findfont 9 s
0 0 0 srgb
412.55 347.69 (D) 0 0 t
0.00 0.00 432.00 432.00 cl
0.00 0.00 432.00 432.00 cl
0.00 0.00 432.00 432.00 cl
0.00 0.00 432.00 432.00 cl
0.00 0.00 432.00 432.00 cl
/Font1 findfont 9 s
0 0 0 srgb
412.55 330.41 (E) 0 0 t
0.00 0.00 432.00 432.00 cl
0.00 0.00 432.00 432.00 cl
0.00 0.00 432.00 432.00 cl
0.00 0.00 432.00 432.00 cl
0.00 0.00 432.00 432.00 cl
/Font1 findfont 9 s
0 0 0 srgb
412.55 313.13 (F) 0 0 t
0.00 0.00 432.00 432.00 cl
0.00 0.00 432.00 432.00 cl
0.00 0.00 432.00 432.00 cl
0.00 0.00 432.00 432.00 cl
0.00 0.00 432.00 432.00 cl
/Font1 findfont 9 s
0 0 0 srgb
412.55 295.85 (G) 0 0 t
0.00 0.00 432.00 432.00 cl
0.00 0.00 432.00 432.00 cl
0.00 0.00 432.00 432.00 cl
0.00 0.00 432.00 432.00 cl
0.00 0.00 432.00 432.00 cl
/Font1 findfont 9 s
0 0 0 srgb
412.55 278.57 (H) 0 0 t
0.00 0.00 432.00 432.00 cl
0.00 0.00 432.00 432.00 cl
0.00 0.00 432.00 432.00 cl
0.00 0.00 432.00 432.00 cl
0.00 0.00 432.00 432.00 cl
/Font1 findfont 9 s
0 0 0 srgb
412.55 261.29 (I) 0 0 t
0.00 0.00 432.00 432.00 cl
0.00 0.00 432.00 432.00 cl
0.00 0.00 432.00 432.00 cl
0.00 0.00 432.00 432.00 cl
0.00 0.00 432.00 432.00 cl
/Font1 findfont 9 s
0 0 0 srgb
412.55 244.01 (K) 0 0 t
0.00 0.00 432.00 432.00 cl
0.00 0.00 432.00 432.00 cl
0.00 0.00 432.00 432.00 cl
0.00 0.00 432.00 432.00 cl
0.00 0.00 432.00 432.00 cl
/Font1 findfont 9 s
0 0 0 srgb
412.55 226.73 (L) 0 0 t
0.00 0.00 432.00 432.00 cl
0.00 0.00 432.00 432.00 cl
0.00 0.00 432.00 432.00 cl
0.00 0.00 432.00 432.00 cl
0.00 0.00 432.00 432.00 cl
/Font1 findfont 9 s
0 0 0 srgb
412.55 209.45 (M) 0 0 t
0.00 0.00 432.00 432.00 cl
0.00 0.00 432.00 432.00 cl
0.00 0.00 432.00 432.00 cl
0.00 0.00 432.00 432.00 cl
0.00 0.00 432.00 432.00 cl
/Font1 findfont 9 s
0 0 0 srgb
412.55 192.17 (N) 0 0 t
0.00 0.00 432.00 432.00 cl
0.00 0.00 432.00 432.00 cl
0.00 0.00 432.00 432.00 cl
0.00 0.00 432.00 432.00 cl
0.00 0.00 432.00 432.00 cl
/Font1 findfont 9 s
0 0 0 srgb
412.55 174.89 (P) 0 0 t
0.00 0.00 432.00 432.00 cl
0.00 0.00 432.00 432.00 cl
0.00 0.00 432.00 432.00 cl
0.00 0.00 432.00 432.00 cl
0.00 0.00 432.00 432.00 cl
/Font1 findfont 9 s
0 0 0 srgb
412.55 157.61 (Q) 0 0 t
0.00 0.00 432.00 432.00 cl
0.00 0.00 432.00 432.00 cl
0.00 0.00 432.00 432.00 cl
0.00 0.00 432.00 432.00 cl
0.00 0.00 432.00 432.00 cl
/Font1 findfont 9 s
0 0 0 srgb
412.55 140.33 (R) 0 0 t
0.00 0.00 432.00 432.00 cl
0.00 0.00 432.00 432.00 cl
0.00 0.00 432.00 432.00 cl
0.00 0.00 432.00 432.00 cl
0.00 0.00 432.00 432.00 cl
/Font1 findfont 9 s
0 0 0 srgb
412.55 123.05 (S) 0 0 t
0.00 0.00 432.00 432.00 cl
0.00 0.00 432.00 432.00 cl
0.00 0.00 432.00 432.00 cl
0.00 0.00 432.00 432.00 cl
0.00 0.00 432.00 432.00 cl
/Font1 findfont 9 s
0 0 0 srgb
412.55 105.77 (T) 0 0 t
0.00 0.00 432.00 432.00 cl
0.00 0.00 432.00 432.00 cl
0.00 0.00 432.00 432.00 cl
0.00 0.00 432.00 432.00 cl
0.00 0.00 432.00 432.00 cl
/Font1 findfont 9 s
0 0 0 srgb
412.55 88.49 (V) 0 0 t
0.00 0.00 432.00 432.00 cl
0.00 0.00 432.00 432.00 cl
0.00 0.00 432.00 432.00 cl
0.00 0.00 432.00 432.00 cl
0.00 0.00 432.00 432.00 cl
/Font1 findfont 9 s
0 0 0 srgb
412.55 71.21 (W) 0 0 t
0.00 0.00 432.00 432.00 cl
0.00 0.00 432.00 432.00 cl
0.00 0.00 432.00 432.00 cl
0.00 0.00 432.00 432.00 cl
0.00 0.00 432.00 432.00 cl
/Font1 findfont 9 s
0 0 0 srgb
412.55 53.93 (Y) 0 0 t
0.00 0.00 432.00 432.00 cl
0.00 0.00 432.00 432.00 cl
0.00 0.00 432.00 432.00 cl
0.00 0.00 432.00 432.00 cl
0.00 0.00 432.00 432.00 cl
0.00 0.00 432.00 432.00 cl
0.00 0.00 432.00 432.00 cl
0.00 0.00 432.00 432.00 cl
0.00 0.00 432.00 432.00 cl
0.00 0.00 432.00 432.00 cl
0.00 0.00 432.00 432.00 cl
0.00 0.00 432.00 432.00 cl
0.00 0.00 432.00 432.00 cl
ep
%%Trailer
%%Pages: 1
%%EOF
