%!PS-Adobe-3.0 EPSF-3.0
%%DocumentNeededResources: font Helvetica
%%+ font Helvetica-Bold
%%+ font Helvetica-Oblique
%%+ font Helvetica-BoldOblique
%%+ font Symbol
%%Title: R Graphics Output
%%Creator: R Software
%%Pages: (atend)
%%BoundingBox: 0 0 432 432
%%EndComments
%%BeginProlog
/bp  { gs sRGB gs } def
% begin .ps.prolog
/gs  { gsave } bind def
/gr  { grestore } bind def
/ep  { showpage gr gr } bind def
/m   { moveto } bind def
/l  { rlineto } bind def
/np  { newpath } bind def
/cp  { closepath } bind def
/f   { fill } bind def
/o   { stroke } bind def
/c   { newpath 0 360 arc } bind def
/r   { 4 2 roll moveto 1 copy 3 -1 roll exch 0 exch rlineto 0 rlineto -1 mul 0 exch rlineto closepath } bind def
/p1  { stroke } bind def
/p2  { gsave bg fill grestore newpath } bind def
/p3  { gsave bg fill grestore stroke } bind def
/p6  { gsave bg eofill grestore newpath } bind def
/p7  { gsave bg eofill grestore stroke } bind def
/t   { 5 -2 roll moveto gsave rotate
       1 index stringwidth pop
       mul neg 0 rmoveto show grestore } bind def
/ta  { 4 -2 roll moveto gsave rotate show } bind def
/tb  { 2 -1 roll 0 rmoveto show } bind def
/cl  { grestore gsave newpath 3 index 3 index moveto 1 index
       4 -1 roll lineto  exch 1 index lineto lineto
       closepath clip newpath } bind def
/rgb { setrgbcolor } bind def
/s   { scalefont setfont } bind def
% end   .ps.prolog
/sRGB { [ /CIEBasedABC
          << /DecodeLMN
               [ { dup 0.03928 le
                        {12.92321 div}
                        {0.055 add 1.055 div 2.4 exp }
                     ifelse
                 } bind dup dup
               ]
             /MatrixLMN [0.412457 0.212673 0.019334
                         0.357576 0.715152 0.119192
                         0.180437 0.072175 0.950301]
             /WhitePoint [0.9505 1.0 1.0890]
           >>
         ] setcolorspace } bind def
/srgb { setcolor } bind def
%%IncludeResource: font Helvetica
/Helvetica findfont
dup length dict begin
  {1 index /FID ne {def} {pop pop} ifelse} forall
  /Encoding ISOLatin1Encoding def
  currentdict
  end
/Font1 exch definefont pop
%%IncludeResource: font Helvetica-Bold
/Helvetica-Bold findfont
dup length dict begin
  {1 index /FID ne {def} {pop pop} ifelse} forall
  /Encoding ISOLatin1Encoding def
  currentdict
  end
/Font2 exch definefont pop
%%IncludeResource: font Helvetica-Oblique
/Helvetica-Oblique findfont
dup length dict begin
  {1 index /FID ne {def} {pop pop} ifelse} forall
  /Encoding ISOLatin1Encoding def
  currentdict
  end
/Font3 exch definefont pop
%%IncludeResource: font Helvetica-BoldOblique
/Helvetica-BoldOblique findfont
dup length dict begin
  {1 index /FID ne {def} {pop pop} ifelse} forall
  /Encoding ISOLatin1Encoding def
  currentdict
  end
/Font4 exch definefont pop
%%IncludeResource: font Symbol
/Symbol findfont
dup length dict begin
  {1 index /FID ne {def} {pop pop} ifelse} forall
  currentdict
  end
/Font5 exch definefont pop
%%EndProlog
%%Page: 1 1
bp
0.00 0.00 432.00 432.00 cl
0.00 0.00 432.00 432.00 cl
0.00 0.00 432.00 432.00 cl
0.00 0.00 432.00 432.00 cl
0.00 0.00 432.00 432.00 cl
0.00 0.00 432.00 432.00 cl
0.00 0.00 432.00 432.00 cl
0.00 0.00 432.00 432.00 cl
0.00 0.00 432.00 432.00 cl
0.00 0.00 432.00 432.00 cl
0.00 0.00 432.00 432.00 cl
0.00 0.00 432.00 432.00 cl
0.00 0.00 432.00 432.00 cl
0.00 0.00 432.00 432.00 cl
0.00 0.00 432.00 432.00 cl
0.00 0.00 432.00 432.00 cl
0.00 0.00 432.00 432.00 cl
0.00 0.00 432.00 432.00 cl
0.00 0.00 432.00 432.00 cl
0.00 0.00 432.00 432.00 cl
0.00 0.00 432.00 432.00 cl
0.00 0.00 432.00 432.00 cl
0.00 0.00 432.00 432.00 cl
0.00 0.00 432.00 432.00 cl
0.00 0.00 432.00 432.00 cl
0.00 0.00 432.00 432.00 cl
0.00 0.00 432.00 432.00 cl
0.00 0.00 432.00 432.00 cl
0.00 0.00 432.00 432.00 cl
0.00 0.00 432.00 432.00 cl
0.00 0.00 432.00 432.00 cl
0.00 0.00 432.00 432.00 cl
0.00 0.00 432.00 432.00 cl
0.00 0.00 432.00 432.00 cl
0.00 0.00 432.00 432.00 cl
0.00 0.00 432.00 432.00 cl
0.00 0.00 432.00 432.00 cl
0.00 0.00 432.00 432.00 cl
0.00 0.00 432.00 432.00 cl
0.00 0.00 432.00 432.00 cl
0.00 0.00 432.00 432.00 cl
0.00 0.00 432.00 432.00 cl
0.00 0.00 432.00 432.00 cl
0.00 0.00 432.00 432.00 cl
0.00 0.00 432.00 432.00 cl
0.00 0.00 432.00 432.00 cl
0.00 0.00 432.00 432.00 cl
0.00 0.00 432.00 432.00 cl
0.00 0.00 432.00 432.00 cl
0.00 0.00 432.00 432.00 cl
0.00 0.00 432.00 432.00 cl
0.00 0.00 432.00 432.00 cl
/bg { 1 1 1 srgb } def
1 1 1 srgb
1.07 setlinewidth
[] 0 setdash
1 setlinecap
1 setlinejoin
10.00 setmiterlimit
0.00 0.00 432.00 432.00 r p3
0.00 0.00 432.00 432.00 cl
40.98 31.91 373.35 426.52 cl
/bg { 0.9216 0.9216 0.9216 srgb } def
40.98 31.91 332.36 394.61 r p2
1 1 1 srgb
0.53 setlinewidth
[] 0 setdash
0 setlinecap
1 setlinejoin
10.00 setmiterlimit
np
40.98 97.51 m
332.37 0 l
o
np
40.98 192.83 m
332.37 0 l
o
np
40.98 288.15 m
332.37 0 l
o
np
40.98 383.47 m
332.37 0 l
o
1.07 setlinewidth
[] 0 setdash
np
40.98 49.85 m
332.37 0 l
o
np
40.98 145.17 m
332.37 0 l
o
np
40.98 240.49 m
332.37 0 l
o
np
40.98 335.81 m
332.37 0 l
o
np
51.94 31.91 m
0 394.61 l
o
np
70.20 31.91 m
0 394.61 l
o
np
88.46 31.91 m
0 394.61 l
o
np
106.73 31.91 m
0 394.61 l
o
np
124.99 31.91 m
0 394.61 l
o
np
143.25 31.91 m
0 394.61 l
o
np
161.51 31.91 m
0 394.61 l
o
np
179.77 31.91 m
0 394.61 l
o
np
198.03 31.91 m
0 394.61 l
o
np
216.30 31.91 m
0 394.61 l
o
np
234.56 31.91 m
0 394.61 l
o
np
252.82 31.91 m
0 394.61 l
o
np
271.08 31.91 m
0 394.61 l
o
np
289.34 31.91 m
0 394.61 l
o
np
307.60 31.91 m
0 394.61 l
o
np
325.87 31.91 m
0 394.61 l
o
np
344.13 31.91 m
0 394.61 l
o
np
362.39 31.91 m
0 394.61 l
o
/bg { 0.9922 0.7490 0.4353 srgb } def
43.72 177.05 16.44 12.51 r p2
/bg { 0.9843 0.6039 0.6000 srgb } def
43.72 204.88 16.44 16.17 r p2
/bg { 1 0.0784 0.5765 srgb } def
43.72 100.69 16.44 14.07 r p2
/bg { 0.6902 0.1882 0.3765 srgb } def
43.72 127.30 16.44 17.20 r p2
/bg { 1 0.5137 0.9804 srgb } def
43.72 114.77 16.44 12.53 r p2
/bg { 0.4941 0.7529 0.9333 srgb } def
43.72 221.05 16.44 16.57 r p2
/bg { 0.7922 0.6980 0.8392 srgb } def
43.72 189.56 16.44 15.32 r p2
/bg { 1 0.8431 0 srgb } def
43.72 237.62 16.44 13.23 r p2
/bg { 0.9333 0.9020 0.5216 srgb } def
43.72 144.51 16.44 15.35 r p2
/bg { 0.7020 0.7020 0.7020 srgb } def
43.72 159.85 16.44 17.20 r p2
/bg { 0.4157 0.2392 0.6039 srgb } def
43.72 290.65 16.44 11.04 r p2
/bg { 0 0.5451 0 srgb } def
43.72 301.70 16.44 14.76 r p2
/bg { 0.1098 0.5255 0.9333 srgb } def
43.72 328.87 16.44 14.27 r p2
/bg { 0 0 0 srgb } def
43.72 250.84 16.44 21.99 r p2
/bg { 0 0 1 srgb } def
43.72 84.99 16.44 15.70 r p2
/bg { 0 0.8078 0.8196 srgb } def
43.72 49.85 16.44 14.06 r p2
/bg { 0.8902 0.1020 0.1098 srgb } def
43.72 316.45 16.44 12.42 r p2
/bg { 0.2118 0.3922 0.5451 srgb } def
43.72 63.91 16.44 21.08 r p2
/bg { 1 0.4980 0 srgb } def
43.72 272.84 16.44 17.82 r p2
/bg { 0.9922 0.7490 0.4353 srgb } def
61.98 135.78 16.44 8.57 r p2
/bg { 0.9843 0.6039 0.6000 srgb } def
61.98 165.95 16.44 11.95 r p2
/bg { 1 0.0784 0.5765 srgb } def
61.98 79.78 16.44 9.18 r p2
/bg { 0.6902 0.1882 0.3765 srgb } def
61.98 102.19 16.44 8.96 r p2
/bg { 1 0.5137 0.9804 srgb } def
61.98 88.95 16.44 13.24 r p2
/bg { 0.4941 0.7529 0.9333 srgb } def
61.98 177.90 16.44 7.84 r p2
/bg { 0.7922 0.6980 0.8392 srgb } def
61.98 144.35 16.44 12.34 r p2
/bg { 1 0.8431 0 srgb } def
61.98 185.74 16.44 10.21 r p2
/bg { 0.9333 0.9020 0.5216 srgb } def
61.98 111.15 16.44 11.74 r p2
/bg { 0.7020 0.7020 0.7020 srgb } def
61.98 122.89 16.44 12.89 r p2
/bg { 0.5647 0.9333 0.5647 srgb } def
61.98 156.69 16.44 9.26 r p2
/bg { 0.4157 0.2392 0.6039 srgb } def
61.98 217.15 16.44 20.29 r p2
/bg { 0.1098 0.5255 0.9333 srgb } def
61.98 244.70 16.44 10.40 r p2
/bg { 0 0 0 srgb } def
61.98 195.95 16.44 11.56 r p2
/bg { 0 0 1 srgb } def
61.98 70.64 16.44 9.14 r p2
/bg { 0 0.8078 0.8196 srgb } def
61.98 49.85 16.44 10.39 r p2
/bg { 0.8902 0.1020 0.1098 srgb } def
61.98 237.44 16.44 7.26 r p2
/bg { 0.2118 0.3922 0.5451 srgb } def
61.98 60.24 16.44 10.40 r p2
/bg { 1 0.4980 0 srgb } def
61.98 207.51 16.44 9.64 r p2
/bg { 0.9922 0.7490 0.4353 srgb } def
80.25 100.09 16.44 7.24 r p2
/bg { 0.9843 0.6039 0.6000 srgb } def
80.25 124.46 16.44 5.97 r p2
/bg { 1 0.0784 0.5765 srgb } def
80.25 69.55 16.44 9.00 r p2
/bg { 0.6902 0.1882 0.3765 srgb } def
80.25 78.54 16.44 8.58 r p2
/bg { 0.4941 0.7529 0.9333 srgb } def
80.25 130.44 16.44 9.14 r p2
/bg { 0.7922 0.6980 0.8392 srgb } def
80.25 107.33 16.44 9.47 r p2
/bg { 1 0.8431 0 srgb } def
80.25 139.57 16.44 8.05 r p2
/bg { 0.9333 0.9020 0.5216 srgb } def
80.25 87.12 16.44 6.03 r p2
/bg { 0.7020 0.7020 0.7020 srgb } def
80.25 93.15 16.44 6.94 r p2
/bg { 0.5647 0.9333 0.5647 srgb } def
80.25 116.80 16.44 7.66 r p2
/bg { 0.4157 0.2392 0.6039 srgb } def
80.25 163.22 16.44 10.34 r p2
/bg { 0 0.5451 0 srgb } def
80.25 173.56 16.44 9.89 r p2
/bg { 0.1098 0.5255 0.9333 srgb } def
80.25 192.56 16.44 10.22 r p2
/bg { 0 0 0 srgb } def
80.25 147.62 16.44 9.01 r p2
/bg { 0 0 1 srgb } def
80.25 61.94 16.44 7.61 r p2
/bg { 0 0.8078 0.8196 srgb } def
80.25 49.85 16.44 6.85 r p2
/bg { 0.8902 0.1020 0.1098 srgb } def
80.25 183.46 16.44 9.11 r p2
/bg { 0.2118 0.3922 0.5451 srgb } def
80.25 56.69 16.44 5.25 r p2
/bg { 1 0.4980 0 srgb } def
80.25 156.63 16.44 6.59 r p2
/bg { 0.9922 0.7490 0.4353 srgb } def
98.51 130.56 16.44 7.95 r p2
/bg { 0.9843 0.6039 0.6000 srgb } def
98.51 159.86 16.44 8.74 r p2
/bg { 1 0.0784 0.5765 srgb } def
98.51 85.44 16.44 8.08 r p2
/bg { 0.6902 0.1882 0.3765 srgb } def
98.51 101.19 16.44 7.77 r p2
/bg { 1 0.5137 0.9804 srgb } def
98.51 93.52 16.44 7.67 r p2
/bg { 0.4941 0.7529 0.9333 srgb } def
98.51 168.60 16.44 9.99 r p2
/bg { 0.7922 0.6980 0.8392 srgb } def
98.51 138.51 16.44 8.14 r p2
/bg { 1 0.8431 0 srgb } def
98.51 178.59 16.44 10.18 r p2
/bg { 0.9333 0.9020 0.5216 srgb } def
98.51 108.95 16.44 11.16 r p2
/bg { 0.7020 0.7020 0.7020 srgb } def
98.51 120.12 16.44 10.44 r p2
/bg { 0.5647 0.9333 0.5647 srgb } def
98.51 146.65 16.44 13.21 r p2
/bg { 0.4157 0.2392 0.6039 srgb } def
98.51 199.35 16.44 11.20 r p2
/bg { 0 0.5451 0 srgb } def
98.51 210.56 16.44 11.97 r p2
/bg { 0.1098 0.5255 0.9333 srgb } def
98.51 229.47 16.44 13.51 r p2
/bg { 0 0 1 srgb } def
98.51 68.58 16.44 16.86 r p2
/bg { 0 0.8078 0.8196 srgb } def
98.51 49.85 16.44 9.21 r p2
/bg { 0.8902 0.1020 0.1098 srgb } def
98.51 222.53 16.44 6.94 r p2
/bg { 0.2118 0.3922 0.5451 srgb } def
98.51 59.05 16.44 9.52 r p2
/bg { 1 0.4980 0 srgb } def
98.51 188.77 16.44 10.58 r p2
/bg { 0.9922 0.7490 0.4353 srgb } def
116.77 160.77 16.44 14.83 r p2
/bg { 0.9843 0.6039 0.6000 srgb } def
116.77 208.39 16.44 10.64 r p2
/bg { 1 0.0784 0.5765 srgb } def
116.77 101.73 16.44 13.26 r p2
/bg { 0.6902 0.1882 0.3765 srgb } def
116.77 127.25 16.44 7.00 r p2
/bg { 1 0.5137 0.9804 srgb } def
116.77 114.99 16.44 12.27 r p2
/bg { 0.7922 0.6980 0.8392 srgb } def
116.77 175.60 16.44 16.56 r p2
/bg { 1 0.8431 0 srgb } def
116.77 219.03 16.44 15.88 r p2
/bg { 0.9333 0.9020 0.5216 srgb } def
116.77 134.25 16.44 12.18 r p2
/bg { 0.7020 0.7020 0.7020 srgb } def
116.77 146.43 16.44 14.34 r p2
/bg { 0.5647 0.9333 0.5647 srgb } def
116.77 192.16 16.44 16.23 r p2
/bg { 0.4157 0.2392 0.6039 srgb } def
116.77 269.20 16.44 12.10 r p2
/bg { 0 0.5451 0 srgb } def
116.77 281.30 16.44 9.48 r p2
/bg { 0.1098 0.5255 0.9333 srgb } def
116.77 306.32 16.44 16.37 r p2
/bg { 0 0 0 srgb } def
116.77 234.91 16.44 16.07 r p2
/bg { 0 0 1 srgb } def
116.77 81.85 16.44 19.87 r p2
/bg { 0 0.8078 0.8196 srgb } def
116.77 49.85 16.44 14.39 r p2
/bg { 0.8902 0.1020 0.1098 srgb } def
116.77 290.78 16.44 15.54 r p2
/bg { 0.2118 0.3922 0.5451 srgb } def
116.77 64.24 16.44 17.62 r p2
/bg { 1 0.4980 0 srgb } def
116.77 250.98 16.44 18.22 r p2
/bg { 0.9922 0.7490 0.4353 srgb } def
135.03 157.87 16.44 12.18 r p2
/bg { 0.9843 0.6039 0.6000 srgb } def
135.03 194.29 16.44 11.98 r p2
/bg { 1 0.0784 0.5765 srgb } def
135.03 86.42 16.44 11.61 r p2
/bg { 0.6902 0.1882 0.3765 srgb } def
135.03 112.08 16.44 13.77 r p2
/bg { 1 0.5137 0.9804 srgb } def
135.03 98.02 16.44 14.05 r p2
/bg { 0.4941 0.7529 0.9333 srgb } def
135.03 206.28 16.44 11.93 r p2
/bg { 0.7922 0.6980 0.8392 srgb } def
135.03 170.05 16.44 12.43 r p2
/bg { 0.9333 0.9020 0.5216 srgb } def
135.03 125.85 16.44 17.79 r p2
/bg { 0.7020 0.7020 0.7020 srgb } def
135.03 143.63 16.44 14.24 r p2
/bg { 0.5647 0.9333 0.5647 srgb } def
135.03 182.47 16.44 11.82 r p2
/bg { 0.4157 0.2392 0.6039 srgb } def
135.03 242.87 16.44 19.96 r p2
/bg { 0 0.5451 0 srgb } def
135.03 262.83 16.44 15.76 r p2
/bg { 0.1098 0.5255 0.9333 srgb } def
135.03 294.81 16.44 17.41 r p2
/bg { 0 0 0 srgb } def
135.03 218.20 16.44 13.82 r p2
/bg { 0 0 1 srgb } def
135.03 74.89 16.44 11.53 r p2
/bg { 0 0.8078 0.8196 srgb } def
135.03 49.85 16.44 12.23 r p2
/bg { 0.8902 0.1020 0.1098 srgb } def
135.03 278.59 16.44 16.22 r p2
/bg { 0.2118 0.3922 0.5451 srgb } def
135.03 62.08 16.44 12.81 r p2
/bg { 1 0.4980 0 srgb } def
135.03 232.02 16.44 10.85 r p2
/bg { 0.9922 0.7490 0.4353 srgb } def
153.29 144.57 16.44 12.12 r p2
/bg { 0.9843 0.6039 0.6000 srgb } def
153.29 181.81 16.44 15.26 r p2
/bg { 1 0.0784 0.5765 srgb } def
153.29 90.91 16.44 15.83 r p2
/bg { 0.6902 0.1882 0.3765 srgb } def
153.29 106.74 16.44 13.91 r p2
/bg { 0.4941 0.7529 0.9333 srgb } def
153.29 197.07 16.44 12.21 r p2
/bg { 0.7922 0.6980 0.8392 srgb } def
153.29 156.68 16.44 12.58 r p2
/bg { 1 0.8431 0 srgb } def
153.29 209.28 16.44 14.83 r p2
/bg { 0.9333 0.9020 0.5216 srgb } def
153.29 120.65 16.44 12.51 r p2
/bg { 0.7020 0.7020 0.7020 srgb } def
153.29 133.16 16.44 11.40 r p2
/bg { 0.5647 0.9333 0.5647 srgb } def
153.29 169.26 16.44 12.54 r p2
/bg { 0.4157 0.2392 0.6039 srgb } def
153.29 246.30 16.44 15.60 r p2
/bg { 0 0.5451 0 srgb } def
153.29 261.89 16.44 16.05 r p2
/bg { 0.1098 0.5255 0.9333 srgb } def
153.29 291.76 16.44 13.55 r p2
/bg { 0 0 0 srgb } def
153.29 224.11 16.44 10.84 r p2
/bg { 0 0 1 srgb } def
153.29 76.13 16.44 14.79 r p2
/bg { 0 0.8078 0.8196 srgb } def
153.29 49.85 16.44 11.45 r p2
/bg { 0.8902 0.1020 0.1098 srgb } def
153.29 277.95 16.44 13.82 r p2
/bg { 0.2118 0.3922 0.5451 srgb } def
153.29 61.29 16.44 14.83 r p2
/bg { 1 0.4980 0 srgb } def
153.29 234.95 16.44 11.35 r p2
/bg { 0.9922 0.7490 0.4353 srgb } def
171.55 183.22 16.44 13.31 r p2
/bg { 0.9843 0.6039 0.6000 srgb } def
171.55 230.33 16.44 16.70 r p2
/bg { 1 0.0784 0.5765 srgb } def
171.55 107.30 16.44 13.36 r p2
/bg { 0.6902 0.1882 0.3765 srgb } def
171.55 135.18 16.44 14.45 r p2
/bg { 1 0.5137 0.9804 srgb } def
171.55 120.66 16.44 14.52 r p2
/bg { 0.4941 0.7529 0.9333 srgb } def
171.55 247.02 16.44 17.08 r p2
/bg { 0.7922 0.6980 0.8392 srgb } def
171.55 196.53 16.44 17.84 r p2
/bg { 1 0.8431 0 srgb } def
171.55 264.10 16.44 17.22 r p2
/bg { 0.9333 0.9020 0.5216 srgb } def
171.55 149.62 16.44 17.91 r p2
/bg { 0.7020 0.7020 0.7020 srgb } def
171.55 167.53 16.44 15.69 r p2
/bg { 0.5647 0.9333 0.5647 srgb } def
171.55 214.37 16.44 15.95 r p2
/bg { 0.4157 0.2392 0.6039 srgb } def
171.55 297.18 16.44 20.45 r p2
/bg { 0 0.5451 0 srgb } def
171.55 317.63 16.44 13.72 r p2
/bg { 0.1098 0.5255 0.9333 srgb } def
171.55 348.33 16.44 16.00 r p2
/bg { 0 0 1 srgb } def
171.55 89.54 16.44 17.76 r p2
/bg { 0 0.8078 0.8196 srgb } def
171.55 49.85 16.44 18.81 r p2
/bg { 0.8902 0.1020 0.1098 srgb } def
171.55 331.35 16.44 16.98 r p2
/bg { 0.2118 0.3922 0.5451 srgb } def
171.55 68.66 16.44 20.89 r p2
/bg { 1 0.4980 0 srgb } def
171.55 281.33 16.44 15.85 r p2
/bg { 0.9922 0.7490 0.4353 srgb } def
189.82 201.86 16.44 19.03 r p2
/bg { 0.9843 0.6039 0.6000 srgb } def
189.82 265.09 16.44 16.28 r p2
/bg { 1 0.0784 0.5765 srgb } def
189.82 106.07 16.44 16.77 r p2
/bg { 0.6902 0.1882 0.3765 srgb } def
189.82 140.10 16.44 19.99 r p2
/bg { 1 0.5137 0.9804 srgb } def
189.82 122.84 16.44 17.26 r p2
/bg { 0.4941 0.7529 0.9333 srgb } def
189.82 281.37 16.44 14.70 r p2
/bg { 0.7922 0.6980 0.8392 srgb } def
189.82 220.89 16.44 22.21 r p2
/bg { 1 0.8431 0 srgb } def
189.82 296.06 16.44 19.66 r p2
/bg { 0.9333 0.9020 0.5216 srgb } def
189.82 160.10 16.44 22.54 r p2
/bg { 0.7020 0.7020 0.7020 srgb } def
189.82 182.64 16.44 19.23 r p2
/bg { 0.5647 0.9333 0.5647 srgb } def
189.82 243.10 16.44 21.98 r p2
/bg { 0.4157 0.2392 0.6039 srgb } def
189.82 353.21 16.44 17.96 r p2
/bg { 0 0.5451 0 srgb } def
189.82 371.17 16.44 19.10 r p2
/bg { 0 0 0 srgb } def
189.82 315.73 16.44 21.38 r p2
/bg { 0 0 1 srgb } def
189.82 86.33 16.44 19.74 r p2
/bg { 0 0.8078 0.8196 srgb } def
189.82 49.85 16.44 15.75 r p2
/bg { 0.8902 0.1020 0.1098 srgb } def
189.82 390.27 16.44 18.31 r p2
/bg { 0.2118 0.3922 0.5451 srgb } def
189.82 65.60 16.44 20.74 r p2
/bg { 1 0.4980 0 srgb } def
189.82 337.11 16.44 16.10 r p2
/bg { 0.9922 0.7490 0.4353 srgb } def
208.08 180.86 16.44 17.79 r p2
/bg { 0.9843 0.6039 0.6000 srgb } def
208.08 235.55 16.44 16.73 r p2
/bg { 0.6902 0.1882 0.3765 srgb } def
208.08 119.09 16.44 23.27 r p2
/bg { 1 0.5137 0.9804 srgb } def
208.08 103.41 16.44 15.68 r p2
/bg { 0.4941 0.7529 0.9333 srgb } def
208.08 252.28 16.44 22.68 r p2
/bg { 0.7922 0.6980 0.8392 srgb } def
208.08 198.65 16.44 16.92 r p2
/bg { 1 0.8431 0 srgb } def
208.08 274.96 16.44 19.21 r p2
/bg { 0.9333 0.9020 0.5216 srgb } def
208.08 142.35 16.44 20.80 r p2
/bg { 0.7020 0.7020 0.7020 srgb } def
208.08 163.15 16.44 17.71 r p2
/bg { 0.5647 0.9333 0.5647 srgb } def
208.08 215.58 16.44 19.97 r p2
/bg { 0.4157 0.2392 0.6039 srgb } def
208.08 331.49 16.44 18.80 r p2
/bg { 0 0.5451 0 srgb } def
208.08 350.30 16.44 17.14 r p2
/bg { 0.1098 0.5255 0.9333 srgb } def
208.08 386.53 16.44 17.18 r p2
/bg { 0 0 0 srgb } def
208.08 294.17 16.44 20.01 r p2
/bg { 0 0 1 srgb } def
208.08 85.16 16.44 18.25 r p2
/bg { 0 0.8078 0.8196 srgb } def
208.08 49.85 16.44 16.52 r p2
/bg { 0.8902 0.1020 0.1098 srgb } def
208.08 367.43 16.44 19.09 r p2
/bg { 0.2118 0.3922 0.5451 srgb } def
208.08 66.37 16.44 18.79 r p2
/bg { 1 0.4980 0 srgb } def
208.08 314.18 16.44 17.31 r p2
/bg { 0.9922 0.7490 0.4353 srgb } def
226.34 136.81 16.44 16.96 r p2
/bg { 0.9843 0.6039 0.6000 srgb } def
226.34 179.62 16.44 10.34 r p2
/bg { 0.6902 0.1882 0.3765 srgb } def
226.34 98.11 16.44 10.56 r p2
/bg { 1 0.5137 0.9804 srgb } def
226.34 85.28 16.44 12.83 r p2
/bg { 0.4941 0.7529 0.9333 srgb } def
226.34 189.96 16.44 11.15 r p2
/bg { 0.7922 0.6980 0.8392 srgb } def
226.34 153.77 16.44 9.30 r p2
/bg { 1 0.8431 0 srgb } def
226.34 201.12 16.44 14.86 r p2
/bg { 0.9333 0.9020 0.5216 srgb } def
226.34 108.67 16.44 14.57 r p2
/bg { 0.7020 0.7020 0.7020 srgb } def
226.34 123.24 16.44 13.57 r p2
/bg { 0.5647 0.9333 0.5647 srgb } def
226.34 163.07 16.44 16.55 r p2
/bg { 0.4157 0.2392 0.6039 srgb } def
226.34 239.87 16.44 12.86 r p2
/bg { 0 0.5451 0 srgb } def
226.34 252.73 16.44 12.70 r p2
/bg { 0.1098 0.5255 0.9333 srgb } def
226.34 275.78 16.44 15.25 r p2
/bg { 0 0 0 srgb } def
226.34 215.98 16.44 13.15 r p2
/bg { 0 0 1 srgb } def
226.34 74.89 16.44 10.38 r p2
/bg { 0 0.8078 0.8196 srgb } def
226.34 49.85 16.44 13.69 r p2
/bg { 0.8902 0.1020 0.1098 srgb } def
226.34 265.44 16.44 10.35 r p2
/bg { 0.2118 0.3922 0.5451 srgb } def
226.34 63.54 16.44 11.35 r p2
/bg { 1 0.4980 0 srgb } def
226.34 229.13 16.44 10.75 r p2
/bg { 0.9922 0.7490 0.4353 srgb } def
244.60 130.11 16.44 12.40 r p2
/bg { 0.9843 0.6039 0.6000 srgb } def
244.60 166.92 16.44 16.07 r p2
/bg { 0.6902 0.1882 0.3765 srgb } def
244.60 98.85 16.44 7.08 r p2
/bg { 1 0.5137 0.9804 srgb } def
244.60 89.53 16.44 9.32 r p2
/bg { 0.4941 0.7529 0.9333 srgb } def
244.60 182.99 16.44 16.02 r p2
/bg { 0.7922 0.6980 0.8392 srgb } def
244.60 142.50 16.44 11.73 r p2
/bg { 1 0.8431 0 srgb } def
244.60 199.01 16.44 14.96 r p2
/bg { 0.9333 0.9020 0.5216 srgb } def
244.60 105.94 16.44 7.23 r p2
/bg { 0.7020 0.7020 0.7020 srgb } def
244.60 113.17 16.44 16.94 r p2
/bg { 0.5647 0.9333 0.5647 srgb } def
244.60 154.23 16.44 12.69 r p2
/bg { 0.4157 0.2392 0.6039 srgb } def
244.60 243.22 16.44 16.28 r p2
/bg { 0 0.5451 0 srgb } def
244.60 259.50 16.44 15.67 r p2
/bg { 0.1098 0.5255 0.9333 srgb } def
244.60 287.38 16.44 17.79 r p2
/bg { 0 0 0 srgb } def
244.60 213.98 16.44 16.11 r p2
/bg { 0 0 1 srgb } def
244.60 80.47 16.44 9.06 r p2
/bg { 0 0.8078 0.8196 srgb } def
244.60 49.85 16.44 14.65 r p2
/bg { 0.8902 0.1020 0.1098 srgb } def
244.60 275.17 16.44 12.20 r p2
/bg { 0.2118 0.3922 0.5451 srgb } def
244.60 64.49 16.44 15.98 r p2
/bg { 1 0.4980 0 srgb } def
244.60 230.08 16.44 13.14 r p2
/bg { 0.9922 0.7490 0.4353 srgb } def
262.86 153.37 16.44 12.81 r p2
/bg { 0.9843 0.6039 0.6000 srgb } def
262.86 197.33 16.44 11.68 r p2
/bg { 1 0.0784 0.5765 srgb } def
262.86 87.03 16.44 11.71 r p2
/bg { 0.6902 0.1882 0.3765 srgb } def
262.86 112.08 16.44 13.18 r p2
/bg { 1 0.5137 0.9804 srgb } def
262.86 98.74 16.44 13.34 r p2
/bg { 0.4941 0.7529 0.9333 srgb } def
262.86 209.01 16.44 12.86 r p2
/bg { 0.7922 0.6980 0.8392 srgb } def
262.86 166.18 16.44 10.85 r p2
/bg { 1 0.8431 0 srgb } def
262.86 221.87 16.44 11.94 r p2
/bg { 0.9333 0.9020 0.5216 srgb } def
262.86 125.26 16.44 12.61 r p2
/bg { 0.7020 0.7020 0.7020 srgb } def
262.86 137.88 16.44 15.50 r p2
/bg { 0.5647 0.9333 0.5647 srgb } def
262.86 177.03 16.44 20.30 r p2
/bg { 0.4157 0.2392 0.6039 srgb } def
262.86 264.78 16.44 15.84 r p2
/bg { 0 0.5451 0 srgb } def
262.86 280.62 16.44 12.14 r p2
/bg { 0 0 0 srgb } def
262.86 233.81 16.44 15.52 r p2
/bg { 0 0 1 srgb } def
262.86 76.25 16.44 10.78 r p2
/bg { 0 0.8078 0.8196 srgb } def
262.86 49.85 16.44 9.54 r p2
/bg { 0.8902 0.1020 0.1098 srgb } def
262.86 292.76 16.44 13.74 r p2
/bg { 0.2118 0.3922 0.5451 srgb } def
262.86 59.39 16.44 16.87 r p2
/bg { 1 0.4980 0 srgb } def
262.86 249.33 16.44 15.45 r p2
/bg { 0.9922 0.7490 0.4353 srgb } def
281.13 151.74 16.44 12.34 r p2
/bg { 0.9843 0.6039 0.6000 srgb } def
281.13 187.17 16.44 12.31 r p2
/bg { 1 0.0784 0.5765 srgb } def
281.13 94.68 16.44 14.58 r p2
/bg { 0.6902 0.1882 0.3765 srgb } def
281.13 120.91 16.44 13.35 r p2
/bg { 1 0.5137 0.9804 srgb } def
281.13 109.26 16.44 11.66 r p2
/bg { 0.4941 0.7529 0.9333 srgb } def
281.13 199.48 16.44 10.03 r p2
/bg { 0.7922 0.6980 0.8392 srgb } def
281.13 164.08 16.44 11.02 r p2
/bg { 1 0.8431 0 srgb } def
281.13 209.51 16.44 10.79 r p2
/bg { 0.9333 0.9020 0.5216 srgb } def
281.13 134.26 16.44 17.48 r p2
/bg { 0.5647 0.9333 0.5647 srgb } def
281.13 175.10 16.44 12.07 r p2
/bg { 0.4157 0.2392 0.6039 srgb } def
281.13 251.13 16.44 15.52 r p2
/bg { 0 0.5451 0 srgb } def
281.13 266.65 16.44 9.48 r p2
/bg { 0.1098 0.5255 0.9333 srgb } def
281.13 290.73 16.44 12.99 r p2
/bg { 0 0 0 srgb } def
281.13 220.30 16.44 15.46 r p2
/bg { 0 0 1 srgb } def
281.13 78.07 16.44 16.61 r p2
/bg { 0 0.8078 0.8196 srgb } def
281.13 49.85 16.44 11.61 r p2
/bg { 0.8902 0.1020 0.1098 srgb } def
281.13 276.14 16.44 14.59 r p2
/bg { 0.2118 0.3922 0.5451 srgb } def
281.13 61.45 16.44 16.61 r p2
/bg { 1 0.4980 0 srgb } def
281.13 235.76 16.44 15.38 r p2
/bg { 0.9922 0.7490 0.4353 srgb } def
299.39 153.67 16.44 11.99 r p2
/bg { 0.9843 0.6039 0.6000 srgb } def
299.39 190.31 16.44 11.15 r p2
/bg { 1 0.0784 0.5765 srgb } def
299.39 96.72 16.44 18.74 r p2
/bg { 0.6902 0.1882 0.3765 srgb } def
299.39 115.47 16.44 11.71 r p2
/bg { 0.4941 0.7529 0.9333 srgb } def
299.39 201.47 16.44 17.08 r p2
/bg { 0.7922 0.6980 0.8392 srgb } def
299.39 165.67 16.44 10.58 r p2
/bg { 1 0.8431 0 srgb } def
299.39 218.54 16.44 14.84 r p2
/bg { 0.9333 0.9020 0.5216 srgb } def
299.39 127.18 16.44 11.12 r p2
/bg { 0.7020 0.7020 0.7020 srgb } def
299.39 138.31 16.44 15.37 r p2
/bg { 0.5647 0.9333 0.5647 srgb } def
299.39 176.24 16.44 14.07 r p2
/bg { 0.4157 0.2392 0.6039 srgb } def
299.39 264.38 16.44 9.99 r p2
/bg { 0 0.5451 0 srgb } def
299.39 274.37 16.44 18.83 r p2
/bg { 0.1098 0.5255 0.9333 srgb } def
299.39 309.81 16.44 13.83 r p2
/bg { 0 0 0 srgb } def
299.39 233.38 16.44 20.15 r p2
/bg { 0 0 1 srgb } def
299.39 84.37 16.44 12.36 r p2
/bg { 0 0.8078 0.8196 srgb } def
299.39 49.85 16.44 16.37 r p2
/bg { 0.8902 0.1020 0.1098 srgb } def
299.39 293.20 16.44 16.61 r p2
/bg { 0.2118 0.3922 0.5451 srgb } def
299.39 66.22 16.44 18.15 r p2
/bg { 1 0.4980 0 srgb } def
299.39 253.53 16.44 10.85 r p2
/bg { 0.9922 0.7490 0.4353 srgb } def
317.65 169.86 16.44 15.23 r p2
/bg { 0.9843 0.6039 0.6000 srgb } def
317.65 204.75 16.44 16.89 r p2
/bg { 1 0.0784 0.5765 srgb } def
317.65 105.77 16.44 11.80 r p2
/bg { 0.6902 0.1882 0.3765 srgb } def
317.65 124.80 16.44 13.78 r p2
/bg { 1 0.5137 0.9804 srgb } def
317.65 117.57 16.44 7.22 r p2
/bg { 0.4941 0.7529 0.9333 srgb } def
317.65 221.64 16.44 16.62 r p2
/bg { 0.7922 0.6980 0.8392 srgb } def
317.65 185.09 16.44 19.66 r p2
/bg { 1 0.8431 0 srgb } def
317.65 238.26 16.44 12.16 r p2
/bg { 0.9333 0.9020 0.5216 srgb } def
317.65 138.57 16.44 19.88 r p2
/bg { 0.7020 0.7020 0.7020 srgb } def
317.65 158.45 16.44 11.41 r p2
/bg { 0.4157 0.2392 0.6039 srgb } def
317.65 282.41 16.44 16.99 r p2
/bg { 0 0.5451 0 srgb } def
317.65 299.40 16.44 16.33 r p2
/bg { 0.1098 0.5255 0.9333 srgb } def
317.65 324.71 16.44 11.02 r p2
/bg { 0 0 0 srgb } def
317.65 250.42 16.44 17.17 r p2
/bg { 0 0 1 srgb } def
317.65 86.40 16.44 19.37 r p2
/bg { 0 0.8078 0.8196 srgb } def
317.65 49.85 16.44 15.51 r p2
/bg { 0.8902 0.1020 0.1098 srgb } def
317.65 315.73 16.44 8.98 r p2
/bg { 0.2118 0.3922 0.5451 srgb } def
317.65 65.36 16.44 21.05 r p2
/bg { 1 0.4980 0 srgb } def
317.65 267.59 16.44 14.82 r p2
/bg { 0.9922 0.7490 0.4353 srgb } def
335.91 155.46 16.44 14.65 r p2
/bg { 0.9843 0.6039 0.6000 srgb } def
335.91 200.99 16.44 12.40 r p2
/bg { 1 0.0784 0.5765 srgb } def
335.91 95.99 16.44 15.68 r p2
/bg { 0.6902 0.1882 0.3765 srgb } def
335.91 111.67 16.44 15.12 r p2
/bg { 0.4941 0.7529 0.9333 srgb } def
335.91 213.39 16.44 15.64 r p2
/bg { 0.7922 0.6980 0.8392 srgb } def
335.91 170.11 16.44 16.08 r p2
/bg { 1 0.8431 0 srgb } def
335.91 229.03 16.44 17.12 r p2
/bg { 0.9333 0.9020 0.5216 srgb } def
335.91 126.79 16.44 14.21 r p2
/bg { 0.7020 0.7020 0.7020 srgb } def
335.91 141.00 16.44 14.46 r p2
/bg { 0.5647 0.9333 0.5647 srgb } def
335.91 186.19 16.44 14.81 r p2
/bg { 0.4157 0.2392 0.6039 srgb } def
335.91 282.24 16.44 15.91 r p2
/bg { 0 0.5451 0 srgb } def
335.91 298.15 16.44 14.62 r p2
/bg { 0.1098 0.5255 0.9333 srgb } def
335.91 324.86 16.44 18.96 r p2
/bg { 0 0 0 srgb } def
335.91 246.15 16.44 19.21 r p2
/bg { 0 0 1 srgb } def
335.91 79.58 16.44 16.40 r p2
/bg { 0 0.8078 0.8196 srgb } def
335.91 49.85 16.44 16.31 r p2
/bg { 0.8902 0.1020 0.1098 srgb } def
335.91 312.76 16.44 12.10 r p2
/bg { 0.2118 0.3922 0.5451 srgb } def
335.91 66.16 16.44 13.42 r p2
/bg { 1 0.4980 0 srgb } def
335.91 265.36 16.44 16.88 r p2
/bg { 0.9922 0.7490 0.4353 srgb } def
354.17 149.94 16.44 10.42 r p2
/bg { 0.9843 0.6039 0.6000 srgb } def
354.17 184.02 16.44 6.52 r p2
/bg { 1 0.0784 0.5765 srgb } def
354.17 98.72 16.44 13.00 r p2
/bg { 0.6902 0.1882 0.3765 srgb } def
354.17 123.95 16.44 4.76 r p2
/bg { 1 0.5137 0.9804 srgb } def
354.17 111.72 16.44 12.23 r p2
/bg { 0.4941 0.7529 0.9333 srgb } def
354.17 190.54 16.44 8.75 r p2
/bg { 0.7922 0.6980 0.8392 srgb } def
354.17 160.35 16.44 10.74 r p2
/bg { 1 0.8431 0 srgb } def
354.17 199.29 16.44 13.83 r p2
/bg { 0.9333 0.9020 0.5216 srgb } def
354.17 128.71 16.44 9.41 r p2
/bg { 0.7020 0.7020 0.7020 srgb } def
354.17 138.12 16.44 11.81 r p2
/bg { 0.5647 0.9333 0.5647 srgb } def
354.17 171.10 16.44 12.92 r p2
/bg { 0.4157 0.2392 0.6039 srgb } def
354.17 226.59 16.44 11.14 r p2
/bg { 0 0.5451 0 srgb } def
354.17 237.74 16.44 11.45 r p2
/bg { 0.1098 0.5255 0.9333 srgb } def
354.17 270.78 16.44 22.03 r p2
/bg { 0 0 1 srgb } def
354.17 80.45 16.44 18.27 r p2
/bg { 0 0.8078 0.8196 srgb } def
354.17 49.85 16.44 12.91 r p2
/bg { 0.8902 0.1020 0.1098 srgb } def
354.17 249.19 16.44 21.59 r p2
/bg { 0.2118 0.3922 0.5451 srgb } def
354.17 62.76 16.44 17.69 r p2
/bg { 1 0.4980 0 srgb } def
354.17 213.13 16.44 13.47 r p2
0.00 0.00 432.00 432.00 cl
0.00 0.00 432.00 432.00 cl
0.00 0.00 432.00 432.00 cl
0.00 0.00 432.00 432.00 cl
0.00 0.00 432.00 432.00 cl
0.00 0.00 432.00 432.00 cl
0.00 0.00 432.00 432.00 cl
0.00 0.00 432.00 432.00 cl
0.00 0.00 432.00 432.00 cl
0.00 0.00 432.00 432.00 cl
0.00 0.00 432.00 432.00 cl
0.00 0.00 432.00 432.00 cl
0.00 0.00 432.00 432.00 cl
0.00 0.00 432.00 432.00 cl
0.00 0.00 432.00 432.00 cl
0.00 0.00 432.00 432.00 cl
/Font1 findfont 9 s
0.3020 0.3020 0.3020 srgb
36.05 46.62 (0.00) 1 0 t
36.05 141.94 (0.02) 1 0 t
36.05 237.26 (0.04) 1 0 t
36.05 332.58 (0.06) 1 0 t
0.00 0.00 432.00 432.00 cl
0.00 0.00 432.00 432.00 cl
0.2000 0.2000 0.2000 srgb
1.07 setlinewidth
[] 0 setdash
0 setlinecap
1 setlinejoin
10.00 setmiterlimit
np
38.24 49.85 m
2.74 0 l
o
np
38.24 145.17 m
2.74 0 l
o
np
38.24 240.49 m
2.74 0 l
o
np
38.24 335.81 m
2.74 0 l
o
0.00 0.00 432.00 432.00 cl
0.00 0.00 432.00 432.00 cl
0.00 0.00 432.00 432.00 cl
0.00 0.00 432.00 432.00 cl
0.00 0.00 432.00 432.00 cl
0.00 0.00 432.00 432.00 cl
0.00 0.00 432.00 432.00 cl
0.00 0.00 432.00 432.00 cl
0.00 0.00 432.00 432.00 cl
0.00 0.00 432.00 432.00 cl
0.2000 0.2000 0.2000 srgb
1.07 setlinewidth
[] 0 setdash
0 setlinecap
1 setlinejoin
10.00 setmiterlimit
np
51.94 29.17 m
0 2.74 l
o
np
70.20 29.17 m
0 2.74 l
o
np
88.46 29.17 m
0 2.74 l
o
np
106.73 29.17 m
0 2.74 l
o
np
124.99 29.17 m
0 2.74 l
o
np
143.25 29.17 m
0 2.74 l
o
np
161.51 29.17 m
0 2.74 l
o
np
179.77 29.17 m
0 2.74 l
o
np
198.03 29.17 m
0 2.74 l
o
np
216.30 29.17 m
0 2.74 l
o
np
234.56 29.17 m
0 2.74 l
o
np
252.82 29.17 m
0 2.74 l
o
np
271.08 29.17 m
0 2.74 l
o
np
289.34 29.17 m
0 2.74 l
o
np
307.60 29.17 m
0 2.74 l
o
np
325.87 29.17 m
0 2.74 l
o
np
344.13 29.17 m
0 2.74 l
o
np
362.39 29.17 m
0 2.74 l
o
0.00 0.00 432.00 432.00 cl
0.00 0.00 432.00 432.00 cl
/Font1 findfont 9 s
0.3020 0.3020 0.3020 srgb
51.94 20.52 (31L) .5 0 t
70.20 20.52 (32D) .5 0 t
88.46 20.52 (33S) .5 0 t
106.73 20.52 (34G) .5 0 t
124.99 20.52 (35I) .5 0 t
143.25 20.52 (36H) .5 0 t
161.51 20.52 (37S) .5 0 t
179.77 20.52 (38G) .5 0 t
198.03 20.52 (39A) .5 0 t
216.30 20.52 (40T) .5 0 t
234.56 20.52 (41T) .5 0 t
252.82 20.52 (42T) .5 0 t
271.08 20.52 (43A) .5 0 t
289.34 20.52 (44P) .5 0 t
307.60 20.52 (45S) .5 0 t
325.87 20.52 (46L) .5 0 t
344.13 20.52 (47S) .5 0 t
362.39 20.52 (48G) .5 0 t
0.00 0.00 432.00 432.00 cl
0.00 0.00 432.00 432.00 cl
0.00 0.00 432.00 432.00 cl
0.00 0.00 432.00 432.00 cl
0.00 0.00 432.00 432.00 cl
0.00 0.00 432.00 432.00 cl
/Font1 findfont 11 s
0 0 0 srgb
207.16 7.90 (Codon position) .5 0 t
0.00 0.00 432.00 432.00 cl
0.00 0.00 432.00 432.00 cl
/Font1 findfont 11 s
0 0 0 srgb
13.38 229.22 (Frequency in pool sample) .5 90 t
0.00 0.00 432.00 432.00 cl
0.00 0.00 432.00 432.00 cl
0.00 0.00 432.00 432.00 cl
0.00 0.00 432.00 432.00 cl
0.00 0.00 432.00 432.00 cl
0.00 0.00 432.00 432.00 cl
0.00 0.00 432.00 432.00 cl
0.00 0.00 432.00 432.00 cl
/bg { 1 1 1 srgb } def
384.31 43.04 42.21 372.36 r p2
0.00 0.00 432.00 432.00 cl
0.00 0.00 432.00 432.00 cl
0.00 0.00 432.00 432.00 cl
0.00 0.00 432.00 432.00 cl
/Font1 findfont 11 s
0 0 0 srgb
389.79 400.81 (AA) 0 0 t
0.00 0.00 432.00 432.00 cl
0.00 0.00 432.00 432.00 cl
0.00 0.00 432.00 432.00 cl
/bg { 0.9490 0.9490 0.9490 srgb } def
389.79 376.84 17.28 17.28 r p2
0.00 0.00 432.00 432.00 cl
0.00 0.00 432.00 432.00 cl
/bg { 0.1098 0.5255 0.9333 srgb } def
390.49 377.55 15.86 15.86 r p2
0.00 0.00 432.00 432.00 cl
0.00 0.00 432.00 432.00 cl
/bg { 0.9490 0.9490 0.9490 srgb } def
389.79 359.56 17.28 17.28 r p2
0.00 0.00 432.00 432.00 cl
0.00 0.00 432.00 432.00 cl
/bg { 0.8902 0.1020 0.1098 srgb } def
390.49 360.27 15.86 15.86 r p2
0.00 0.00 432.00 432.00 cl
0.00 0.00 432.00 432.00 cl
/bg { 0.9490 0.9490 0.9490 srgb } def
389.79 342.28 17.28 17.28 r p2
0.00 0.00 432.00 432.00 cl
0.00 0.00 432.00 432.00 cl
/bg { 0 0.5451 0 srgb } def
390.49 342.99 15.86 15.86 r p2
0.00 0.00 432.00 432.00 cl
0.00 0.00 432.00 432.00 cl
/bg { 0.9490 0.9490 0.9490 srgb } def
389.79 325.00 17.28 17.28 r p2
0.00 0.00 432.00 432.00 cl
0.00 0.00 432.00 432.00 cl
/bg { 0.4157 0.2392 0.6039 srgb } def
390.49 325.71 15.86 15.86 r p2
0.00 0.00 432.00 432.00 cl
0.00 0.00 432.00 432.00 cl
/bg { 0.9490 0.9490 0.9490 srgb } def
389.79 307.72 17.28 17.28 r p2
0.00 0.00 432.00 432.00 cl
0.00 0.00 432.00 432.00 cl
/bg { 1 0.4980 0 srgb } def
390.49 308.43 15.86 15.86 r p2
0.00 0.00 432.00 432.00 cl
0.00 0.00 432.00 432.00 cl
/bg { 0.9490 0.9490 0.9490 srgb } def
389.79 290.44 17.28 17.28 r p2
0.00 0.00 432.00 432.00 cl
0.00 0.00 432.00 432.00 cl
/bg { 0 0 0 srgb } def
390.49 291.15 15.86 15.86 r p2
0.00 0.00 432.00 432.00 cl
0.00 0.00 432.00 432.00 cl
/bg { 0.9490 0.9490 0.9490 srgb } def
389.79 273.16 17.28 17.28 r p2
0.00 0.00 432.00 432.00 cl
0.00 0.00 432.00 432.00 cl
/bg { 1 0.8431 0 srgb } def
390.49 273.87 15.86 15.86 r p2
0.00 0.00 432.00 432.00 cl
0.00 0.00 432.00 432.00 cl
/bg { 0.9490 0.9490 0.9490 srgb } def
389.79 255.88 17.28 17.28 r p2
0.00 0.00 432.00 432.00 cl
0.00 0.00 432.00 432.00 cl
/bg { 0.4941 0.7529 0.9333 srgb } def
390.49 256.59 15.86 15.86 r p2
0.00 0.00 432.00 432.00 cl
0.00 0.00 432.00 432.00 cl
/bg { 0.9490 0.9490 0.9490 srgb } def
389.79 238.60 17.28 17.28 r p2
0.00 0.00 432.00 432.00 cl
0.00 0.00 432.00 432.00 cl
/bg { 0.9843 0.6039 0.6000 srgb } def
390.49 239.31 15.86 15.86 r p2
0.00 0.00 432.00 432.00 cl
0.00 0.00 432.00 432.00 cl
/bg { 0.9490 0.9490 0.9490 srgb } def
389.79 221.32 17.28 17.28 r p2
0.00 0.00 432.00 432.00 cl
0.00 0.00 432.00 432.00 cl
/bg { 0.5647 0.9333 0.5647 srgb } def
390.49 222.03 15.86 15.86 r p2
0.00 0.00 432.00 432.00 cl
0.00 0.00 432.00 432.00 cl
/bg { 0.9490 0.9490 0.9490 srgb } def
389.79 204.04 17.28 17.28 r p2
0.00 0.00 432.00 432.00 cl
0.00 0.00 432.00 432.00 cl
/bg { 0.7922 0.6980 0.8392 srgb } def
390.49 204.75 15.86 15.86 r p2
0.00 0.00 432.00 432.00 cl
0.00 0.00 432.00 432.00 cl
/bg { 0.9490 0.9490 0.9490 srgb } def
389.79 186.76 17.28 17.28 r p2
0.00 0.00 432.00 432.00 cl
0.00 0.00 432.00 432.00 cl
/bg { 0.9922 0.7490 0.4353 srgb } def
390.49 187.47 15.86 15.86 r p2
0.00 0.00 432.00 432.00 cl
0.00 0.00 432.00 432.00 cl
/bg { 0.9490 0.9490 0.9490 srgb } def
389.79 169.48 17.28 17.28 r p2
0.00 0.00 432.00 432.00 cl
0.00 0.00 432.00 432.00 cl
/bg { 0.7020 0.7020 0.7020 srgb } def
390.49 170.19 15.86 15.86 r p2
0.00 0.00 432.00 432.00 cl
0.00 0.00 432.00 432.00 cl
/bg { 0.9490 0.9490 0.9490 srgb } def
389.79 152.20 17.28 17.28 r p2
0.00 0.00 432.00 432.00 cl
0.00 0.00 432.00 432.00 cl
/bg { 0.9333 0.9020 0.5216 srgb } def
390.49 152.91 15.86 15.86 r p2
0.00 0.00 432.00 432.00 cl
0.00 0.00 432.00 432.00 cl
/bg { 0.9490 0.9490 0.9490 srgb } def
389.79 134.92 17.28 17.28 r p2
0.00 0.00 432.00 432.00 cl
0.00 0.00 432.00 432.00 cl
/bg { 0.6902 0.1882 0.3765 srgb } def
390.49 135.63 15.86 15.86 r p2
0.00 0.00 432.00 432.00 cl
0.00 0.00 432.00 432.00 cl
/bg { 0.9490 0.9490 0.9490 srgb } def
389.79 117.64 17.28 17.28 r p2
0.00 0.00 432.00 432.00 cl
0.00 0.00 432.00 432.00 cl
/bg { 1 0.5137 0.9804 srgb } def
390.49 118.35 15.86 15.86 r p2
0.00 0.00 432.00 432.00 cl
0.00 0.00 432.00 432.00 cl
/bg { 0.9490 0.9490 0.9490 srgb } def
389.79 100.36 17.28 17.28 r p2
0.00 0.00 432.00 432.00 cl
0.00 0.00 432.00 432.00 cl
/bg { 1 0.0784 0.5765 srgb } def
390.49 101.07 15.86 15.86 r p2
0.00 0.00 432.00 432.00 cl
0.00 0.00 432.00 432.00 cl
/bg { 0.9490 0.9490 0.9490 srgb } def
389.79 83.08 17.28 17.28 r p2
0.00 0.00 432.00 432.00 cl
0.00 0.00 432.00 432.00 cl
/bg { 0 0 1 srgb } def
390.49 83.79 15.86 15.86 r p2
0.00 0.00 432.00 432.00 cl
0.00 0.00 432.00 432.00 cl
/bg { 0.9490 0.9490 0.9490 srgb } def
389.79 65.80 17.28 17.28 r p2
0.00 0.00 432.00 432.00 cl
0.00 0.00 432.00 432.00 cl
/bg { 0.2118 0.3922 0.5451 srgb } def
390.49 66.51 15.86 15.86 r p2
0.00 0.00 432.00 432.00 cl
0.00 0.00 432.00 432.00 cl
/bg { 0.9490 0.9490 0.9490 srgb } def
389.79 48.52 17.28 17.28 r p2
0.00 0.00 432.00 432.00 cl
0.00 0.00 432.00 432.00 cl
/bg { 0 0.8078 0.8196 srgb } def
390.49 49.23 15.86 15.86 r p2
0.00 0.00 432.00 432.00 cl
0.00 0.00 432.00 432.00 cl
0.00 0.00 432.00 432.00 cl
0.00 0.00 432.00 432.00 cl
/Font1 findfont 9 s
0 0 0 srgb
412.55 382.25 (A) 0 0 t
0.00 0.00 432.00 432.00 cl
0.00 0.00 432.00 432.00 cl
0.00 0.00 432.00 432.00 cl
0.00 0.00 432.00 432.00 cl
0.00 0.00 432.00 432.00 cl
/Font1 findfont 9 s
0 0 0 srgb
412.55 364.97 (C) 0 0 t
0.00 0.00 432.00 432.00 cl
0.00 0.00 432.00 432.00 cl
0.00 0.00 432.00 432.00 cl
0.00 0.00 432.00 432.00 cl
0.00 0.00 432.00 432.00 cl
/Font1 findfont 9 s
0 0 0 srgb
412.55 347.69 (D) 0 0 t
0.00 0.00 432.00 432.00 cl
0.00 0.00 432.00 432.00 cl
0.00 0.00 432.00 432.00 cl
0.00 0.00 432.00 432.00 cl
0.00 0.00 432.00 432.00 cl
/Font1 findfont 9 s
0 0 0 srgb
412.55 330.41 (E) 0 0 t
0.00 0.00 432.00 432.00 cl
0.00 0.00 432.00 432.00 cl
0.00 0.00 432.00 432.00 cl
0.00 0.00 432.00 432.00 cl
0.00 0.00 432.00 432.00 cl
/Font1 findfont 9 s
0 0 0 srgb
412.55 313.13 (F) 0 0 t
0.00 0.00 432.00 432.00 cl
0.00 0.00 432.00 432.00 cl
0.00 0.00 432.00 432.00 cl
0.00 0.00 432.00 432.00 cl
0.00 0.00 432.00 432.00 cl
/Font1 findfont 9 s
0 0 0 srgb
412.55 295.85 (G) 0 0 t
0.00 0.00 432.00 432.00 cl
0.00 0.00 432.00 432.00 cl
0.00 0.00 432.00 432.00 cl
0.00 0.00 432.00 432.00 cl
0.00 0.00 432.00 432.00 cl
/Font1 findfont 9 s
0 0 0 srgb
412.55 278.57 (H) 0 0 t
0.00 0.00 432.00 432.00 cl
0.00 0.00 432.00 432.00 cl
0.00 0.00 432.00 432.00 cl
0.00 0.00 432.00 432.00 cl
0.00 0.00 432.00 432.00 cl
/Font1 findfont 9 s
0 0 0 srgb
412.55 261.29 (I) 0 0 t
0.00 0.00 432.00 432.00 cl
0.00 0.00 432.00 432.00 cl
0.00 0.00 432.00 432.00 cl
0.00 0.00 432.00 432.00 cl
0.00 0.00 432.00 432.00 cl
/Font1 findfont 9 s
0 0 0 srgb
412.55 244.01 (K) 0 0 t
0.00 0.00 432.00 432.00 cl
0.00 0.00 432.00 432.00 cl
0.00 0.00 432.00 432.00 cl
0.00 0.00 432.00 432.00 cl
0.00 0.00 432.00 432.00 cl
/Font1 findfont 9 s
0 0 0 srgb
412.55 226.73 (L) 0 0 t
0.00 0.00 432.00 432.00 cl
0.00 0.00 432.00 432.00 cl
0.00 0.00 432.00 432.00 cl
0.00 0.00 432.00 432.00 cl
0.00 0.00 432.00 432.00 cl
/Font1 findfont 9 s
0 0 0 srgb
412.55 209.45 (M) 0 0 t
0.00 0.00 432.00 432.00 cl
0.00 0.00 432.00 432.00 cl
0.00 0.00 432.00 432.00 cl
0.00 0.00 432.00 432.00 cl
0.00 0.00 432.00 432.00 cl
/Font1 findfont 9 s
0 0 0 srgb
412.55 192.17 (N) 0 0 t
0.00 0.00 432.00 432.00 cl
0.00 0.00 432.00 432.00 cl
0.00 0.00 432.00 432.00 cl
0.00 0.00 432.00 432.00 cl
0.00 0.00 432.00 432.00 cl
/Font1 findfont 9 s
0 0 0 srgb
412.55 174.89 (P) 0 0 t
0.00 0.00 432.00 432.00 cl
0.00 0.00 432.00 432.00 cl
0.00 0.00 432.00 432.00 cl
0.00 0.00 432.00 432.00 cl
0.00 0.00 432.00 432.00 cl
/Font1 findfont 9 s
0 0 0 srgb
412.55 157.61 (Q) 0 0 t
0.00 0.00 432.00 432.00 cl
0.00 0.00 432.00 432.00 cl
0.00 0.00 432.00 432.00 cl
0.00 0.00 432.00 432.00 cl
0.00 0.00 432.00 432.00 cl
/Font1 findfont 9 s
0 0 0 srgb
412.55 140.33 (R) 0 0 t
0.00 0.00 432.00 432.00 cl
0.00 0.00 432.00 432.00 cl
0.00 0.00 432.00 432.00 cl
0.00 0.00 432.00 432.00 cl
0.00 0.00 432.00 432.00 cl
/Font1 findfont 9 s
0 0 0 srgb
412.55 123.05 (S) 0 0 t
0.00 0.00 432.00 432.00 cl
0.00 0.00 432.00 432.00 cl
0.00 0.00 432.00 432.00 cl
0.00 0.00 432.00 432.00 cl
0.00 0.00 432.00 432.00 cl
/Font1 findfont 9 s
0 0 0 srgb
412.55 105.77 (T) 0 0 t
0.00 0.00 432.00 432.00 cl
0.00 0.00 432.00 432.00 cl
0.00 0.00 432.00 432.00 cl
0.00 0.00 432.00 432.00 cl
0.00 0.00 432.00 432.00 cl
/Font1 findfont 9 s
0 0 0 srgb
412.55 88.49 (V) 0 0 t
0.00 0.00 432.00 432.00 cl
0.00 0.00 432.00 432.00 cl
0.00 0.00 432.00 432.00 cl
0.00 0.00 432.00 432.00 cl
0.00 0.00 432.00 432.00 cl
/Font1 findfont 9 s
0 0 0 srgb
412.55 71.21 (W) 0 0 t
0.00 0.00 432.00 432.00 cl
0.00 0.00 432.00 432.00 cl
0.00 0.00 432.00 432.00 cl
0.00 0.00 432.00 432.00 cl
0.00 0.00 432.00 432.00 cl
/Font1 findfont 9 s
0 0 0 srgb
412.55 53.93 (Y) 0 0 t
0.00 0.00 432.00 432.00 cl
0.00 0.00 432.00 432.00 cl
0.00 0.00 432.00 432.00 cl
0.00 0.00 432.00 432.00 cl
0.00 0.00 432.00 432.00 cl
0.00 0.00 432.00 432.00 cl
0.00 0.00 432.00 432.00 cl
0.00 0.00 432.00 432.00 cl
0.00 0.00 432.00 432.00 cl
0.00 0.00 432.00 432.00 cl
0.00 0.00 432.00 432.00 cl
0.00 0.00 432.00 432.00 cl
0.00 0.00 432.00 432.00 cl
ep
%%Trailer
%%Pages: 1
%%EOF
