A[C>A]A	CA	A.A	0.0147027027027027
A[C>A]C	CA	A.C	0.0114594594594595
A[C>A]G	CA	A.G	0.00562162162162162
A[C>A]T	CA	A.T	0.00994594594594595
C[C>A]A	CA	C.A	0.012972972972973
C[C>A]C	CA	C.C	0.0127567567567568
C[C>A]G	CA	C.G	0.00951351351351351
C[C>A]T	CA	C.T	0.0118918918918919
G[C>A]A	CA	G.A	0.0147027027027027
G[C>A]C	CA	G.C	0.0244324324324324
G[C>A]G	CA	G.G	0.0103783783783784
G[C>A]T	CA	G.T	0.0136216216216216
T[C>A]A	CA	T.A	0.00886486486486487
T[C>A]C	CA	T.C	0.0155675675675676
T[C>A]G	CA	T.G	0.00345945945945946
T[C>A]T	CA	T.T	0.0116756756756757
A[C>G]A	CG	A.A	0.00302702702702703
A[C>G]C	CG	A.C	0.008
A[C>G]G	CG	A.G	0.00259459459459459
A[C>G]T	CG	A.T	0.00497297297297297
C[C>G]A	CG	C.A	0.00389189189189189
C[C>G]C	CG	C.C	0.00367567567567568
C[C>G]G	CG	C.G	0.00281081081081081
C[C>G]T	CG	C.T	0.00583783783783784
G[C>G]A	CG	G.A	0.00432432432432432
G[C>G]C	CG	G.C	0.00713513513513513
G[C>G]G	CG	G.G	0.00410810810810811
G[C>G]T	CG	G.T	0.00497297297297297
T[C>G]A	CG	T.A	0.00367567567567568
T[C>G]C	CG	T.C	0.00735135135135135
T[C>G]G	CG	T.G	0.00454054054054054
T[C>G]T	CG	T.T	0.00994594594594595
A[C>T]A	CT	A.A	0.00951351351351351
A[C>T]C	CT	A.C	0.0108108108108108
A[C>T]G	CT	A.G	0.0272432432432432
A[C>T]T	CT	A.T	0.011027027027027
C[C>T]A	CT	C.A	0.0127567567567568
C[C>T]C	CT	C.C	0.0134054054054054
C[C>T]G	CT	C.G	0.0268108108108108
C[C>T]T	CT	C.T	0.0144864864864865
G[C>T]A	CT	G.A	0.0136216216216216
G[C>T]C	CT	G.C	0.0244324324324324
G[C>T]G	CT	G.G	0.0428108108108108
G[C>T]T	CT	G.T	0.011027027027027
T[C>T]A	CT	T.A	0.0125405405405405
T[C>T]C	CT	T.C	0.0179459459459459
T[C>T]G	CT	T.G	0.0177297297297297
T[C>T]T	CT	T.T	0.0136216216216216
A[T>A]A	TA	A.A	0.00821621621621622
A[T>A]C	TA	A.C	0.0105945945945946
A[T>A]G	TA	A.G	0.0144864864864865
A[T>A]T	TA	A.T	0.00735135135135135
C[T>A]A	TA	C.A	0.00475675675675676
C[T>A]C	TA	C.C	0.0140540540540541
C[T>A]G	TA	C.G	0.0298378378378378
C[T>A]T	TA	C.T	0.00972972972972973
G[T>A]A	TA	G.A	0.008
G[T>A]C	TA	G.C	0.00821621621621622
G[T>A]G	TA	G.G	0.0092972972972973
G[T>A]T	TA	G.T	0.00518918918918919
T[T>A]A	TA	T.A	0.00302702702702703
T[T>A]C	TA	T.C	0.008
T[T>A]G	TA	T.G	0.00518918918918919
T[T>A]T	TA	T.T	0.00605405405405405
A[T>C]A	TC	A.A	0.0257297297297297
A[T>C]C	TC	A.C	0.0142702702702703
A[T>C]G	TC	A.G	0.0246486486486486
A[T>C]T	TC	A.T	0.0168648648648649
C[T>C]A	TC	C.A	0.00497297297297297
C[T>C]C	TC	C.C	0.0118918918918919
C[T>C]G	TC	C.G	0.0131891891891892
C[T>C]T	TC	C.T	0.0155675675675676
G[T>C]A	TC	G.A	0.0118918918918919
G[T>C]C	TC	G.C	0.0172972972972973
G[T>C]G	TC	G.G	0.0164324324324324
G[T>C]T	TC	G.T	0.0116756756756757
T[T>C]A	TC	T.A	0.00778378378378378
T[T>C]C	TC	T.C	0.0116756756756757
T[T>C]G	TC	T.G	0.0103783783783784
T[T>C]T	TC	T.T	0.00756756756756757
A[T>G]A	TG	A.A	0.00302702702702703
A[T>G]C	TG	A.C	0.00410810810810811
A[T>G]G	TG	A.G	0.00410810810810811
A[T>G]T	TG	A.T	0.00540540540540541
C[T>G]A	TG	C.A	0.00172972972972973
C[T>G]C	TG	C.C	0.00497297297297297
C[T>G]G	TG	C.G	0.00345945945945946
C[T>G]T	TG	C.T	0.0103783783783784
G[T>G]A	TG	G.A	0.00324324324324324
G[T>G]C	TG	G.C	0.00345945945945946
G[T>G]G	TG	G.G	0.00778378378378378
G[T>G]T	TG	G.T	0.00583783783783784
T[T>G]A	TG	T.A	0.00172972972972973
T[T>G]C	TG	T.C	0.00454054054054054
T[T>G]G	TG	T.G	0.00389189189189189
T[T>G]T	TG	T.T	0.00627027027027027
