%!PS-Adobe-3.0 EPSF-3.0
%%DocumentNeededResources: font Helvetica
%%+ font Helvetica-Bold
%%+ font Helvetica-Oblique
%%+ font Helvetica-BoldOblique
%%+ font Symbol
%%Title: R Graphics Output
%%Creator: R Software
%%Pages: (atend)
%%BoundingBox: 0 0 576 216
%%EndComments
%%BeginProlog
/bp  { gs sRGB gs } def
% begin .ps.prolog
/gs  { gsave } bind def
/gr  { grestore } bind def
/ep  { showpage gr gr } bind def
/m   { moveto } bind def
/l  { rlineto } bind def
/np  { newpath } bind def
/cp  { closepath } bind def
/f   { fill } bind def
/o   { stroke } bind def
/c   { newpath 0 360 arc } bind def
/r   { 4 2 roll moveto 1 copy 3 -1 roll exch 0 exch rlineto 0 rlineto -1 mul 0 exch rlineto closepath } bind def
/p1  { stroke } bind def
/p2  { gsave bg fill grestore newpath } bind def
/p3  { gsave bg fill grestore stroke } bind def
/p6  { gsave bg eofill grestore newpath } bind def
/p7  { gsave bg eofill grestore stroke } bind def
/t   { 5 -2 roll moveto gsave rotate
       1 index stringwidth pop
       mul neg 0 rmoveto show grestore } bind def
/ta  { 4 -2 roll moveto gsave rotate show } bind def
/tb  { 2 -1 roll 0 rmoveto show } bind def
/cl  { grestore gsave newpath 3 index 3 index moveto 1 index
       4 -1 roll lineto  exch 1 index lineto lineto
       closepath clip newpath } bind def
/rgb { setrgbcolor } bind def
/s   { scalefont setfont } bind def
% end   .ps.prolog
/sRGB { [ /CIEBasedABC
          << /DecodeLMN
               [ { dup 0.03928 le
                        {12.92321 div}
                        {0.055 add 1.055 div 2.4 exp }
                     ifelse
                 } bind dup dup
               ]
             /MatrixLMN [0.412457 0.212673 0.019334
                         0.357576 0.715152 0.119192
                         0.180437 0.072175 0.950301]
             /WhitePoint [0.9505 1.0 1.0890]
           >>
         ] setcolorspace } bind def
/srgb { setcolor } bind def
%%IncludeResource: font Helvetica
/Helvetica findfont
dup length dict begin
  {1 index /FID ne {def} {pop pop} ifelse} forall
  /Encoding ISOLatin1Encoding def
  currentdict
  end
/Font1 exch definefont pop
%%IncludeResource: font Helvetica-Bold
/Helvetica-Bold findfont
dup length dict begin
  {1 index /FID ne {def} {pop pop} ifelse} forall
  /Encoding ISOLatin1Encoding def
  currentdict
  end
/Font2 exch definefont pop
%%IncludeResource: font Helvetica-Oblique
/Helvetica-Oblique findfont
dup length dict begin
  {1 index /FID ne {def} {pop pop} ifelse} forall
  /Encoding ISOLatin1Encoding def
  currentdict
  end
/Font3 exch definefont pop
%%IncludeResource: font Helvetica-BoldOblique
/Helvetica-BoldOblique findfont
dup length dict begin
  {1 index /FID ne {def} {pop pop} ifelse} forall
  /Encoding ISOLatin1Encoding def
  currentdict
  end
/Font4 exch definefont pop
%%IncludeResource: font Symbol
/Symbol findfont
dup length dict begin
  {1 index /FID ne {def} {pop pop} ifelse} forall
  currentdict
  end
/Font5 exch definefont pop
%%EndProlog
%%Page: 1 1
bp
0.00 0.00 576.00 216.00 cl
0.00 0.00 576.00 216.00 cl
0.00 0.00 576.00 216.00 cl
0.00 0.00 576.00 216.00 cl
0.00 0.00 576.00 216.00 cl
0.00 0.00 576.00 216.00 cl
0.00 0.00 576.00 216.00 cl
0.00 0.00 576.00 216.00 cl
0.00 0.00 576.00 216.00 cl
0.00 0.00 576.00 216.00 cl
0.00 0.00 576.00 216.00 cl
0.00 0.00 576.00 216.00 cl
0.00 0.00 576.00 216.00 cl
0.00 0.00 576.00 216.00 cl
0.00 0.00 576.00 216.00 cl
0.00 0.00 576.00 216.00 cl
0.00 0.00 576.00 216.00 cl
0.00 0.00 576.00 216.00 cl
0.00 0.00 576.00 216.00 cl
0.00 0.00 576.00 216.00 cl
0.00 0.00 576.00 216.00 cl
0.00 0.00 576.00 216.00 cl
0.00 0.00 576.00 216.00 cl
/bg { 1 1 1 srgb } def
1 1 1 srgb
1.07 setlinewidth
[] 0 setdash
1 setlinecap
1 setlinejoin
10.00 setmiterlimit
0.00 0.00 576.00 216.00 r p3
0.00 0.00 576.00 216.00 cl
35.53 116.18 115.82 193.31 cl
/bg { 1 1 1 srgb } def
35.53 116.18 80.30 77.13 r p2
0.9216 0.9216 0.9216 srgb
0.53 setlinewidth
[] 0 setdash
0 setlinecap
1 setlinejoin
10.00 setmiterlimit
np
35.53 137.22 m
80.29 0 l
o
np
35.53 172.28 m
80.29 0 l
o
1.07 setlinewidth
[] 0 setdash
np
35.53 119.69 m
80.29 0 l
o
np
35.53 154.75 m
80.29 0 l
o
np
35.53 189.81 m
80.29 0 l
o
/bg { 0.1804 0.7294 0.9294 srgb } def
0 0 0 srgb
0.43 setlinewidth
[] 0 setdash
0 setlinejoin
37.01 119.69 2.97 5.15 r p3
41.97 119.69 2.97 4.02 r p3
46.93 119.69 2.97 1.97 r p3
51.88 119.69 2.97 3.49 r p3
56.84 119.69 2.97 4.55 r p3
61.80 119.69 2.97 4.47 r p3
66.75 119.69 2.97 3.34 r p3
71.71 119.69 2.97 4.17 r p3
76.67 119.69 2.97 5.15 r p3
81.62 119.69 2.97 8.57 r p3
86.58 119.69 2.97 3.64 r p3
91.54 119.69 2.97 4.78 r p3
96.49 119.69 2.97 3.11 r p3
101.45 119.69 2.97 5.46 r p3
106.41 119.69 2.97 1.21 r p3
111.36 119.69 2.97 4.09 r p3
0.2000 0.2000 0.2000 srgb
1.07 setlinewidth
[] 0 setdash
1 setlinecap
1 setlinejoin
35.53 116.18 80.30 77.13 r p1
0.00 0.00 576.00 216.00 cl
35.53 33.58 115.82 110.70 cl
/bg { 1 1 1 srgb } def
35.53 33.58 80.30 77.13 r p2
0.9216 0.9216 0.9216 srgb
0.53 setlinewidth
[] 0 setdash
0 setlinecap
1 setlinejoin
10.00 setmiterlimit
np
35.53 54.61 m
80.29 0 l
o
np
35.53 89.67 m
80.29 0 l
o
1.07 setlinewidth
[] 0 setdash
np
35.53 37.08 m
80.29 0 l
o
np
35.53 72.14 m
80.29 0 l
o
np
35.53 107.20 m
80.29 0 l
o
/bg { 0.1804 0.7294 0.9294 srgb } def
0 0 0 srgb
0.43 setlinewidth
[] 0 setdash
0 setlinejoin
37.01 37.08 2.97 1.85 r p3
41.97 37.08 2.97 2.40 r p3
46.93 37.08 2.97 0.55 r p3
51.88 37.08 2.97 3.81 r p3
56.84 37.08 2.97 1.88 r p3
61.80 37.08 2.97 1.52 r p3
66.75 37.08 2.97 1.07 r p3
71.71 37.08 2.97 7.54 r p3
76.67 37.08 2.97 1.27 r p3
81.62 37.08 2.97 1.88 r p3
86.58 37.08 2.97 0.72 r p3
91.54 37.08 2.97 4.43 r p3
96.49 37.08 2.97 6.59 r p3
101.45 37.08 2.97 3.33 r p3
106.41 37.08 2.97 1.03 r p3
111.36 37.08 2.97 72.37 r p3
0.2000 0.2000 0.2000 srgb
1.07 setlinewidth
[] 0 setdash
1 setlinecap
1 setlinejoin
35.53 33.58 80.30 77.13 r p1
0.00 0.00 576.00 216.00 cl
123.02 116.18 203.32 193.31 cl
/bg { 1 1 1 srgb } def
123.02 116.18 80.30 77.13 r p2
0.9216 0.9216 0.9216 srgb
0.53 setlinewidth
[] 0 setdash
0 setlinecap
1 setlinejoin
10.00 setmiterlimit
np
123.02 137.22 m
80.30 0 l
o
np
123.02 172.28 m
80.30 0 l
o
1.07 setlinewidth
[] 0 setdash
np
123.02 119.69 m
80.30 0 l
o
np
123.02 154.75 m
80.30 0 l
o
np
123.02 189.81 m
80.30 0 l
o
/bg { 0 0 0 srgb } def
0 0 0 srgb
0.43 setlinewidth
[] 0 setdash
0 setlinejoin
124.51 119.69 2.97 1.06 r p3
129.47 119.69 2.97 2.80 r p3
134.42 119.69 2.97 0.91 r p3
139.38 119.69 2.97 1.74 r p3
144.34 119.69 2.97 1.36 r p3
149.29 119.69 2.97 1.29 r p3
154.25 119.69 2.97 0.99 r p3
159.21 119.69 2.97 2.05 r p3
164.16 119.69 2.97 1.52 r p3
169.12 119.69 2.97 2.50 r p3
174.08 119.69 2.97 1.44 r p3
179.03 119.69 2.97 1.74 r p3
183.99 119.69 2.97 1.29 r p3
188.95 119.69 2.97 2.58 r p3
193.90 119.69 2.97 1.59 r p3
198.86 119.69 2.97 3.49 r p3
0.2000 0.2000 0.2000 srgb
1.07 setlinewidth
[] 0 setdash
1 setlinecap
1 setlinejoin
123.02 116.18 80.30 77.13 r p1
0.00 0.00 576.00 216.00 cl
123.02 33.58 203.32 110.70 cl
/bg { 1 1 1 srgb } def
123.02 33.58 80.30 77.13 r p2
0.9216 0.9216 0.9216 srgb
0.53 setlinewidth
[] 0 setdash
0 setlinecap
1 setlinejoin
10.00 setmiterlimit
np
123.02 54.61 m
80.30 0 l
o
np
123.02 89.67 m
80.30 0 l
o
1.07 setlinewidth
[] 0 setdash
np
123.02 37.08 m
80.30 0 l
o
np
123.02 72.14 m
80.30 0 l
o
np
123.02 107.20 m
80.30 0 l
o
/bg { 0 0 0 srgb } def
0 0 0 srgb
0.43 setlinewidth
[] 0 setdash
0 setlinejoin
124.51 37.08 2.97 0.56 r p3
129.47 37.08 2.97 0.73 r p3
134.42 37.08 2.97 0.44 r p3
139.38 37.08 2.97 0.71 r p3
144.34 37.08 2.97 0.27 r p3
149.29 37.08 2.97 0.14 r p3
154.25 37.08 2.97 0.24 r p3
159.21 37.08 2.97 0.47 r p3
164.16 37.08 2.97 0.41 r p3
169.12 37.08 2.97 0.68 r p3
174.08 37.08 2.97 0.37 r p3
179.03 37.08 2.97 0.66 r p3
183.99 37.08 2.97 0.38 r p3
188.95 37.08 2.97 0.44 r p3
193.90 37.08 2.97 0.51 r p3
198.86 37.08 2.97 0.82 r p3
0.2000 0.2000 0.2000 srgb
1.07 setlinewidth
[] 0 setdash
1 setlinecap
1 setlinejoin
123.02 33.58 80.30 77.13 r p1
0.00 0.00 576.00 216.00 cl
210.52 116.18 290.82 193.31 cl
/bg { 1 1 1 srgb } def
210.52 116.18 80.30 77.13 r p2
0.9216 0.9216 0.9216 srgb
0.53 setlinewidth
[] 0 setdash
0 setlinecap
1 setlinejoin
10.00 setmiterlimit
np
210.52 137.22 m
80.30 0 l
o
np
210.52 172.28 m
80.30 0 l
o
1.07 setlinewidth
[] 0 setdash
np
210.52 119.69 m
80.30 0 l
o
np
210.52 154.75 m
80.30 0 l
o
np
210.52 189.81 m
80.30 0 l
o
/bg { 0.8706 0.1098 0.0784 srgb } def
0 0 0 srgb
0.43 setlinewidth
[] 0 setdash
0 setlinejoin
212.01 119.69 2.97 3.34 r p3
216.97 119.69 2.97 3.79 r p3
221.92 119.69 2.97 9.55 r p3
226.88 119.69 2.97 3.87 r p3
231.84 119.69 2.97 4.47 r p3
236.79 119.69 2.97 4.70 r p3
241.75 119.69 2.97 9.40 r p3
246.71 119.69 2.97 5.08 r p3
251.66 119.69 2.97 4.78 r p3
256.62 119.69 2.97 8.57 r p3
261.57 119.69 2.97 15.01 r p3
266.53 119.69 2.97 3.87 r p3
271.49 119.69 2.97 4.40 r p3
276.44 119.69 2.97 6.29 r p3
281.40 119.69 2.97 6.22 r p3
286.36 119.69 2.97 4.78 r p3
0.2000 0.2000 0.2000 srgb
1.07 setlinewidth
[] 0 setdash
1 setlinecap
1 setlinejoin
210.52 116.18 80.30 77.13 r p1
0.00 0.00 576.00 216.00 cl
210.52 33.58 290.82 110.70 cl
/bg { 1 1 1 srgb } def
210.52 33.58 80.30 77.13 r p2
0.9216 0.9216 0.9216 srgb
0.53 setlinewidth
[] 0 setdash
0 setlinecap
1 setlinejoin
10.00 setmiterlimit
np
210.52 54.61 m
80.30 0 l
o
np
210.52 89.67 m
80.30 0 l
o
1.07 setlinewidth
[] 0 setdash
np
210.52 37.08 m
80.30 0 l
o
np
210.52 72.14 m
80.30 0 l
o
np
210.52 107.20 m
80.30 0 l
o
/bg { 0.8706 0.1098 0.0784 srgb } def
0 0 0 srgb
0.43 setlinewidth
[] 0 setdash
0 setlinejoin
212.01 37.08 2.97 2.03 r p3
216.97 37.08 2.97 2.53 r p3
221.92 37.08 2.97 13.23 r p3
226.88 37.08 2.97 2.32 r p3
231.84 37.08 2.97 1.37 r p3
236.79 37.08 2.97 1.74 r p3
241.75 37.08 2.97 11.69 r p3
246.71 37.08 2.97 1.55 r p3
251.66 37.08 2.97 3.56 r p3
256.62 37.08 2.97 7.58 r p3
261.57 37.08 2.97 18.13 r p3
266.53 37.08 2.97 5.82 r p3
271.49 37.08 2.97 1.92 r p3
276.44 37.08 2.97 5.46 r p3
281.40 37.08 2.97 43.49 r p3
286.36 37.08 2.97 7.33 r p3
0.2000 0.2000 0.2000 srgb
1.07 setlinewidth
[] 0 setdash
1 setlinecap
1 setlinejoin
210.52 33.58 80.30 77.13 r p1
0.00 0.00 576.00 216.00 cl
298.02 116.18 378.32 193.31 cl
/bg { 1 1 1 srgb } def
298.02 116.18 80.30 77.13 r p2
0.9216 0.9216 0.9216 srgb
0.53 setlinewidth
[] 0 setdash
0 setlinecap
1 setlinejoin
10.00 setmiterlimit
np
298.02 137.22 m
80.30 0 l
o
np
298.02 172.28 m
80.30 0 l
o
1.07 setlinewidth
[] 0 setdash
np
298.02 119.69 m
80.30 0 l
o
np
298.02 154.75 m
80.30 0 l
o
np
298.02 189.81 m
80.30 0 l
o
/bg { 0.8314 0.8235 0.8235 srgb } def
0 0 0 srgb
0.43 setlinewidth
[] 0 setdash
0 setlinejoin
299.51 119.69 2.97 2.88 r p3
304.46 119.69 2.97 3.71 r p3
309.42 119.69 2.97 5.08 r p3
314.38 119.69 2.97 2.58 r p3
319.33 119.69 2.97 1.67 r p3
324.29 119.69 2.97 4.93 r p3
329.25 119.69 2.97 10.46 r p3
334.20 119.69 2.97 3.41 r p3
339.16 119.69 2.97 2.80 r p3
344.12 119.69 2.97 2.88 r p3
349.07 119.69 2.97 3.26 r p3
354.03 119.69 2.97 1.82 r p3
358.99 119.69 2.97 1.06 r p3
363.94 119.69 2.97 2.80 r p3
368.90 119.69 2.97 1.82 r p3
373.86 119.69 2.97 2.12 r p3
0.2000 0.2000 0.2000 srgb
1.07 setlinewidth
[] 0 setdash
1 setlinecap
1 setlinejoin
298.02 116.18 80.30 77.13 r p1
0.00 0.00 576.00 216.00 cl
298.02 33.58 378.32 110.70 cl
/bg { 1 1 1 srgb } def
298.02 33.58 80.30 77.13 r p2
0.9216 0.9216 0.9216 srgb
0.53 setlinewidth
[] 0 setdash
0 setlinecap
1 setlinejoin
10.00 setmiterlimit
np
298.02 54.61 m
80.30 0 l
o
np
298.02 89.67 m
80.30 0 l
o
1.07 setlinewidth
[] 0 setdash
np
298.02 37.08 m
80.30 0 l
o
np
298.02 72.14 m
80.30 0 l
o
np
298.02 107.20 m
80.30 0 l
o
/bg { 0.8314 0.8235 0.8235 srgb } def
0 0 0 srgb
0.43 setlinewidth
[] 0 setdash
0 setlinejoin
299.51 37.08 2.97 0.35 r p3
304.46 37.08 2.97 0.71 r p3
309.42 37.08 2.97 0.34 r p3
314.38 37.08 2.97 1.48 r p3
319.33 37.08 2.97 0.06 r p3
324.29 37.08 2.97 0.58 r p3
329.25 37.08 2.97 0.52 r p3
334.20 37.08 2.97 0.59 r p3
339.16 37.08 2.97 0.31 r p3
344.12 37.08 2.97 0.27 r p3
349.07 37.08 2.97 0.17 r p3
354.03 37.08 2.97 0.58 r p3
358.99 37.08 2.97 0.06 r p3
363.94 37.08 2.97 0.42 r p3
368.90 37.08 2.97 0.25 r p3
373.86 37.08 2.97 1.13 r p3
0.2000 0.2000 0.2000 srgb
1.07 setlinewidth
[] 0 setdash
1 setlinecap
1 setlinejoin
298.02 33.58 80.30 77.13 r p1
0.00 0.00 576.00 216.00 cl
385.52 116.18 465.81 193.31 cl
/bg { 1 1 1 srgb } def
385.52 116.18 80.30 77.13 r p2
0.9216 0.9216 0.9216 srgb
0.53 setlinewidth
[] 0 setdash
0 setlinecap
1 setlinejoin
10.00 setmiterlimit
np
385.52 137.22 m
80.29 0 l
o
np
385.52 172.28 m
80.29 0 l
o
1.07 setlinewidth
[] 0 setdash
np
385.52 119.69 m
80.29 0 l
o
np
385.52 154.75 m
80.29 0 l
o
np
385.52 189.81 m
80.29 0 l
o
/bg { 0.6784 0.8000 0.3294 srgb } def
0 0 0 srgb
0.43 setlinewidth
[] 0 setdash
0 setlinejoin
387.00 119.69 2.97 9.02 r p3
391.96 119.69 2.97 5.00 r p3
396.92 119.69 2.97 8.64 r p3
401.87 119.69 2.97 5.91 r p3
406.83 119.69 2.97 1.74 r p3
411.79 119.69 2.97 4.17 r p3
416.74 119.69 2.97 4.62 r p3
421.70 119.69 2.97 5.46 r p3
426.66 119.69 2.97 4.17 r p3
431.61 119.69 2.97 6.06 r p3
436.57 119.69 2.97 5.76 r p3
441.53 119.69 2.97 4.09 r p3
446.48 119.69 2.97 2.73 r p3
451.44 119.69 2.97 4.09 r p3
456.40 119.69 2.97 3.64 r p3
461.35 119.69 2.97 2.65 r p3
0.2000 0.2000 0.2000 srgb
1.07 setlinewidth
[] 0 setdash
1 setlinecap
1 setlinejoin
385.52 116.18 80.30 77.13 r p1
0.00 0.00 576.00 216.00 cl
385.52 33.58 465.81 110.70 cl
/bg { 1 1 1 srgb } def
385.52 33.58 80.30 77.13 r p2
0.9216 0.9216 0.9216 srgb
0.53 setlinewidth
[] 0 setdash
0 setlinecap
1 setlinejoin
10.00 setmiterlimit
np
385.52 54.61 m
80.29 0 l
o
np
385.52 89.67 m
80.29 0 l
o
1.07 setlinewidth
[] 0 setdash
np
385.52 37.08 m
80.29 0 l
o
np
385.52 72.14 m
80.29 0 l
o
np
385.52 107.20 m
80.29 0 l
o
/bg { 0.6784 0.8000 0.3294 srgb } def
0 0 0 srgb
0.43 setlinewidth
[] 0 setdash
0 setlinejoin
387.00 37.08 2.97 1.95 r p3
391.96 37.08 2.97 2.57 r p3
396.92 37.08 2.97 3.76 r p3
401.87 37.08 2.97 2.23 r p3
406.83 37.08 2.97 0.86 r p3
411.79 37.08 2.97 2.46 r p3
416.74 37.08 2.97 3.23 r p3
421.70 37.08 2.97 1.62 r p3
426.66 37.08 2.97 2.85 r p3
431.61 37.08 2.97 3.43 r p3
436.57 37.08 2.97 2.87 r p3
441.53 37.08 2.97 3.61 r p3
446.48 37.08 2.97 1.37 r p3
451.44 37.08 2.97 3.59 r p3
456.40 37.08 2.97 2.64 r p3
461.35 37.08 2.97 2.71 r p3
0.2000 0.2000 0.2000 srgb
1.07 setlinewidth
[] 0 setdash
1 setlinecap
1 setlinejoin
385.52 33.58 80.30 77.13 r p1
0.00 0.00 576.00 216.00 cl
473.01 116.18 553.31 193.31 cl
/bg { 1 1 1 srgb } def
473.01 116.18 80.30 77.13 r p2
0.9216 0.9216 0.9216 srgb
0.53 setlinewidth
[] 0 setdash
0 setlinecap
1 setlinejoin
10.00 setmiterlimit
np
473.01 137.22 m
80.30 0 l
o
np
473.01 172.28 m
80.30 0 l
o
1.07 setlinewidth
[] 0 setdash
np
473.01 119.69 m
80.30 0 l
o
np
473.01 154.75 m
80.30 0 l
o
np
473.01 189.81 m
80.30 0 l
o
/bg { 0.9412 0.8157 0.8078 srgb } def
0 0 0 srgb
0.43 setlinewidth
[] 0 setdash
0 setlinejoin
474.50 119.69 2.97 1.06 r p3
479.46 119.69 2.97 1.44 r p3
484.41 119.69 2.97 1.44 r p3
489.37 119.69 2.97 1.90 r p3
494.33 119.69 2.97 0.61 r p3
499.28 119.69 2.97 1.74 r p3
504.24 119.69 2.97 1.21 r p3
509.20 119.69 2.97 3.64 r p3
514.15 119.69 2.97 1.14 r p3
519.11 119.69 2.97 1.21 r p3
524.07 119.69 2.97 2.73 r p3
529.02 119.69 2.97 2.05 r p3
533.98 119.69 2.97 0.61 r p3
538.94 119.69 2.97 1.59 r p3
543.89 119.69 2.97 1.36 r p3
548.85 119.69 2.97 2.20 r p3
0.2000 0.2000 0.2000 srgb
1.07 setlinewidth
[] 0 setdash
1 setlinecap
1 setlinejoin
473.01 116.18 80.30 77.13 r p1
0.00 0.00 576.00 216.00 cl
473.01 33.58 553.31 110.70 cl
/bg { 1 1 1 srgb } def
473.01 33.58 80.30 77.13 r p2
0.9216 0.9216 0.9216 srgb
0.53 setlinewidth
[] 0 setdash
0 setlinecap
1 setlinejoin
10.00 setmiterlimit
np
473.01 54.61 m
80.30 0 l
o
np
473.01 89.67 m
80.30 0 l
o
1.07 setlinewidth
[] 0 setdash
np
473.01 37.08 m
80.30 0 l
o
np
473.01 72.14 m
80.30 0 l
o
np
473.01 107.20 m
80.30 0 l
o
/bg { 0.9412 0.8157 0.8078 srgb } def
0 0 0 srgb
0.43 setlinewidth
[] 0 setdash
0 setlinejoin
474.50 37.08 2.97 0.61 r p3
479.46 37.08 2.97 1.51 r p3
484.41 37.08 2.97 0.90 r p3
489.37 37.08 2.97 5.41 r p3
494.33 37.08 2.97 0.45 r p3
499.28 37.08 2.97 0.90 r p3
504.24 37.08 2.97 1.06 r p3
509.20 37.08 2.97 5.83 r p3
514.15 37.08 2.97 0.66 r p3
519.11 37.08 2.97 1.17 r p3
524.07 37.08 2.97 2.60 r p3
529.02 37.08 2.97 2.91 r p3
533.98 37.08 2.97 1.41 r p3
538.94 37.08 2.97 2.75 r p3
543.89 37.08 2.97 1.17 r p3
548.85 37.08 2.97 21.84 r p3
0.2000 0.2000 0.2000 srgb
1.07 setlinewidth
[] 0 setdash
1 setlinecap
1 setlinejoin
473.01 33.58 80.30 77.13 r p1
0.00 0.00 576.00 216.00 cl
35.53 193.31 115.82 210.52 cl
/bg { 0.8510 0.8510 0.8510 srgb } def
0.2000 0.2000 0.2000 srgb
1.07 setlinewidth
[] 0 setdash
1 setlinecap
1 setlinejoin
10.00 setmiterlimit
35.53 193.31 80.30 17.21 r p3
/Font1 findfont 9 s
0.1020 0.1020 0.1020 srgb
75.68 198.68 (C>A) .5 0 t
35.53 193.31 115.82 210.52 cl
35.53 193.31 115.82 210.52 cl
35.53 193.31 115.82 210.52 cl
0.00 0.00 576.00 216.00 cl
123.02 193.31 203.32 210.52 cl
/bg { 0.8510 0.8510 0.8510 srgb } def
0.2000 0.2000 0.2000 srgb
1.07 setlinewidth
[] 0 setdash
1 setlinecap
1 setlinejoin
10.00 setmiterlimit
123.02 193.31 80.30 17.21 r p3
/Font1 findfont 9 s
0.1020 0.1020 0.1020 srgb
163.17 198.68 (C>G) .5 0 t
123.02 193.31 203.32 210.52 cl
123.02 193.31 203.32 210.52 cl
123.02 193.31 203.32 210.52 cl
0.00 0.00 576.00 216.00 cl
210.52 193.31 290.82 210.52 cl
/bg { 0.8510 0.8510 0.8510 srgb } def
0.2000 0.2000 0.2000 srgb
1.07 setlinewidth
[] 0 setdash
1 setlinecap
1 setlinejoin
10.00 setmiterlimit
210.52 193.31 80.30 17.21 r p3
/Font1 findfont 9 s
0.1020 0.1020 0.1020 srgb
250.67 198.68 (C>T) .5 0 t
210.52 193.31 290.82 210.52 cl
210.52 193.31 290.82 210.52 cl
210.52 193.31 290.82 210.52 cl
0.00 0.00 576.00 216.00 cl
298.02 193.31 378.32 210.52 cl
/bg { 0.8510 0.8510 0.8510 srgb } def
0.2000 0.2000 0.2000 srgb
1.07 setlinewidth
[] 0 setdash
1 setlinecap
1 setlinejoin
10.00 setmiterlimit
298.02 193.31 80.30 17.21 r p3
/Font1 findfont 9 s
0.1020 0.1020 0.1020 srgb
338.17 198.68 (T>A) .5 0 t
298.02 193.31 378.32 210.52 cl
298.02 193.31 378.32 210.52 cl
298.02 193.31 378.32 210.52 cl
0.00 0.00 576.00 216.00 cl
385.52 193.31 465.81 210.52 cl
/bg { 0.8510 0.8510 0.8510 srgb } def
0.2000 0.2000 0.2000 srgb
1.07 setlinewidth
[] 0 setdash
1 setlinecap
1 setlinejoin
10.00 setmiterlimit
385.52 193.31 80.30 17.21 r p3
/Font1 findfont 9 s
0.1020 0.1020 0.1020 srgb
425.67 198.68 (T>C) .5 0 t
385.52 193.31 465.81 210.52 cl
385.52 193.31 465.81 210.52 cl
385.52 193.31 465.81 210.52 cl
0.00 0.00 576.00 216.00 cl
473.01 193.31 553.31 210.52 cl
/bg { 0.8510 0.8510 0.8510 srgb } def
0.2000 0.2000 0.2000 srgb
1.07 setlinewidth
[] 0 setdash
1 setlinecap
1 setlinejoin
10.00 setmiterlimit
473.01 193.31 80.30 17.21 r p3
/Font1 findfont 9 s
0.1020 0.1020 0.1020 srgb
513.16 198.68 (T>G) .5 0 t
473.01 193.31 553.31 210.52 cl
473.01 193.31 553.31 210.52 cl
473.01 193.31 553.31 210.52 cl
0.00 0.00 576.00 216.00 cl
553.31 116.18 570.52 193.31 cl
/bg { 0.8510 0.8510 0.8510 srgb } def
0.2000 0.2000 0.2000 srgb
1.07 setlinewidth
[] 0 setdash
1 setlinecap
1 setlinejoin
10.00 setmiterlimit
553.31 116.18 17.21 77.13 r p3
/Font1 findfont 9 s
0.1020 0.1020 0.1020 srgb
558.68 163.00 (liv) -90.00 ta
-0.225 (er) tb gr
553.31 116.18 570.52 193.31 cl
553.31 116.18 570.52 193.31 cl
553.31 116.18 570.52 193.31 cl
0.00 0.00 576.00 216.00 cl
553.31 33.58 570.52 110.70 cl
/bg { 0.8510 0.8510 0.8510 srgb } def
0.2000 0.2000 0.2000 srgb
1.07 setlinewidth
[] 0 setdash
1 setlinecap
1 setlinejoin
10.00 setmiterlimit
553.31 33.58 17.21 77.13 r p3
/Font1 findfont 9 s
0.1020 0.1020 0.1020 srgb
558.68 97.15 (endometr) -90.00 ta
0.135 (iod) tb gr
553.31 33.58 570.52 110.70 cl
553.31 33.58 570.52 110.70 cl
553.31 33.58 570.52 110.70 cl
0.00 0.00 576.00 216.00 cl
0.00 0.00 576.00 216.00 cl
0.00 0.00 576.00 216.00 cl
0.00 0.00 576.00 216.00 cl
0.00 0.00 576.00 216.00 cl
0.00 0.00 576.00 216.00 cl
0.00 0.00 576.00 216.00 cl
0.00 0.00 576.00 216.00 cl
0.00 0.00 576.00 216.00 cl
0.00 0.00 576.00 216.00 cl
0.00 0.00 576.00 216.00 cl
0.00 0.00 576.00 216.00 cl
0.00 0.00 576.00 216.00 cl
0.00 0.00 576.00 216.00 cl
0.00 0.00 576.00 216.00 cl
0.00 0.00 576.00 216.00 cl
0.00 0.00 576.00 216.00 cl
0.00 0.00 576.00 216.00 cl
0.2000 0.2000 0.2000 srgb
1.07 setlinewidth
[] 0 setdash
0 setlinecap
1 setlinejoin
10.00 setmiterlimit
np
38.50 30.84 m
0 2.74 l
o
np
43.46 30.84 m
0 2.74 l
o
np
48.41 30.84 m
0 2.74 l
o
np
53.37 30.84 m
0 2.74 l
o
np
58.33 30.84 m
0 2.74 l
o
np
63.28 30.84 m
0 2.74 l
o
np
68.24 30.84 m
0 2.74 l
o
np
73.20 30.84 m
0 2.74 l
o
np
78.15 30.84 m
0 2.74 l
o
np
83.11 30.84 m
0 2.74 l
o
np
88.07 30.84 m
0 2.74 l
o
np
93.02 30.84 m
0 2.74 l
o
np
97.98 30.84 m
0 2.74 l
o
np
102.94 30.84 m
0 2.74 l
o
np
107.89 30.84 m
0 2.74 l
o
np
112.85 30.84 m
0 2.74 l
o
0.00 0.00 576.00 216.00 cl
0.00 0.00 576.00 216.00 cl
/Font1 findfont 5 s
0.3020 0.3020 0.3020 srgb
40.30 24.06 (A.A) .5 90 t
45.25 24.06 (A.C) .5 90 t
50.21 24.06 (A.G) .5 90 t
55.17 24.06 (A.T) .5 90 t
60.12 24.06 (C.A) .5 90 t
65.08 24.06 (C.C) .5 90 t
70.04 24.06 (C.G) .5 90 t
74.99 24.06 (C.T) .5 90 t
79.95 24.06 (G.A) .5 90 t
84.91 24.06 (G.C) .5 90 t
89.86 24.06 (G.G) .5 90 t
94.82 24.06 (G.T) .5 90 t
99.78 20.17 (T) 90 ta
-0.600 (.A) tb gr
104.73 20.03 (T) 90 ta
-0.600 (.C) tb gr
109.69 19.89 (T) 90 ta
-0.600 (.G) tb gr
114.65 20.31 (T) 90 ta
-0.600 (.T) tb gr
0.00 0.00 576.00 216.00 cl
0.00 0.00 576.00 216.00 cl
0.00 0.00 576.00 216.00 cl
0.00 0.00 576.00 216.00 cl
0.00 0.00 576.00 216.00 cl
0.00 0.00 576.00 216.00 cl
0.00 0.00 576.00 216.00 cl
0.00 0.00 576.00 216.00 cl
0.00 0.00 576.00 216.00 cl
0.00 0.00 576.00 216.00 cl
0.2000 0.2000 0.2000 srgb
1.07 setlinewidth
[] 0 setdash
0 setlinecap
1 setlinejoin
10.00 setmiterlimit
np
126.00 30.84 m
0 2.74 l
o
np
130.95 30.84 m
0 2.74 l
o
np
135.91 30.84 m
0 2.74 l
o
np
140.87 30.84 m
0 2.74 l
o
np
145.82 30.84 m
0 2.74 l
o
np
150.78 30.84 m
0 2.74 l
o
np
155.74 30.84 m
0 2.74 l
o
np
160.69 30.84 m
0 2.74 l
o
np
165.65 30.84 m
0 2.74 l
o
np
170.61 30.84 m
0 2.74 l
o
np
175.56 30.84 m
0 2.74 l
o
np
180.52 30.84 m
0 2.74 l
o
np
185.48 30.84 m
0 2.74 l
o
np
190.43 30.84 m
0 2.74 l
o
np
195.39 30.84 m
0 2.74 l
o
np
200.35 30.84 m
0 2.74 l
o
0.00 0.00 576.00 216.00 cl
0.00 0.00 576.00 216.00 cl
/Font1 findfont 5 s
0.3020 0.3020 0.3020 srgb
127.79 24.06 (A.A) .5 90 t
132.75 24.06 (A.C) .5 90 t
137.71 24.06 (A.G) .5 90 t
142.66 24.06 (A.T) .5 90 t
147.62 24.06 (C.A) .5 90 t
152.58 24.06 (C.C) .5 90 t
157.53 24.06 (C.G) .5 90 t
162.49 24.06 (C.T) .5 90 t
167.45 24.06 (G.A) .5 90 t
172.40 24.06 (G.C) .5 90 t
177.36 24.06 (G.G) .5 90 t
182.32 24.06 (G.T) .5 90 t
187.27 20.17 (T) 90 ta
-0.600 (.A) tb gr
192.23 20.03 (T) 90 ta
-0.600 (.C) tb gr
197.19 19.89 (T) 90 ta
-0.600 (.G) tb gr
202.14 20.31 (T) 90 ta
-0.600 (.T) tb gr
0.00 0.00 576.00 216.00 cl
0.00 0.00 576.00 216.00 cl
0.00 0.00 576.00 216.00 cl
0.00 0.00 576.00 216.00 cl
0.00 0.00 576.00 216.00 cl
0.00 0.00 576.00 216.00 cl
0.00 0.00 576.00 216.00 cl
0.00 0.00 576.00 216.00 cl
0.00 0.00 576.00 216.00 cl
0.00 0.00 576.00 216.00 cl
0.2000 0.2000 0.2000 srgb
1.07 setlinewidth
[] 0 setdash
0 setlinecap
1 setlinejoin
10.00 setmiterlimit
np
213.50 30.84 m
0 2.74 l
o
np
218.45 30.84 m
0 2.74 l
o
np
223.41 30.84 m
0 2.74 l
o
np
228.37 30.84 m
0 2.74 l
o
np
233.32 30.84 m
0 2.74 l
o
np
238.28 30.84 m
0 2.74 l
o
np
243.24 30.84 m
0 2.74 l
o
np
248.19 30.84 m
0 2.74 l
o
np
253.15 30.84 m
0 2.74 l
o
np
258.11 30.84 m
0 2.74 l
o
np
263.06 30.84 m
0 2.74 l
o
np
268.02 30.84 m
0 2.74 l
o
np
272.98 30.84 m
0 2.74 l
o
np
277.93 30.84 m
0 2.74 l
o
np
282.89 30.84 m
0 2.74 l
o
np
287.85 30.84 m
0 2.74 l
o
0.00 0.00 576.00 216.00 cl
0.00 0.00 576.00 216.00 cl
/Font1 findfont 5 s
0.3020 0.3020 0.3020 srgb
215.29 24.06 (A.A) .5 90 t
220.25 24.06 (A.C) .5 90 t
225.20 24.06 (A.G) .5 90 t
230.16 24.06 (A.T) .5 90 t
235.12 24.06 (C.A) .5 90 t
240.07 24.06 (C.C) .5 90 t
245.03 24.06 (C.G) .5 90 t
249.99 24.06 (C.T) .5 90 t
254.94 24.06 (G.A) .5 90 t
259.90 24.06 (G.C) .5 90 t
264.86 24.06 (G.G) .5 90 t
269.81 24.06 (G.T) .5 90 t
274.77 20.17 (T) 90 ta
-0.600 (.A) tb gr
279.73 20.03 (T) 90 ta
-0.600 (.C) tb gr
284.68 19.89 (T) 90 ta
-0.600 (.G) tb gr
289.64 20.31 (T) 90 ta
-0.600 (.T) tb gr
0.00 0.00 576.00 216.00 cl
0.00 0.00 576.00 216.00 cl
0.00 0.00 576.00 216.00 cl
0.00 0.00 576.00 216.00 cl
0.00 0.00 576.00 216.00 cl
0.00 0.00 576.00 216.00 cl
0.00 0.00 576.00 216.00 cl
0.00 0.00 576.00 216.00 cl
0.00 0.00 576.00 216.00 cl
0.00 0.00 576.00 216.00 cl
0.2000 0.2000 0.2000 srgb
1.07 setlinewidth
[] 0 setdash
0 setlinecap
1 setlinejoin
10.00 setmiterlimit
np
300.99 30.84 m
0 2.74 l
o
np
305.95 30.84 m
0 2.74 l
o
np
310.91 30.84 m
0 2.74 l
o
np
315.86 30.84 m
0 2.74 l
o
np
320.82 30.84 m
0 2.74 l
o
np
325.78 30.84 m
0 2.74 l
o
np
330.73 30.84 m
0 2.74 l
o
np
335.69 30.84 m
0 2.74 l
o
np
340.65 30.84 m
0 2.74 l
o
np
345.60 30.84 m
0 2.74 l
o
np
350.56 30.84 m
0 2.74 l
o
np
355.52 30.84 m
0 2.74 l
o
np
360.47 30.84 m
0 2.74 l
o
np
365.43 30.84 m
0 2.74 l
o
np
370.39 30.84 m
0 2.74 l
o
np
375.34 30.84 m
0 2.74 l
o
0.00 0.00 576.00 216.00 cl
0.00 0.00 576.00 216.00 cl
/Font1 findfont 5 s
0.3020 0.3020 0.3020 srgb
302.79 24.06 (A.A) .5 90 t
307.74 24.06 (A.C) .5 90 t
312.70 24.06 (A.G) .5 90 t
317.66 24.06 (A.T) .5 90 t
322.61 24.06 (C.A) .5 90 t
327.57 24.06 (C.C) .5 90 t
332.53 24.06 (C.G) .5 90 t
337.48 24.06 (C.T) .5 90 t
342.44 24.06 (G.A) .5 90 t
347.40 24.06 (G.C) .5 90 t
352.35 24.06 (G.G) .5 90 t
357.31 24.06 (G.T) .5 90 t
362.27 20.17 (T) 90 ta
-0.600 (.A) tb gr
367.22 20.03 (T) 90 ta
-0.600 (.C) tb gr
372.18 19.89 (T) 90 ta
-0.600 (.G) tb gr
377.14 20.31 (T) 90 ta
-0.600 (.T) tb gr
0.00 0.00 576.00 216.00 cl
0.00 0.00 576.00 216.00 cl
0.00 0.00 576.00 216.00 cl
0.00 0.00 576.00 216.00 cl
0.00 0.00 576.00 216.00 cl
0.00 0.00 576.00 216.00 cl
0.00 0.00 576.00 216.00 cl
0.00 0.00 576.00 216.00 cl
0.00 0.00 576.00 216.00 cl
0.00 0.00 576.00 216.00 cl
0.2000 0.2000 0.2000 srgb
1.07 setlinewidth
[] 0 setdash
0 setlinecap
1 setlinejoin
10.00 setmiterlimit
np
388.49 30.84 m
0 2.74 l
o
np
393.45 30.84 m
0 2.74 l
o
np
398.40 30.84 m
0 2.74 l
o
np
403.36 30.84 m
0 2.74 l
o
np
408.32 30.84 m
0 2.74 l
o
np
413.27 30.84 m
0 2.74 l
o
np
418.23 30.84 m
0 2.74 l
o
np
423.19 30.84 m
0 2.74 l
o
np
428.14 30.84 m
0 2.74 l
o
np
433.10 30.84 m
0 2.74 l
o
np
438.06 30.84 m
0 2.74 l
o
np
443.01 30.84 m
0 2.74 l
o
np
447.97 30.84 m
0 2.74 l
o
np
452.93 30.84 m
0 2.74 l
o
np
457.88 30.84 m
0 2.74 l
o
np
462.84 30.84 m
0 2.74 l
o
0.00 0.00 576.00 216.00 cl
0.00 0.00 576.00 216.00 cl
/Font1 findfont 5 s
0.3020 0.3020 0.3020 srgb
390.29 24.06 (A.A) .5 90 t
395.24 24.06 (A.C) .5 90 t
400.20 24.06 (A.G) .5 90 t
405.16 24.06 (A.T) .5 90 t
410.11 24.06 (C.A) .5 90 t
415.07 24.06 (C.C) .5 90 t
420.03 24.06 (C.G) .5 90 t
424.98 24.06 (C.T) .5 90 t
429.94 24.06 (G.A) .5 90 t
434.90 24.06 (G.C) .5 90 t
439.85 24.06 (G.G) .5 90 t
444.81 24.06 (G.T) .5 90 t
449.77 20.17 (T) 90 ta
-0.600 (.A) tb gr
454.72 20.03 (T) 90 ta
-0.600 (.C) tb gr
459.68 19.89 (T) 90 ta
-0.600 (.G) tb gr
464.63 20.31 (T) 90 ta
-0.600 (.T) tb gr
0.00 0.00 576.00 216.00 cl
0.00 0.00 576.00 216.00 cl
0.00 0.00 576.00 216.00 cl
0.00 0.00 576.00 216.00 cl
0.00 0.00 576.00 216.00 cl
0.00 0.00 576.00 216.00 cl
0.00 0.00 576.00 216.00 cl
0.00 0.00 576.00 216.00 cl
0.00 0.00 576.00 216.00 cl
0.00 0.00 576.00 216.00 cl
0.2000 0.2000 0.2000 srgb
1.07 setlinewidth
[] 0 setdash
0 setlinecap
1 setlinejoin
10.00 setmiterlimit
np
475.99 30.84 m
0 2.74 l
o
np
480.94 30.84 m
0 2.74 l
o
np
485.90 30.84 m
0 2.74 l
o
np
490.86 30.84 m
0 2.74 l
o
np
495.81 30.84 m
0 2.74 l
o
np
500.77 30.84 m
0 2.74 l
o
np
505.73 30.84 m
0 2.74 l
o
np
510.68 30.84 m
0 2.74 l
o
np
515.64 30.84 m
0 2.74 l
o
np
520.60 30.84 m
0 2.74 l
o
np
525.55 30.84 m
0 2.74 l
o
np
530.51 30.84 m
0 2.74 l
o
np
535.47 30.84 m
0 2.74 l
o
np
540.42 30.84 m
0 2.74 l
o
np
545.38 30.84 m
0 2.74 l
o
np
550.34 30.84 m
0 2.74 l
o
0.00 0.00 576.00 216.00 cl
0.00 0.00 576.00 216.00 cl
/Font1 findfont 5 s
0.3020 0.3020 0.3020 srgb
477.78 24.06 (A.A) .5 90 t
482.74 24.06 (A.C) .5 90 t
487.70 24.06 (A.G) .5 90 t
492.65 24.06 (A.T) .5 90 t
497.61 24.06 (C.A) .5 90 t
502.57 24.06 (C.C) .5 90 t
507.52 24.06 (C.G) .5 90 t
512.48 24.06 (C.T) .5 90 t
517.44 24.06 (G.A) .5 90 t
522.39 24.06 (G.C) .5 90 t
527.35 24.06 (G.G) .5 90 t
532.31 24.06 (G.T) .5 90 t
537.26 20.17 (T) 90 ta
-0.600 (.A) tb gr
542.22 20.03 (T) 90 ta
-0.600 (.C) tb gr
547.18 19.89 (T) 90 ta
-0.600 (.G) tb gr
552.13 20.31 (T) 90 ta
-0.600 (.T) tb gr
0.00 0.00 576.00 216.00 cl
0.00 0.00 576.00 216.00 cl
0.00 0.00 576.00 216.00 cl
0.00 0.00 576.00 216.00 cl
0.00 0.00 576.00 216.00 cl
0.00 0.00 576.00 216.00 cl
0.00 0.00 576.00 216.00 cl
0.00 0.00 576.00 216.00 cl
0.00 0.00 576.00 216.00 cl
0.00 0.00 576.00 216.00 cl
/Font1 findfont 8 s
0.3020 0.3020 0.3020 srgb
30.60 116.82 (0.0) 1 0 t
30.60 151.88 (0.1) 1 0 t
30.60 186.93 (0.2) 1 0 t
0.00 0.00 576.00 216.00 cl
0.00 0.00 576.00 216.00 cl
0.00 0.00 576.00 216.00 cl
0.2000 0.2000 0.2000 srgb
1.07 setlinewidth
[] 0 setdash
0 setlinecap
1 setlinejoin
10.00 setmiterlimit
np
32.79 119.69 m
2.74 0 l
o
np
32.79 154.75 m
2.74 0 l
o
np
32.79 189.81 m
2.74 0 l
o
0.00 0.00 576.00 216.00 cl
0.00 0.00 576.00 216.00 cl
0.00 0.00 576.00 216.00 cl
0.00 0.00 576.00 216.00 cl
0.00 0.00 576.00 216.00 cl
0.00 0.00 576.00 216.00 cl
0.00 0.00 576.00 216.00 cl
0.00 0.00 576.00 216.00 cl
0.00 0.00 576.00 216.00 cl
/Font1 findfont 8 s
0.3020 0.3020 0.3020 srgb
30.60 34.21 (0.0) 1 0 t
30.60 69.27 (0.1) 1 0 t
30.60 104.33 (0.2) 1 0 t
0.00 0.00 576.00 216.00 cl
0.00 0.00 576.00 216.00 cl
0.00 0.00 576.00 216.00 cl
0.2000 0.2000 0.2000 srgb
1.07 setlinewidth
[] 0 setdash
0 setlinecap
1 setlinejoin
10.00 setmiterlimit
np
32.79 37.08 m
2.74 0 l
o
np
32.79 72.14 m
2.74 0 l
o
np
32.79 107.20 m
2.74 0 l
o
0.00 0.00 576.00 216.00 cl
0.00 0.00 576.00 216.00 cl
0.00 0.00 576.00 216.00 cl
0.00 0.00 576.00 216.00 cl
0.00 0.00 576.00 216.00 cl
0.00 0.00 576.00 216.00 cl
0.00 0.00 576.00 216.00 cl
0.00 0.00 576.00 216.00 cl
0.00 0.00 576.00 216.00 cl
0.00 0.00 576.00 216.00 cl
0.00 0.00 576.00 216.00 cl
/Font1 findfont 12 s
0 0 0 srgb
275.08 8.12 (conte) 0 ta
-0.360 (xt) tb gr
0.00 0.00 576.00 216.00 cl
0.00 0.00 576.00 216.00 cl
0.00 0.00 576.00 216.00 cl
/Font1 findfont 12 s
0 0 0 srgb
14.10 59.09 (Relativ) 90 ta
-0.300 (e contr) tb
0.180 (ib) tb
-0.240 (ution) tb gr
0.00 0.00 576.00 216.00 cl
0.00 0.00 576.00 216.00 cl
0.00 0.00 576.00 216.00 cl
0.00 0.00 576.00 216.00 cl
0.00 0.00 576.00 216.00 cl
0.00 0.00 576.00 216.00 cl
0.00 0.00 576.00 216.00 cl
0.00 0.00 576.00 216.00 cl
0.00 0.00 576.00 216.00 cl
0.00 0.00 576.00 216.00 cl
0.00 0.00 576.00 216.00 cl
0.00 0.00 576.00 216.00 cl
0.00 0.00 576.00 216.00 cl
ep
%%Trailer
%%Pages: 1
%%EOF
