19,K,AAA
20,A,GCT
21,A,GCT
22,V,GTC
23,S,AGC
24,H,CAC
25,W,TGG
26,Q,CAG
27,Q,CAG
28,Q,CAG
29,S,TCT
30,Y,TAC
31,L,TTG
32,D,GAT 
33,S,TCT
34,G,GGA
35,I,ATC
36,H,CAT
37,S,TCT
38,G,GGT
39,A,GCC
40,T,ACC
41,T,ACC
42,T,ACA
43,A,GCT
44,P,CCT
45,S,TCC
46,L,CTG
47,S,AGT
48,G,GGT
49,K,AAA
50,G,GGC