%!PS-Adobe-3.0 EPSF-3.0
%%DocumentNeededResources: font Helvetica
%%+ font Helvetica-Bold
%%+ font Helvetica-Oblique
%%+ font Helvetica-BoldOblique
%%+ font Symbol
%%Title: R Graphics Output
%%Creator: R Software
%%Pages: (atend)
%%BoundingBox: 0 0 1152 432
%%EndComments
%%BeginProlog
/bp  { gs sRGB gs } def
% begin .ps.prolog
/gs  { gsave } bind def
/gr  { grestore } bind def
/ep  { showpage gr gr } bind def
/m   { moveto } bind def
/l  { rlineto } bind def
/np  { newpath } bind def
/cp  { closepath } bind def
/f   { fill } bind def
/o   { stroke } bind def
/c   { newpath 0 360 arc } bind def
/r   { 4 2 roll moveto 1 copy 3 -1 roll exch 0 exch rlineto 0 rlineto -1 mul 0 exch rlineto closepath } bind def
/p1  { stroke } bind def
/p2  { gsave bg fill grestore newpath } bind def
/p3  { gsave bg fill grestore stroke } bind def
/p6  { gsave bg eofill grestore newpath } bind def
/p7  { gsave bg eofill grestore stroke } bind def
/t   { 5 -2 roll moveto gsave rotate
       1 index stringwidth pop
       mul neg 0 rmoveto show grestore } bind def
/ta  { 4 -2 roll moveto gsave rotate show } bind def
/tb  { 2 -1 roll 0 rmoveto show } bind def
/cl  { grestore gsave newpath 3 index 3 index moveto 1 index
       4 -1 roll lineto  exch 1 index lineto lineto
       closepath clip newpath } bind def
/rgb { setrgbcolor } bind def
/s   { scalefont setfont } bind def
% end   .ps.prolog
/sRGB { [ /CIEBasedABC
          << /DecodeLMN
               [ { dup 0.03928 le
                        {12.92321 div}
                        {0.055 add 1.055 div 2.4 exp }
                     ifelse
                 } bind dup dup
               ]
             /MatrixLMN [0.412457 0.212673 0.019334
                         0.357576 0.715152 0.119192
                         0.180437 0.072175 0.950301]
             /WhitePoint [0.9505 1.0 1.0890]
           >>
         ] setcolorspace } bind def
/srgb { setcolor } bind def
%%IncludeResource: font Helvetica
/Helvetica findfont
dup length dict begin
  {1 index /FID ne {def} {pop pop} ifelse} forall
  /Encoding ISOLatin1Encoding def
  currentdict
  end
/Font1 exch definefont pop
%%IncludeResource: font Helvetica-Bold
/Helvetica-Bold findfont
dup length dict begin
  {1 index /FID ne {def} {pop pop} ifelse} forall
  /Encoding ISOLatin1Encoding def
  currentdict
  end
/Font2 exch definefont pop
%%IncludeResource: font Helvetica-Oblique
/Helvetica-Oblique findfont
dup length dict begin
  {1 index /FID ne {def} {pop pop} ifelse} forall
  /Encoding ISOLatin1Encoding def
  currentdict
  end
/Font3 exch definefont pop
%%IncludeResource: font Helvetica-BoldOblique
/Helvetica-BoldOblique findfont
dup length dict begin
  {1 index /FID ne {def} {pop pop} ifelse} forall
  /Encoding ISOLatin1Encoding def
  currentdict
  end
/Font4 exch definefont pop
%%IncludeResource: font Symbol
/Symbol findfont
dup length dict begin
  {1 index /FID ne {def} {pop pop} ifelse} forall
  currentdict
  end
/Font5 exch definefont pop
%%EndProlog
%%Page: 1 1
bp
29.88 114.81 1140.05 408.10 cl
/bg { 0.5843 0.6471 0.6510 srgb } def
0 0 0 srgb
0.75 setlinewidth
[] 0 setdash
1 setlinecap
1 setlinejoin
10.00 setmiterlimit
71.00 134.03 1027.93 25.07 r p3
0.00 0.00 1152.00 432.00 cl
0 0 0 srgb
0.90 setlinewidth
[] 0 setdash
1 setlinecap
1 setlinejoin
10.00 setmiterlimit
np
71.00 119.59 m
1027.93 0 l
o
np
71.00 119.59 m
0 -5.98 l
o
np
334.23 119.59 m
0 -5.98 l
o
np
597.47 119.59 m
0 -5.98 l
o
np
860.70 119.59 m
0 -5.98 l
o
np
1098.93 119.59 m
0 -5.98 l
o
/Font1 findfont 10 s
71.00 98.08 (0) .5 0 t
334.23 98.08 (200) .5 0 t
597.47 98.08 (400) .5 0 t
860.70 98.08 (600) .5 0 t
1098.93 98.08 (781) .5 0 t
np
29.88 167.70 m
0 208.64 l
o
np
29.88 167.70 m
-5.98 0 l
o
np
29.88 376.34 m
-5.98 0 l
o
17.93 164.11 (2) 1 0 t
17.93 372.75 (1645) 1 0 t
29.88 114.81 1140.05 408.10 cl
0.7020 0.7020 0.7020 srgb
0.90 setlinewidth
[] 0 setdash
1 setlinecap
1 setlinejoin
10.00 setmiterlimit
np
74.95 159.09 m
0 7.36 l
o
np
74.95 159.09 m
0 7.36 l
o
np
74.95 159.09 m
0 7.23 l
o
np
74.95 159.09 m
0 7.23 l
o
np
76.26 159.09 m
0 7.23 l
o
np
77.58 159.09 m
0 15.36 l
o
np
77.58 159.09 m
0 7.36 l
o
np
77.58 159.09 m
0 7.23 l
o
np
78.89 159.09 m
0 7.23 l
o
np
78.89 159.09 m
0 7.23 l
o
np
78.89 159.09 m
0 7.23 l
o
np
78.89 159.09 m
0 7.23 l
o
np
78.89 159.09 m
0 7.23 l
o
np
80.21 159.09 m
0 7.23 l
o
np
81.53 159.09 m
0 7.49 l
o
np
81.53 159.09 m
0 7.23 l
o
np
82.84 159.09 m
0 7.23 l
o
np
82.84 159.09 m
0 7.23 l
o
np
85.48 159.09 m
0 7.23 l
o
np
86.79 159.09 m
0 7.23 l
o
np
86.79 159.09 m
0 7.23 l
o
np
86.79 159.09 m
0 7.23 l
o
np
88.11 159.09 m
0 7.61 l
o
np
89.42 159.09 m
0 7.23 l
o
np
89.42 159.09 m
0 7.23 l
o
np
90.74 159.09 m
0 7.49 l
o
np
92.06 159.09 m
0 7.23 l
o
np
92.06 159.09 m
0 7.36 l
o
np
92.06 159.09 m
0 7.36 l
o
np
93.37 159.09 m
0 7.23 l
o
np
93.37 159.09 m
0 7.23 l
o
np
94.69 159.09 m
0 7.23 l
o
np
97.32 159.09 m
0 7.74 l
o
np
97.32 159.09 m
0 7.23 l
o
np
97.32 159.09 m
0 7.23 l
o
np
98.64 159.09 m
0 7.23 l
o
np
98.64 159.09 m
0 7.87 l
o
np
98.64 159.09 m
0 7.23 l
o
np
98.64 159.09 m
0 7.23 l
o
np
99.95 159.09 m
0 7.49 l
o
np
99.95 159.09 m
0 7.49 l
o
np
99.95 159.09 m
0 7.49 l
o
np
99.95 159.09 m
0 7.36 l
o
np
99.95 159.09 m
0 7.61 l
o
np
99.95 159.09 m
0 7.49 l
o
np
99.95 159.09 m
0 7.23 l
o
np
101.27 159.09 m
0 7.49 l
o
np
101.27 159.09 m
0 7.36 l
o
np
101.27 159.09 m
0 7.23 l
o
np
101.27 159.09 m
0 7.36 l
o
np
101.27 159.09 m
0 7.23 l
o
np
101.27 159.09 m
0 7.49 l
o
np
101.27 159.09 m
0 7.23 l
o
np
102.59 159.09 m
0 7.36 l
o
np
102.59 159.09 m
0 7.23 l
o
np
102.59 159.09 m
0 7.23 l
o
np
102.59 159.09 m
0 7.23 l
o
np
102.59 159.09 m
0 7.23 l
o
np
102.59 159.09 m
0 7.23 l
o
np
102.59 159.09 m
0 7.23 l
o
np
103.90 159.09 m
0 7.61 l
o
np
103.90 159.09 m
0 8.12 l
o
np
103.90 159.09 m
0 7.87 l
o
np
103.90 159.09 m
0 7.23 l
o
np
103.90 159.09 m
0 7.23 l
o
np
103.90 159.09 m
0 7.23 l
o
np
103.90 159.09 m
0 7.23 l
o
np
105.22 159.09 m
0 7.36 l
o
np
105.22 159.09 m
0 7.36 l
o
np
106.53 159.09 m
0 7.87 l
o
np
106.53 159.09 m
0 7.61 l
o
np
107.85 159.09 m
0 7.36 l
o
np
107.85 159.09 m
0 7.23 l
o
np
107.85 159.09 m
0 7.36 l
o
np
107.85 159.09 m
0 7.49 l
o
np
107.85 159.09 m
0 7.23 l
o
np
107.85 159.09 m
0 7.23 l
o
np
109.17 159.09 m
0 7.36 l
o
np
109.17 159.09 m
0 8.38 l
o
np
109.17 159.09 m
0 7.23 l
o
np
109.17 159.09 m
0 7.23 l
o
np
110.48 159.09 m
0 7.61 l
o
np
110.48 159.09 m
0 7.23 l
o
np
110.48 159.09 m
0 7.23 l
o
np
110.48 159.09 m
0 7.23 l
o
np
110.48 159.09 m
0 7.36 l
o
np
110.48 159.09 m
0 7.49 l
o
np
110.48 159.09 m
0 7.23 l
o
np
111.80 159.09 m
0 7.49 l
o
np
111.80 159.09 m
0 7.36 l
o
np
111.80 159.09 m
0 7.49 l
o
np
111.80 159.09 m
0 7.23 l
o
np
111.80 159.09 m
0 7.23 l
o
np
111.80 159.09 m
0 7.23 l
o
np
111.80 159.09 m
0 7.36 l
o
np
111.80 159.09 m
0 7.23 l
o
np
113.11 159.09 m
0 18.92 l
o
np
113.11 159.09 m
0 24.63 l
o
np
113.11 159.09 m
0 37.33 l
o
np
113.11 159.09 m
0 30.60 l
o
np
113.11 159.09 m
0 19.68 l
o
np
113.11 159.09 m
0 10.92 l
o
np
113.11 159.09 m
0 7.23 l
o
np
113.11 159.09 m
0 8.50 l
o
np
113.11 159.09 m
0 7.23 l
o
np
113.11 159.09 m
0 7.23 l
o
np
113.11 159.09 m
0 7.36 l
o
np
113.11 159.09 m
0 7.23 l
o
np
113.11 159.09 m
0 7.23 l
o
np
113.11 159.09 m
0 7.23 l
o
np
113.11 159.09 m
0 7.23 l
o
np
113.11 159.09 m
0 7.23 l
o
np
114.43 159.09 m
0 50.92 l
o
np
114.43 159.09 m
0 20.82 l
o
np
114.43 159.09 m
0 20.44 l
o
np
114.43 159.09 m
0 33.90 l
o
np
114.43 159.09 m
0 13.08 l
o
np
114.43 159.09 m
0 7.87 l
o
np
114.43 159.09 m
0 7.74 l
o
np
114.43 159.09 m
0 7.23 l
o
np
114.43 159.09 m
0 8.76 l
o
np
114.43 159.09 m
0 7.23 l
o
np
114.43 159.09 m
0 7.23 l
o
np
115.75 159.09 m
0 26.79 l
o
np
115.75 159.09 m
0 27.04 l
o
np
115.75 159.09 m
0 31.36 l
o
np
115.75 159.09 m
0 7.23 l
o
np
115.75 159.09 m
0 7.23 l
o
np
115.75 159.09 m
0 7.23 l
o
np
115.75 159.09 m
0 7.36 l
o
np
115.75 159.09 m
0 7.23 l
o
np
115.75 159.09 m
0 7.23 l
o
np
115.75 159.09 m
0 7.23 l
o
np
115.75 159.09 m
0 7.23 l
o
np
115.75 159.09 m
0 7.23 l
o
np
115.75 159.09 m
0 7.23 l
o
np
117.06 159.09 m
0 16.38 l
o
np
117.06 159.09 m
0 8.12 l
o
np
117.06 159.09 m
0 7.36 l
o
np
117.06 159.09 m
0 12.19 l
o
np
117.06 159.09 m
0 7.36 l
o
np
117.06 159.09 m
0 7.23 l
o
np
117.06 159.09 m
0 7.23 l
o
np
117.06 159.09 m
0 7.23 l
o
np
117.06 159.09 m
0 7.23 l
o
np
117.06 159.09 m
0 7.23 l
o
np
118.38 159.09 m
0 15.74 l
o
np
118.38 159.09 m
0 7.87 l
o
np
118.38 159.09 m
0 8.00 l
o
np
118.38 159.09 m
0 7.36 l
o
np
119.70 159.09 m
0 56.50 l
o
np
119.70 159.09 m
0 37.96 l
o
np
119.70 159.09 m
0 13.58 l
o
np
119.70 159.09 m
0 16.00 l
o
np
119.70 159.09 m
0 18.15 l
o
np
119.70 159.09 m
0 7.36 l
o
np
119.70 159.09 m
0 7.23 l
o
np
119.70 159.09 m
0 7.36 l
o
np
119.70 159.09 m
0 7.23 l
o
np
119.70 159.09 m
0 7.23 l
o
np
121.01 159.09 m
0 7.49 l
o
np
121.01 159.09 m
0 7.61 l
o
np
121.01 159.09 m
0 7.36 l
o
np
121.01 159.09 m
0 7.23 l
o
np
121.01 159.09 m
0 7.23 l
o
np
121.01 159.09 m
0 7.23 l
o
np
122.33 159.09 m
0 7.36 l
o
np
122.33 159.09 m
0 7.61 l
o
np
122.33 159.09 m
0 7.23 l
o
np
122.33 159.09 m
0 7.23 l
o
np
122.33 159.09 m
0 7.61 l
o
np
123.64 159.09 m
0 7.61 l
o
np
123.64 159.09 m
0 9.01 l
o
np
123.64 159.09 m
0 7.23 l
o
np
123.64 159.09 m
0 7.49 l
o
np
123.64 159.09 m
0 7.23 l
o
np
124.96 159.09 m
0 35.93 l
o
np
124.96 159.09 m
0 216.00 l
o
np
124.96 159.09 m
0 8.38 l
o
np
124.96 159.09 m
0 7.23 l
o
np
124.96 159.09 m
0 8.25 l
o
np
124.96 159.09 m
0 7.23 l
o
np
124.96 159.09 m
0 9.14 l
o
np
124.96 159.09 m
0 7.23 l
o
np
126.28 159.09 m
0 8.00 l
o
np
126.28 159.09 m
0 7.49 l
o
np
126.28 159.09 m
0 7.74 l
o
np
126.28 159.09 m
0 7.36 l
o
np
126.28 159.09 m
0 7.49 l
o
np
126.28 159.09 m
0 7.61 l
o
np
126.28 159.09 m
0 7.23 l
o
np
126.28 159.09 m
0 7.23 l
o
np
126.28 159.09 m
0 7.23 l
o
np
127.59 159.09 m
0 7.36 l
o
np
127.59 159.09 m
0 7.36 l
o
np
127.59 159.09 m
0 7.74 l
o
np
127.59 159.09 m
0 7.74 l
o
np
127.59 159.09 m
0 7.23 l
o
np
127.59 159.09 m
0 7.23 l
o
np
127.59 159.09 m
0 7.36 l
o
np
128.91 159.09 m
0 9.90 l
o
np
128.91 159.09 m
0 8.12 l
o
np
128.91 159.09 m
0 8.00 l
o
np
128.91 159.09 m
0 7.23 l
o
np
128.91 159.09 m
0 7.36 l
o
np
128.91 159.09 m
0 7.23 l
o
np
130.23 159.09 m
0 24.63 l
o
np
130.23 159.09 m
0 78.85 l
o
np
130.23 159.09 m
0 138.16 l
o
np
130.23 159.09 m
0 14.98 l
o
np
130.23 159.09 m
0 11.42 l
o
np
130.23 159.09 m
0 13.84 l
o
np
130.23 159.09 m
0 7.23 l
o
np
130.23 159.09 m
0 7.49 l
o
np
130.23 159.09 m
0 7.23 l
o
np
130.23 159.09 m
0 7.23 l
o
np
130.23 159.09 m
0 8.00 l
o
np
130.23 159.09 m
0 7.23 l
o
np
130.23 159.09 m
0 7.49 l
o
np
130.23 159.09 m
0 7.23 l
o
np
130.23 159.09 m
0 7.23 l
o
np
130.23 159.09 m
0 7.23 l
o
np
131.54 159.09 m
0 7.74 l
o
np
131.54 159.09 m
0 7.23 l
o
np
131.54 159.09 m
0 7.23 l
o
np
131.54 159.09 m
0 7.23 l
o
np
131.54 159.09 m
0 7.36 l
o
np
132.86 159.09 m
0 7.49 l
o
np
132.86 159.09 m
0 7.23 l
o
np
132.86 159.09 m
0 7.49 l
o
np
132.86 159.09 m
0 7.36 l
o
np
132.86 159.09 m
0 7.36 l
o
np
132.86 159.09 m
0 7.23 l
o
np
132.86 159.09 m
0 7.23 l
o
np
134.17 159.09 m
0 8.38 l
o
np
134.17 159.09 m
0 7.49 l
o
np
134.17 159.09 m
0 7.23 l
o
np
134.17 159.09 m
0 7.23 l
o
np
135.49 159.09 m
0 8.25 l
o
np
135.49 159.09 m
0 7.49 l
o
np
135.49 159.09 m
0 7.23 l
o
np
135.49 159.09 m
0 7.23 l
o
np
135.49 159.09 m
0 7.23 l
o
np
136.81 159.09 m
0 7.36 l
o
np
136.81 159.09 m
0 7.61 l
o
np
138.12 159.09 m
0 7.23 l
o
np
138.12 159.09 m
0 7.23 l
o
np
139.44 159.09 m
0 7.61 l
o
np
140.75 159.09 m
0 8.50 l
o
np
140.75 159.09 m
0 7.36 l
o
np
142.07 159.09 m
0 7.23 l
o
np
142.07 159.09 m
0 7.49 l
o
np
142.07 159.09 m
0 7.23 l
o
np
142.07 159.09 m
0 7.36 l
o
np
143.39 159.09 m
0 7.74 l
o
np
143.39 159.09 m
0 7.49 l
o
np
143.39 159.09 m
0 7.23 l
o
np
143.39 159.09 m
0 7.23 l
o
np
143.39 159.09 m
0 7.23 l
o
np
144.70 159.09 m
0 7.36 l
o
np
146.02 159.09 m
0 7.61 l
o
np
146.02 159.09 m
0 7.36 l
o
np
146.02 159.09 m
0 7.23 l
o
np
147.34 159.09 m
0 7.87 l
o
np
149.97 159.09 m
0 7.49 l
o
np
149.97 159.09 m
0 7.23 l
o
np
151.28 159.09 m
0 7.23 l
o
np
151.28 159.09 m
0 7.23 l
o
np
152.60 159.09 m
0 7.23 l
o
np
153.92 159.09 m
0 7.23 l
o
np
156.55 159.09 m
0 7.61 l
o
np
157.86 159.09 m
0 7.36 l
o
np
157.86 159.09 m
0 7.23 l
o
np
159.18 159.09 m
0 7.36 l
o
np
159.18 159.09 m
0 7.23 l
o
np
160.50 159.09 m
0 7.36 l
o
np
161.81 159.09 m
0 7.23 l
o
np
161.81 159.09 m
0 7.36 l
o
np
165.76 159.09 m
0 7.23 l
o
np
167.08 159.09 m
0 7.36 l
o
np
168.39 159.09 m
0 7.23 l
o
np
169.71 159.09 m
0 7.36 l
o
np
169.71 159.09 m
0 7.36 l
o
np
171.03 159.09 m
0 7.23 l
o
np
172.34 159.09 m
0 7.36 l
o
np
172.34 159.09 m
0 7.23 l
o
np
174.98 159.09 m
0 7.23 l
o
np
177.61 159.09 m
0 7.23 l
o
np
178.92 159.09 m
0 7.23 l
o
np
178.92 159.09 m
0 7.23 l
o
np
180.24 159.09 m
0 7.23 l
o
np
181.56 159.09 m
0 7.23 l
o
np
182.87 159.09 m
0 7.23 l
o
np
184.19 159.09 m
0 7.23 l
o
np
186.82 159.09 m
0 7.23 l
o
np
189.45 159.09 m
0 7.23 l
o
np
189.45 159.09 m
0 7.23 l
o
np
192.09 159.09 m
0 7.23 l
o
np
193.40 159.09 m
0 7.23 l
o
np
194.72 159.09 m
0 7.23 l
o
np
196.03 159.09 m
0 7.23 l
o
np
196.03 159.09 m
0 7.49 l
o
np
197.35 159.09 m
0 7.23 l
o
np
199.98 159.09 m
0 7.36 l
o
np
202.61 159.09 m
0 7.23 l
o
np
202.61 159.09 m
0 7.23 l
o
np
207.88 159.09 m
0 7.23 l
o
np
213.14 159.09 m
0 7.23 l
o
np
214.46 159.09 m
0 7.23 l
o
np
217.09 159.09 m
0 7.23 l
o
np
226.31 159.09 m
0 7.23 l
o
np
232.89 159.09 m
0 7.23 l
o
np
232.89 159.09 m
0 7.23 l
o
np
239.47 159.09 m
0 7.23 l
o
np
242.10 159.09 m
0 7.23 l
o
np
242.10 159.09 m
0 7.23 l
o
np
250.00 159.09 m
0 7.23 l
o
np
255.26 159.09 m
0 7.23 l
o
np
260.53 159.09 m
0 7.23 l
o
np
260.53 159.09 m
0 7.23 l
o
np
263.16 159.09 m
0 7.23 l
o
np
264.48 159.09 m
0 7.23 l
o
np
267.11 159.09 m
0 7.23 l
o
np
267.11 159.09 m
0 7.23 l
o
np
267.11 159.09 m
0 7.23 l
o
np
269.74 159.09 m
0 7.36 l
o
np
269.74 159.09 m
0 7.36 l
o
np
271.06 159.09 m
0 7.49 l
o
np
271.06 159.09 m
0 7.36 l
o
np
278.95 159.09 m
0 7.23 l
o
np
280.27 159.09 m
0 7.36 l
o
np
281.59 159.09 m
0 7.23 l
o
np
281.59 159.09 m
0 7.23 l
o
np
282.90 159.09 m
0 7.23 l
o
np
284.22 159.09 m
0 7.23 l
o
np
284.22 159.09 m
0 7.23 l
o
np
285.53 159.09 m
0 7.23 l
o
np
286.85 159.09 m
0 7.49 l
o
np
288.17 159.09 m
0 7.23 l
o
np
288.17 159.09 m
0 7.23 l
o
np
289.48 159.09 m
0 7.23 l
o
np
293.43 159.09 m
0 7.23 l
o
np
294.75 159.09 m
0 7.23 l
o
np
296.06 159.09 m
0 7.36 l
o
np
301.33 159.09 m
0 7.23 l
o
np
302.64 159.09 m
0 7.36 l
o
np
303.96 159.09 m
0 7.36 l
o
np
311.86 159.09 m
0 7.23 l
o
np
311.86 159.09 m
0 7.23 l
o
np
314.49 159.09 m
0 7.23 l
o
np
317.12 159.09 m
0 7.23 l
o
np
317.12 159.09 m
0 7.49 l
o
np
317.12 159.09 m
0 7.23 l
o
np
318.44 159.09 m
0 7.36 l
o
np
321.07 159.09 m
0 7.61 l
o
np
321.07 159.09 m
0 7.36 l
o
np
323.70 159.09 m
0 7.49 l
o
np
323.70 159.09 m
0 7.23 l
o
np
325.02 159.09 m
0 7.23 l
o
np
330.28 159.09 m
0 7.23 l
o
np
331.60 159.09 m
0 7.23 l
o
np
332.92 159.09 m
0 7.23 l
o
np
334.23 159.09 m
0 7.23 l
o
np
334.23 159.09 m
0 7.23 l
o
np
336.86 159.09 m
0 7.23 l
o
np
342.13 159.09 m
0 7.36 l
o
np
342.13 159.09 m
0 7.23 l
o
np
350.03 159.09 m
0 7.23 l
o
np
351.34 159.09 m
0 7.23 l
o
np
351.34 159.09 m
0 7.23 l
o
np
352.66 159.09 m
0 7.23 l
o
np
353.98 159.09 m
0 7.23 l
o
np
365.82 159.09 m
0 7.23 l
o
np
367.14 159.09 m
0 7.36 l
o
np
367.14 159.09 m
0 7.23 l
o
np
368.45 159.09 m
0 7.23 l
o
np
373.72 159.09 m
0 7.23 l
o
np
385.56 159.09 m
0 7.36 l
o
np
389.51 159.09 m
0 7.23 l
o
np
390.83 159.09 m
0 7.23 l
o
np
392.14 159.09 m
0 7.23 l
o
np
393.46 159.09 m
0 7.49 l
o
np
393.46 159.09 m
0 7.23 l
o
np
394.78 159.09 m
0 7.49 l
o
np
406.62 159.09 m
0 7.23 l
o
np
407.94 159.09 m
0 7.36 l
o
np
407.94 159.09 m
0 7.23 l
o
np
409.25 159.09 m
0 7.61 l
o
np
411.89 159.09 m
0 7.23 l
o
np
417.15 159.09 m
0 7.23 l
o
np
422.42 159.09 m
0 7.36 l
o
np
422.42 159.09 m
0 7.36 l
o
np
423.73 159.09 m
0 7.23 l
o
np
431.63 159.09 m
0 7.23 l
o
np
431.63 159.09 m
0 7.23 l
o
np
432.95 159.09 m
0 7.23 l
o
np
434.26 159.09 m
0 7.23 l
o
np
435.58 159.09 m
0 7.49 l
o
np
443.48 159.09 m
0 7.23 l
o
np
448.74 159.09 m
0 7.74 l
o
np
455.32 159.09 m
0 7.61 l
o
np
455.32 159.09 m
0 7.36 l
o
np
459.27 159.09 m
0 7.23 l
o
np
459.27 159.09 m
0 7.23 l
o
np
459.27 159.09 m
0 7.49 l
o
np
464.53 159.09 m
0 7.23 l
o
np
465.85 159.09 m
0 7.23 l
o
np
467.17 159.09 m
0 7.36 l
o
np
468.48 159.09 m
0 7.23 l
o
np
469.80 159.09 m
0 7.23 l
o
np
469.80 159.09 m
0 7.23 l
o
np
472.43 159.09 m
0 7.23 l
o
np
479.01 159.09 m
0 7.23 l
o
np
488.23 159.09 m
0 7.23 l
o
np
489.54 159.09 m
0 7.23 l
o
np
490.86 159.09 m
0 7.36 l
o
np
492.17 159.09 m
0 7.23 l
o
np
492.17 159.09 m
0 7.23 l
o
np
496.12 159.09 m
0 7.23 l
o
np
498.75 159.09 m
0 7.23 l
o
np
498.75 159.09 m
0 7.23 l
o
np
501.39 159.09 m
0 7.36 l
o
np
501.39 159.09 m
0 7.23 l
o
np
502.70 159.09 m
0 7.23 l
o
np
509.28 159.09 m
0 7.23 l
o
np
509.28 159.09 m
0 7.36 l
o
np
509.28 159.09 m
0 8.12 l
o
np
510.60 159.09 m
0 8.50 l
o
np
510.60 159.09 m
0 7.23 l
o
np
511.92 159.09 m
0 14.09 l
o
np
511.92 159.09 m
0 9.65 l
o
np
511.92 159.09 m
0 7.23 l
o
np
511.92 159.09 m
0 7.23 l
o
np
511.92 159.09 m
0 7.23 l
o
np
513.23 159.09 m
0 7.36 l
o
np
513.23 159.09 m
0 7.23 l
o
np
513.23 159.09 m
0 7.23 l
o
np
517.18 159.09 m
0 7.23 l
o
np
519.81 159.09 m
0 7.23 l
o
np
521.13 159.09 m
0 7.23 l
o
np
522.45 159.09 m
0 7.23 l
o
np
523.76 159.09 m
0 7.23 l
o
np
525.08 159.09 m
0 7.23 l
o
np
526.39 159.09 m
0 7.23 l
o
np
527.71 159.09 m
0 7.36 l
o
np
527.71 159.09 m
0 7.23 l
o
np
529.03 159.09 m
0 7.23 l
o
np
529.03 159.09 m
0 7.23 l
o
np
531.66 159.09 m
0 7.36 l
o
np
534.29 159.09 m
0 7.36 l
o
np
536.92 159.09 m
0 7.23 l
o
np
538.24 159.09 m
0 7.23 l
o
np
551.40 159.09 m
0 7.23 l
o
np
552.72 159.09 m
0 7.23 l
o
np
554.03 159.09 m
0 7.23 l
o
np
555.35 159.09 m
0 7.23 l
o
np
556.67 159.09 m
0 7.36 l
o
np
561.93 159.09 m
0 7.23 l
o
np
561.93 159.09 m
0 7.23 l
o
np
565.88 159.09 m
0 7.61 l
o
np
568.51 159.09 m
0 7.36 l
o
np
569.83 159.09 m
0 7.36 l
o
np
569.83 159.09 m
0 7.36 l
o
np
571.14 159.09 m
0 7.23 l
o
np
571.14 159.09 m
0 7.23 l
o
np
575.09 159.09 m
0 8.63 l
o
np
575.09 159.09 m
0 8.25 l
o
np
575.09 159.09 m
0 8.50 l
o
np
575.09 159.09 m
0 7.23 l
o
np
575.09 159.09 m
0 7.36 l
o
np
575.09 159.09 m
0 7.23 l
o
np
579.04 159.09 m
0 7.23 l
o
np
579.04 159.09 m
0 7.23 l
o
np
580.36 159.09 m
0 12.82 l
o
np
580.36 159.09 m
0 7.36 l
o
np
580.36 159.09 m
0 7.23 l
o
np
581.67 159.09 m
0 7.23 l
o
np
582.99 159.09 m
0 7.23 l
o
np
584.31 159.09 m
0 7.23 l
o
np
585.62 159.09 m
0 7.36 l
o
np
586.94 159.09 m
0 7.36 l
o
np
588.25 159.09 m
0 7.23 l
o
np
589.57 159.09 m
0 7.23 l
o
np
593.52 159.09 m
0 7.23 l
o
np
594.84 159.09 m
0 7.23 l
o
np
596.15 159.09 m
0 7.23 l
o
np
597.47 159.09 m
0 7.23 l
o
np
598.78 159.09 m
0 7.23 l
o
np
600.10 159.09 m
0 7.23 l
o
np
604.05 159.09 m
0 7.36 l
o
np
613.26 159.09 m
0 7.23 l
o
np
613.26 159.09 m
0 7.23 l
o
np
614.58 159.09 m
0 7.23 l
o
np
615.89 159.09 m
0 7.23 l
o
np
617.21 159.09 m
0 7.23 l
o
np
622.48 159.09 m
0 7.36 l
o
np
622.48 159.09 m
0 7.36 l
o
np
622.48 159.09 m
0 7.23 l
o
np
626.42 159.09 m
0 7.36 l
o
np
627.74 159.09 m
0 7.23 l
o
np
627.74 159.09 m
0 7.23 l
o
np
630.37 159.09 m
0 7.23 l
o
np
631.69 159.09 m
0 7.36 l
o
np
635.64 159.09 m
0 7.23 l
o
np
635.64 159.09 m
0 7.23 l
o
np
643.53 159.09 m
0 7.49 l
o
np
654.06 159.09 m
0 7.23 l
o
np
656.70 159.09 m
0 7.23 l
o
np
658.01 159.09 m
0 7.23 l
o
np
661.96 159.09 m
0 7.74 l
o
np
661.96 159.09 m
0 7.49 l
o
np
661.96 159.09 m
0 7.23 l
o
np
667.22 159.09 m
0 7.36 l
o
np
667.22 159.09 m
0 7.36 l
o
np
673.81 159.09 m
0 7.23 l
o
np
676.44 159.09 m
0 7.23 l
o
np
681.70 159.09 m
0 7.23 l
o
np
686.97 159.09 m
0 7.23 l
o
np
688.28 159.09 m
0 7.61 l
o
np
688.28 159.09 m
0 7.23 l
o
np
690.92 159.09 m
0 7.23 l
o
np
692.23 159.09 m
0 7.23 l
o
np
694.86 159.09 m
0 7.61 l
o
np
696.18 159.09 m
0 7.23 l
o
np
698.81 159.09 m
0 7.23 l
o
np
700.13 159.09 m
0 7.23 l
o
np
701.45 159.09 m
0 7.23 l
o
np
710.66 159.09 m
0 7.87 l
o
np
710.66 159.09 m
0 7.36 l
o
np
718.56 159.09 m
0 7.23 l
o
np
722.50 159.09 m
0 7.23 l
o
np
723.82 159.09 m
0 7.23 l
o
np
726.45 159.09 m
0 7.23 l
o
np
740.93 159.09 m
0 7.23 l
o
np
742.25 159.09 m
0 7.23 l
o
np
743.56 159.09 m
0 7.23 l
o
np
744.88 159.09 m
0 7.23 l
o
np
746.20 159.09 m
0 7.23 l
o
np
748.83 159.09 m
0 7.61 l
o
np
748.83 159.09 m
0 7.61 l
o
np
751.46 159.09 m
0 7.23 l
o
np
756.72 159.09 m
0 7.36 l
o
np
758.04 159.09 m
0 7.74 l
o
np
761.99 159.09 m
0 7.23 l
o
np
764.62 159.09 m
0 7.23 l
o
np
765.94 159.09 m
0 7.49 l
o
np
765.94 159.09 m
0 7.23 l
o
np
771.20 159.09 m
0 7.36 l
o
np
773.84 159.09 m
0 7.87 l
o
np
775.15 159.09 m
0 7.74 l
o
np
775.15 159.09 m
0 7.49 l
o
np
779.10 159.09 m
0 7.36 l
o
np
780.42 159.09 m
0 7.23 l
o
np
781.73 159.09 m
0 7.23 l
o
np
783.05 159.09 m
0 7.23 l
o
np
784.36 159.09 m
0 7.23 l
o
np
784.36 159.09 m
0 7.61 l
o
np
785.68 159.09 m
0 7.36 l
o
np
785.68 159.09 m
0 7.36 l
o
np
788.31 159.09 m
0 7.23 l
o
np
788.31 159.09 m
0 7.36 l
o
np
789.63 159.09 m
0 7.36 l
o
np
790.95 159.09 m
0 7.23 l
o
np
793.58 159.09 m
0 7.23 l
o
np
794.89 159.09 m
0 7.23 l
o
np
794.89 159.09 m
0 7.23 l
o
np
796.21 159.09 m
0 7.36 l
o
np
797.53 159.09 m
0 7.23 l
o
np
798.84 159.09 m
0 7.36 l
o
np
800.16 159.09 m
0 7.23 l
o
np
801.47 159.09 m
0 7.23 l
o
np
805.42 159.09 m
0 7.23 l
o
np
810.69 159.09 m
0 7.23 l
o
np
810.69 159.09 m
0 7.23 l
o
np
812.00 159.09 m
0 7.23 l
o
np
814.64 159.09 m
0 7.23 l
o
np
815.95 159.09 m
0 7.23 l
o
np
815.95 159.09 m
0 7.23 l
o
np
815.95 159.09 m
0 7.23 l
o
np
817.27 159.09 m
0 7.36 l
o
np
818.59 159.09 m
0 7.36 l
o
np
819.90 159.09 m
0 7.36 l
o
np
822.53 159.09 m
0 7.23 l
o
np
825.17 159.09 m
0 7.36 l
o
np
825.17 159.09 m
0 7.23 l
o
np
827.80 159.09 m
0 7.49 l
o
np
829.11 159.09 m
0 7.23 l
o
np
837.01 159.09 m
0 9.01 l
o
np
837.01 159.09 m
0 7.23 l
o
np
837.01 159.09 m
0 7.23 l
o
np
843.59 159.09 m
0 7.87 l
o
np
844.91 159.09 m
0 7.23 l
o
np
848.86 159.09 m
0 7.23 l
o
np
854.12 159.09 m
0 7.23 l
o
np
856.75 159.09 m
0 7.23 l
o
np
856.75 159.09 m
0 7.23 l
o
np
856.75 159.09 m
0 7.23 l
o
np
859.39 159.09 m
0 7.23 l
o
np
860.70 159.09 m
0 7.23 l
o
np
860.70 159.09 m
0 7.36 l
o
np
860.70 159.09 m
0 7.23 l
o
np
868.60 159.09 m
0 7.23 l
o
np
875.18 159.09 m
0 7.23 l
o
np
876.50 159.09 m
0 7.23 l
o
np
877.81 159.09 m
0 7.23 l
o
np
880.45 159.09 m
0 7.23 l
o
np
880.45 159.09 m
0 7.23 l
o
np
881.76 159.09 m
0 7.23 l
o
np
883.08 159.09 m
0 7.23 l
o
np
885.71 159.09 m
0 7.36 l
o
np
888.34 159.09 m
0 7.23 l
o
np
889.66 159.09 m
0 7.23 l
o
np
890.97 159.09 m
0 7.23 l
o
np
892.29 159.09 m
0 7.23 l
o
np
896.24 159.09 m
0 7.49 l
o
np
897.56 159.09 m
0 7.23 l
o
np
906.77 159.09 m
0 7.23 l
o
np
906.77 159.09 m
0 7.23 l
o
np
906.77 159.09 m
0 7.36 l
o
np
908.09 159.09 m
0 7.23 l
o
np
913.35 159.09 m
0 7.23 l
o
np
913.35 159.09 m
0 7.23 l
o
np
914.67 159.09 m
0 7.23 l
o
np
918.61 159.09 m
0 7.23 l
o
np
918.61 159.09 m
0 7.23 l
o
np
919.93 159.09 m
0 7.23 l
o
np
921.25 159.09 m
0 7.23 l
o
np
921.25 159.09 m
0 7.23 l
o
np
922.56 159.09 m
0 7.23 l
o
np
925.20 159.09 m
0 7.23 l
o
np
929.14 159.09 m
0 7.36 l
o
np
930.46 159.09 m
0 7.23 l
o
np
930.46 159.09 m
0 7.23 l
o
np
935.72 159.09 m
0 7.36 l
o
np
937.04 159.09 m
0 7.23 l
o
np
938.36 159.09 m
0 7.23 l
o
np
940.99 159.09 m
0 7.74 l
o
np
940.99 159.09 m
0 7.23 l
o
np
940.99 159.09 m
0 7.23 l
o
np
940.99 159.09 m
0 7.23 l
o
np
944.94 159.09 m
0 7.23 l
o
np
946.25 159.09 m
0 7.87 l
o
np
946.25 159.09 m
0 7.23 l
o
np
946.25 159.09 m
0 7.23 l
o
np
946.25 159.09 m
0 7.23 l
o
np
946.25 159.09 m
0 7.23 l
o
np
956.78 159.09 m
0 7.23 l
o
np
956.78 159.09 m
0 7.23 l
o
np
962.05 159.09 m
0 7.23 l
o
np
966.00 159.09 m
0 7.23 l
o
np
969.95 159.09 m
0 7.23 l
o
np
975.21 159.09 m
0 7.23 l
o
np
975.21 159.09 m
0 7.23 l
o
np
976.53 159.09 m
0 7.23 l
o
np
976.53 159.09 m
0 7.23 l
o
np
976.53 159.09 m
0 7.23 l
o
np
979.16 159.09 m
0 7.36 l
o
np
985.74 159.09 m
0 7.23 l
o
np
991.00 159.09 m
0 7.23 l
o
np
992.32 159.09 m
0 7.23 l
o
np
998.90 159.09 m
0 7.23 l
o
np
1001.53 159.09 m
0 7.23 l
o
np
1005.48 159.09 m
0 7.49 l
o
np
1008.11 159.09 m
0 7.23 l
o
np
1010.75 159.09 m
0 7.23 l
o
np
1010.75 159.09 m
0 7.23 l
o
np
1010.75 159.09 m
0 7.23 l
o
np
1012.06 159.09 m
0 7.23 l
o
np
1013.38 159.09 m
0 7.23 l
o
np
1014.70 159.09 m
0 7.36 l
o
np
1014.70 159.09 m
0 7.23 l
o
np
1018.64 159.09 m
0 7.23 l
o
np
1023.91 159.09 m
0 7.36 l
o
np
1027.86 159.09 m
0 7.49 l
o
np
1029.17 159.09 m
0 7.23 l
o
np
1030.49 159.09 m
0 7.23 l
o
np
1031.81 159.09 m
0 7.23 l
o
np
1039.70 159.09 m
0 7.23 l
o
np
1042.34 159.09 m
0 7.49 l
o
np
1043.65 159.09 m
0 7.36 l
o
np
1043.65 159.09 m
0 7.23 l
o
np
1043.65 159.09 m
0 7.23 l
o
np
1047.60 159.09 m
0 7.23 l
o
np
1050.23 159.09 m
0 7.36 l
o
np
1059.45 159.09 m
0 7.36 l
o
np
1064.71 159.09 m
0 7.23 l
o
np
1064.71 159.09 m
0 7.23 l
o
np
1064.71 159.09 m
0 7.23 l
o
np
1064.71 159.09 m
0 7.23 l
o
np
1066.03 159.09 m
0 7.23 l
o
np
1069.97 159.09 m
0 7.23 l
o
np
1072.61 159.09 m
0 7.23 l
o
np
1073.92 159.09 m
0 7.36 l
o
np
1075.24 159.09 m
0 7.23 l
o
np
1076.56 159.09 m
0 7.23 l
o
np
1081.82 159.09 m
0 7.23 l
o
np
1087.09 159.09 m
0 7.23 l
o
np
1088.40 159.09 m
0 7.61 l
o
np
1093.67 159.09 m
0 7.23 l
o
np
1094.98 159.09 m
0 7.23 l
o
/bg { 0.9529 0.6510 0.5137 srgb } def
0 0 0 srgb
0.75 setlinewidth
[] 0 setdash
706.71 129.85 184.26 33.42 r p3
372.40 129.85 156.62 33.42 r p3
596.15 129.85 156.62 33.42 r p3
213.14 129.85 150.04 33.42 r p3
531.66 129.85 52.65 33.42 r p3
0.00 102.86 1152.00 432.00 cl
/Font2 findfont 12 s
0 0 0 srgb
29.88 417.66 (CTNNB1) 0 0 t
/Font1 findfont 10 s
29.88 402.12 (NM_001098209) 0 0 t
29.88 114.81 1140.05 408.10 cl
/Font3 findfont 15 s
0 0 0 srgb
798.84 141.18 (ARM) .5 0 t
0.00 0.00 1152.00 102.86 cl
/Font1 findfont 15 s
0 0 0 srgb
32.87 63.11 (Missense) 0 0 t
32.87 36.22 (In-fr) 0 ta
-0.150 (ame) tb gr
32.87 9.33 (T) 0 ta
-1.800 (r) tb
0.225 (uncating) tb gr
ep
%%Trailer
%%Pages: 1
%%EOF
