%!PS-Adobe-3.0 EPSF-3.0
%%DocumentNeededResources: font Helvetica
%%+ font Helvetica-Bold
%%+ font Helvetica-Oblique
%%+ font Helvetica-BoldOblique
%%+ font Symbol
%%Title: R Graphics Output
%%Creator: R Software
%%Pages: (atend)
%%BoundingBox: 0 0 576 432
%%EndComments
%%BeginProlog
/bp  { gs sRGB gs } def
% begin .ps.prolog
/gs  { gsave } bind def
/gr  { grestore } bind def
/ep  { showpage gr gr } bind def
/m   { moveto } bind def
/l  { rlineto } bind def
/np  { newpath } bind def
/cp  { closepath } bind def
/f   { fill } bind def
/o   { stroke } bind def
/c   { newpath 0 360 arc } bind def
/r   { 4 2 roll moveto 1 copy 3 -1 roll exch 0 exch rlineto 0 rlineto -1 mul 0 exch rlineto closepath } bind def
/p1  { stroke } bind def
/p2  { gsave bg fill grestore newpath } bind def
/p3  { gsave bg fill grestore stroke } bind def
/p6  { gsave bg eofill grestore newpath } bind def
/p7  { gsave bg eofill grestore stroke } bind def
/t   { 5 -2 roll moveto gsave rotate
       1 index stringwidth pop
       mul neg 0 rmoveto show grestore } bind def
/ta  { 4 -2 roll moveto gsave rotate show } bind def
/tb  { 2 -1 roll 0 rmoveto show } bind def
/cl  { grestore gsave newpath 3 index 3 index moveto 1 index
       4 -1 roll lineto  exch 1 index lineto lineto
       closepath clip newpath } bind def
/rgb { setrgbcolor } bind def
/s   { scalefont setfont } bind def
% end   .ps.prolog
/sRGB { [ /CIEBasedABC
          << /DecodeLMN
               [ { dup 0.03928 le
                        {12.92321 div}
                        {0.055 add 1.055 div 2.4 exp }
                     ifelse
                 } bind dup dup
               ]
             /MatrixLMN [0.412457 0.212673 0.019334
                         0.357576 0.715152 0.119192
                         0.180437 0.072175 0.950301]
             /WhitePoint [0.9505 1.0 1.0890]
           >>
         ] setcolorspace } bind def
/srgb { setcolor } bind def
%%IncludeResource: font Helvetica
/Helvetica findfont
dup length dict begin
  {1 index /FID ne {def} {pop pop} ifelse} forall
  /Encoding ISOLatin1Encoding def
  currentdict
  end
/Font1 exch definefont pop
%%IncludeResource: font Helvetica-Bold
/Helvetica-Bold findfont
dup length dict begin
  {1 index /FID ne {def} {pop pop} ifelse} forall
  /Encoding ISOLatin1Encoding def
  currentdict
  end
/Font2 exch definefont pop
%%IncludeResource: font Helvetica-Oblique
/Helvetica-Oblique findfont
dup length dict begin
  {1 index /FID ne {def} {pop pop} ifelse} forall
  /Encoding ISOLatin1Encoding def
  currentdict
  end
/Font3 exch definefont pop
%%IncludeResource: font Helvetica-BoldOblique
/Helvetica-BoldOblique findfont
dup length dict begin
  {1 index /FID ne {def} {pop pop} ifelse} forall
  /Encoding ISOLatin1Encoding def
  currentdict
  end
/Font4 exch definefont pop
%%IncludeResource: font Symbol
/Symbol findfont
dup length dict begin
  {1 index /FID ne {def} {pop pop} ifelse} forall
  currentdict
  end
/Font5 exch definefont pop
%%EndProlog
%%Page: 1 1
bp
0.00 0.00 576.00 432.00 cl
0.00 0.00 576.00 432.00 cl
0.00 0.00 576.00 432.00 cl
0.00 0.00 576.00 432.00 cl
0.00 0.00 576.00 432.00 cl
0.00 0.00 576.00 432.00 cl
0.00 0.00 576.00 432.00 cl
0.00 0.00 576.00 432.00 cl
0.00 0.00 576.00 432.00 cl
0.00 0.00 576.00 432.00 cl
0.00 0.00 576.00 432.00 cl
0.00 0.00 576.00 432.00 cl
0.00 0.00 576.00 432.00 cl
0.00 0.00 576.00 432.00 cl
0.00 0.00 576.00 432.00 cl
0.00 0.00 576.00 432.00 cl
0.00 0.00 576.00 432.00 cl
0.00 0.00 576.00 432.00 cl
/bg { 1 1 1 srgb } def
1 1 1 srgb
1.07 setlinewidth
[] 0 setdash
1 setlinecap
1 setlinejoin
10.00 setmiterlimit
0.00 0.00 576.00 432.00 r p3
0.00 0.00 576.00 432.00 cl
43.48 31.91 485.33 426.52 cl
/bg { 0.9216 0.9216 0.9216 srgb } def
43.48 31.91 441.84 394.61 r p2
1 1 1 srgb
0.53 setlinewidth
[] 0 setdash
0 setlinecap
1 setlinejoin
10.00 setmiterlimit
np
43.48 96.93 m
441.85 0 l
o
np
43.48 191.08 m
441.85 0 l
o
np
43.48 285.24 m
441.85 0 l
o
np
43.48 379.40 m
441.85 0 l
o
np
113.89 31.91 m
0 394.61 l
o
np
217.16 31.91 m
0 394.61 l
o
np
320.43 31.91 m
0 394.61 l
o
np
423.70 31.91 m
0 394.61 l
o
1.07 setlinewidth
[] 0 setdash
np
43.48 49.85 m
441.85 0 l
o
np
43.48 144.00 m
441.85 0 l
o
np
43.48 238.16 m
441.85 0 l
o
np
43.48 332.32 m
441.85 0 l
o
np
43.48 426.47 m
441.85 0 l
o
np
62.25 31.91 m
0 394.61 l
o
np
165.52 31.91 m
0 394.61 l
o
np
268.79 31.91 m
0 394.61 l
o
np
372.07 31.91 m
0 394.61 l
o
np
475.34 31.91 m
0 394.61 l
o
/bg { 0.1098 0.5255 0.9333 srgb } def
63.57 49.85 0.46 1.13 r p2
64.08 49.85 0.46 0.19 r p2
64.60 49.85 0.46 0.38 r p2
65.12 49.85 0.46 0.38 r p2
/bg { 0 0.5451 0 srgb } def
65.63 49.85 0.46 0.38 r p2
/bg { 0.1098 0.5255 0.9333 srgb } def
66.15 49.85 0.46 0.56 r p2
66.67 50.04 0.46 0.19 r p2
/bg { 0 0 0 srgb } def
66.67 49.85 0.46 0.19 r p2
/bg { 0.1098 0.5255 0.9333 srgb } def
67.70 49.85 0.46 0.19 r p2
68.22 49.85 0.46 0.38 r p2
68.73 49.85 0.46 0.75 r p2
69.25 49.85 0.46 0.19 r p2
69.76 50.04 0.46 0.56 r p2
/bg { 0 0 0 srgb } def
69.76 49.85 0.46 0.19 r p2
/bg { 0.1098 0.5255 0.9333 srgb } def
70.28 49.85 0.46 0.75 r p2
70.80 49.85 0.46 0.38 r p2
71.31 49.85 0.46 0.38 r p2
71.83 49.85 0.46 0.19 r p2
72.35 50.22 0.46 1.13 r p2
/bg { 0 0.5451 0 srgb } def
72.35 49.85 0.46 0.38 r p2
/bg { 0.1098 0.5255 0.9333 srgb } def
72.86 49.85 0.46 1.51 r p2
73.38 49.85 0.46 1.88 r p2
73.90 49.85 0.46 1.32 r p2
74.41 49.85 0.46 0.75 r p2
74.93 50.98 0.46 0.94 r p2
/bg { 0 0 0 srgb } def
74.93 49.85 0.46 1.13 r p2
/bg { 0.1098 0.5255 0.9333 srgb } def
75.44 49.85 0.46 0.38 r p2
75.96 50.60 0.46 1.13 r p2
/bg { 0 0 0 srgb } def
75.96 49.85 0.46 0.75 r p2
/bg { 0.1098 0.5255 0.9333 srgb } def
76.48 50.22 0.46 0.56 r p2
/bg { 0 0 0 srgb } def
76.48 49.85 0.46 0.38 r p2
/bg { 0.1098 0.5255 0.9333 srgb } def
76.99 50.60 0.46 2.82 r p2
/bg { 0 0.5451 0 srgb } def
76.99 49.85 0.46 0.75 r p2
/bg { 0.1098 0.5255 0.9333 srgb } def
77.51 50.79 0.46 0.56 r p2
/bg { 0 0 0 srgb } def
77.51 50.22 0.46 0.56 r p2
/bg { 0 0.5451 0 srgb } def
77.51 49.85 0.46 0.38 r p2
/bg { 0.1098 0.5255 0.9333 srgb } def
78.03 51.35 0.46 1.32 r p2
/bg { 0 0.5451 0 srgb } def
78.03 49.85 0.46 1.51 r p2
/bg { 0.1098 0.5255 0.9333 srgb } def
78.54 50.04 0.46 150.09 r p2
/bg { 0 0.5451 0 srgb } def
78.54 49.85 0.46 0.19 r p2
/bg { 0.1098 0.5255 0.9333 srgb } def
79.06 50.60 0.46 157.43 r p2
/bg { 0 0.5451 0 srgb } def
79.06 49.85 0.46 0.75 r p2
/bg { 0.1098 0.5255 0.9333 srgb } def
79.58 50.04 0.46 95.10 r p2
/bg { 0 0 0 srgb } def
79.58 49.85 0.46 0.19 r p2
/bg { 0.1098 0.5255 0.9333 srgb } def
80.09 50.60 0.46 22.41 r p2
/bg { 0 0.5451 0 srgb } def
80.09 49.85 0.46 0.75 r p2
/bg { 0.1098 0.5255 0.9333 srgb } def
80.61 49.85 0.46 15.25 r p2
81.12 50.60 0.46 158.75 r p2
/bg { 0 0.5451 0 srgb } def
81.12 49.85 0.46 0.75 r p2
/bg { 0.1098 0.5255 0.9333 srgb } def
81.64 49.85 0.46 2.07 r p2
82.16 50.22 0.46 1.88 r p2
/bg { 0 0.5451 0 srgb } def
82.16 49.85 0.46 0.38 r p2
/bg { 0.1098 0.5255 0.9333 srgb } def
82.67 50.22 0.46 4.33 r p2
/bg { 0 0.5451 0 srgb } def
82.67 49.85 0.46 0.38 r p2
/bg { 0.1098 0.5255 0.9333 srgb } def
83.19 50.22 0.46 358.36 r p2
/bg { 0 0.5451 0 srgb } def
83.19 49.85 0.46 0.38 r p2
/bg { 0.1098 0.5255 0.9333 srgb } def
83.71 50.60 0.46 3.77 r p2
/bg { 0 0.5451 0 srgb } def
83.71 49.85 0.46 0.75 r p2
/bg { 0.1098 0.5255 0.9333 srgb } def
84.22 49.85 0.46 2.26 r p2
84.74 50.04 0.46 6.97 r p2
/bg { 0 0.5451 0 srgb } def
84.74 49.85 0.46 0.19 r p2
/bg { 0.1098 0.5255 0.9333 srgb } def
85.26 50.22 0.46 328.98 r p2
/bg { 0 0.5451 0 srgb } def
85.26 49.85 0.46 0.38 r p2
/bg { 0.1098 0.5255 0.9333 srgb } def
85.77 53.05 0.46 0.75 r p2
/bg { 0 0 0 srgb } def
85.77 52.11 0.46 0.94 r p2
/bg { 0 0.5451 0 srgb } def
85.77 49.85 0.46 2.26 r p2
/bg { 0.1098 0.5255 0.9333 srgb } def
86.29 49.85 0.46 2.64 r p2
86.80 50.22 0.46 2.64 r p2
/bg { 0 0 0 srgb } def
86.80 50.04 0.46 0.19 r p2
/bg { 0 0.5451 0 srgb } def
86.80 49.85 0.46 0.19 r p2
/bg { 0.1098 0.5255 0.9333 srgb } def
87.32 50.60 0.46 2.26 r p2
/bg { 0 0 0 srgb } def
87.32 50.04 0.46 0.56 r p2
/bg { 0 0.5451 0 srgb } def
87.32 49.85 0.46 0.19 r p2
/bg { 0.1098 0.5255 0.9333 srgb } def
87.84 49.85 0.46 1.13 r p2
88.35 50.04 0.46 0.38 r p2
/bg { 0 0.5451 0 srgb } def
88.35 49.85 0.46 0.19 r p2
/bg { 0.1098 0.5255 0.9333 srgb } def
88.87 49.85 0.46 0.75 r p2
89.39 49.85 0.46 2.45 r p2
89.90 49.85 0.46 1.13 r p2
90.42 50.04 0.46 1.88 r p2
/bg { 0 0 0 srgb } def
90.42 49.85 0.46 0.19 r p2
/bg { 0.1098 0.5255 0.9333 srgb } def
90.94 49.85 0.46 0.38 r p2
91.45 49.85 0.46 1.32 r p2
91.97 49.85 0.46 1.13 r p2
92.48 50.22 0.46 0.19 r p2
/bg { 0 0.5451 0 srgb } def
92.48 49.85 0.46 0.38 r p2
/bg { 0.1098 0.5255 0.9333 srgb } def
93.00 50.04 0.46 0.75 r p2
/bg { 0 0.5451 0 srgb } def
93.00 49.85 0.46 0.19 r p2
/bg { 0.1098 0.5255 0.9333 srgb } def
93.52 49.85 0.46 0.38 r p2
94.03 50.04 0.46 0.19 r p2
/bg { 0 0.5451 0 srgb } def
94.03 49.85 0.46 0.19 r p2
/bg { 0.1098 0.5255 0.9333 srgb } def
94.55 49.85 0.46 0.19 r p2
95.58 50.22 0.46 0.75 r p2
/bg { 0 0.5451 0 srgb } def
95.58 49.85 0.46 0.38 r p2
/bg { 0.1098 0.5255 0.9333 srgb } def
96.10 50.04 0.46 0.19 r p2
/bg { 0 0 0 srgb } def
96.10 49.85 0.46 0.19 r p2
/bg { 0.1098 0.5255 0.9333 srgb } def
96.62 49.85 0.46 0.56 r p2
/bg { 0 0 0 srgb } def
97.13 49.85 0.46 0.38 r p2
/bg { 0.1098 0.5255 0.9333 srgb } def
97.65 49.85 0.46 0.56 r p2
/bg { 0 0.5451 0 srgb } def
98.16 49.85 0.46 0.19 r p2
/bg { 0.1098 0.5255 0.9333 srgb } def
99.20 49.85 0.46 0.19 r p2
99.71 49.85 0.46 0.38 r p2
100.75 49.85 0.46 0.75 r p2
101.26 50.04 0.46 0.38 r p2
/bg { 0 0 0 srgb } def
101.26 49.85 0.46 0.19 r p2
/bg { 0.1098 0.5255 0.9333 srgb } def
101.78 50.22 0.46 0.19 r p2
/bg { 0 0 0 srgb } def
101.78 49.85 0.46 0.38 r p2
/bg { 0.1098 0.5255 0.9333 srgb } def
102.81 49.85 0.46 0.19 r p2
104.36 49.85 0.46 0.38 r p2
104.88 49.85 0.46 0.19 r p2
105.39 49.85 0.46 0.19 r p2
/bg { 0 0 0 srgb } def
105.91 49.85 0.46 0.19 r p2
/bg { 0.1098 0.5255 0.9333 srgb } def
106.43 49.85 0.46 0.19 r p2
107.46 49.85 0.46 0.19 r p2
108.49 50.04 0.46 0.19 r p2
/bg { 0 0 0 srgb } def
108.49 49.85 0.46 0.19 r p2
109.52 49.85 0.46 0.19 r p2
/bg { 0.1098 0.5255 0.9333 srgb } def
110.04 50.04 0.46 0.19 r p2
/bg { 0 0.5451 0 srgb } def
110.04 49.85 0.46 0.19 r p2
/bg { 0.1098 0.5255 0.9333 srgb } def
110.56 49.85 0.46 0.19 r p2
111.07 50.60 0.46 0.19 r p2
/bg { 0 0 0 srgb } def
111.07 50.04 0.46 0.56 r p2
/bg { 0 0.5451 0 srgb } def
111.07 49.85 0.46 0.19 r p2
/bg { 0.1098 0.5255 0.9333 srgb } def
111.59 50.04 0.46 0.19 r p2
/bg { 0 0.5451 0 srgb } def
111.59 49.85 0.46 0.19 r p2
/bg { 0.1098 0.5255 0.9333 srgb } def
112.62 49.85 0.46 0.38 r p2
113.14 49.85 0.46 0.19 r p2
113.65 49.85 0.46 0.38 r p2
115.72 49.85 0.46 0.19 r p2
117.79 50.04 0.46 0.19 r p2
/bg { 0 0.5451 0 srgb } def
117.79 49.85 0.46 0.19 r p2
/bg { 0.1098 0.5255 0.9333 srgb } def
118.30 49.85 0.46 0.19 r p2
118.82 49.85 0.46 0.19 r p2
119.33 49.85 0.46 0.19 r p2
/bg { 0 0.5451 0 srgb } def
122.95 49.85 0.46 0.19 r p2
/bg { 0.1098 0.5255 0.9333 srgb } def
123.47 50.04 0.46 0.19 r p2
/bg { 0 0.5451 0 srgb } def
123.47 49.85 0.46 0.19 r p2
/bg { 0.1098 0.5255 0.9333 srgb } def
125.53 50.04 0.46 0.19 r p2
/bg { 0 0 0 srgb } def
125.53 49.85 0.46 0.19 r p2
/bg { 0.1098 0.5255 0.9333 srgb } def
128.11 50.04 0.46 0.19 r p2
/bg { 0 0.5451 0 srgb } def
128.11 49.85 0.46 0.19 r p2
128.63 49.85 0.46 0.19 r p2
/bg { 0.1098 0.5255 0.9333 srgb } def
129.15 50.04 0.46 0.19 r p2
/bg { 0 0.5451 0 srgb } def
129.15 49.85 0.46 0.19 r p2
130.18 49.85 0.46 0.56 r p2
/bg { 0.1098 0.5255 0.9333 srgb } def
132.24 49.85 0.46 0.19 r p2
134.31 50.41 0.46 0.19 r p2
/bg { 0 0.5451 0 srgb } def
134.31 49.85 0.46 0.56 r p2
/bg { 0.1098 0.5255 0.9333 srgb } def
136.37 49.85 0.46 0.38 r p2
137.41 49.85 0.46 0.19 r p2
137.92 49.85 0.46 0.19 r p2
138.96 49.85 0.46 0.56 r p2
139.99 49.85 0.46 0.56 r p2
140.51 49.85 0.46 0.94 r p2
/bg { 0 0.5451 0 srgb } def
141.02 49.85 0.46 0.19 r p2
142.57 49.85 0.46 0.19 r p2
/bg { 0.1098 0.5255 0.9333 srgb } def
143.60 49.85 0.46 0.19 r p2
144.12 49.85 0.46 0.38 r p2
144.64 49.85 0.46 0.38 r p2
145.15 49.85 0.46 0.19 r p2
145.67 50.22 0.46 0.38 r p2
/bg { 0 0.5451 0 srgb } def
145.67 49.85 0.46 0.38 r p2
/bg { 0.1098 0.5255 0.9333 srgb } def
146.19 49.85 0.46 0.19 r p2
146.70 49.85 0.46 0.56 r p2
147.22 49.85 0.46 0.38 r p2
147.73 49.85 0.46 0.19 r p2
149.28 49.85 0.46 0.19 r p2
149.80 49.85 0.46 0.19 r p2
150.32 49.85 0.46 0.38 r p2
152.38 49.85 0.46 0.19 r p2
152.90 49.85 0.46 0.38 r p2
153.41 49.85 0.46 0.38 r p2
156.51 49.85 0.46 0.38 r p2
157.55 50.04 0.46 0.38 r p2
/bg { 0 0.5451 0 srgb } def
157.55 49.85 0.46 0.19 r p2
158.06 49.85 0.46 0.19 r p2
/bg { 0.1098 0.5255 0.9333 srgb } def
158.58 49.85 0.46 0.94 r p2
159.09 50.22 0.46 0.38 r p2
/bg { 0 0.5451 0 srgb } def
159.09 49.85 0.46 0.38 r p2
/bg { 0.1098 0.5255 0.9333 srgb } def
160.13 49.85 0.46 1.13 r p2
161.16 49.85 0.46 0.75 r p2
/bg { 0 0 0 srgb } def
161.68 50.04 0.46 0.19 r p2
/bg { 0 0.5451 0 srgb } def
161.68 49.85 0.46 0.19 r p2
/bg { 0.1098 0.5255 0.9333 srgb } def
163.74 49.85 0.46 0.19 r p2
164.26 49.85 0.46 0.19 r p2
164.77 49.85 0.46 0.19 r p2
165.29 49.85 0.46 0.38 r p2
168.39 49.85 0.46 0.56 r p2
/bg { 0 0.5451 0 srgb } def
170.97 49.85 0.46 0.19 r p2
/bg { 0.1098 0.5255 0.9333 srgb } def
171.49 49.85 0.46 0.19 r p2
172.00 49.85 0.46 0.38 r p2
172.52 50.41 0.46 0.19 r p2
/bg { 0 0.5451 0 srgb } def
172.52 49.85 0.46 0.56 r p2
/bg { 0.1098 0.5255 0.9333 srgb } def
173.04 49.85 0.46 0.19 r p2
177.68 49.85 0.46 0.19 r p2
178.20 49.85 0.46 0.56 r p2
178.72 49.85 0.46 0.19 r p2
180.78 49.85 0.46 0.38 r p2
185.43 49.85 0.46 0.38 r p2
186.98 49.85 0.46 0.19 r p2
187.49 49.85 0.46 0.19 r p2
188.01 49.85 0.46 0.19 r p2
188.53 49.85 0.46 0.75 r p2
189.04 49.85 0.46 0.56 r p2
/bg { 0 0.5451 0 srgb } def
191.62 49.85 0.46 0.19 r p2
/bg { 0.1098 0.5255 0.9333 srgb } def
193.69 49.85 0.46 0.19 r p2
194.21 49.85 0.46 0.56 r p2
194.72 49.85 0.46 0.75 r p2
195.76 50.22 0.46 0.19 r p2
/bg { 0 0.5451 0 srgb } def
195.76 49.85 0.46 0.38 r p2
196.27 49.85 0.46 0.19 r p2
/bg { 0.1098 0.5255 0.9333 srgb } def
199.89 49.85 0.46 0.38 r p2
200.40 49.85 0.46 0.19 r p2
203.50 49.85 0.46 0.38 r p2
204.02 49.85 0.46 0.19 r p2
204.53 49.85 0.46 0.19 r p2
205.05 49.85 0.46 0.56 r p2
/bg { 0 0 0 srgb } def
206.60 49.85 0.46 0.19 r p2
/bg { 0.1098 0.5255 0.9333 srgb } def
208.15 49.85 0.46 0.19 r p2
/bg { 0 0.5451 0 srgb } def
208.66 49.85 0.46 0.19 r p2
/bg { 0.1098 0.5255 0.9333 srgb } def
210.21 50.22 0.46 0.94 r p2
/bg { 0 0.5451 0 srgb } def
210.21 49.85 0.46 0.38 r p2
/bg { 0.1098 0.5255 0.9333 srgb } def
212.80 49.85 0.46 1.13 r p2
214.34 49.85 0.46 0.94 r p2
216.41 49.85 0.46 0.19 r p2
216.93 49.85 0.46 0.19 r p2
217.44 49.85 0.46 0.38 r p2
217.96 49.85 0.46 0.19 r p2
218.48 49.85 0.46 0.19 r p2
219.51 49.85 0.46 0.19 r p2
222.09 49.85 0.46 0.19 r p2
/bg { 0 0.5451 0 srgb } def
223.12 49.85 0.46 0.19 r p2
/bg { 0.1098 0.5255 0.9333 srgb } def
225.70 49.85 0.46 0.19 r p2
226.22 49.85 0.46 0.19 r p2
226.74 49.85 0.46 0.38 r p2
227.25 49.85 0.46 0.38 r p2
228.80 49.85 0.46 0.19 r p2
229.83 49.85 0.46 0.38 r p2
230.87 49.85 0.46 0.56 r p2
231.38 49.85 0.46 0.19 r p2
233.97 50.22 0.46 1.51 r p2
/bg { 0 0 0 srgb } def
233.97 49.85 0.46 0.38 r p2
/bg { 0.1098 0.5255 0.9333 srgb } def
234.48 49.85 0.46 2.26 r p2
235.00 49.85 0.46 14.50 r p2
235.51 49.85 0.46 0.38 r p2
237.06 49.85 0.46 0.19 r p2
238.10 49.85 0.46 0.19 r p2
238.61 49.85 0.46 0.19 r p2
239.13 49.85 0.46 0.19 r p2
239.65 50.04 0.46 0.19 r p2
/bg { 0 0.5451 0 srgb } def
239.65 49.85 0.46 0.19 r p2
/bg { 0.1098 0.5255 0.9333 srgb } def
240.16 49.85 0.46 0.19 r p2
240.68 49.85 0.46 0.19 r p2
241.19 49.85 0.46 0.56 r p2
241.71 50.22 0.46 0.38 r p2
/bg { 0 0.5451 0 srgb } def
241.71 49.85 0.46 0.38 r p2
242.23 49.85 0.46 0.19 r p2
/bg { 0.1098 0.5255 0.9333 srgb } def
242.74 49.85 0.46 0.38 r p2
243.78 49.85 0.46 0.38 r p2
244.81 49.85 0.46 0.19 r p2
245.33 49.85 0.46 0.19 r p2
/bg { 0 0.5451 0 srgb } def
247.91 49.85 0.46 0.19 r p2
/bg { 0.1098 0.5255 0.9333 srgb } def
251.01 49.85 0.46 0.19 r p2
251.52 49.85 0.46 0.19 r p2
252.04 49.85 0.46 0.19 r p2
252.55 49.85 0.46 0.38 r p2
254.62 49.85 0.46 0.19 r p2
/bg { 0 0.5451 0 srgb } def
255.65 49.85 0.46 0.19 r p2
/bg { 0.1098 0.5255 0.9333 srgb } def
256.17 49.85 0.46 0.75 r p2
257.20 49.85 0.46 0.38 r p2
257.72 49.85 0.46 0.75 r p2
258.23 49.85 0.46 0.38 r p2
259.78 50.04 0.46 6.40 r p2
/bg { 0 0 0 srgb } def
259.78 49.85 0.46 0.19 r p2
/bg { 0 0.5451 0 srgb } def
260.82 49.85 0.46 0.19 r p2
/bg { 0.1098 0.5255 0.9333 srgb } def
261.33 50.04 0.46 0.38 r p2
/bg { 0 0.5451 0 srgb } def
261.33 49.85 0.46 0.19 r p2
/bg { 0.1098 0.5255 0.9333 srgb } def
261.85 49.85 0.46 8.85 r p2
262.37 49.85 0.46 0.19 r p2
262.88 49.85 0.46 0.19 r p2
263.40 49.85 0.46 0.19 r p2
263.91 49.85 0.46 0.38 r p2
264.43 49.85 0.46 0.38 r p2
264.95 49.85 0.46 0.19 r p2
265.46 49.85 0.46 0.19 r p2
267.01 49.85 0.46 0.19 r p2
267.53 49.85 0.46 0.19 r p2
268.05 49.85 0.46 0.19 r p2
268.56 50.04 0.46 0.19 r p2
/bg { 0 0.5451 0 srgb } def
268.56 49.85 0.46 0.19 r p2
/bg { 0.1098 0.5255 0.9333 srgb } def
269.08 50.04 0.46 0.19 r p2
/bg { 0 0.5451 0 srgb } def
269.08 49.85 0.46 0.19 r p2
/bg { 0.1098 0.5255 0.9333 srgb } def
269.59 49.85 0.46 0.19 r p2
271.14 49.85 0.46 0.38 r p2
274.76 49.85 0.46 0.38 r p2
275.27 49.85 0.46 0.19 r p2
275.79 49.85 0.46 0.19 r p2
/bg { 0 0.5451 0 srgb } def
277.86 49.85 0.46 0.19 r p2
/bg { 0.1098 0.5255 0.9333 srgb } def
278.37 49.85 0.46 0.94 r p2
279.92 49.85 0.46 0.38 r p2
280.44 49.85 0.46 0.38 r p2
281.47 49.85 0.46 0.19 r p2
281.99 49.85 0.46 0.38 r p2
283.54 49.85 0.46 0.38 r p2
/bg { 0 0 0 srgb } def
285.09 49.85 0.46 0.19 r p2
/bg { 0.1098 0.5255 0.9333 srgb } def
286.63 49.85 0.46 0.56 r p2
/bg { 0 0.5451 0 srgb } def
288.70 49.85 0.46 0.19 r p2
/bg { 0.1098 0.5255 0.9333 srgb } def
290.76 49.85 0.46 0.19 r p2
291.80 49.85 0.46 0.19 r p2
292.31 49.85 0.46 0.19 r p2
/bg { 0 0.5451 0 srgb } def
293.35 49.85 0.46 0.19 r p2
/bg { 0.1098 0.5255 0.9333 srgb } def
293.86 49.85 0.46 1.51 r p2
/bg { 0 0.5451 0 srgb } def
294.90 49.85 0.46 0.19 r p2
/bg { 0.1098 0.5255 0.9333 srgb } def
295.93 49.85 0.46 0.56 r p2
298.51 49.85 0.46 0.19 r p2
299.54 49.85 0.46 0.19 r p2
301.61 49.85 0.46 0.19 r p2
303.67 49.85 0.46 0.19 r p2
304.19 49.85 0.46 0.94 r p2
305.22 49.85 0.46 0.19 r p2
305.74 49.85 0.46 0.19 r p2
/bg { 0 0 0 srgb } def
306.77 49.85 0.46 0.75 r p2
/bg { 0.1098 0.5255 0.9333 srgb } def
307.29 49.85 0.46 0.19 r p2
308.84 49.85 0.46 0.38 r p2
309.35 49.85 0.46 0.19 r p2
/bg { 0 0.5451 0 srgb } def
310.90 49.85 0.46 0.19 r p2
/bg { 0.1098 0.5255 0.9333 srgb } def
312.97 49.85 0.46 1.51 r p2
/bg { 0 0.5451 0 srgb } def
314.52 49.85 0.46 0.19 r p2
/bg { 0.1098 0.5255 0.9333 srgb } def
316.07 49.85 0.46 0.19 r p2
317.62 49.85 0.46 0.19 r p2
318.13 49.85 0.46 0.19 r p2
319.16 49.85 0.46 0.19 r p2
/bg { 0 0.5451 0 srgb } def
323.30 49.85 0.46 1.69 r p2
/bg { 0.1098 0.5255 0.9333 srgb } def
324.84 49.85 0.46 0.19 r p2
325.36 49.85 0.46 0.19 r p2
325.88 49.85 0.46 0.19 r p2
326.39 49.85 0.46 0.19 r p2
326.91 49.85 0.46 0.19 r p2
327.94 50.60 0.46 0.75 r p2
/bg { 0 0 0 srgb } def
327.94 49.85 0.46 0.75 r p2
/bg { 0.1098 0.5255 0.9333 srgb } def
328.98 49.85 0.46 0.19 r p2
331.04 49.85 0.46 0.38 r p2
331.56 49.85 0.46 1.51 r p2
333.11 49.85 0.46 0.19 r p2
/bg { 0 0.5451 0 srgb } def
333.62 49.85 0.46 0.19 r p2
/bg { 0 0 0 srgb } def
334.14 49.85 0.46 0.19 r p2
/bg { 0.1098 0.5255 0.9333 srgb } def
334.66 49.85 0.46 0.75 r p2
336.72 49.85 0.46 0.38 r p2
/bg { 0 0.5451 0 srgb } def
337.24 49.85 0.46 0.19 r p2
/bg { 0.1098 0.5255 0.9333 srgb } def
337.75 49.85 0.46 1.13 r p2
338.27 50.79 0.46 0.56 r p2
/bg { 0 0 0 srgb } def
338.27 49.85 0.46 0.94 r p2
/bg { 0.1098 0.5255 0.9333 srgb } def
339.30 49.85 0.46 0.19 r p2
339.82 49.85 0.46 0.38 r p2
340.34 49.85 0.46 0.19 r p2
341.37 49.85 0.46 0.19 r p2
341.88 49.85 0.46 0.94 r p2
342.40 49.85 0.46 0.75 r p2
343.43 50.04 0.46 0.38 r p2
/bg { 0 0 0 srgb } def
343.43 49.85 0.46 0.19 r p2
/bg { 0.1098 0.5255 0.9333 srgb } def
343.95 49.85 0.46 0.38 r p2
344.47 49.85 0.46 0.19 r p2
345.50 49.85 0.46 0.19 r p2
346.02 49.85 0.46 0.38 r p2
346.53 49.85 0.46 0.38 r p2
347.05 50.04 0.46 0.19 r p2
/bg { 0 0.5451 0 srgb } def
347.05 49.85 0.46 0.19 r p2
/bg { 0.1098 0.5255 0.9333 srgb } def
347.56 49.85 0.46 0.38 r p2
348.08 49.85 0.46 0.19 r p2
348.60 49.85 0.46 0.19 r p2
350.15 49.85 0.46 0.19 r p2
352.21 49.85 0.46 0.38 r p2
352.73 49.85 0.46 0.19 r p2
353.76 49.85 0.46 0.19 r p2
354.28 49.85 0.46 0.38 r p2
354.79 49.85 0.46 0.38 r p2
355.31 49.85 0.46 0.38 r p2
355.83 49.85 0.46 0.38 r p2
/bg { 0 0 0 srgb } def
356.86 49.85 0.46 0.19 r p2
/bg { 0.1098 0.5255 0.9333 srgb } def
357.89 49.85 0.46 0.19 r p2
/bg { 0 0.5451 0 srgb } def
358.41 49.85 0.46 0.38 r p2
/bg { 0.1098 0.5255 0.9333 srgb } def
358.92 49.85 0.46 0.56 r p2
359.44 49.85 0.46 0.19 r p2
/bg { 0 0.5451 0 srgb } def
360.99 49.85 0.46 0.19 r p2
/bg { 0.1098 0.5255 0.9333 srgb } def
362.54 49.85 0.46 3.20 r p2
365.12 50.04 0.46 1.13 r p2
/bg { 0 0 0 srgb } def
365.12 49.85 0.46 0.19 r p2
/bg { 0.1098 0.5255 0.9333 srgb } def
365.64 49.85 0.46 0.19 r p2
367.19 49.85 0.46 0.19 r p2
/bg { 0 0.5451 0 srgb } def
368.22 49.85 0.46 0.19 r p2
/bg { 0.1098 0.5255 0.9333 srgb } def
369.25 49.85 0.46 0.19 r p2
370.28 49.85 0.46 0.56 r p2
371.32 49.85 0.46 0.19 r p2
371.83 50.04 0.46 0.75 r p2
/bg { 0 0.5451 0 srgb } def
371.83 49.85 0.46 0.19 r p2
/bg { 0.1098 0.5255 0.9333 srgb } def
374.93 49.85 0.46 0.19 r p2
/bg { 0 0.5451 0 srgb } def
376.48 49.85 0.46 0.19 r p2
377.00 49.85 0.46 0.38 r p2
/bg { 0.1098 0.5255 0.9333 srgb } def
377.51 49.85 0.46 0.19 r p2
378.03 49.85 0.46 0.19 r p2
378.55 49.85 0.46 0.19 r p2
379.58 49.85 0.46 0.19 r p2
380.09 49.85 0.46 0.19 r p2
380.61 49.85 0.46 0.19 r p2
381.64 49.85 0.46 0.38 r p2
382.68 49.85 0.46 0.19 r p2
383.19 49.85 0.46 0.19 r p2
383.71 49.85 0.46 0.19 r p2
384.23 49.85 0.46 0.19 r p2
385.77 49.85 0.46 0.56 r p2
386.29 49.85 0.46 0.19 r p2
/bg { 0 0.5451 0 srgb } def
388.87 49.85 0.46 0.19 r p2
389.39 49.85 0.46 0.19 r p2
/bg { 0.1098 0.5255 0.9333 srgb } def
389.91 49.85 0.46 0.75 r p2
390.42 49.85 0.46 0.19 r p2
391.45 49.85 0.46 0.19 r p2
392.49 49.85 0.46 0.19 r p2
394.55 49.85 0.46 0.38 r p2
395.07 49.85 0.46 0.19 r p2
395.59 49.85 0.46 0.38 r p2
396.10 49.85 0.46 0.19 r p2
397.13 49.85 0.46 0.19 r p2
398.68 50.04 0.46 0.38 r p2
/bg { 0 0.5451 0 srgb } def
398.68 49.85 0.46 0.19 r p2
/bg { 0.1098 0.5255 0.9333 srgb } def
399.20 49.85 0.46 0.38 r p2
401.27 49.85 0.46 0.38 r p2
401.78 49.85 0.46 0.19 r p2
402.30 49.85 0.46 0.19 r p2
403.33 50.04 0.46 1.32 r p2
/bg { 0 0 0 srgb } def
403.33 49.85 0.46 0.19 r p2
/bg { 0.1098 0.5255 0.9333 srgb } def
404.88 49.85 0.46 0.19 r p2
405.40 49.85 0.46 1.88 r p2
/bg { 0 0.5451 0 srgb } def
408.49 49.85 0.46 0.19 r p2
/bg { 0.1098 0.5255 0.9333 srgb } def
409.53 49.85 0.46 0.38 r p2
411.59 49.85 0.46 0.19 r p2
413.14 49.85 0.46 0.19 r p2
414.69 49.85 0.46 0.19 r p2
416.24 50.04 0.46 0.19 r p2
/bg { 0 0.5451 0 srgb } def
416.24 49.85 0.46 0.19 r p2
/bg { 0.1098 0.5255 0.9333 srgb } def
416.76 49.85 0.46 0.38 r p2
417.27 49.85 0.46 0.56 r p2
418.30 49.85 0.46 0.38 r p2
420.89 49.85 0.46 0.19 r p2
/bg { 0 0.5451 0 srgb } def
421.92 49.85 0.46 0.19 r p2
/bg { 0.1098 0.5255 0.9333 srgb } def
422.95 49.85 0.46 0.19 r p2
426.05 49.85 0.46 0.19 r p2
427.08 49.85 0.46 0.19 r p2
428.63 49.85 0.46 0.56 r p2
429.66 49.85 0.46 0.19 r p2
430.70 49.85 0.46 0.56 r p2
431.21 49.85 0.46 0.19 r p2
431.73 49.85 0.46 0.19 r p2
432.25 49.85 0.46 0.56 r p2
433.80 49.85 0.46 0.19 r p2
435.86 49.85 0.46 0.56 r p2
436.38 50.04 0.46 0.19 r p2
/bg { 0 0.5451 0 srgb } def
436.38 49.85 0.46 0.19 r p2
/bg { 0.1098 0.5255 0.9333 srgb } def
437.41 49.85 0.46 0.56 r p2
437.93 50.04 0.46 0.19 r p2
/bg { 0 0.5451 0 srgb } def
437.93 49.85 0.46 0.19 r p2
/bg { 0.1098 0.5255 0.9333 srgb } def
438.44 49.85 0.46 0.19 r p2
438.96 49.85 0.46 0.19 r p2
442.06 50.04 0.46 0.19 r p2
/bg { 0 0.5451 0 srgb } def
442.06 49.85 0.46 0.19 r p2
/bg { 0.1098 0.5255 0.9333 srgb } def
443.09 49.85 0.46 0.56 r p2
443.61 49.85 0.46 0.56 r p2
444.12 49.85 0.46 0.19 r p2
/bg { 0 0.5451 0 srgb } def
444.64 49.85 0.46 0.19 r p2
/bg { 0.1098 0.5255 0.9333 srgb } def
445.16 50.04 0.46 0.19 r p2
/bg { 0 0.5451 0 srgb } def
445.16 49.85 0.46 0.19 r p2
/bg { 0.1098 0.5255 0.9333 srgb } def
446.19 49.85 0.46 0.56 r p2
449.80 49.85 0.46 0.38 r p2
451.87 49.85 0.46 0.56 r p2
452.38 49.85 0.46 0.19 r p2
453.93 49.85 0.46 0.19 r p2
454.97 49.85 0.46 0.19 r p2
455.48 49.85 0.46 0.38 r p2
456.00 49.85 0.46 0.19 r p2
456.52 49.85 0.46 0.19 r p2
458.58 49.85 0.46 0.19 r p2
460.65 49.85 0.46 0.19 r p2
/bg { 0 0 0 srgb } def
461.16 49.85 0.46 0.75 r p2
/bg { 0 0.5451 0 srgb } def
461.68 49.85 0.46 1.32 r p2
/bg { 0.1098 0.5255 0.9333 srgb } def
463.23 49.85 0.46 0.19 r p2
463.74 49.85 0.46 0.19 r p2
/bg { 0 0.5451 0 srgb } def
464.26 49.85 0.46 0.19 r p2
464.78 49.85 0.46 0.75 r p2
0.00 0.00 576.00 432.00 cl
0.00 0.00 576.00 432.00 cl
0.00 0.00 576.00 432.00 cl
0.00 0.00 576.00 432.00 cl
0.00 0.00 576.00 432.00 cl
0.00 0.00 576.00 432.00 cl
0.00 0.00 576.00 432.00 cl
0.00 0.00 576.00 432.00 cl
0.00 0.00 576.00 432.00 cl
0.00 0.00 576.00 432.00 cl
0.00 0.00 576.00 432.00 cl
0.00 0.00 576.00 432.00 cl
0.00 0.00 576.00 432.00 cl
0.00 0.00 576.00 432.00 cl
0.00 0.00 576.00 432.00 cl
0.00 0.00 576.00 432.00 cl
/Font1 findfont 9 s
0.3020 0.3020 0.3020 srgb
38.55 46.62 (0) 1 0 t
38.55 140.77 (500) 1 0 t
38.55 234.93 (1000) 1 0 t
38.55 329.09 (1500) 1 0 t
38.55 423.24 (2000) 1 0 t
0.00 0.00 576.00 432.00 cl
0.00 0.00 576.00 432.00 cl
0.00 0.00 576.00 432.00 cl
0.2000 0.2000 0.2000 srgb
1.07 setlinewidth
[] 0 setdash
0 setlinecap
1 setlinejoin
10.00 setmiterlimit
np
40.74 49.85 m
2.74 0 l
o
np
40.74 144.00 m
2.74 0 l
o
np
40.74 238.16 m
2.74 0 l
o
np
40.74 332.32 m
2.74 0 l
o
np
40.74 426.47 m
2.74 0 l
o
0.00 0.00 576.00 432.00 cl
0.00 0.00 576.00 432.00 cl
0.00 0.00 576.00 432.00 cl
0.00 0.00 576.00 432.00 cl
0.00 0.00 576.00 432.00 cl
0.00 0.00 576.00 432.00 cl
0.00 0.00 576.00 432.00 cl
0.00 0.00 576.00 432.00 cl
0.00 0.00 576.00 432.00 cl
0.00 0.00 576.00 432.00 cl
0.00 0.00 576.00 432.00 cl
0.2000 0.2000 0.2000 srgb
1.07 setlinewidth
[] 0 setdash
0 setlinecap
1 setlinejoin
10.00 setmiterlimit
np
62.25 29.17 m
0 2.74 l
o
np
165.52 29.17 m
0 2.74 l
o
np
268.79 29.17 m
0 2.74 l
o
np
372.07 29.17 m
0 2.74 l
o
np
475.34 29.17 m
0 2.74 l
o
0.00 0.00 576.00 432.00 cl
0.00 0.00 576.00 432.00 cl
/Font1 findfont 9 s
0.3020 0.3020 0.3020 srgb
62.25 20.52 (0) .5 0 t
165.52 20.52 (200) .5 0 t
268.79 20.52 (400) .5 0 t
372.07 20.52 (600) .5 0 t
475.34 20.52 (800) .5 0 t
0.00 0.00 576.00 432.00 cl
0.00 0.00 576.00 432.00 cl
0.00 0.00 576.00 432.00 cl
0.00 0.00 576.00 432.00 cl
0.00 0.00 576.00 432.00 cl
0.00 0.00 576.00 432.00 cl
0.00 0.00 576.00 432.00 cl
0.00 0.00 576.00 432.00 cl
/Font1 findfont 11 s
0 0 0 srgb
264.40 7.90 (Codon position) .5 0 t
0.00 0.00 576.00 432.00 cl
0.00 0.00 576.00 432.00 cl
0.00 0.00 576.00 432.00 cl
/Font1 findfont 11 s
0 0 0 srgb
13.38 229.22 (Count in COSMIC v94) .5 90 t
0.00 0.00 576.00 432.00 cl
0.00 0.00 576.00 432.00 cl
0.00 0.00 576.00 432.00 cl
0.00 0.00 576.00 432.00 cl
0.00 0.00 576.00 432.00 cl
0.00 0.00 576.00 432.00 cl
0.00 0.00 576.00 432.00 cl
0.00 0.00 576.00 432.00 cl
0.00 0.00 576.00 432.00 cl
/bg { 1 1 1 srgb } def
496.28 189.92 74.24 78.60 r p2
0.00 0.00 576.00 432.00 cl
0.00 0.00 576.00 432.00 cl
0.00 0.00 576.00 432.00 cl
0.00 0.00 576.00 432.00 cl
/Font1 findfont 11 s
0 0 0 srgb
501.76 253.93 (T) 0 ta
-1.320 (ype) tb gr
0.00 0.00 576.00 432.00 cl
0.00 0.00 576.00 432.00 cl
0.00 0.00 576.00 432.00 cl
0.00 0.00 576.00 432.00 cl
/bg { 0.9490 0.9490 0.9490 srgb } def
501.76 229.96 17.28 17.28 r p2
0.00 0.00 576.00 432.00 cl
0.00 0.00 576.00 432.00 cl
/bg { 0.1098 0.5255 0.9333 srgb } def
502.47 230.67 15.86 15.86 r p2
0.00 0.00 576.00 432.00 cl
0.00 0.00 576.00 432.00 cl
/bg { 0.9490 0.9490 0.9490 srgb } def
501.76 212.68 17.28 17.28 r p2
0.00 0.00 576.00 432.00 cl
0.00 0.00 576.00 432.00 cl
/bg { 0 0 0 srgb } def
502.47 213.39 15.86 15.86 r p2
0.00 0.00 576.00 432.00 cl
0.00 0.00 576.00 432.00 cl
/bg { 0.9490 0.9490 0.9490 srgb } def
501.76 195.40 17.28 17.28 r p2
0.00 0.00 576.00 432.00 cl
0.00 0.00 576.00 432.00 cl
/bg { 0 0.5451 0 srgb } def
502.47 196.11 15.86 15.86 r p2
0.00 0.00 576.00 432.00 cl
0.00 0.00 576.00 432.00 cl
0.00 0.00 576.00 432.00 cl
0.00 0.00 576.00 432.00 cl
/Font1 findfont 9 s
0 0 0 srgb
524.52 235.37 (Missense) 0 0 t
0.00 0.00 576.00 432.00 cl
0.00 0.00 576.00 432.00 cl
0.00 0.00 576.00 432.00 cl
0.00 0.00 576.00 432.00 cl
0.00 0.00 576.00 432.00 cl
0.00 0.00 576.00 432.00 cl
/Font1 findfont 9 s
0 0 0 srgb
524.52 218.09 (Nonsense) 0 0 t
0.00 0.00 576.00 432.00 cl
0.00 0.00 576.00 432.00 cl
0.00 0.00 576.00 432.00 cl
0.00 0.00 576.00 432.00 cl
0.00 0.00 576.00 432.00 cl
0.00 0.00 576.00 432.00 cl
/Font1 findfont 9 s
0 0 0 srgb
524.52 200.81 (Silent) 0 0 t
0.00 0.00 576.00 432.00 cl
0.00 0.00 576.00 432.00 cl
0.00 0.00 576.00 432.00 cl
0.00 0.00 576.00 432.00 cl
0.00 0.00 576.00 432.00 cl
0.00 0.00 576.00 432.00 cl
0.00 0.00 576.00 432.00 cl
0.00 0.00 576.00 432.00 cl
0.00 0.00 576.00 432.00 cl
0.00 0.00 576.00 432.00 cl
0.00 0.00 576.00 432.00 cl
0.00 0.00 576.00 432.00 cl
0.00 0.00 576.00 432.00 cl
0.00 0.00 576.00 432.00 cl
0.00 0.00 576.00 432.00 cl
0.00 0.00 576.00 432.00 cl
ep
%%Trailer
%%Pages: 1
%%EOF
