%!PS-Adobe-3.0 EPSF-3.0
%%DocumentNeededResources: font Helvetica
%%+ font Helvetica-Bold
%%+ font Helvetica-Oblique
%%+ font Helvetica-BoldOblique
%%+ font Symbol
%%Title: R Graphics Output
%%Creator: R Software
%%Pages: (atend)
%%BoundingBox: 0 0 576 432
%%EndComments
%%BeginProlog
/bp  { gs sRGB gs } def
% begin .ps.prolog
/gs  { gsave } bind def
/gr  { grestore } bind def
/ep  { showpage gr gr } bind def
/m   { moveto } bind def
/l  { rlineto } bind def
/np  { newpath } bind def
/cp  { closepath } bind def
/f   { fill } bind def
/o   { stroke } bind def
/c   { newpath 0 360 arc } bind def
/r   { 4 2 roll moveto 1 copy 3 -1 roll exch 0 exch rlineto 0 rlineto -1 mul 0 exch rlineto closepath } bind def
/p1  { stroke } bind def
/p2  { gsave bg fill grestore newpath } bind def
/p3  { gsave bg fill grestore stroke } bind def
/p6  { gsave bg eofill grestore newpath } bind def
/p7  { gsave bg eofill grestore stroke } bind def
/t   { 5 -2 roll moveto gsave rotate
       1 index stringwidth pop
       mul neg 0 rmoveto show grestore } bind def
/ta  { 4 -2 roll moveto gsave rotate show } bind def
/tb  { 2 -1 roll 0 rmoveto show } bind def
/cl  { grestore gsave newpath 3 index 3 index moveto 1 index
       4 -1 roll lineto  exch 1 index lineto lineto
       closepath clip newpath } bind def
/rgb { setrgbcolor } bind def
/s   { scalefont setfont } bind def
% end   .ps.prolog
/sRGB { [ /CIEBasedABC
          << /DecodeLMN
               [ { dup 0.03928 le
                        {12.92321 div}
                        {0.055 add 1.055 div 2.4 exp }
                     ifelse
                 } bind dup dup
               ]
             /MatrixLMN [0.412457 0.212673 0.019334
                         0.357576 0.715152 0.119192
                         0.180437 0.072175 0.950301]
             /WhitePoint [0.9505 1.0 1.0890]
           >>
         ] setcolorspace } bind def
/srgb { setcolor } bind def
%%IncludeResource: font Helvetica
/Helvetica findfont
dup length dict begin
  {1 index /FID ne {def} {pop pop} ifelse} forall
  /Encoding ISOLatin1Encoding def
  currentdict
  end
/Font1 exch definefont pop
%%IncludeResource: font Helvetica-Bold
/Helvetica-Bold findfont
dup length dict begin
  {1 index /FID ne {def} {pop pop} ifelse} forall
  /Encoding ISOLatin1Encoding def
  currentdict
  end
/Font2 exch definefont pop
%%IncludeResource: font Helvetica-Oblique
/Helvetica-Oblique findfont
dup length dict begin
  {1 index /FID ne {def} {pop pop} ifelse} forall
  /Encoding ISOLatin1Encoding def
  currentdict
  end
/Font3 exch definefont pop
%%IncludeResource: font Helvetica-BoldOblique
/Helvetica-BoldOblique findfont
dup length dict begin
  {1 index /FID ne {def} {pop pop} ifelse} forall
  /Encoding ISOLatin1Encoding def
  currentdict
  end
/Font4 exch definefont pop
%%IncludeResource: font Symbol
/Symbol findfont
dup length dict begin
  {1 index /FID ne {def} {pop pop} ifelse} forall
  currentdict
  end
/Font5 exch definefont pop
%%EndProlog
%%Page: 1 1
bp
0.00 0.00 576.00 432.00 cl
0.00 0.00 576.00 432.00 cl
0.00 0.00 576.00 432.00 cl
0.00 0.00 576.00 432.00 cl
0.00 0.00 576.00 432.00 cl
0.00 0.00 576.00 432.00 cl
0.00 0.00 576.00 432.00 cl
0.00 0.00 576.00 432.00 cl
0.00 0.00 576.00 432.00 cl
0.00 0.00 576.00 432.00 cl
0.00 0.00 576.00 432.00 cl
0.00 0.00 576.00 432.00 cl
0.00 0.00 576.00 432.00 cl
0.00 0.00 576.00 432.00 cl
0.00 0.00 576.00 432.00 cl
0.00 0.00 576.00 432.00 cl
0.00 0.00 576.00 432.00 cl
0.00 0.00 576.00 432.00 cl
0.00 0.00 576.00 432.00 cl
0.00 0.00 576.00 432.00 cl
0.00 0.00 576.00 432.00 cl
0.00 0.00 576.00 432.00 cl
0.00 0.00 576.00 432.00 cl
0.00 0.00 576.00 432.00 cl
0.00 0.00 576.00 432.00 cl
0.00 0.00 576.00 432.00 cl
0.00 0.00 576.00 432.00 cl
0.00 0.00 576.00 432.00 cl
0.00 0.00 576.00 432.00 cl
0.00 0.00 576.00 432.00 cl
0.00 0.00 576.00 432.00 cl
0.00 0.00 576.00 432.00 cl
0.00 0.00 576.00 432.00 cl
0.00 0.00 576.00 432.00 cl
0.00 0.00 576.00 432.00 cl
0.00 0.00 576.00 432.00 cl
0.00 0.00 576.00 432.00 cl
0.00 0.00 576.00 432.00 cl
0.00 0.00 576.00 432.00 cl
0.00 0.00 576.00 432.00 cl
0.00 0.00 576.00 432.00 cl
0.00 0.00 576.00 432.00 cl
0.00 0.00 576.00 432.00 cl
0.00 0.00 576.00 432.00 cl
0.00 0.00 576.00 432.00 cl
0.00 0.00 576.00 432.00 cl
0.00 0.00 576.00 432.00 cl
0.00 0.00 576.00 432.00 cl
0.00 0.00 576.00 432.00 cl
0.00 0.00 576.00 432.00 cl
0.00 0.00 576.00 432.00 cl
0.00 0.00 576.00 432.00 cl
0.00 0.00 576.00 432.00 cl
0.00 0.00 576.00 432.00 cl
/bg { 1 1 1 srgb } def
1 1 1 srgb
1.07 setlinewidth
[] 0 setdash
1 setlinecap
1 setlinejoin
10.00 setmiterlimit
0.00 0.00 576.00 432.00 r p3
0.00 0.00 576.00 432.00 cl
43.48 31.91 481.61 426.52 cl
/bg { 0.9216 0.9216 0.9216 srgb } def
43.48 31.91 438.13 394.61 r p2
1 1 1 srgb
0.53 setlinewidth
[] 0 setdash
0 setlinecap
1 setlinejoin
10.00 setmiterlimit
np
43.48 96.98 m
438.13 0 l
o
np
43.48 191.23 m
438.13 0 l
o
np
43.48 285.49 m
438.13 0 l
o
np
43.48 379.74 m
438.13 0 l
o
1.07 setlinewidth
[] 0 setdash
np
43.48 49.85 m
438.13 0 l
o
np
43.48 144.10 m
438.13 0 l
o
np
43.48 238.36 m
438.13 0 l
o
np
43.48 332.61 m
438.13 0 l
o
np
57.93 31.91 m
0 394.61 l
o
np
82.00 31.91 m
0 394.61 l
o
np
106.07 31.91 m
0 394.61 l
o
np
130.15 31.91 m
0 394.61 l
o
np
154.22 31.91 m
0 394.61 l
o
np
178.29 31.91 m
0 394.61 l
o
np
202.37 31.91 m
0 394.61 l
o
np
226.44 31.91 m
0 394.61 l
o
np
250.51 31.91 m
0 394.61 l
o
np
274.58 31.91 m
0 394.61 l
o
np
298.66 31.91 m
0 394.61 l
o
np
322.73 31.91 m
0 394.61 l
o
np
346.80 31.91 m
0 394.61 l
o
np
370.88 31.91 m
0 394.61 l
o
np
394.95 31.91 m
0 394.61 l
o
np
419.02 31.91 m
0 394.61 l
o
np
443.09 31.91 m
0 394.61 l
o
np
467.17 31.91 m
0 394.61 l
o
/bg { 0.7922 0.6980 0.8392 srgb } def
47.10 50.79 21.67 0.38 r p2
/bg { 0.7020 0.7020 0.7020 srgb } def
47.10 50.22 21.67 0.57 r p2
/bg { 0.9333 0.9020 0.5216 srgb } def
47.10 50.04 21.67 0.19 r p2
/bg { 0.2118 0.3922 0.5451 srgb } def
47.10 49.85 21.67 0.19 r p2
/bg { 0.1098 0.5255 0.9333 srgb } def
71.17 194.62 21.67 5.47 r p2
/bg { 0.8902 0.1020 0.1098 srgb } def
71.17 194.44 21.67 0.19 r p2
/bg { 0.4157 0.2392 0.6039 srgb } def
71.17 192.36 21.67 2.07 r p2
/bg { 1 0.4980 0 srgb } def
71.17 191.80 21.67 0.57 r p2
/bg { 0 0 0 srgb } def
71.17 166.16 21.67 25.64 r p2
/bg { 1 0.8431 0 srgb } def
71.17 148.82 21.67 17.34 r p2
/bg { 0.9922 0.7490 0.4353 srgb } def
71.17 113.94 21.67 34.87 r p2
/bg { 0 0 1 srgb } def
71.17 95.28 21.67 18.66 r p2
/bg { 0 0.8078 0.8196 srgb } def
71.17 94.71 21.67 0.57 r p2
/bg { 0 1 0 srgb } def
71.17 49.85 21.67 44.87 r p2
/bg { 0.1098 0.5255 0.9333 srgb } def
95.24 198.58 21.67 8.86 r p2
/bg { 0.8902 0.1020 0.1098 srgb } def
95.24 133.92 21.67 64.66 r p2
/bg { 1 0.4980 0 srgb } def
95.24 94.34 21.67 39.59 r p2
/bg { 0.9843 0.6039 0.6000 srgb } def
95.24 94.15 21.67 0.19 r p2
/bg { 0.5647 0.9333 0.5647 srgb } def
95.24 93.02 21.67 1.13 r p2
/bg { 0.9922 0.7490 0.4353 srgb } def
95.24 92.07 21.67 0.94 r p2
/bg { 0.7020 0.7020 0.7020 srgb } def
95.24 72.09 21.67 19.98 r p2
/bg { 1 0.0784 0.5765 srgb } def
95.24 69.64 21.67 2.45 r p2
/bg { 0 1 0 srgb } def
95.24 49.85 21.67 19.79 r p2
/bg { 0.1098 0.5255 0.9333 srgb } def
119.31 144.67 21.67 0.38 r p2
/bg { 0.8902 0.1020 0.1098 srgb } def
119.31 144.48 21.67 0.19 r p2
/bg { 0 0.5451 0 srgb } def
119.31 144.29 21.67 0.19 r p2
/bg { 0.4157 0.2392 0.6039 srgb } def
119.31 115.07 21.67 29.22 r p2
/bg { 0.4941 0.7529 0.9333 srgb } def
119.31 114.88 21.67 0.19 r p2
/bg { 0.5647 0.9333 0.5647 srgb } def
119.31 114.70 21.67 0.19 r p2
/bg { 0.6902 0.1882 0.3765 srgb } def
119.31 79.26 21.67 35.44 r p2
/bg { 0 0 1 srgb } def
119.31 49.85 21.67 29.41 r p2
/bg { 1 0.4980 0 srgb } def
143.39 72.09 21.67 0.19 r p2
/bg { 0.9843 0.6039 0.6000 srgb } def
143.39 71.71 21.67 0.38 r p2
/bg { 0.7922 0.6980 0.8392 srgb } def
143.39 71.53 21.67 0.19 r p2
/bg { 0.9922 0.7490 0.4353 srgb } def
143.39 71.15 21.67 0.38 r p2
/bg { 1 0.5137 0.9804 srgb } def
143.39 57.39 21.67 13.76 r p2
/bg { 1 0.0784 0.5765 srgb } def
143.39 50.04 21.67 7.35 r p2
/bg { 0 0 1 srgb } def
143.39 49.85 21.67 0.19 r p2
/bg { 0.7020 0.7020 0.7020 srgb } def
167.46 52.30 21.67 12.82 r p2
/bg { 0.6902 0.1882 0.3765 srgb } def
167.46 50.98 21.67 1.32 r p2
/bg { 0 1 0 srgb } def
167.46 49.85 21.67 1.13 r p2
/bg { 0.1098 0.5255 0.9333 srgb } def
191.53 192.36 21.67 16.40 r p2
/bg { 0.8902 0.1020 0.1098 srgb } def
191.53 146.55 21.67 45.81 r p2
/bg { 1 0.4980 0 srgb } def
191.53 73.41 21.67 73.14 r p2
/bg { 0.5647 0.9333 0.5647 srgb } def
191.53 73.03 21.67 0.38 r p2
/bg { 0.7020 0.7020 0.7020 srgb } def
191.53 63.42 21.67 9.61 r p2
/bg { 1 0.0784 0.5765 srgb } def
191.53 63.04 21.67 0.38 r p2
/bg { 0 0 1 srgb } def
191.53 62.85 21.67 0.19 r p2
/bg { 0 1 0 srgb } def
191.53 49.85 21.67 13.01 r p2
/bg { 0.1098 0.5255 0.9333 srgb } def
215.61 51.73 21.67 0.19 r p2
/bg { 0.8902 0.1020 0.1098 srgb } def
215.61 51.54 21.67 0.19 r p2
/bg { 0 0.5451 0 srgb } def
215.61 50.98 21.67 0.57 r p2
/bg { 0.7020 0.7020 0.7020 srgb } def
215.61 50.22 21.67 0.75 r p2
/bg { 1 0.5137 0.9804 srgb } def
215.61 50.04 21.67 0.19 r p2
/bg { 0 0.8078 0.8196 srgb } def
215.61 49.85 21.67 0.19 r p2
/bg { 0 0 0 srgb } def
239.68 50.98 21.67 0.75 r p2
/bg { 1 0.0784 0.5765 srgb } def
239.68 50.22 21.67 0.75 r p2
/bg { 0 0 1 srgb } def
239.68 49.85 21.67 0.38 r p2
/bg { 0.1098 0.5255 0.9333 srgb } def
263.75 53.43 21.67 0.75 r p2
/bg { 0.4941 0.7529 0.9333 srgb } def
263.75 50.60 21.67 2.83 r p2
/bg { 0.7020 0.7020 0.7020 srgb } def
263.75 50.41 21.67 0.19 r p2
/bg { 1 0.5137 0.9804 srgb } def
263.75 49.85 21.67 0.57 r p2
/bg { 0.1098 0.5255 0.9333 srgb } def
287.82 98.86 21.67 309.72 r p2
/bg { 0.4941 0.7529 0.9333 srgb } def
287.82 56.45 21.67 42.41 r p2
/bg { 0.9922 0.7490 0.4353 srgb } def
287.82 53.43 21.67 3.02 r p2
/bg { 0.7020 0.7020 0.7020 srgb } def
287.82 51.54 21.67 1.89 r p2
/bg { 1 0.5137 0.9804 srgb } def
287.82 49.85 21.67 1.70 r p2
/bg { 0.1098 0.5255 0.9333 srgb } def
311.90 53.05 21.67 0.57 r p2
/bg { 0.4941 0.7529 0.9333 srgb } def
311.90 51.73 21.67 1.32 r p2
/bg { 0.9843 0.6039 0.6000 srgb } def
311.90 51.54 21.67 0.19 r p2
/bg { 0.9333 0.9020 0.5216 srgb } def
311.90 51.36 21.67 0.19 r p2
/bg { 0.6902 0.1882 0.3765 srgb } def
311.90 50.41 21.67 0.94 r p2
/bg { 1 0.5137 0.9804 srgb } def
311.90 49.85 21.67 0.57 r p2
/bg { 0.7020 0.7020 0.7020 srgb } def
335.97 51.73 21.67 0.38 r p2
/bg { 1 0.0784 0.5765 srgb } def
335.97 50.79 21.67 0.94 r p2
/bg { 0 0 1 srgb } def
335.97 49.85 21.67 0.94 r p2
/bg { 0.1098 0.5255 0.9333 srgb } def
360.04 52.68 21.67 4.15 r p2
/bg { 0.4941 0.7529 0.9333 srgb } def
360.04 52.49 21.67 0.19 r p2
/bg { 0.5647 0.9333 0.5647 srgb } def
360.04 51.17 21.67 1.32 r p2
/bg { 1 0.5137 0.9804 srgb } def
360.04 49.85 21.67 1.32 r p2
/bg { 0.1098 0.5255 0.9333 srgb } def
384.12 372.77 21.67 6.41 r p2
/bg { 0.8902 0.1020 0.1098 srgb } def
384.12 362.78 21.67 9.99 r p2
/bg { 0.4157 0.2392 0.6039 srgb } def
384.12 362.59 21.67 0.19 r p2
/bg { 1 0.4980 0 srgb } def
384.12 169.74 21.67 192.85 r p2
/bg { 0.9922 0.7490 0.4353 srgb } def
384.12 168.42 21.67 1.32 r p2
/bg { 0.7020 0.7020 0.7020 srgb } def
384.12 63.04 21.67 105.38 r p2
/bg { 1 0.0784 0.5765 srgb } def
384.12 61.72 21.67 1.32 r p2
/bg { 0 0 1 srgb } def
384.12 61.16 21.67 0.57 r p2
/bg { 0 1 0 srgb } def
384.12 49.85 21.67 11.31 r p2
/bg { 0.7922 0.6980 0.8392 srgb } def
408.19 50.41 21.67 0.19 r p2
/bg { 0.7020 0.7020 0.7020 srgb } def
408.19 50.22 21.67 0.19 r p2
/bg { 0.9333 0.9020 0.5216 srgb } def
408.19 50.04 21.67 0.19 r p2
/bg { 0 0 1 srgb } def
408.19 49.85 21.67 0.19 r p2
/bg { 0.8902 0.1020 0.1098 srgb } def
432.26 52.30 21.67 0.19 r p2
/bg { 0 0 0 srgb } def
432.26 52.11 21.67 0.19 r p2
/bg { 0.4941 0.7529 0.9333 srgb } def
432.26 51.92 21.67 0.19 r p2
/bg { 0.5647 0.9333 0.5647 srgb } def
432.26 51.54 21.67 0.38 r p2
/bg { 0.9922 0.7490 0.4353 srgb } def
432.26 50.98 21.67 0.57 r p2
/bg { 0.6902 0.1882 0.3765 srgb } def
432.26 50.41 21.67 0.57 r p2
/bg { 1 0.0784 0.5765 srgb } def
432.26 50.04 21.67 0.38 r p2
/bg { 0 1 0 srgb } def
432.26 49.85 21.67 0.19 r p2
/bg { 0 0.5451 0 srgb } def
456.33 50.60 21.67 1.89 r p2
/bg { 1 0.5137 0.9804 srgb } def
456.33 50.41 21.67 0.19 r p2
/bg { 0 0 1 srgb } def
456.33 49.85 21.67 0.57 r p2
/bg { 0.5647 0.9333 0.5647 srgb } def
47.10 51.17 21.67 0.00 r p2
/bg { 0 0.5451 0 srgb } def
71.17 194.44 21.67 0.00 r p2
/bg { 1 0.5137 0.9804 srgb } def
95.24 72.09 21.67 0.00 r p2
/bg { 0 0 0 srgb } def
119.31 115.07 21.67 0.00 r p2
/bg { 0.4941 0.7529 0.9333 srgb } def
143.39 72.09 21.67 0.00 r p2
/bg { 1 0.8431 0 srgb } def
167.46 65.12 21.67 0.00 r p2
/bg { 1 0.5137 0.9804 srgb } def
191.53 63.42 21.67 0.00 r p2
/bg { 0 0 0 srgb } def
215.61 50.98 21.67 0.00 r p2
/bg { 0.1098 0.5255 0.9333 srgb } def
239.68 51.73 21.67 0.00 r p2
/bg { 1 0.0784 0.5765 srgb } def
263.75 49.85 21.67 0.00 r p2
287.82 49.85 21.67 0.00 r p2
311.90 49.85 21.67 0.00 r p2
/bg { 0.1098 0.5255 0.9333 srgb } def
335.97 52.11 21.67 0.00 r p2
/bg { 0.7020 0.7020 0.7020 srgb } def
360.04 51.17 21.67 0.00 r p2
/bg { 1 0.5137 0.9804 srgb } def
384.12 63.04 21.67 0.00 r p2
/bg { 0.5647 0.9333 0.5647 srgb } def
408.19 50.60 21.67 0.00 r p2
/bg { 1 0.5137 0.9804 srgb } def
432.26 50.41 21.67 0.00 r p2
/bg { 0 0 0 srgb } def
456.33 50.60 21.67 0.00 r p2
0.00 0.00 576.00 432.00 cl
0.00 0.00 576.00 432.00 cl
0.00 0.00 576.00 432.00 cl
0.00 0.00 576.00 432.00 cl
0.00 0.00 576.00 432.00 cl
0.00 0.00 576.00 432.00 cl
0.00 0.00 576.00 432.00 cl
0.00 0.00 576.00 432.00 cl
0.00 0.00 576.00 432.00 cl
0.00 0.00 576.00 432.00 cl
0.00 0.00 576.00 432.00 cl
0.00 0.00 576.00 432.00 cl
0.00 0.00 576.00 432.00 cl
0.00 0.00 576.00 432.00 cl
0.00 0.00 576.00 432.00 cl
0.00 0.00 576.00 432.00 cl
/Font1 findfont 9 s
0.3020 0.3020 0.3020 srgb
38.55 46.62 (0) 1 0 t
38.55 140.87 (500) 1 0 t
38.55 235.13 (1000) 1 0 t
38.55 329.38 (1500) 1 0 t
0.00 0.00 576.00 432.00 cl
0.00 0.00 576.00 432.00 cl
0.00 0.00 576.00 432.00 cl
0.2000 0.2000 0.2000 srgb
1.07 setlinewidth
[] 0 setdash
0 setlinecap
1 setlinejoin
10.00 setmiterlimit
np
40.74 49.85 m
2.74 0 l
o
np
40.74 144.10 m
2.74 0 l
o
np
40.74 238.36 m
2.74 0 l
o
np
40.74 332.61 m
2.74 0 l
o
0.00 0.00 576.00 432.00 cl
0.00 0.00 576.00 432.00 cl
0.00 0.00 576.00 432.00 cl
0.00 0.00 576.00 432.00 cl
0.00 0.00 576.00 432.00 cl
0.00 0.00 576.00 432.00 cl
0.00 0.00 576.00 432.00 cl
0.00 0.00 576.00 432.00 cl
0.00 0.00 576.00 432.00 cl
0.00 0.00 576.00 432.00 cl
0.00 0.00 576.00 432.00 cl
0.2000 0.2000 0.2000 srgb
1.07 setlinewidth
[] 0 setdash
0 setlinecap
1 setlinejoin
10.00 setmiterlimit
np
57.93 29.17 m
0 2.74 l
o
np
82.00 29.17 m
0 2.74 l
o
np
106.07 29.17 m
0 2.74 l
o
np
130.15 29.17 m
0 2.74 l
o
np
154.22 29.17 m
0 2.74 l
o
np
178.29 29.17 m
0 2.74 l
o
np
202.37 29.17 m
0 2.74 l
o
np
226.44 29.17 m
0 2.74 l
o
np
250.51 29.17 m
0 2.74 l
o
np
274.58 29.17 m
0 2.74 l
o
np
298.66 29.17 m
0 2.74 l
o
np
322.73 29.17 m
0 2.74 l
o
np
346.80 29.17 m
0 2.74 l
o
np
370.88 29.17 m
0 2.74 l
o
np
394.95 29.17 m
0 2.74 l
o
np
419.02 29.17 m
0 2.74 l
o
np
443.09 29.17 m
0 2.74 l
o
np
467.17 29.17 m
0 2.74 l
o
0.00 0.00 576.00 432.00 cl
0.00 0.00 576.00 432.00 cl
/Font1 findfont 9 s
0.3020 0.3020 0.3020 srgb
57.93 20.52 (31L) .5 0 t
82.00 20.52 (32D) .5 0 t
106.07 20.52 (33S) .5 0 t
130.15 20.52 (34G) .5 0 t
154.22 20.52 (35I) .5 0 t
178.29 20.52 (36H) .5 0 t
202.37 20.52 (37S) .5 0 t
226.44 20.52 (38G) .5 0 t
250.51 20.52 (39A) .5 0 t
274.58 20.52 (40T) .5 0 t
298.66 20.52 (41T) .5 0 t
322.73 20.52 (42T) .5 0 t
346.80 20.52 (43A) .5 0 t
370.88 20.52 (44P) .5 0 t
394.95 20.52 (45S) .5 0 t
419.02 20.52 (46L) .5 0 t
443.09 20.52 (47S) .5 0 t
467.17 20.52 (48G) .5 0 t
0.00 0.00 576.00 432.00 cl
0.00 0.00 576.00 432.00 cl
0.00 0.00 576.00 432.00 cl
0.00 0.00 576.00 432.00 cl
0.00 0.00 576.00 432.00 cl
0.00 0.00 576.00 432.00 cl
0.00 0.00 576.00 432.00 cl
0.00 0.00 576.00 432.00 cl
/Font1 findfont 11 s
0 0 0 srgb
262.55 7.90 (Codon position) .5 0 t
0.00 0.00 576.00 432.00 cl
0.00 0.00 576.00 432.00 cl
0.00 0.00 576.00 432.00 cl
/Font1 findfont 11 s
0 0 0 srgb
13.38 229.22 (Count in COSMIC v94) .5 90 t
0.00 0.00 576.00 432.00 cl
0.00 0.00 576.00 432.00 cl
0.00 0.00 576.00 432.00 cl
0.00 0.00 576.00 432.00 cl
0.00 0.00 576.00 432.00 cl
0.00 0.00 576.00 432.00 cl
0.00 0.00 576.00 432.00 cl
0.00 0.00 576.00 432.00 cl
0.00 0.00 576.00 432.00 cl
/bg { 1 1 1 srgb } def
492.57 120.80 77.95 216.84 r p2
0.00 0.00 576.00 432.00 cl
0.00 0.00 576.00 432.00 cl
0.00 0.00 576.00 432.00 cl
0.00 0.00 576.00 432.00 cl
/Font1 findfont 11 s
0 0 0 srgb
498.05 323.05 (AA) 0 0 t
0.00 0.00 576.00 432.00 cl
0.00 0.00 576.00 432.00 cl
0.00 0.00 576.00 432.00 cl
0.00 0.00 576.00 432.00 cl
/bg { 0.9490 0.9490 0.9490 srgb } def
498.05 299.08 17.28 17.28 r p2
0.00 0.00 576.00 432.00 cl
0.00 0.00 576.00 432.00 cl
/bg { 0.1098 0.5255 0.9333 srgb } def
498.76 299.79 15.86 15.86 r p2
0.00 0.00 576.00 432.00 cl
0.00 0.00 576.00 432.00 cl
/bg { 0.9490 0.9490 0.9490 srgb } def
498.05 281.80 17.28 17.28 r p2
0.00 0.00 576.00 432.00 cl
0.00 0.00 576.00 432.00 cl
/bg { 0.8902 0.1020 0.1098 srgb } def
498.76 282.51 15.86 15.86 r p2
0.00 0.00 576.00 432.00 cl
0.00 0.00 576.00 432.00 cl
/bg { 0.9490 0.9490 0.9490 srgb } def
498.05 264.52 17.28 17.28 r p2
0.00 0.00 576.00 432.00 cl
0.00 0.00 576.00 432.00 cl
/bg { 0 0.5451 0 srgb } def
498.76 265.23 15.86 15.86 r p2
0.00 0.00 576.00 432.00 cl
0.00 0.00 576.00 432.00 cl
/bg { 0.9490 0.9490 0.9490 srgb } def
498.05 247.24 17.28 17.28 r p2
0.00 0.00 576.00 432.00 cl
0.00 0.00 576.00 432.00 cl
/bg { 0.4157 0.2392 0.6039 srgb } def
498.76 247.95 15.86 15.86 r p2
0.00 0.00 576.00 432.00 cl
0.00 0.00 576.00 432.00 cl
/bg { 0.9490 0.9490 0.9490 srgb } def
498.05 229.96 17.28 17.28 r p2
0.00 0.00 576.00 432.00 cl
0.00 0.00 576.00 432.00 cl
/bg { 1 0.4980 0 srgb } def
498.76 230.67 15.86 15.86 r p2
0.00 0.00 576.00 432.00 cl
0.00 0.00 576.00 432.00 cl
/bg { 0.9490 0.9490 0.9490 srgb } def
498.05 212.68 17.28 17.28 r p2
0.00 0.00 576.00 432.00 cl
0.00 0.00 576.00 432.00 cl
/bg { 0 0 0 srgb } def
498.76 213.39 15.86 15.86 r p2
0.00 0.00 576.00 432.00 cl
0.00 0.00 576.00 432.00 cl
/bg { 0.9490 0.9490 0.9490 srgb } def
498.05 195.40 17.28 17.28 r p2
0.00 0.00 576.00 432.00 cl
0.00 0.00 576.00 432.00 cl
/bg { 1 0.8431 0 srgb } def
498.76 196.11 15.86 15.86 r p2
0.00 0.00 576.00 432.00 cl
0.00 0.00 576.00 432.00 cl
/bg { 0.9490 0.9490 0.9490 srgb } def
498.05 178.12 17.28 17.28 r p2
0.00 0.00 576.00 432.00 cl
0.00 0.00 576.00 432.00 cl
/bg { 0.4941 0.7529 0.9333 srgb } def
498.76 178.83 15.86 15.86 r p2
0.00 0.00 576.00 432.00 cl
0.00 0.00 576.00 432.00 cl
/bg { 0.9490 0.9490 0.9490 srgb } def
498.05 160.84 17.28 17.28 r p2
0.00 0.00 576.00 432.00 cl
0.00 0.00 576.00 432.00 cl
/bg { 0.9843 0.6039 0.6000 srgb } def
498.76 161.55 15.86 15.86 r p2
0.00 0.00 576.00 432.00 cl
0.00 0.00 576.00 432.00 cl
/bg { 0.9490 0.9490 0.9490 srgb } def
498.05 143.56 17.28 17.28 r p2
0.00 0.00 576.00 432.00 cl
0.00 0.00 576.00 432.00 cl
/bg { 0.5647 0.9333 0.5647 srgb } def
498.76 144.27 15.86 15.86 r p2
0.00 0.00 576.00 432.00 cl
0.00 0.00 576.00 432.00 cl
/bg { 0.9490 0.9490 0.9490 srgb } def
498.05 126.28 17.28 17.28 r p2
0.00 0.00 576.00 432.00 cl
0.00 0.00 576.00 432.00 cl
/bg { 0.7922 0.6980 0.8392 srgb } def
498.76 126.99 15.86 15.86 r p2
0.00 0.00 576.00 432.00 cl
0.00 0.00 576.00 432.00 cl
/bg { 0.9490 0.9490 0.9490 srgb } def
533.79 299.08 17.28 17.28 r p2
0.00 0.00 576.00 432.00 cl
0.00 0.00 576.00 432.00 cl
/bg { 0.9922 0.7490 0.4353 srgb } def
534.49 299.79 15.86 15.86 r p2
0.00 0.00 576.00 432.00 cl
0.00 0.00 576.00 432.00 cl
/bg { 0.9490 0.9490 0.9490 srgb } def
533.79 281.80 17.28 17.28 r p2
0.00 0.00 576.00 432.00 cl
0.00 0.00 576.00 432.00 cl
/bg { 0.7020 0.7020 0.7020 srgb } def
534.49 282.51 15.86 15.86 r p2
0.00 0.00 576.00 432.00 cl
0.00 0.00 576.00 432.00 cl
/bg { 0.9490 0.9490 0.9490 srgb } def
533.79 264.52 17.28 17.28 r p2
0.00 0.00 576.00 432.00 cl
0.00 0.00 576.00 432.00 cl
/bg { 0.9333 0.9020 0.5216 srgb } def
534.49 265.23 15.86 15.86 r p2
0.00 0.00 576.00 432.00 cl
0.00 0.00 576.00 432.00 cl
/bg { 0.9490 0.9490 0.9490 srgb } def
533.79 247.24 17.28 17.28 r p2
0.00 0.00 576.00 432.00 cl
0.00 0.00 576.00 432.00 cl
/bg { 0.6902 0.1882 0.3765 srgb } def
534.49 247.95 15.86 15.86 r p2
0.00 0.00 576.00 432.00 cl
0.00 0.00 576.00 432.00 cl
/bg { 0.9490 0.9490 0.9490 srgb } def
533.79 229.96 17.28 17.28 r p2
0.00 0.00 576.00 432.00 cl
0.00 0.00 576.00 432.00 cl
/bg { 1 0.5137 0.9804 srgb } def
534.49 230.67 15.86 15.86 r p2
0.00 0.00 576.00 432.00 cl
0.00 0.00 576.00 432.00 cl
/bg { 0.9490 0.9490 0.9490 srgb } def
533.79 212.68 17.28 17.28 r p2
0.00 0.00 576.00 432.00 cl
0.00 0.00 576.00 432.00 cl
/bg { 1 0.0784 0.5765 srgb } def
534.49 213.39 15.86 15.86 r p2
0.00 0.00 576.00 432.00 cl
0.00 0.00 576.00 432.00 cl
/bg { 0.9490 0.9490 0.9490 srgb } def
533.79 195.40 17.28 17.28 r p2
0.00 0.00 576.00 432.00 cl
0.00 0.00 576.00 432.00 cl
/bg { 0 0 1 srgb } def
534.49 196.11 15.86 15.86 r p2
0.00 0.00 576.00 432.00 cl
0.00 0.00 576.00 432.00 cl
/bg { 0.9490 0.9490 0.9490 srgb } def
533.79 178.12 17.28 17.28 r p2
0.00 0.00 576.00 432.00 cl
0.00 0.00 576.00 432.00 cl
/bg { 0.2118 0.3922 0.5451 srgb } def
534.49 178.83 15.86 15.86 r p2
0.00 0.00 576.00 432.00 cl
0.00 0.00 576.00 432.00 cl
/bg { 0.9490 0.9490 0.9490 srgb } def
533.79 160.84 17.28 17.28 r p2
0.00 0.00 576.00 432.00 cl
0.00 0.00 576.00 432.00 cl
/bg { 0 0.8078 0.8196 srgb } def
534.49 161.55 15.86 15.86 r p2
0.00 0.00 576.00 432.00 cl
0.00 0.00 576.00 432.00 cl
/bg { 0.9490 0.9490 0.9490 srgb } def
533.79 143.56 17.28 17.28 r p2
0.00 0.00 576.00 432.00 cl
0.00 0.00 576.00 432.00 cl
/bg { 0 1 0 srgb } def
534.49 144.27 15.86 15.86 r p2
0.00 0.00 576.00 432.00 cl
0.00 0.00 576.00 432.00 cl
0.00 0.00 576.00 432.00 cl
0.00 0.00 576.00 432.00 cl
/Font1 findfont 9 s
0 0 0 srgb
520.81 304.49 (A) 0 0 t
0.00 0.00 576.00 432.00 cl
0.00 0.00 576.00 432.00 cl
0.00 0.00 576.00 432.00 cl
0.00 0.00 576.00 432.00 cl
0.00 0.00 576.00 432.00 cl
0.00 0.00 576.00 432.00 cl
/Font1 findfont 9 s
0 0 0 srgb
520.81 287.21 (C) 0 0 t
0.00 0.00 576.00 432.00 cl
0.00 0.00 576.00 432.00 cl
0.00 0.00 576.00 432.00 cl
0.00 0.00 576.00 432.00 cl
0.00 0.00 576.00 432.00 cl
0.00 0.00 576.00 432.00 cl
/Font1 findfont 9 s
0 0 0 srgb
520.81 269.93 (D) 0 0 t
0.00 0.00 576.00 432.00 cl
0.00 0.00 576.00 432.00 cl
0.00 0.00 576.00 432.00 cl
0.00 0.00 576.00 432.00 cl
0.00 0.00 576.00 432.00 cl
0.00 0.00 576.00 432.00 cl
/Font1 findfont 9 s
0 0 0 srgb
520.81 252.65 (E) 0 0 t
0.00 0.00 576.00 432.00 cl
0.00 0.00 576.00 432.00 cl
0.00 0.00 576.00 432.00 cl
0.00 0.00 576.00 432.00 cl
0.00 0.00 576.00 432.00 cl
0.00 0.00 576.00 432.00 cl
/Font1 findfont 9 s
0 0 0 srgb
520.81 235.37 (F) 0 0 t
0.00 0.00 576.00 432.00 cl
0.00 0.00 576.00 432.00 cl
0.00 0.00 576.00 432.00 cl
0.00 0.00 576.00 432.00 cl
0.00 0.00 576.00 432.00 cl
0.00 0.00 576.00 432.00 cl
/Font1 findfont 9 s
0 0 0 srgb
520.81 218.09 (G) 0 0 t
0.00 0.00 576.00 432.00 cl
0.00 0.00 576.00 432.00 cl
0.00 0.00 576.00 432.00 cl
0.00 0.00 576.00 432.00 cl
0.00 0.00 576.00 432.00 cl
0.00 0.00 576.00 432.00 cl
/Font1 findfont 9 s
0 0 0 srgb
520.81 200.81 (H) 0 0 t
0.00 0.00 576.00 432.00 cl
0.00 0.00 576.00 432.00 cl
0.00 0.00 576.00 432.00 cl
0.00 0.00 576.00 432.00 cl
0.00 0.00 576.00 432.00 cl
0.00 0.00 576.00 432.00 cl
/Font1 findfont 9 s
0 0 0 srgb
520.81 183.53 (I) 0 0 t
0.00 0.00 576.00 432.00 cl
0.00 0.00 576.00 432.00 cl
0.00 0.00 576.00 432.00 cl
0.00 0.00 576.00 432.00 cl
0.00 0.00 576.00 432.00 cl
0.00 0.00 576.00 432.00 cl
/Font1 findfont 9 s
0 0 0 srgb
520.81 166.25 (K) 0 0 t
0.00 0.00 576.00 432.00 cl
0.00 0.00 576.00 432.00 cl
0.00 0.00 576.00 432.00 cl
0.00 0.00 576.00 432.00 cl
0.00 0.00 576.00 432.00 cl
0.00 0.00 576.00 432.00 cl
/Font1 findfont 9 s
0 0 0 srgb
520.81 148.97 (L) 0 0 t
0.00 0.00 576.00 432.00 cl
0.00 0.00 576.00 432.00 cl
0.00 0.00 576.00 432.00 cl
0.00 0.00 576.00 432.00 cl
0.00 0.00 576.00 432.00 cl
0.00 0.00 576.00 432.00 cl
/Font1 findfont 9 s
0 0 0 srgb
520.81 131.69 (M) 0 0 t
0.00 0.00 576.00 432.00 cl
0.00 0.00 576.00 432.00 cl
0.00 0.00 576.00 432.00 cl
0.00 0.00 576.00 432.00 cl
0.00 0.00 576.00 432.00 cl
0.00 0.00 576.00 432.00 cl
/Font1 findfont 9 s
0 0 0 srgb
556.55 304.49 (N) 0 0 t
0.00 0.00 576.00 432.00 cl
0.00 0.00 576.00 432.00 cl
0.00 0.00 576.00 432.00 cl
0.00 0.00 576.00 432.00 cl
0.00 0.00 576.00 432.00 cl
0.00 0.00 576.00 432.00 cl
/Font1 findfont 9 s
0 0 0 srgb
556.55 287.21 (P) 0 0 t
0.00 0.00 576.00 432.00 cl
0.00 0.00 576.00 432.00 cl
0.00 0.00 576.00 432.00 cl
0.00 0.00 576.00 432.00 cl
0.00 0.00 576.00 432.00 cl
0.00 0.00 576.00 432.00 cl
/Font1 findfont 9 s
0 0 0 srgb
556.55 269.93 (Q) 0 0 t
0.00 0.00 576.00 432.00 cl
0.00 0.00 576.00 432.00 cl
0.00 0.00 576.00 432.00 cl
0.00 0.00 576.00 432.00 cl
0.00 0.00 576.00 432.00 cl
0.00 0.00 576.00 432.00 cl
/Font1 findfont 9 s
0 0 0 srgb
556.55 252.65 (R) 0 0 t
0.00 0.00 576.00 432.00 cl
0.00 0.00 576.00 432.00 cl
0.00 0.00 576.00 432.00 cl
0.00 0.00 576.00 432.00 cl
0.00 0.00 576.00 432.00 cl
0.00 0.00 576.00 432.00 cl
/Font1 findfont 9 s
0 0 0 srgb
556.55 235.37 (S) 0 0 t
0.00 0.00 576.00 432.00 cl
0.00 0.00 576.00 432.00 cl
0.00 0.00 576.00 432.00 cl
0.00 0.00 576.00 432.00 cl
0.00 0.00 576.00 432.00 cl
0.00 0.00 576.00 432.00 cl
/Font1 findfont 9 s
0 0 0 srgb
556.55 218.09 (T) 0 0 t
0.00 0.00 576.00 432.00 cl
0.00 0.00 576.00 432.00 cl
0.00 0.00 576.00 432.00 cl
0.00 0.00 576.00 432.00 cl
0.00 0.00 576.00 432.00 cl
0.00 0.00 576.00 432.00 cl
/Font1 findfont 9 s
0 0 0 srgb
556.55 200.81 (V) 0 0 t
0.00 0.00 576.00 432.00 cl
0.00 0.00 576.00 432.00 cl
0.00 0.00 576.00 432.00 cl
0.00 0.00 576.00 432.00 cl
0.00 0.00 576.00 432.00 cl
0.00 0.00 576.00 432.00 cl
/Font1 findfont 9 s
0 0 0 srgb
556.55 183.53 (W) 0 0 t
0.00 0.00 576.00 432.00 cl
0.00 0.00 576.00 432.00 cl
0.00 0.00 576.00 432.00 cl
0.00 0.00 576.00 432.00 cl
0.00 0.00 576.00 432.00 cl
0.00 0.00 576.00 432.00 cl
/Font1 findfont 9 s
0 0 0 srgb
556.55 166.25 (X) 0 0 t
0.00 0.00 576.00 432.00 cl
0.00 0.00 576.00 432.00 cl
0.00 0.00 576.00 432.00 cl
0.00 0.00 576.00 432.00 cl
0.00 0.00 576.00 432.00 cl
0.00 0.00 576.00 432.00 cl
/Font1 findfont 9 s
0 0 0 srgb
556.55 148.97 (Y) 0 0 t
0.00 0.00 576.00 432.00 cl
0.00 0.00 576.00 432.00 cl
0.00 0.00 576.00 432.00 cl
0.00 0.00 576.00 432.00 cl
0.00 0.00 576.00 432.00 cl
0.00 0.00 576.00 432.00 cl
0.00 0.00 576.00 432.00 cl
0.00 0.00 576.00 432.00 cl
0.00 0.00 576.00 432.00 cl
0.00 0.00 576.00 432.00 cl
0.00 0.00 576.00 432.00 cl
0.00 0.00 576.00 432.00 cl
0.00 0.00 576.00 432.00 cl
0.00 0.00 576.00 432.00 cl
0.00 0.00 576.00 432.00 cl
0.00 0.00 576.00 432.00 cl
ep
%%Trailer
%%Pages: 1
%%EOF
