Primary_site,Count,Frequency
adrenal_gland,261,0.0373764857511098
autonomic_ganglia,2,0.000286409852498926
biliary_tract,95,0.013604467993699
bone,19,0.0027208935987398
breast,16,0.00229127881999141
central_nervous_system,303,0.0433910926535873
cervix,16,0.00229127881999141
endometrium,489,0.0700272089359874
eye,2,0.000286409852498926
female_genital_tract_(site_indeterminate),1,0.000143204926249463
gastrointestinal_tract_(site_indeterminate),1,0.000143204926249463
haematopoietic_and_lymphoid_tissue,25,0.00358012315623657
kidney,215,0.0307890591436345
large_intestine,339,0.048546469998568
liver,1392,0.199341257339252
lung,162,0.023199198052413
oesophagus,16,0.00229127881999141
ovary,153,0.0219103537161678
pancreas,274,0.0392381497923529
paratesticular_tissues,3,0.000429614778748389
parathyroid,11,0.00157525418874409
peritoneum,2,0.000286409852498926
pituitary,382,0.0547042818272949
prostate,131,0.0187598453386797
salivary_gland,36,0.00515537734498067
skin,220,0.0315050837748819
small_intestine,34,0.00486896749248174
soft_tissue,2036,0.291565229843907
stomach,206,0.0295002148073894
testis,38,0.00544178719747959
thymus,2,0.000286409852498926
thyroid,36,0.00515537734498067
upper_aerodigestive_tract,21,0.00300730345123872
urinary_tract,42,0.00601460690247744
vulva,2,0.000286409852498926
