task_id	hash	native_id	name	status	exit	submit	duration	realtime	%cpu	peak_rss	peak_vmem	rchar	wchar
1	be/1b086b	64785	index_reference	CACHED	0	2021-06-24 11:53:41.153	6.2s	349ms	11.7%	1.4 MB	110.6 MB	66.3 KB	1.3 KB
12	e5/7bfcee	64778	adapter_removal (11)	CACHED	0	2021-06-24 11:53:41.140	38.3s	33s	96.6%	3 MB	121.9 MB	84.8 MB	132.2 MB
18	26/fc3889	64767	adapter_removal (16)	CACHED	0	2021-06-24 11:53:41.127	1m	55.1s	98.9%	3 MB	121.9 MB	116 MB	120.6 MB
7	34/8ff1f3	64753	adapter_removal (6)	CACHED	0	2021-06-24 11:53:41.107	47.5s	42s	97.4%	3 MB	121.9 MB	107.7 MB	166.6 MB
11	a0/2d9b2f	64772	adapter_removal (10)	CACHED	0	2021-06-24 11:53:41.134	37.5s	32s	98.0%	3 MB	121.9 MB	89.3 MB	137.8 MB
19	03/d0ab04	64738	adapter_removal (17)	CACHED	0	2021-06-24 11:53:41.081	48.3s	42.7s	97.8%	3 MB	121.9 MB	110.8 MB	169.6 MB
16	b7/b5ba31	64794	adapter_removal (18)	CACHED	0	2021-06-24 11:53:41.167	55.2s	49.8s	99.0%	3 MB	121.9 MB	102.6 MB	105.2 MB
2	c1/f6ed2e	64747	adapter_removal (1)	CACHED	0	2021-06-24 11:53:41.099	47.3s	41.9s	96.5%	3 MB	121.9 MB	105.7 MB	162.6 MB
5	0c/b57dd0	64733	adapter_removal (4)	CACHED	0	2021-06-24 11:53:41.070	42.8s	37.4s	96.5%	3 MB	121.9 MB	101.5 MB	156 MB
6	f2/e26673	64743	adapter_removal (5)	CACHED	0	2021-06-24 11:53:41.092	45.4s	40.1s	96.4%	3 MB	121.9 MB	108 MB	166.6 MB
9	61/a3f6a0	64816	adapter_removal (8)	CACHED	0	2021-06-24 11:53:41.203	45.1s	39.7s	97.8%	3 MB	121.9 MB	102.9 MB	158.8 MB
10	08/179917	64781	adapter_removal (9)	CACHED	0	2021-06-24 11:53:41.146	39.4s	34s	97.8%	3 MB	121.9 MB	93.8 MB	145.6 MB
14	75/984a1c	64796	adapter_removal (13)	CACHED	0	2021-06-24 11:53:41.160	41.2s	35.8s	96.6%	3 MB	121.9 MB	97.1 MB	150.6 MB
3	9b/6d8a3e	64808	adapter_removal (2)	CACHED	0	2021-06-24 11:53:41.190	54.9s	49.5s	97.5%	3 MB	121.9 MB	128 MB	196.4 MB
17	78/67629c	64729	adapter_removal (15)	CACHED	0	2021-06-24 11:53:41.055	51.1s	45.6s	97.9%	3 MB	121.9 MB	118.1 MB	181.3 MB
8	72/fe9b27	64757	adapter_removal (7)	CACHED	0	2021-06-24 11:53:41.114	40.9s	35.4s	98.0%	3 MB	121.9 MB	91.5 MB	140.5 MB
4	04/e92d00	64762	adapter_removal (3)	CACHED	0	2021-06-24 11:53:41.121	48s	42.6s	97.2%	3 MB	121.9 MB	109.8 MB	168.5 MB
15	89/017b44	64811	adapter_removal (14)	CACHED	0	2021-06-24 11:53:41.197	39.4s	34.5s	97.8%	3 MB	121.9 MB	89.1 MB	136.7 MB
13	32/a39550	64801	adapter_removal (12)	CACHED	0	2021-06-24 11:53:41.173	38.5s	33.3s	96.3%	3 MB	121.9 MB	84.5 MB	131.8 MB
23	d4/3a7b82	87268	merge_reads (15)	CACHED	0	2021-06-24 11:54:32.199	21.2s	18.3s	98.4%	3.4 MB	122.2 MB	71.4 MB	69.8 MB
21	00/9b8cac	81458	merge_reads (7)	CACHED	0	2021-06-24 11:54:22.341	18.3s	15.4s	96.1%	3.4 MB	122.2 MB	58.6 MB	57.6 MB
30	ae/4feef8	90110	merge_reads (17)	CACHED	0	2021-06-24 11:54:36.344	48s	45s	99.4%	3.4 MB	122.2 MB	95.4 MB	117.7 MB
24	0d/3a8366	81288	merge_reads (6)	CACHED	0	2021-06-24 11:54:21.995	17.2s	14.4s	95.3%	3.4 MB	122.2 MB	54.9 MB	53.9 MB
25	c6/e18ba9	80679	merge_reads (4)	CACHED	0	2021-06-24 11:54:20.563	17.4s	14.6s	97.0%	3.4 MB	122.2 MB	56 MB	55.2 MB
20	10/71f500	80389	merge_reads (2)	CACHED	0	2021-06-24 11:54:19.476	15.7s	12.7s	97.5%	3.4 MB	122.2 MB	50.6 MB	50 MB
29	c2/875af6	84571	merge_reads (11)	CACHED	0	2021-06-24 11:54:28.447	19.7s	16.9s	96.8%	3.4 MB	122.2 MB	63.7 MB	62.3 MB
22	32/f25ab0	89909	merge_reads (16)	CACHED	0	2021-06-24 11:54:36.122	23.2s	20.3s	97.9%	3.4 MB	122.2 MB	77.7 MB	76.2 MB
31	b7/2be438	85295	merge_reads (14)	CACHED	0	2021-06-24 11:54:29.356	20.4s	17.5s	97.2%	3.4 MB	122.2 MB	67.1 MB	65.8 MB
27	d6/bf2c4f	83613	merge_reads (10)	CACHED	0	2021-06-24 11:54:26.468	19.9s	17.1s	97.1%	3.4 MB	122.2 MB	65 MB	64.1 MB
26	30/11c41a	83455	merge_reads (9)	CACHED	0	2021-06-24 11:54:26.330	19s	16.1s	97.6%	3.4 MB	122.2 MB	61.7 MB	60.6 MB
32	88/ec2b15	80365	merge_reads (1)	CACHED	0	2021-06-24 11:54:18.660	17.8s	13.9s	97.4%	3.4 MB	122.2 MB	53.5 MB	52.6 MB
33	e7/44601d	84636	merge_reads (12)	CACHED	0	2021-06-24 11:54:28.574	19.9s	17s	95.8%	3.4 MB	122.2 MB	65.1 MB	64.4 MB
34	e6/d07d53	94151	merge_reads (18)	CACHED	0	2021-06-24 11:54:41.394	52s	49.1s	99.4%	3.4 MB	122.2 MB	106.2 MB	129.7 MB
28	86/fd9c44	82139	merge_reads (8)	CACHED	0	2021-06-24 11:54:23.883	18.8s	15.9s	97.6%	3.4 MB	122.2 MB	61.2 MB	59.9 MB
35	9a/8402b6	80408	merge_reads (3)	CACHED	0	2021-06-24 11:54:19.718	16.1s	13.2s	96.8%	3.4 MB	122.2 MB	50.5 MB	49.8 MB
37	c2/9377b7	85048	merge_reads (13)	CACHED	0	2021-06-24 11:54:29.174	20.2s	17.2s	96.5%	3.4 MB	122.2 MB	66.2 MB	64.8 MB
36	65/cea40e	80787	merge_reads (5)	CACHED	0	2021-06-24 11:54:20.666	16.9s	14.1s	97.2%	3.4 MB	122.2 MB	53.9 MB	53.1 MB
39	e5/73fdbf	100670	align (11)	CACHED	0	2021-06-24 11:54:48.211	27.7s	24.6s	120.7%	312.8 MB	1.2 GB	290.8 MB	269.4 MB
38	f0/e411ea	111939	align (16)	CACHED	0	2021-06-24 11:54:59.352	32.7s	29.7s	119.8%	344.8 MB	1.2 GB	350.5 MB	324.5 MB
45	4f/fc4aba	106412	align (15)	CACHED	0	2021-06-24 11:54:53.367	31.2s	28.2s	119.3%	346.2 MB	1.2 GB	324.2 MB	300.2 MB
49	cc/9c6ea9	90118	align (3)	CACHED	0	2021-06-24 11:54:36.445	26.6s	23.7s	118.0%	281 MB	1.1 GB	246.8 MB	228.5 MB
43	1b/b1fa54	129918	align (17)	CACHED	0	2021-06-24 11:55:24.336	5.7s	2.8s	103.0%	39.5 MB	1 GB	31.5 MB	28.4 MB
42	ff/819eeb	92073	align (6)	CACHED	0	2021-06-24 11:54:39.257	26.3s	23.4s	118.7%	281.6 MB	1.1 GB	251.6 MB	232.8 MB
48	8f/97f183	101091	align (12)	CACHED	0	2021-06-24 11:54:48.488	29s	25.8s	119.7%	295 MB	1.2 GB	298.5 MB	276.5 MB
40	fc/7a2713	89439	align (1)	CACHED	0	2021-06-24 11:54:35.228	26.3s	23.3s	115.8%	280.9 MB	1.1 GB	236.8 MB	219.7 MB
51	12/ea7e0d	98894	align (10)	CACHED	0	2021-06-24 11:54:46.425	28.7s	25.7s	119.9%	282.9 MB	1.1 GB	298.6 MB	276.6 MB
44	b0/cb8195	93390	align (7)	CACHED	0	2021-06-24 11:54:40.650	26.7s	23.7s	118.6%	296.8 MB	1.2 GB	269.7 MB	250 MB
41	34/64b3ce	90918	align (5)	CACHED	0	2021-06-24 11:54:38.022	28.3s	25.3s	117.3%	282.2 MB	1.1 GB	260.9 MB	241.9 MB
55	a2/1f4df4	89734	align (2)	CACHED	0	2021-06-24 11:54:35.845	25.9s	23s	116.0%	281.6 MB	1.2 GB	236.1 MB	219 MB
50	75/f26c08	97723	align (9)	CACHED	0	2021-06-24 11:54:45.311	29.3s	26.3s	118.3%	281.9 MB	1.1 GB	284.6 MB	263.5 MB
57	db/892a7d	124258	align_stats (11)	CACHED	0	2021-06-24 11:55:15.891	4.2s	1.3s	100.2%	3.3 MB	128.1 MB	27.8 MB	43.3 KB
47	04/78d9a6	134453	align (18)	CACHED	0	2021-06-24 11:55:33.422	6.8s	3.9s	107.3%	70.5 MB	1 GB	46.3 MB	41.9 MB
61	88/2dcdec	130031	align_stats (15)	CACHED	0	2021-06-24 11:55:24.532	4.3s	1.4s	100.6%	3.5 MB	128.1 MB	31.1 MB	68 KB
69	ef/36a40c	116972	align_stats (5)	CACHED	0	2021-06-24 11:55:05.599	4.1s	1.1s	99.0%	3.3 MB	128.1 MB	23.7 MB	32.1 KB
70	d1/39ffb1	118383	align_stats (7)	CACHED	0	2021-06-24 11:55:07.363	4.1s	1.2s	100.8%	3.3 MB	128.1 MB	25.5 MB	60.2 KB
80	f7/81ca31	137113	align_stats (18)	CACHED	0	2021-06-24 11:55:40.232	3s	216ms	99.5%	3.3 MB	128.1 MB	5.4 MB	58.7 KB
79	76/9e5615	123554	align_stats (9)	CACHED	0	2021-06-24 11:55:14.638	4.1s	1.3s	100.2%	3.3 MB	128.1 MB	26.6 MB	44.1 KB
74	03/b174e6	113783	align_stats (2)	CACHED	0	2021-06-24 11:55:01.780	4.2s	1.1s	98.3%	3.3 MB	128.1 MB	21.4 MB	41.7 KB
65	12/22bab5	125384	align_stats (12)	CACHED	0	2021-06-24 11:55:17.496	4.2s	1.3s	99.7%	3.3 MB	128.1 MB	28.3 MB	42.6 KB
64	8d/9ff1c9	133064	align_stats (16)	CACHED	0	2021-06-24 11:55:30.007	3s	164ms	94.4%	3.3 MB	128.1 MB	3.7 MB	41.7 KB
62	cf/4dd767	114712	align_stats (4)	CACHED	0	2021-06-24 11:55:03.093	4s	1.1s	99.2%	3.3 MB	128.1 MB	22.8 MB	55.1 KB
58	4f/dab77e	133948	align_stats (17)	CACHED	0	2021-06-24 11:55:32.106	4.4s	1.5s	100.3%	3.3 MB	128.1 MB	33.8 MB	37.9 KB
78	59/47aae9	113431	align_stats (1)	CACHED	0	2021-06-24 11:55:01.524	4s	1.1s	98.6%	3.3 MB	128.1 MB	21.4 MB	35.9 KB
54	3f/f56591	101888	align (13)	CACHED	0	2021-06-24 11:54:49.363	28.7s	25.7s	120.0%	287.4 MB	1.1 GB	301.3 MB	278.9 MB
77	a3/87c33e	117757	align_stats (6)	CACHED	0	2021-06-24 11:55:06.316	4.1s	1.2s	101.0%	3.5 MB	128.1 MB	23.8 MB	64.9 KB
52	96/e8095c	102461	align (14)	CACHED	0	2021-06-24 11:54:49.752	28.7s	25.8s	120.2%	312.9 MB	1.2 GB	302.5 MB	280 MB
71	0a/99ed9e	124115	align_stats (10)	CACHED	0	2021-06-24 11:55:15.178	4.2s	1.4s	100.3%	3.3 MB	128.1 MB	28.3 MB	48.7 KB
53	1f/ab9711	90634	align (4)	CACHED	0	2021-06-24 11:54:37.625	24.2s	21.3s	118.5%	282.2 MB	1.1 GB	244.2 MB	225.9 MB
46	b8/cdaf2c	95408	align (8)	CACHED	0	2021-06-24 11:54:42.715	27.1s	24.2s	118.6%	282.3 MB	1.1 GB	279 MB	258.3 MB
84	05/971eef	120304	align_stats (8)	CACHED	0	2021-06-24 11:55:09.835	4.1s	1.2s	100.8%	3.3 MB	128.1 MB	26.6 MB	37 KB
86	93/7e3b3c	113888	align_stats (3)	CACHED	0	2021-06-24 11:55:01.860	4.2s	1.1s	99.0%	3.3 MB	128.1 MB	23.4 MB	60.3 KB
88	3a/206f92	125976	align_stats (14)	CACHED	0	2021-06-24 11:55:18.508	4.2s	1.3s	100.5%	3.3 MB	128.1 MB	29.1 MB	44.2 KB
90	2f/ac6a01	125726	align_stats (13)	CACHED	0	2021-06-24 11:55:18.083	4.2s	1.3s	101.0%	3.3 MB	128.1 MB	28.8 MB	36.9 KB
66	fd/9f060b	71357	codon_mutations (5)	COMPLETED	0	2021-06-25 11:07:34.634	14.4s	10.9s	91.3%	110.6 MB	358.8 MB	4.7 MB	2.4 MB
82	6d/4d35e5	71385	codon_mutations (13)	COMPLETED	0	2021-06-25 11:07:34.674	19.4s	15.5s	93.8%	131.8 MB	379.8 MB	6.3 MB	3.3 MB
87	ff/86148e	71348	codon_mutations (16)	COMPLETED	0	2021-06-25 11:07:34.618	1m 14s	1m 10s	98.5%	852.1 MB	1.1 GB	24.4 MB	8 MB
63	6c/117ba9	71384	codon_mutations (4)	COMPLETED	0	2021-06-25 11:07:34.669	1m 19s	1m 15s	98.6%	911.3 MB	1.1 GB	23.8 MB	7.9 MB
89	75/514288	71338	codon_mutations (17)	COMPLETED	0	2021-06-25 11:07:34.602	1m 28s	1m 25s	99.2%	1 GB	1.3 GB	30.1 MB	10.8 MB
83	c5/a9bd1d	71407	codon_mutations (14)	COMPLETED	0	2021-06-25 11:07:34.703	1m 29s	1m 25s	98.7%	883.7 MB	1.1 GB	22.4 MB	6.9 MB
75	e3/e5e981	71378	codon_mutations (10)	COMPLETED	0	2021-06-25 11:07:34.663	1m 29s	1m 26s	98.7%	885 MB	1.1 GB	22.4 MB	7.1 MB
81	b3/e9c10c	71367	codon_mutations (12)	COMPLETED	0	2021-06-25 11:07:34.648	1m 29s	1m 26s	98.6%	1 GB	1.2 GB	27.6 MB	9.3 MB
68	94/6e863b	71418	codon_mutations (7)	COMPLETED	0	2021-06-25 11:07:34.721	1m 34s	1m 30s	98.8%	831.1 MB	1.1 GB	24.6 MB	8.4 MB
76	43/c0573a	71351	codon_mutations (11)	COMPLETED	0	2021-06-25 11:07:34.625	1m 37s	1m 34s	98.8%	964.2 MB	1.2 GB	24.8 MB	8.1 MB
72	d7/327e60	71412	codon_mutations (8)	COMPLETED	0	2021-06-25 11:07:34.709	1m 37s	1m 33s	98.5%	950 MB	1.2 GB	26.4 MB	7.9 MB
85	fb/8b9f33	71361	codon_mutations (15)	COMPLETED	0	2021-06-25 11:07:34.641	1m 38s	1m 35s	98.9%	975.7 MB	1.2 GB	27.6 MB	9.6 MB
56	dc/6a7c85	71372	codon_mutations (1)	COMPLETED	0	2021-06-25 11:07:34.654	1m 39s	1m 35s	98.8%	989.9 MB	1.2 GB	28.7 MB	9.6 MB
91	cd/bbe4ac	71393	codon_mutations (18)	COMPLETED	0	2021-06-25 11:07:34.681	1m 43s	1m 39s	98.8%	1 GB	1.3 GB	29.8 MB	10.6 MB
67	a7/9567ba	71396	codon_mutations (6)	COMPLETED	0	2021-06-25 11:07:34.687	1m 44s	1m 40s	98.8%	1021.1 MB	1.2 GB	29.3 MB	10.9 MB
73	5e/5bf8b9	71403	codon_mutations (9)	COMPLETED	0	2021-06-25 11:07:34.696	1m 45s	1m 41s	98.9%	1 GB	1.3 GB	29.2 MB	10.3 MB
60	99/50adee	71334	codon_mutations (3)	COMPLETED	0	2021-06-25 11:07:34.570	1m 50s	1m 47s	99.6%	1.1 GB	1.3 GB	32 MB	11.2 MB
59	1b/fc77b5	71343	codon_mutations (2)	COMPLETED	0	2021-06-25 11:07:34.610	1m 54s	1m 51s	99.2%	1.2 GB	1.4 GB	34.8 MB	13 MB
