||||M|N|I|L|A|F|Q|G|D|K|T|W|R|S|C|V|P|H|E|Y||||
Pos|WT_AA|WT_codon|Total_count|ATG|AAC|ATC|CTG|GCT|TTC|CAG|GGT|GAT|AAG|ACC|TGG|AGA|AGC|TGC|GTG|CCT|CAC|GAG|TAC|AAcons|AAdel|AAnons|AAother
31|L|TTG|520131|6.52527920850708E-03|4.79686848120954E-03|3.31839478900507E-03|2.07639998385022E-04|3.84326256270055E-03|4.41427255825936E-03|2.88773405161392E-03|3.63369997173788E-03|3.4722021952162E-03|2.3609436853408E-03|4.71996477810397E-03|3.83364959981235E-03|3.87017885878749E-03|2.80890775593071E-03|3.58563515729691E-03|6.55219550459403E-03|4.52578292776242E-03|2.72046849735931E-03|4.21432293018489E-03|3.5510284908994E-03|0.917847619157481|3.84518515527819E-05|6.26957439568108E-03|0
32|D|GAT|520131|3.07614812422255E-05|1.46117035900571E-03|1.73033331987518E-05|2.0360255397198E-03|2.1936781310862E-03|1.4361766554964E-03|1.66496517223545E-03|8.34405178695367E-04|0|1.02474184388163E-03|1.02281925130399E-03|4.69112588943939E-04|4.80648144409773E-05|1.35542776723556E-03|1.37465369301195E-03|1.83607591164533E-03|9.61296288819547E-04|1.16509110204929E-03|3.93746959900486E-03|1.55345480273238E-03|0.971364906148643|3.84518515527819E-05|4.17202589347683E-03|0
33|S|TCT|520131|3.51834441707954E-04|2.33787257440913E-03|7.69037031055638E-06|1.15355554658345E-05|1.40926035940945E-03|1.36504073012375E-03|1.60728739490628E-03|2.09562590962661E-04|5.92158513912841E-04|9.30534807577321E-04|1.36311813754611E-03|6.47913698664374E-04|1.24776258288777E-03|5.76777773291728E-06|8.13256660341337E-04|9.26689622422043E-04|1.60728739490628E-03|1.45347998869515E-03|2.56089331341527E-03|7.69037031055637E-04|0.974421828347089|3.84518515527819E-05|5.31981366232737E-03|0
34|G|GGA|520131|9.05541104068013E-04|1.24583999031013E-03|5.40248514316585E-04|1.00743851068288E-03|3.78366219279373E-03|1.74186887534101E-03|7.26739994347577E-04|1.71110739409879E-04|3.46066663975037E-04|9.99748140372329E-04|6.76752587328961E-04|1.32274369341569E-03|2.24174294552718E-03|1.1266392504965E-03|1.04204517708038E-03|1.18816221298096E-03|6.70984809596044E-04|5.53706662360059E-04|2.94733442152073E-03|1.05358073254622E-03|0.962492141402838|3.84518515527819E-05|1.31755269345607E-02|0
35|I|ATC|520131|4.17587107863211E-03|3.7721266373279E-03|0|5.14101255260694E-03|2.90888256996795E-03|3.42990515850814E-03|2.46860886968859E-03|1.45347998869515E-03|1.03819999192511E-04|2.26673664903649E-03|3.79327515568193E-03|3.56448663894288E-03|1.53999665468891E-03|2.28788516739052E-03|1.96104442919187E-03|2.48783479546498E-03|1.65150702419198E-03|4.05859293139612E-03|2.31864664863274E-03|3.19150367888089E-03|0.943804541548186|3.84518515527819E-05|3.57986737956399E-03|0
36|H|CAT|520131|5.57551847515337E-05|2.15330368695578E-03|3.07614812422255E-05|3.94131478416014E-03|5.77931328838311E-03|4.51424737229659E-03|5.01604403506039E-03|3.38184034406716E-03|4.26815552235879E-03|1.49962221055849E-03|2.42438924040289E-03|4.24892959658239E-03|3.77981700763846E-03|4.29891700360101E-03|3.35684664055785E-03|3.7375199709304E-03|1.68803628316712E-03|2.86466294068225E-04|6.02348254574328E-03|2.05332887291855E-03|0.931622994976265|3.84518515527819E-05|5.79853921415951E-03|0
37|S|TCT|520131|2.34364035214205E-03|9.42070363043156E-04|7.69037031055638E-06|3.07614812422255E-05|2.98194108791823E-03|8.0556629003078E-04|1.00551591810524E-03|2.83966923717294E-03|2.5474351653718E-03|1.37273110043431E-03|3.69906811937761E-03|1.46501554416099E-03|1.56306776562058E-03|3.84518515527819E-06|1.3919570262107E-03|1.51884813633488E-03|2.25712368614829E-03|1.74379146791865E-03|1.80723702298074E-03|2.81083034850835E-03|0.960773343638429|3.84518515527819E-05|6.04847624925259E-03|0
38|G|GGT|520131|3.43951812139634E-03|2.33018220409858E-03|3.3837629366448E-03|5.39094958770002E-03|3.56448663894288E-03|1.51692554375724E-03|3.62216441627205E-03|0|3.64331293462608E-03|1.89952146670742E-03|2.60511294270097E-03|4.44503403950158E-03|4.18356144894267E-03|3.29724627065104E-03|3.51834441707954E-03|4.63537070468785E-03|3.90286293260736E-03|2.51475109155193E-03|2.21674924201787E-03|4.07397367201724E-03|0.926343555758068|3.84518515527819E-05|9.43223918589739E-03|0
39|A|GCC|520131|3.97592145055764E-03|4.58730589024688E-03|3.52987997254537E-03|7.43274290515274E-03|7.76727401366194E-04|5.86582995437687E-03|4.51424737229659E-03|4.14126441223461E-03|3.49142812099259E-03|1.11894888018595E-03|5.33903958810376E-03|3.62408700884969E-03|6.70984809596044E-03|5.07948959012248E-03|2.13984553891231E-03|5.34288477325904E-03|3.28186553002993E-03|5.2967425513957E-03|5.84468143602284E-03|3.3395433073591E-03|0.903189773345561|3.84518515527819E-05|1.13375284303377E-02|0
40|T|ACC|520131|3.21841997496784E-03|3.69714552679997E-03|5.12755440456346E-03|5.06218625692373E-03|3.43182775108578E-03|2.65125516456431E-03|3.88171441425333E-03|3.80865589630304E-03|4.30276218875629E-03|2.58588701692458E-03|0|5.55052477164406E-03|5.8965914356191E-03|4.41427255825936E-03|4.00476033922223E-03|4.13549663450169E-03|5.18330958931499E-03|4.36620774381838E-03|4.68728070428411E-03|4.09896737552655E-03|0.91230286216357|3.84518515527819E-05|7.55194364496636E-03|0
41|T|ACC|520131|1.22853665711138E-03|2.39362775916067E-03|3.02616071720393E-03|2.65702294229722E-03|1.22853665711138E-03|9.68986659130103E-04|1.31120813794986E-03|2.1052388725148E-03|9.88212584906494E-04|8.17101845496615E-04|0|4.13934181965697E-03|1.87260517062047E-03|3.19919404919145E-03|9.9782554779469E-04|1.05165813996858E-03|2.06870961353966E-03|1.10933591729775E-03|2.17829739046509E-03|9.26689622422043E-04|0.95892380957874|3.84518515527819E-05|6.76752587328961E-03|0
42|T|ACA|520131|3.25687182652062E-03|2.96463775471948E-03|2.55512553568235E-03|3.02039293947101E-03|4.9083788507126E-03|2.04948368776327E-03|6.34455550620901E-05|4.17202589347683E-03|3.92208885838375E-03|2.38978257400539E-03|2.42246664782525E-04|5.10448329363179E-03|2.39555035173831E-03|3.64715811978136E-03|4.60076403829035E-03|2.52051886928485E-03|3.61255145338385E-03|3.46066663975037E-05|1.76493998627268E-03|9.03618511490374E-05|0.942304919337628|3.84518515527819E-05|4.33929144773143E-03|0
43|A|GCT|520131|2.77814627468849E-03|2.40324072204886E-03|3.14728404959519E-03|1.17278147235984E-04|0|3.41644701046467E-03|1.73225591245282E-03|2.84735960748349E-03|5.61589291928379E-03|2.55320294310471E-03|2.86081775552697E-03|3.35300145540258E-03|1.54960961757711E-03|6.34455550620901E-05|1.78801109720435E-04|2.38593738885011E-03|3.60101589791802E-03|3.23764590074423E-03|3.18381330857034E-03|3.13959367928464E-03|0.945206111537285|3.84518515527819E-05|6.58872476356917E-03|0
44|P|CCT|520131|4.28161367040226E-03|4.24123922627184E-03|3.16843256794922E-03|2.7050877567382E-03|3.77020404475026E-03|2.13215516860175E-03|4.14895478254516E-03|3.57794478698635E-03|1.74186887534101E-03|2.57627405403638E-03|3.6836873787565E-03|4.15856774543336E-03|1.46309295158335E-03|3.35876923313549E-03|4.47195033558853E-03|2.71085553447112E-03|0|2.61472590558916E-03|2.77430108953321E-03|2.9607925695642E-03|0.923767281704032|3.84518515527819E-05|1.56518261745598E-02|0
45|S|TCC|520131|1.53422887695599E-03|2.34364035214205E-03|2.32825961152094E-03|3.0050121988499E-03|2.26096887130357E-03|1.61690035779447E-03|1.5150029511796E-03|2.22636220490607E-03|9.95902955217051E-04|5.92158513912841E-04|4.13934181965697E-03|2.4147762775147E-03|2.09947109478189E-03|1.73033331987518E-05|3.42029219561994E-03|1.63612628357086E-03|1.32466628599333E-03|1.05358073254622E-03|1.34581480434736E-03|4.24892959658239E-03|0.951283426675202|3.84518515527819E-05|8.55745956307161E-03|0
46|L|CTG|520131|1.19585258329151E-02|2.80121738562016E-03|3.5510284908994E-03|0|1.19200739813623E-04|4.55462181642701E-03|4.55846700158229E-03|2.26865924161413E-03|3.9490051544707E-03|3.01077997658282E-03|3.79135256310429E-03|5.62550588217199E-03|4.39696922506061E-03|9.343799927326E-04|7.69037031055638E-05|4.26623292978115E-03|3.49911849130315E-03|2.07447739127258E-03|3.90670811776264E-03|4.87569477689274E-03|0.921856224681859|3.84518515527819E-05|7.88455216089792E-03|0
47|S|AGT|520131|5.27367144046403E-03|4.97182440577469E-03|4.76418440738967E-03|2.28788516739052E-03|4.98143736866289E-03|4.08935441263835E-03|2.88388886645864E-05|6.86750068732684E-03|6.62909920769959E-03|2.71085553447112E-03|3.62985478658261E-03|2.7147007196264E-03|3.67022923071303E-03|8.32482586117728E-04|3.29147849291813E-03|3.46066663975037E-05|2.72431368251459E-03|4.17394848605447E-03|1.15355554658345E-05|3.92977922869431E-03|0.928983275367167|3.84518515527819E-05|3.35876923313549E-03|0
48|G|GGT|520131|4.99874070186164E-05|2.05717405807383E-04|6.34455550620901E-05|3.84518515527819E-05|4.81609440698593E-03|4.42196292856991E-05|7.30585179502856E-05|0|2.4936025731979E-03|9.42070363043156E-05|1.09587776925428E-04|4.35274959577491E-03|1.79570146751491E-03|3.33377552962619E-03|5.15831588580569E-03|4.42004033599227E-03|4.56423477931521E-03|1.07665184347789E-04|3.56640923152052E-03|9.61296288819547E-05|0.955053630719953|3.84518515527819E-05|9.52260103704643E-03|0
49|K|AAA|520131|3.65292589751428E-05|6.77521624360017E-03|5.38325921738946E-05|0|0|0|4.49886663167548E-04|0|3.24918145621007E-04|5.22945181117833E-04|4.80648144409773E-05|3.84518515527819E-06|1.01570565876673E-02|1.67265554254601E-04|1.92259257763909E-06|0|0|4.42196292856991E-04|8.01721104875502E-04|4.36428515124074E-04|0.977111535363206|3.84518515527819E-05|0.002626261461055|0
50|G|GGC|520131|0|0|0|0|0|0|0|0|0|0|0|0|0|5.24867773695472E-04|2.7493073860239E-04|0|0|0|0|0|0.999121375192018|3.84518515527819E-05|3.84518515527819E-05|0
