||||M|N|I|L|A|F|Q|G|D|K|T|W|R|S|C|V|P|H|E|Y||||
Pos|WT_AA|WT_codon|Total_count|ATG|AAC|ATC|CTG|GCT|TTC|CAG|GGT|GAT|AAG|ACC|TGG|AGA|AGC|TGC|GTG|CCT|CAC|GAG|TAC|AAcons|AAdel|AAnons|AAother
31|L|TTG|474107|3.34312718436977E-03|1.95525482644213E-03|4.39985066662167E-03|3.62787303288076E-04|1.28662938956817E-03|4.24798621408247E-03|2.90229842630461E-03|3.32203489929488E-03|2.74832474525792E-03|3.49921009392394E-03|2.81160160048259E-03|3.12165819108344E-03|2.7525432022729E-03|2.56271263659891E-03|3.15540584720326E-03|3.35367332690721E-03|4.39774143811418E-03|0.001695819720021|2.0923546794289E-03|2.91917225436452E-03|0.937499340866091|4.64030271647539E-05|5.52196023260572E-03|0
32|D|GAT|474107|4.00753416422875E-05|9.40715914340011E-04|6.32768552246644E-05|2.26320218853549E-03|1.23389867688095E-03|5.90583982096868E-04|1.67050897793114E-03|3.99909725019879E-03|0|1.65363514987123E-03|2.2442191319681E-03|1.14742030807391E-03|1.39209081494261E-04|5.71600925529469E-03|1.3182678171805E-03|2.05649779480159E-03|2.48045272480684E-03|5.08324070304804E-04|3.97167727960144E-03|2.48256195331433E-03|0.961388462941909|4.64030271647539E-05|4.04339104885606E-03|0
33|S|TCT|474107|4.83646096767185E-03|3.52241160750632E-04|9.0696825822019E-05|4.21845701497763E-05|1.03141274016203E-03|1.46169535568974E-03|5.27307126872203E-04|7.02373092993775E-04|1.70425663405096E-03|3.12165819108344E-04|2.57536800764384E-03|8.52128317025481E-04|1.19804179225364E-03|2.10922850748881E-06|1.68527357748356E-03|4.20580164393269E-03|1.23600790538844E-03|1.05672348225189E-03|2.89597074078214E-03|1.70003817703598E-03|0.965703944468231|4.64030271647539E-05|5.77928611051935E-03|0
34|G|GGA|474107|2.69981248958568E-04|1.10734496643162E-03|1.47224149822719E-03|2.26531141704298E-03|4.57069817572826E-03|1.37310775837521E-03|2.28218524510289E-03|2.21468993286325E-04|2.05649779480159E-03|1.04195888269947E-03|2.97401219555923E-03|3.98644187915386E-04|1.81182728793289E-03|1.35412470180781E-03|1.57770292360163E-03|2.24210990346061E-03|2.72512323167555E-03|3.07736439242618E-03|2.1113377359963E-03|1.22124330583602E-03|0.952519157067919|4.64030271647539E-05|1.12780448295426E-02|0
35|I|ATC|474107|2.95081068197685E-03|5.27096204021455E-03|0|3.86199739721202E-03|7.41815666083816E-03|3.84512356915211E-03|5.89740290693872E-03|1.4511492131523E-03|9.91337398519743E-05|2.3939743559998E-03|4.06237410542345E-03|2.67450174749581E-03|2.52052806644913E-03|2.33491595779011E-03|4.45258137930889E-03|3.25032113004026E-03|2.35389901435751E-03|3.37054715496712E-03|2.03118705271172E-03|2.40662972704473E-03|0.933696401867089|4.64030271647539E-05|3.60888997631336E-03|0
36|H|CAT|474107|2.32015135823769E-05|5.03050999036082E-03|2.74199705973546E-05|1.78862577435051E-03|3.02252445123147E-03|2.01009476763684E-03|2.33280672928263E-03|3.51186546496887E-03|2.28218524510289E-03|6.60188522843999E-03|1.2824109325532E-03|5.29416355379692E-03|2.51841883794164E-03|1.78018886032056E-03|2.31382367271523E-03|3.29039647168255E-03|6.24753483918187E-03|3.05838133585878E-04|1.74011351867827E-03|3.79872054198735E-03|0.939292185097456|4.64030271647539E-05|5.45657414887356E-03|0
37|S|TCT|474107|1.75909657524567E-03|2.55005726555397E-03|2.53107420898657E-05|1.0546142537444E-05|2.96768451003676E-03|1.69160126300603E-03|2.8284754285425E-03|1.62621517927387E-03|2.92339071137949E-03|2.07548085136899E-03|4.50109363498113E-03|1.1495295365814E-03|3.70169603064287E-03|4.21845701497763E-06|1.99111171106944E-03|2.17672381972845E-03|1.90674257076988E-03|1.59879520867652E-03|2.73777860272048E-03|7.76196090755884E-04|0.955058668190935|4.64030271647539E-05|5.89107522141626E-03|0
38|G|GGT|474107|3.72700677273273E-03|1.82237343047033E-03|3.31992567078739E-03|3.31992567078739E-03|3.71013294467282E-03|3.98644187915386E-03|4.12354173214063E-03|0|4.51585823453355E-03|3.65529300347811E-03|2.31382367271523E-03|5.06425764648064E-03|2.50154500988173E-03|1.96791019748706E-03|2.72723246018303E-03|2.75676165928788E-03|2.62177103480859E-03|2.41928509808967E-03|2.13453924957868E-03|4.58757200378817E-03|0.929690976931367|4.64030271647539E-05|8.98531344190235E-03|0
39|A|GCC|474107|4.19736472990274E-03|3.62787303288076E-03|3.78606517094242E-03|3.61732689034331E-03|7.61431491203462E-04|2.99510448063411E-03|5.45868337738105E-03|4.94192239304629E-03|3.77551902840498E-03|8.57823233995701E-03|3.12165819108344E-03|7.21777995262672E-03|4.09612176154328E-03|2.65973714794339E-03|2.18516073375841E-03|4.07081101945341E-03|3.98222342213888E-03|3.54561312108869E-03|3.66372991750807E-03|1.99322093957693E-03|0.911028523097106|4.64030271647539E-05|1.06473855058035E-02|0
40|T|ACC|474107|3.52030237899883E-03|2.96346605302178E-03|3.54139466407372E-03|6.05137658798541E-03|3.15118739018829E-03|5.37853269409648E-03|3.65107454646314E-03|2.65973714794339E-03|5.38486037961894E-03|7.15872155441704E-03|0|7.81258239173857E-03|5.74131999738455E-03|4.59179046080315E-03|4.99465310573351E-03|2.79894622943765E-03|2.60278797824119E-03|4.24798621408247E-03|2.29273138764034E-03|6.86975724889107E-03|0.906926073650041|4.64030271647539E-05|7.61220568352713E-03|0
41|T|ACC|474107|2.16617767719101E-03|1.18095704134298E-02|3.21868270242793E-03|7.26418297979148E-03|2.49732655286675E-03|1.91728871330733E-03|2.13664847808617E-03|8.40738483085042E-03|3.72489754422524E-03|2.47623426779186E-03|0|2.61122489227115E-03|2.38131898495487E-03|2.07759007987648E-03|0.003206027331383|1.93416254136724E-03|7.13762926934215E-03|1.17273105016378E-03|2.39186512749231E-03|2.40241127002976E-03|0.921777151571269|4.64030271647539E-05|7.2409814662091E-03|0
42|T|ACA|474107|1.51231683986948E-03|2.47623426779186E-03|1.5080983828545E-03|1.30561244613557E-03|3.57092386317856E-03|3.26719495810017E-03|6.53860837321532E-05|3.60256229079089E-03|2.49943578137424E-03|3.00565062317156E-03|2.1303207925637E-04|3.77551902840498E-03|1.83502880151526E-03|1.22757099135849E-03|1.59246752315405E-03|1.47224149822719E-03|3.69747757362789E-03|2.10922850748881E-05|2.11766542151877E-03|4.21845701497763E-05|0.956446540548863|4.64030271647539E-05|4.69725188617759E-03|0
43|A|GCT|474107|1.92783485584477E-03|1.36045238733028E-03|2.2252360754007E-03|7.80414547770861E-05|0|2.96135682451429E-03|1.27608324703073E-03|1.80128114539544E-03|4.74576414184983E-03|1.78862577435051E-03|1.14320185105893E-03|1.81604574494787E-03|1.45958612718226E-03|2.32015135823769E-05|4.00753416422875E-05|1.79706268838047E-03|2.02907782420424E-03|1.23178944837346E-03|1.9974393965919E-03|4.1298694176631E-03|0.961152229349071|4.64030271647539E-05|4.96723313513616E-03|0
44|P|CCT|474107|2.7715262588403E-03|2.38553744196985E-03|3.51397469347636E-03|3.75653597183758E-03|8.26817574935615E-04|3.89574505333184E-03|1.44903998464481E-03|2.4129574125672E-03|1.5270814394219E-03|4.0539371913935E-03|2.46568812525442E-03|1.94470868390468E-03|4.00331570721377E-03|1.11367265195409E-03|1.13265570852149E-03|2.90229842630461E-03|0|1.6768366634536E-03|7.18825075352188E-03|3.58568846273098E-03|0.933709057238134|4.64030271647539E-05|1.36361623009151E-02|0
45|S|TCC|474107|3.72278831571776E-03|4.58757200378817E-03|2.32226058674518E-03|1.68105512046858E-03|6.29604709485411E-03|4.76685642692472E-03|3.73122522974771E-03|8.52761085577728E-03|7.96444684427777E-03|2.92339071137949E-03|2.87065999869227E-03|9.01062418399222E-03|3.33890872735479E-03|4.42937986572651E-05|8.50230011368741E-03|3.38953021153452E-03|7.0532601290426E-03|2.78207240137774E-03|3.76708211437502E-03|7.25363683725403E-03|0.897972398635751|4.64030271647539E-05|7.44346740292803E-03|0
46|L|CTG|474107|9.60120816608909E-03|2.62598949182357E-03|3.29672415720501E-03|0|7.59322262695973E-05|2.68082943301828E-03|3.90418196736179E-03|4.62131965990799E-03|2.31171444420774E-03|3.58990691974596E-03|1.2444448194184E-03|3.22501038795039E-03|2.05227933778661E-03|1.18116796419373E-03|2.95291991048434E-05|2.31593290122272E-03|1.66207206390118E-03|2.17672381972845E-03|2.1682869056985E-03|1.68105512046858E-03|0.942217685037343|4.64030271647539E-05|7.28949372188134E-03|0
47|S|AGT|474107|3.87465276825695E-03|2.16195922017603E-03|2.78629085839272E-03|2.58169569316631E-03|3.54983157810367E-03|2.79894622943765E-03|1.26553710449328E-05|3.25243035854775E-03|3.4317147816843E-03|1.57981215210912E-03|3.1490781616808E-03|1.75065966121571E-03|3.0731459354112E-03|8.43691402995526E-04|2.48256195331433E-03|2.53107420898657E-05|4.64663040199786E-03|3.14275047615833E-03|1.89830565673993E-05|3.0351798222764E-03|0.948842771779366|4.64030271647539E-05|2.91073534033456E-03|0
48|G|GGT|474107|2.10922850748881E-05|1.01242968359463E-04|4.00753416422875E-05|3.16384276123322E-05|3.47811780884905E-03|4.64030271647539E-05|5.6949169702198E-05|0|2.02064091017428E-03|5.90583982096868E-05|6.74953122396421E-05|4.96301467812118E-03|9.44934371354989E-04|3.66372991750807E-03|2.98033988108169E-03|4.52640437707099E-03|3.03728905078389E-03|5.27307126872203E-05|2.19781610480334E-03|8.85875973145302E-05|0.962580177048641|4.64030271647539E-05|8.99375035593231E-03|0
49|K|AAA|474107|4.21845701497763E-05|3.39796712556448E-03|2.74199705973546E-05|4.21845701497763E-06|2.10922850748881E-06|0|3.22711961645788E-04|0|4.11299558960319E-04|8.14162203890682E-04|5.6949169702198E-05|0|3.91683733840673E-03|1.20226024926862E-04|0|0|0|4.4504721508014E-04|5.27307126872203E-04|3.07947362093367E-04|0.987237058301185|4.64030271647539E-05|2.3180421297302E-03|0
50|G|GGC|474107|0|0|0|0|0|0|0|0|0|0|0|0|0|4.4504721508014E-04|1.83502880151526E-04|0|0|0|0|0|0.999274425393423|4.64030271647539E-05|4.85122556722427E-05|0
