||||M|N|I|L|A|F|Q|G|D|K|T|W|R|S|C|V|P|H|E|Y||||
Pos|WT_AA|WT_codon|Total_count|ATG|AAC|ATC|CTG|GCT|TTC|CAG|GGT|GAT|AAG|ACC|TGG|AGA|AGC|TGC|GTG|CCT|CAC|GAG|TAC|AAcons|AAdel|AAnons|AAother
31|L|TTG|489391|7.15174574113541E-04|3.80064202243196E-04|5.19012405213827E-04|1.98205524825752E-04|3.35110371870344E-04|7.23347997817695E-04|5.49662744104407E-04|6.17093489663684E-04|4.27061388542086E-04|4.63841795210782E-04|9.56290573386106E-04|9.3381365819968E-04|7.80561963746779E-04|4.53625015580588E-04|3.63717354834886E-04|1.07276186117031E-03|1.02780803079746E-03|6.90654303001076E-04|6.45700472628225E-04|3.31023660018267E-04|0.982576304018668|3.67804066686964E-05|5.20034083176846E-03|0
32|D|GAT|489391|2.77896405941261E-04|6.53669560739776E-03|2.26812507790294E-04|0.008291938347865|9.52203861534029E-03|8.32871875453369E-03|9.69572386905357E-03|1.05294130868773E-02|0|8.45336346602205E-03|4.54646693543608E-03|9.6814203775713E-03|3.2693694816619E-04|9.99201047832919E-04|8.86816471900791E-03|1.01513922405602E-02|9.45869458163309E-03|6.55304245480607E-03|1.14223596265562E-03|8.9948527864223E-03|0.872582454520005|3.67804066686964E-05|4.79371300248676E-03|0
33|S|TCT|489391|8.5616613301021E-04|6.6286466240695E-03|1.43034914822708E-05|5.10838981509672E-05|7.95274126414257E-03|7.64419451931073E-03|6.86771926741603E-03|8.55144455047191E-03|7.74227560376059E-03|8.26333136490045E-03|4.9857884595344E-04|6.56325923443626E-03|6.77372489481825E-03|1.83902033343482E-05|6.27514604886481E-03|2.70131653422314E-03|6.32418659108974E-03|6.61842984443931E-03|8.76599692270597E-04|6.19749852367534E-03|0.896553062888365|3.67804066686964E-05|5.98907621921939E-03|0
34|G|GGA|489391|7.0087108263127E-03|8.96215909160568E-03|6.90654303001076E-03|1.06152340357709E-02|6.41613760776148E-04|9.38717712422173E-03|1.08992605094903E-02|2.6359291445899E-04|7.43372885892875E-03|6.23836564219611E-03|6.52443547184153E-03|8.88655492234225E-03|8.05899577229658E-03|6.14845798145041E-03|6.29966631997727E-03|8.94785560012341E-03|7.67484485820131E-03|8.56983475380626E-03|9.23392542976883E-03|6.87589269112018E-03|0.842843452372438|3.67804066686964E-05|1.15408742702665E-02|0
35|I|ATC|489391|4.3523481224624E-04|1.10136884413485E-03|0|3.55543931130731E-04|2.48472080606304E-03|9.13380098939293E-04|6.35483692998032E-03|9.41782746311231E-03|2.86069829645416E-04|6.49991520072906E-03|1.66329172379549E-03|1.17697301339828E-03|3.41649110833668E-03|8.79869061752259E-03|7.58085048560353E-04|8.27559150045669E-04|1.06254508154011E-02|5.51706100030446E-04|1.07950493572623E-02|5.06752269657594E-04|0.929430659738327|3.67804066686964E-05|3.56156937908543E-03|0
36|H|CAT|489391|4.08671185207737E-06|3.84150914095273E-04|0|4.22974676690008E-04|3.65760710760925E-04|3.86194270021312E-04|7.04957794483347E-04|3.14676812609958E-04|5.35359252622136E-04|1.1728863015462E-03|6.33440337071993E-04|5.94616574477258E-04|2.41115999272565E-04|3.39197083722422E-04|5.96659930403297E-04|6.10963421885568E-04|3.53500575204693E-03|2.90156541497493E-04|6.96784370779192E-04|3.18763524462035E-04|0.982451659307179|3.67804066686964E-05|5.36176594992551E-03|0
37|S|TCT|489391|1.03332509179776E-02|9.50977847978405E-03|1.20557999636282E-04|1.00124440375895E-04|1.32000792822099E-02|9.87553919054498E-03|1.31939492144318E-02|1.09912115261621E-02|1.20292363365897E-02|1.23541299288299E-02|6.17093489663684E-04|1.10096017294964E-02|0.013733395178906|1.63468474083095E-05|1.07092284083687E-02|1.05927571205845E-02|1.32715967396212E-02|9.93070980054802E-03|1.40133349407733E-02|1.10974660343161E-02|0.806201993906712|3.67804066686964E-05|7.05979472446367E-03|0
38|G|GGT|489391|3.59630642982809E-04|5.90529862625181E-04|5.37402608548175E-04|7.66258472264508E-04|8.03038878933204E-04|1.0461982341318E-03|5.1288233743571E-04|0|8.31645861897746E-04|3.82107558169234E-04|5.00622201879478E-04|8.92946539678907E-04|8.92946539678907E-04|5.35359252622136E-04|3.18763524462035E-04|7.94865455229049E-04|4.86318710397208E-04|1.07889192894842E-03|3.39197083722422E-04|6.57960608184457E-04|0.979768732976291|3.67804066686964E-05|7.86487695932291E-03|0
39|A|GCC|489391|5.10838981509672E-04|9.78767488572532E-04|7.19261285965618E-04|9.60377285238183E-04|5.598795237346E-04|5.53749455956484E-04|9.82854200424609E-04|4.5158165965455E-04|7.96908811155088E-04|6.91675980964096E-03|1.63672809675698E-03|8.31645861897746E-04|7.17217930039579E-04|6.8452423522296E-04|5.55792811882523E-04|5.39445964474213E-04|1.04006816635369E-03|9.60377285238183E-04|6.19136845589722E-04|4.33191456320202E-04|0.969893193785746|3.67804066686964E-05|8.61887529603118E-03|0
40|T|ACC|489391|6.72264099666728E-04|1.16879958969413E-03|1.7327658252808E-03|5.74183015216871E-04|7.21304641891657E-04|9.68550708942338E-04|5.21055761139865E-04|5.66009591512716E-04|7.15174574113541E-04|1.44260928378331E-03|0|9.11336743013255E-04|1.21579677599302E-03|7.58085048560353E-04|4.37278168172279E-04|1.04415487820577E-03|6.49787184480303E-04|6.72264099666728E-04|5.02665557805517E-04|1.01554789524122E-03|0.978162655218424|3.67804066686964E-05|5.5088875766003E-03|0
41|T|ACC|489391|7.01075418223874E-03|3.15494154980373E-03|9.95318671573445E-03|3.19172195647243E-03|7.92004756932595E-03|9.37696034459154E-03|8.61478858417911E-03|3.2591527020317E-03|1.06581445102178E-02|9.06228353198158E-03|0|1.14141862028521E-02|1.13957959995177E-02|5.68052947438755E-04|7.75657909524286E-03|1.22826124714185E-02|3.2693694816619E-03|8.6352221434395E-03|1.13712757284053E-02|9.38104705644362E-03|0.845495728364436|3.67804066686964E-05|6.18932509997118E-03|0
42|T|ACA|489391|4.59755083358705E-04|4.9857884595344E-04|3.43283795574499E-04|6.88610947075038E-04|2.59506202606913E-04|7.64215116338469E-04|4.08671185207737E-06|1.5529505037894E-04|7.68301828190547E-04|7.53998336708276E-04|4.49538303728511E-05|7.86692031524895E-04|4.65885151136821E-04|5.19012405213827E-04|2.37029287420487E-04|4.29104744468124E-04|6.13006777811606E-04|2.04335592603868E-06|6.0687671003349E-04|4.08671185207737E-06|0.988312004103058|3.67804066686964E-05|3.24484921054943E-03|0
43|A|GCT|489391|2.98329965201648E-04|2.0229223667783E-04|6.33440337071993E-04|1.63468474083095E-05|0|5.63966235586678E-04|3.53500575204693E-04|4.0458447335566E-04|2.54806483977024E-03|3.37153727796383E-04|2.67679626311068E-04|4.74058574840975E-04|3.98454405577544E-04|1.83902033343482E-05|1.43034914822708E-05|4.67928507062859E-04|5.41489320400252E-04|4.00497761503583E-04|4.94492134101362E-04|4.41364880024356E-04|0.987257632445222|3.67804066686964E-05|3.82720564947046E-03|0
44|P|CCT|489391|6.21180201515761E-04|3.39197083722422E-04|5.08795625583633E-04|6.04833354107452E-04|3.51457219278654E-04|5.57836167808562E-04|6.70220743740689E-04|6.35483692998032E-04|2.16595728160101E-04|8.07125590785282E-04|2.28855863716333E-04|3.75977490391118E-04|6.72264099666728E-04|2.41115999272565E-04|5.37402608548175E-04|1.98205524825752E-04|0|2.53376134828797E-04|8.5616613301021E-04|2.96286609275609E-04|0.978450768403996|3.67804066686964E-05|1.25380319621733E-02|0
45|S|TCC|489391|8.07534261970489E-03|6.39979076035317E-03|7.82400984080214E-03|9.53634210682256E-03|2.96695280460817E-03|8.08147268748301E-03|4.31761107171975E-03|4.67111164692444E-03|5.97477272773712E-03|6.66134031888612E-03|1.03598145450161E-03|1.18718979302847E-03|9.4116973953342E-03|4.90405422249285E-05|2.29060199308937E-03|5.14925693361749E-03|6.89223953852849E-03|8.81912417678298E-03|2.40707328087357E-03|5.77248049105929E-03|0.886368976952988|3.67804066686964E-05|6.0687671003349E-03|0
46|L|CTG|489391|5.93186225329031E-03|1.71641897787249E-04|5.63966235586678E-04|0|1.43034914822708E-05|4.76101930767014E-04|1.06458843746615E-03|5.82356438921026E-04|5.57836167808562E-04|4.33191456320202E-04|3.90280981873389E-04|5.08795625583633E-04|7.43781557078082E-04|2.57462846680874E-04|6.13006777811606E-06|6.25266913367838E-04|4.63841795210782E-04|1.59381762231017E-04|3.47370507426577E-04|5.31272540770059E-04|0.979637958197024|3.67804066686964E-05|6.49378513295095E-03|0
47|S|AGT|489391|4.57711727432666E-04|5.86443150773103E-04|3.14676812609958E-04|5.08795625583633E-04|5.61922879660639E-04|4.69971862988898E-04|4.08671185207737E-06|1.13610589487751E-03|8.17342370415475E-04|5.00622201879478E-04|9.35857014125719E-04|3.63717354834886E-04|5.45576032252329E-04|6.51830540406341E-04|7.02914438557309E-04|0|4.43408235950395E-04|5.31272540770059E-04|2.04335592603868E-06|3.53500575204693E-04|0.988318134170836|3.67804066686964E-05|1.75524274046723E-03|0
48|G|GGT|489391|2.04335592603868E-06|2.45202711124642E-05|8.17342370415475E-06|1.22601355562321E-05|9.27683590421564E-04|2.04335592603868E-06|1.43034914822708E-05|0|5.598795237346E-04|2.04335592603868E-05|2.24769151864255E-05|7.60128404486392E-04|2.39072643346526E-04|5.00622201879478E-04|3.22850236314112E-04|6.08920065959529E-04|6.19136845589722E-04|2.45202711124642E-05|7.15174574113541E-04|6.13006777811606E-06|0.987455837970048|3.67804066686964E-05|7.11496533446671E-03|0
49|K|AAA|489391|4.08671185207737E-06|9.56290573386106E-04|4.08671185207737E-06|0|0|0|4.49538303728511E-05|0|4.90405422249285E-05|5.21055761139865E-04|4.08671185207737E-06|0|1.06867514931823E-03|6.13006777811606E-06|0|0|0|5.92573218551219E-05|5.10838981509672E-05|5.31272540770059E-05|0.995142942963806|3.67804066686964E-05|1.99635873973979E-03|0
50|G|GGC|489391|0|0|0|0|0|0|0|0|0|0|0|0|0|7.35608133373928E-05|1.02167796301934E-04|0|0|0|0|0|0.999769100780357|3.67804066686964E-05|1.63468474083095E-05|0
