||||M|N|I|L|A|F|Q|G|D|K|T|W|R|S|C|V|P|H|E|Y||||
Pos|WT_AA|WT_codon|Total_count|ATG|AAC|ATC|CTG|GCT|TTC|CAG|GGT|GAT|AAG|ACC|TGG|AGA|AGC|TGC|GTG|CCT|CAC|GAG|TAC|AAcons|AAdel|AAnons|AAother
31|L|TTG|445154|3.54933348908467E-03|2.94280181689932E-03|3.40556301864074E-03|1.81959501655606E-04|3.0618617377357E-03|4.31760694051946E-03|3.35164909222426E-03|3.26403896179749E-03|3.36512757382838E-03|3.36512757382838E-03|3.1786752449714E-03|3.90202042439245E-03|3.18990731297483E-03|2.87765582247941E-03|2.88439506328147E-03|3.68861113232723E-03|3.78745333075744E-03|2.72714611123341E-03|3.23034275778719E-03|2.85519168647254E-03|0.93213584512326|2.47105496075515E-05|4.71072932063959E-03|0
32|D|GAT|445154|9.21029576281466E-05|2.55866509118192E-03|9.65957848295196E-05|2.75185666084096E-03|3.07309380573913E-03|2.94280181689932E-03|3.15396469536385E-03|3.65266851471625E-03|0|3.22135710338444E-03|2.61707184479977E-03|2.98997650251373E-03|1.10074266433638E-04|2.72714611123341E-03|2.58562205439016E-03|2.92033768089245E-03|3.15171828176316E-03|2.23068870548169E-03|3.48643390826545E-03|2.70468197522655E-03|0.949862294846277|2.47105496075515E-05|3.04389042893021E-03|0
33|S|TCT|445154|1.77017391734096E-03|2.17677477906522E-03|4.71746856144165E-05|4.492827201373E-05|2.38344483032838E-03|1.97909038220481E-03|2.33627014471396E-03|2.43511234314417E-03|2.71142121602861E-03|2.18800684706865E-03|2.22394946467963E-03|2.29134187270023E-03|2.35424145351945E-03|2.2464136006865E-06|2.08242540783638E-03|2.21047098307552E-03|2.08467182143707E-03|2.00604734541304E-03|2.60134694959497E-03|2.02177224061785E-03|0.956958715410846|2.47105496075515E-05|5.06341625594738E-03|0
34|G|GGA|445154|2.17677477906522E-03|2.59910053599428E-03|2.26663132309268E-03|3.10005076894737E-03|2.73163893843478E-03|2.7630887288444E-03|3.1449790409611E-03|1.84205915256293E-04|2.67547859841762E-03|2.37221276232494E-03|2.31829883590847E-03|2.60808619039703E-03|3.2617925481968E-03|2.28460263189817E-03|2.14083216145423E-03|2.90685919928833E-03|2.76982796964645E-03|2.99896215691648E-03|3.12476131855492E-03|2.32728449031121E-03|0.940171266572916|2.47105496075515E-05|9.04630756996455E-03|0
35|I|ATC|445154|3.47969466746339E-03|3.34041702422083E-03|0|3.38759170983524E-03|3.50440521707094E-03|3.84586008437529E-03|4.43891327495653E-03|3.7941925715595E-03|8.31173032254006E-05|3.12476131855492E-03|3.71781450913616E-03|3.55831914348742E-03|1.88474101097597E-03|3.41454867304348E-03|3.14048621375973E-03|3.64143644671282E-03|3.70658244113273E-03|3.47969466746339E-03|3.83238160277117E-03|3.29773516580778E-03|0.934373273069544|2.47105496075515E-05|2.92707692169451E-03|0
36|H|CAT|445154|2.47105496075515E-05|2.41040179353661E-03|2.47105496075515E-05|3.05736891053433E-03|3.12476131855492E-03|2.70917480242792E-03|3.38759170983524E-03|2.79453851925401E-03|3.08207946014188E-03|2.70917480242792E-03|2.63055032640389E-03|3.23932841218993E-03|2.58562205439016E-03|2.87765582247941E-03|3.16968959056865E-03|2.86417734087529E-03|3.29099592500572E-03|2.04423637662471E-04|3.39657736423799E-03|2.83497396406636E-03|0.944408002623811|2.47105496075515E-05|5.14653355917278E-03|0
37|S|TCT|445154|3.33817061062014E-03|3.57179762509154E-03|5.16675128157895E-05|4.26818584130435E-05|3.85035291157666E-03|3.99187696841991E-03|3.73803223154234E-03|3.1786752449714E-03|3.59875458829977E-03|3.89078835638902E-03|3.48418749466476E-03|3.35164909222426E-03|4.08622633964875E-03|1.12320680034325E-05|3.32019930181465E-03|3.1944001401762E-03|3.71556809553547E-03|3.21461786258238E-03|3.99861620922197E-03|3.41679508664417E-03|0.933755509329355|2.47105496075515E-05|5.17124410878033E-03|0
38|G|GGT|445154|2.9293233352952E-03|2.55866509118192E-03|2.90910561288902E-03|3.51563728507437E-03|3.16968959056865E-03|2.91359844009039E-03|3.20338579457895E-03|0|2.85294527287186E-03|3.42128791384554E-03|2.37445917592563E-03|3.85933856597941E-03|3.36063474662701E-03|2.49801192396339E-03|2.85968451367391E-03|3.18092165857209E-03|3.13150055935698E-03|2.82374189606293E-03|3.55831914348742E-03|2.85743810007323E-03|0.934921397988112|2.47105496075515E-05|7.0739564285618E-03|0
39|A|GCC|445154|3.47070901306064E-03|3.78520691715675E-03|3.29998157940847E-03|3.6773790643238E-03|5.88560363379864E-04|3.51339087147369E-03|4.62985843101488E-03|3.78520691715675E-03|3.60100100190046E-03|3.72230733633753E-03|4.16260440207209E-03|3.54933348908467E-03|3.83462801637186E-03|3.48418749466476E-03|3.24382123939131E-03|3.5605655570881E-03|3.45049129065447E-03|3.82114953476774E-03|3.44599846345309E-03|3.18092165857209E-03|0.922047201642577|2.47105496075515E-05|8.11853875288102E-03|0
40|T|ACC|445154|3.50665163067163E-03|3.68187189152518E-03|3.57404403869222E-03|3.29998157940847E-03|2.78106003764989E-03|3.35838833302632E-03|3.66839340992106E-03|2.90685919928833E-03|3.16295034976659E-03|3.40107019143936E-03|0|3.7447714723444E-03|3.74701788594508E-03|3.39882377783868E-03|2.96975878010755E-03|2.95852671210412E-03|3.18990731297483E-03|3.00345498411785E-03|3.01019422491991E-03|3.41230225944279E-03|0.931529313451075|2.47105496075515E-05|5.66770151453205E-03|0
41|T|ACC|445154|3.32469212901602E-03|4.22101115568994E-03|3.58976893389703E-03|3.50889804427231E-03|3.44150563625172E-03|3.65940775551831E-03|3.35838833302632E-03|3.89752759719108E-03|3.72904657713959E-03|3.1292541457563E-03|0|3.74926429954577E-03|3.40331660504005E-03|2.8282347232643E-03|3.08207946014188E-03|3.70658244113273E-03|3.29998157940847E-03|3.16295034976659E-03|3.67513265072312E-03|3.49317314906751E-03|0.927896862658765|2.47105496075515E-05|5.81596481217735E-03|0
42|T|ACA|445154|2.21496381027689E-03|2.85294527287186E-03|3.00794781131922E-03|2.80352417365675E-03|2.59910053599428E-03|2.7788136240492E-03|3.81890312116705E-05|2.78106003764989E-03|2.71142121602861E-03|2.38344483032838E-03|1.39277643242563E-04|2.85968451367391E-03|1.48263297645309E-03|1.80387012135126E-03|2.6462752216087E-03|1.75669543573684E-03|3.23034275778719E-03|2.02177224061785E-05|2.70018914802517E-03|4.26818584130435E-05|0.956017468112158|2.47105496075515E-05|3.10229718254806E-03|0
43|A|GCT|445154|2.49127268316133E-03|2.48453344235927E-03|2.38119841672769E-03|1.14567093635011E-04|0|2.39243048473112E-03|2.10264313024256E-03|2.57214357278604E-03|4.63435125821625E-03|2.14757140225629E-03|2.2621384958913E-03|2.29134187270023E-03|2.37221276232494E-03|4.492827201373E-05|9.88421984302061E-05|2.47105496075515E-03|0.002378952003127|2.27112415029405E-03|2.78330645125057E-03|2.49351909676201E-03|0.955667027590451|2.47105496075515E-05|3.51788369867506E-03|0
44|P|CCT|445154|2.59460770879291E-03|2.37445917592563E-03|2.54069378237643E-03|2.71816045683067E-03|2.82598830966362E-03|2.85069885927117E-03|2.88439506328147E-03|2.47105496075515E-03|2.45308365194966E-03|2.34076297191533E-03|2.34525579911671E-03|2.88214864968078E-03|2.65076804881007E-03|2.30931318150572E-03|2.41489462073799E-03|2.35873428072082E-03|0|2.47779420155721E-03|2.73837817923684E-03|2.36098069432151E-03|0.938387614173971|2.47105496075515E-05|1.29932562663707E-02|0
45|S|TCC|445154|2.99446932971511E-03|2.97200519370824E-03|3.18541448577346E-03|3.2954887522071E-03|2.75634948804234E-03|3.73129299074028E-03|2.24866001428719E-03|3.78969974435813E-03|3.72006092273685E-03|2.43286592954348E-03|3.16744317696797E-03|3.25505330739474E-03|3.40331660504005E-03|2.47105496075515E-05|3.18092165857209E-03|2.61931825840046E-03|3.85259932517735E-03|3.28650309780435E-03|1.85553763416705E-03|5.36443567843937E-03|0.931974103344011|2.47105496075515E-05|6.86279355009727E-03|0
46|L|CTG|445154|1.04997371696087E-02|2.61033260399771E-03|3.02367270652403E-03|0|7.63780624233411E-05|3.47969466746339E-03|3.7784676763547E-03|3.18092165857209E-03|3.09331152814531E-03|3.5448406618833E-03|2.6283039128032E-03|4.01658751802746E-03|3.15396469536385E-03|1.2647308571865E-03|3.5942617610984E-05|3.23483558498856E-03|2.86867016807666E-03|2.63728956720595E-03|3.00120857051716E-03|3.07084739213845E-03|0.934503565058384|2.47105496075515E-05|6.26974035951603E-03|0
47|S|AGT|445154|3.51563728507437E-03|3.66839340992106E-03|3.32918495621739E-03|2.71142121602861E-03|3.0281655337254E-03|2.94280181689932E-03|2.02177224061785E-05|3.47969466746339E-03|3.78071408995538E-03|3.0618617377357E-03|3.54933348908467E-03|1.97909038220481E-03|3.83462801637186E-03|6.11024499386729E-04|2.13409292065217E-03|1.12320680034325E-05|3.28201027060298E-03|3.30222799300916E-03|1.3478481604119E-05|2.92707692169451E-03|0.946618473606886|2.47105496075515E-05|2.17228195186384E-03|0
48|G|GGT|445154|4.9421099215103E-05|1.81959501655606E-04|4.492827201373E-05|6.73924080205951E-06|3.32918495621739E-03|2.6956963208238E-05|4.492827201373E-05|0|3.33817061062014E-03|5.61603400171626E-05|8.31173032254006E-05|3.32918495621739E-03|1.72075281812586E-03|3.15396469536385E-03|3.42128791384554E-03|2.96975878010755E-03|3.17418241777003E-03|1.10074266433638E-04|2.85069885927117E-03|6.06531672185356E-05|0.965048050786918|2.47105496075515E-05|6.9728678165309E-03|0
49|K|AAA|445154|2.2464136006865E-06|3.95818076440962E-03|1.7971308805492E-05|0|2.2464136006865E-06|0|1.84205915256293E-04|0|2.40366255273455E-04|4.69500442543479E-04|3.36962040102975E-05|0|4.55797319579291E-03|6.51459944199086E-05|0|0|0|2.2464136006865E-04|2.65076804881007E-04|2.35873428072082E-04|0.98802436909474|2.47105496075515E-05|1.69154944131693E-03|0
50|G|GGC|445154|0|0|0|0|0|0|0|0|0|0|0|0|0|6.89648975410756E-04|2.26887773669336E-04|0|0|0|0|0|0.999027302910902|2.47105496075515E-05|2.92033768089245E-05|0
|||||||||||||||||||||||||||
|||||||||||||||||||||||||||
|||||||||||||||||||||||||||
|||||||||||||||||||||||||||
||||3.53716305606023E-03|2.92021009363405E-03|3.30843425767152E-03|2.11935380049619E-04|3.05018673920342E-03|4.23498690811113E-03|3.21235979205081E-03|3.22438040186288E-03|3.26562042870741E-03|3.29087490074274E-03|3.1484689749823E-03|3.81984114281023E-03|3.1368056333809E-03|2.85573671069527E-03|2.83916859001578E-03|3.92846410044722E-03|3.7412906721735E-03|2.76054411399175E-03|3.19025292425461E-03|2.99603147490378E-03||||
||||9.12436919299169E-05|2.54870206105068E-03|9.6148471008006E-05|2.56953442977423E-03|3.04118176307942E-03|2.83115485014107E-03|3.04041254299204E-03|3.69516518797213E-03|0|2.92391109752909E-03|2.72145717363935E-03|2.95310171561217E-03|1.14850356458377E-04|2.57312934783487E-03|2.54755953252909E-03|2.8863819190727E-03|3.18018270649402E-03|2.27173333541096E-03|3.54957629602777E-03|2.80380853827508E-03||||
||||1.83678179958059E-03|0.00201216939293|4.21959011490262E-05|3.97435116099816E-05|2.41058298655327E-03|2.11137542256629E-03|2.37769136457514E-03|2.38723698162921E-03|2.83243263071143E-03|2.25172158894314E-03|2.27766799418084E-03|2.29674318806542E-03|2.34945990229425E-03|2.45238953904453E-06|2.13114254965324E-03|2.16326495154398E-03|2.13758248740839E-03|1.97066870648105E-03|2.57270135573461E-03|2.01574827076709E-03||||
||||2.2155343519513E-03|2.55961550428595E-03|2.26843772039723E-03|3.06130615837704E-03|2.7242442281701E-03|2.74794421980711E-03|3.20738428908313E-03|1.83816566598535E-04|2.76395237783528E-03|2.42091714541596E-03|2.24243334999577E-03|2.58271688982914E-03|3.13287276883085E-03|2.27343582658388E-03|2.16566265741697E-03|2.78659988656155E-03|2.7101091753084E-03|2.99879920771328E-03|3.0590404230551E-03|2.31870204508701E-03||||
||||3.48772263512388E-03|3.35029549382884E-03|0|0.003436354425355|3.47216507241492E-03|3.84492828234969E-03|4.01385333472499E-03|3.57452490202076E-03|1.10676154025167E-04|3.04840696114549E-03|3.71178799231766E-03|3.38747068557226E-03|1.84754395054355E-03|3.60135973917106E-03|3.03633166766738E-03|3.58720208309041E-03|3.58787469457154E-03|3.34550008208284E-03|3.64412836169725E-03|3.19869465622958E-03||||
||||3.36221986229962E-05|2.42007391994128E-03|3.62805641003988E-05|3.12636210718611E-03|3.0590404230551E-03|2.66117403335732E-03|3.49218010038045E-03|2.7357562774992E-03|2.99117809799404E-03|2.69041605360875E-03|2.63648280547102E-03|3.11898233535001E-03|2.5648389081322E-03|2.7773149291119E-03|3.18783917815807E-03|2.85431420084802E-03|3.28703864479894E-03|2.63042930214091E-04|3.24545738996729E-03|2.79584948206641E-03||||
||||3.24416685067108E-03|3.49522781451561E-03|5.10882284432191E-05|3.99494875483397E-05|3.91230465014675E-03|3.85413595291435E-03|3.72189685352076E-03|3.1444814267662E-03|3.72536308252804E-03|3.97638540293007E-03|3.51921106897599E-03|3.45825859871055E-03|4.03024136418279E-03|1.09327649565214E-05|3.38272048026418E-03|3.28924969645483E-03|3.73326089207524E-03|3.15580682187818E-03|3.94523163406966E-03|3.48019813401089E-03||||
||||2.86163272602265E-03|2.49420556876393E-03|2.85152386481955E-03|3.40334687304937E-03|3.02966643225262E-03|2.94016715643582E-03|3.16348261526348E-03|0|2.81812696385617E-03|3.26844612668067E-03|2.33830183967812E-03|3.7945126653876E-03|3.30723704548387E-03|2.48381672623518E-03|2.83080086342811E-03|3.15623809547616E-03|3.01323028212419E-03|2.81681710283872E-03|3.38082477187876E-03|2.8682239560501E-03||||
||||3.50582591448043E-03|3.6843417903477E-03|3.2702645481811E-03|3.63175704666993E-03|5.6277509490759E-04|3.39291938707812E-03|4.31667841999157E-03|3.55408188195497E-03|3.60420147736787E-03|3.49604843677134E-03|4.0139339031077E-03|3.48399574651218E-03|3.76753638045811E-03|3.46471457668924E-03|3.34187308357511E-03|3.58132538948428E-03|3.34684858654279E-03|3.63718314495684E-03|3.45093679203821E-03|2.98743188766109E-03||||
||||3.42809606609943E-03|3.59944470906438E-03|3.58673544754765E-03|3.25564353805538E-03|2.87256877247687E-03|3.36725624466378E-03|3.49301676285973E-03|2.83179209967739E-03|3.21371157800847E-03|3.4816399655794E-03|0|3.68672017449945E-03|3.74898578728004E-03|3.36089031229594E-03|3.05863175267609E-03|3.04371143950347E-03|3.31092857215077E-03|3.05155456538462E-03|2.89808062261889E-03|3.56036105020968E-03||||
||||3.14571400089864E-03|4.20263920856079E-03|3.59592707788875E-03|3.44251110028678E-03|3.29184681527077E-03|3.49251148387446E-03|3.19180412315521E-03|3.74448967858097E-03|3.6416406102134E-03|2.91374755265995E-03|0|3.63579927855208E-03|3.47611725868624E-03|2.8084300545298E-03|2.92338977832027E-03|3.6556630142453E-03|3.29418983747772E-03|3.33067965901418E-03|3.52961595172829E-03|3.35622687110101E-03||||
||||2.21867867469271E-03|2.7397051822728E-03|2.98202511109544E-03|2.79075804877121E-03|2.63272055491452E-03|0.002940563068089|3.90322566863545E-05|2.8978232445122E-03|2.6968559913639E-03|2.47172539253352E-03|2.10532191923617E-04|2.89991836584057E-03|1.47901290820575E-03|1.81641278490211E-03|2.59649467448018E-03|1.66123635096348E-03|3.29259999513461E-03|2.20715058514008E-05|2.55832168349205E-03|5.72288631514563E-05||||
||||2.4193046998539E-03|2.49435686103624E-03|2.34565900829526E-03|1.17096770059063E-04|0|2.40975908279983E-03|2.13061794894672E-03|2.55411211911404E-03|4.38006723957251E-03|2.11985251648605E-03|2.2249866418968E-03|2.24623424399477E-03|2.33850781561648E-03|5.70228872130983E-05|1.10563505195362E-04|2.5102137267921E-03|2.48675835453595E-03|2.2600506720883E-03|2.80590365960345E-03|2.47891194715709E-03||||
||||2.52413952221774E-03|2.36355631171345E-03|2.55965414772846E-03|2.81586451003194E-03|2.81661112690036E-03|2.77181154393998E-03|2.84847286918669E-03|2.53812656430483E-03|2.41350201163507E-03|2.42512999129168E-03|2.49250635908873E-03|2.92045471301491E-03|2.59475353986476E-03|2.26718254304583E-03|2.44491644009989E-03|2.39291098079468E-03|0|2.42984483465495E-03|2.79008543729009E-03|2.44454313166567E-03||||
||||3.07630375843468E-03|3.00392928445098E-03|3.28475686925346E-03|3.39163212927963E-03|2.87350532506011E-03|3.85942060342206E-03|2.39104115712591E-03|3.85539441176345E-03|3.71025283364061E-03|2.4140266123416E-03|0.003261150204725|3.25311714312903E-03|3.36845345685143E-03|2.96346504068924E-05|3.34099449615563E-03|2.67340061910775E-03|3.8283601616702E-03|3.26751285559514E-03|1.92199750563208E-03|4.99898335277602E-03||||
||||8.97689698412274E-03|2.60776538592611E-03|2.96463308666252E-03|0|1.11294081840241E-04|3.42923859462102E-03|3.86174102241005E-03|3.05256184185745E-03|3.13901668503679E-03|3.46446995730838E-03|2.73371912133456E-03|4.06453945578461E-03|3.2145354817619E-03|1.23315602648623E-03|4.85425117956215E-05|3.46498179928906E-03|2.94428667520299E-03|2.61858550205283E-03|3.15676597768037E-03|3.15702663728479E-03||||
||||3.35682547719483E-03|3.49035839738232E-03|3.18916507939907E-03|2.73407310804753E-03|3.15429426642008E-03|2.94679374840808E-03|2.47298713288033E-05|3.58475297504907E-03|3.74323778272728E-03|3.01164043978108E-03|3.2952517976166E-03|2.07282912314395E-03|3.73962354294538E-03|7.86676401103228E-04|2.21546034656399E-03|1.49203131726252E-05|3.26659562473315E-03|3.18499087696586E-03|1.60435199729685E-05|2.92431029067996E-03||||
||0.926389160879029||4.99650216428758E-05|1.97314369923906E-04|4.90477907808906E-05|2.99532751750554E-05|3.32607090148529E-03|3.60745881620408E-05|6.10104354292021E-05|0|3.02751006426278E-03|6.9284834908321E-05|1.17322067718673E-04|3.38455494198815E-03|1.56883080879071E-03|3.12282187279151E-03|3.33623444635443E-03|3.08521540745012E-03|3.11830972386889E-03|1.30800549322792E-04|2.83959986361374E-03|6.75437002929037E-05||||
||||1.57442169260573E-05|3.84526294734141E-03|2.49358472671613E-05|0|3.78157227774581E-06|0|2.38313058885287E-04|0|3.22218903919322E-04|5.09891048182904E-04|4.87484877339795E-05|0|4.55720581203045E-03|9.37154031902128E-05|0|0|0|2.8378525332679E-04|3.43878457894007E-04|3.01363931976817E-04||||
||||0|0|0|0|0|0|0|0|0|0|0|0|0|7.43579309315763E-04|2.88896008343237E-04|0|0|0|0|0||||
|||||||||||||||||||||||||||
||||3.28434357289588E-03|2.78414264157565E-03|3.44326549169371E-03|2.98531742036093E-04|3.09869993586799E-03|3.76503165359017E-03|3.32060417642529E-03|4.5791005300534E-03|3.15579652726878E-03|3.46884865300184E-03|3.03630431476913E-03|4.74443937291339E-03|3.62460019452608E-03|2.76295167489876E-03|2.74567012518603E-03|3.49766478946145E-03|3.62444076457538E-03|2.92282757029501E-03|2.33867216505684E-03|2.96055268156849E-03||||
||||1.04681386680311E-04|2.06586429052705E-03|5.33336970506689E-05|1.96837886411423E-03|2.18572311466404E-03|2.01601013662488E-03|2.54929869109515E-03|2.74773424092734E-03|0|2.45643396785852E-03|1.91774761281203E-03|2.1786194445583E-03|8.88617416058763E-05|2.78782681740113E-03|1.52040021619696E-03|1.81693110467009E-03|2.78925387764011E-03|2.0990842544497E-03|4.22649671557653E-03|2.12709941764132E-03||||
||||1.88393967372394E-03|1.48631795563328E-03|3.98498860873636E-05|2.8072608954063E-05|0.002266131569945|1.37240230761743E-03|1.27134310908908E-03|1.91811616325468E-03|2.08992422382386E-03|1.20752945747726E-03|1.84040627611158E-03|1.16427941106652E-03|1.7947390739593E-03|3.06324096990704E-06|0.001917079590521|1.53139845712495E-03|1.70697844177026E-03|1.63230210331321E-03|2.18238233890841E-03|1.35261967742697E-03||||
||||1.63172637118393E-03|1.61868661587777E-03|2.05733162137703E-03|2.58952876045697E-03|2.73796490827774E-03|2.1316620107546E-03|2.26349044756958E-03|2.18552496270343E-04|2.45317645253861E-03|1.75507570700072E-03|1.66069096906289E-03|1.89021395278265E-03|2.09940438885593E-03|1.53043932841108E-03|1.38557307509523E-03|3.2313564892252E-03|2.18166396177567E-03|2.1705992453592E-03|2.28284514274965E-03|1.84984384152314E-03||||
||||3.48437203953802E-03|3.24750851174201E-03|0|3.41464490408894E-03|3.53136692084681E-03|3.73343884067241E-03|2.52365293190914E-03|3.32100629676242E-03|8.60779742269909E-05|2.22259302021722E-03|3.40733017468595E-03|3.69234841347487E-03|1.53941799202356E-03|2.73881623638744E-03|3.04630664377864E-03|4.1326502622629E-03|3.04501319881709E-03|3.28135068502506E-03|0.002549016004194|3.14265866538497E-03||||
||||3.17373967265227E-05|2.5823243806678E-03|3.82414588350116E-05|2.44733653511054E-03|3.69663153299712E-03|2.28716892308711E-03|3.80954223936847E-03|2.95705053705685E-03|3.42931181039998E-03|2.44935223481545E-03|2.44731265924258E-03|2.68739110273799E-03|2.92269783262818E-03|2.99807964088135E-03|3.43445722656326E-03|2.48929119775443E-03|3.14320343072555E-03|3.11665726309296E-04|4.1584167293897E-03|2.54124752510736E-03||||
||||2.58871033794127E-03|2.57234077541082E-03|4.81863420820823E-05|3.36956506689775E-05|2.85545820601972E-03|2.30174287493593E-03|2.65141900252563E-03|2.40579302252982E-03|3.40894247954891E-03|3.19216880901296E-03|3.42380105710418E-03|3.14457819731752E-03|2.94757424963539E-03|8.33368064686148E-05|2.84969124479652E-03|3.04551985235212E-03|2.57148944730112E-03|3.24741106946484E-03|3.24280199912045E-03|2.28914977839271E-03||||
||||3.71263642269552E-03|2.77834017165267E-03|3.46331984025398E-03|3.22805764878959E-03|3.3389319928982E-03|3.38554541642771E-03|3.69189726689699E-03|0|3.02130824432583E-03|3.44617511912882E-03|0.002683598516104|4.24322319571781E-03|3.00944189034091E-03|2.95480571860265E-03|3.42534882528396E-03|3.54845159310375E-03|3.39074761405296E-03|3.45254944357048E-03|3.94393435453906E-03|3.78015746170031E-03||||
||||4.66633124304378E-03|4.01830540473183E-03|3.0245567299197E-03|4.60276222062369E-03|8.46920289943233E-04|3.53214917036226E-03|4.69863340336825E-03|4.44313677083505E-03|3.95296464749808E-03|3.43505101814461E-03|3.64926167462543E-03|4.42951419247889E-03|4.16746768490656E-03|3.43869580765971E-03|3.85468727754331E-03|4.11639559125734E-03|3.96867327865823E-03|4.0607092751483E-03|3.75512355354771E-03|3.35689901414966E-03||||
||||3.49941780052257E-03|4.40120470955431E-03|4.95194975413042E-03|4.25213665834663E-03|3.48080923595382E-03|3.60114180803183E-03|4.37703891445865E-03|4.20975538929332E-03|3.60657445300734E-03|3.50297223868122E-03|0|3.90434521829018E-03|4.80970008302156E-03|3.12195241518043E-03|3.92588407285188E-03|3.85017697807705E-03|3.73048594931632E-03|0.003868631929111|3.97790753999377E-03|3.47610078452695E-03||||
||||1.93421140430953E-03|4.08552436878246E-03|2.64377832230051E-03|3.45963311541886E-03|3.15501167464755E-03|2.26506724373276E-03|3.01421039063599E-03|2.76013694073117E-03|2.65510572736076E-03|2.1793132815226E-03|0|2.45449571217343E-03|2.33683395475471E-03|2.88048242014582E-03|2.14414797099413E-03|2.28184213991045E-03|2.8447175016201E-03|3.10224855761073E-03|2.68351525566829E-03|2.86495000388361E-03||||
||||2.47797670003083E-03|2.59594374571383E-03|3.31480364530761E-03|2.69894635204271E-03|3.68122885440174E-03|2.8570369409882E-03|2.5009367984156E-05|3.47956935914411E-03|3.34990248034761E-03|3.40078351295696E-03|3.62382176852511E-04|3.48854220634068E-03|1.5971180690322E-03|1.91248536631856E-03|2.67928570429788E-03|2.04204638331619E-03|3.59833028717437E-03|3.72623318637842E-05|3.53505685899206E-03|6.26492800166151E-05||||
||||2.33881802337044E-03|2.74838935588174E-03|2.67025541133886E-03|2.27518252546187E-04|0|3.17336918340433E-03|2.63917894598263E-03|3.29481964984643E-03|4.62653171179813E-03|2.41968216714037E-03|2.46543456853366E-03|3.48236021744372E-03|2.73285500081423E-03|9.32539362371133E-05|1.36851870532652E-04|2.14487150024231E-03|3.31434668231383E-03|2.5191071237431E-03|3.10807102579109E-03|2.02667854912011E-03||||
||||2.34138557933665E-03|2.65421373843584E-03|2.16855385337043E-03|2.50265430077694E-03|2.63096641123884E-03|3.24971333368149E-03|3.70450908719275E-03|0.003255643602466|1.99646631921023E-03|2.63003697480885E-03|3.03029466315951E-03|3.46247045094958E-03|2.84709593535174E-03|2.55166100418002E-03|3.08871439180571E-03|3.60146969765926E-03|0|2.26429723725347E-03|3.37975712834619E-03|2.50385157796614E-03||||
||||2.23047766533357E-03|2.48056940636983E-03|3.49435824790077E-03|2.87756376298468E-03|2.78917770812512E-03|2.84643694278673E-03|2.31186009547034E-03|4.27073297987922E-03|4.01430175880061E-03|2.35566908906312E-03|4.12088201485562E-03|3.87559943492966E-03|2.52753780870487E-03|3.00308628965178E-05|3.67253287769041E-03|2.66272962263863E-03|3.13634760312166E-03|3.07811051599365E-03|2.13614455674228E-03|5.68343825896721E-03||||
||||8.84670119036847E-03|3.25534928273304E-03|3.42600006262776E-03|0|7.96294190756459E-05|2.91707479091327E-03|4.36084556682614E-03|3.63830088120254E-03|3.46939081523665E-03|3.56604491179714E-03|2.51969188559842E-03|4.41105857714446E-03|2.90174373992179E-03|1.48309528471266E-03|5.89844922441554E-05|4.05376503499327E-03|0.002382468251313|2.59586951500415E-03|3.69087166269464E-03|3.30130177489225E-03||||
||||3.26904221418829E-03|3.11377345033111E-03|3.31496113645302E-03|2.92832862956431E-03|4.0966962215026E-03|3.41903903752547E-03|2.69676219266108E-05|4.48855419168019E-03|3.00102089940565E-03|2.65845038072699E-03|3.62820559773079E-03|2.76754783790651E-03|3.40232158711023E-03|8.80140253865882E-04|2.51535325911903E-03|2.14426867893493E-05|2.96659590307258E-03|3.53102224627213E-03|1.54420649057601E-05|3.32830036360756E-03||||
||||3.7639912032459E-05|1.66351539725699E-04|4.0703153002366E-05|3.06601631776425E-05|4.52098996728209E-03|2.20719870704739E-05|5.61174644295542E-05|0|2.74493368860123E-03|5.024270260219E-05|1.48853114299831E-04|3.58388413418708E-03|1.02900821430765E-03|2.54330194682216E-03|4.31151939331731E-03|3.7508978797879E-03|2.5362240913897E-03|1.38027210659186E-04|2.27326493233462E-03|6.54608008740723E-05||||
||||3.9248339284811E-05|4.63157514377316E-03|2.77227822639603E-05|1.10498702745229E-06|1.10498702745229E-06|1.10498702745229E-06|3.87826570767787E-04|0|5.49043662861535E-04|6.8037447586753E-04|4.67315283645272E-05|2.08411399867967E-06|5.88436386664968E-03|2.0459299856071E-04|9.7912697122737E-07|0|2.20997405490459E-06|5.15349950997859E-04|7.42405424134354E-04|6.73770368376087E-04||||
||||0|0|0|0|0|0|0|0|0|0|0|0|0|5.23392087259619E-04|2.59912703032406E-04|0|0|0|0|0||||
