||||M|N|I|L|A|F|Q|G|D|K|T|W|R|S|C|V|P|H|E|Y||||
Pos|WT_AA|WT_codon|Total_count|ATG|AAC|ATC|CTG|GCT|TTC|CAG|GGT|GAT|AAG|ACC|TGG|AGA|AGC|TGC|GTG|CCT|CAC|GAG|TAC|AAcons|AAdel|AAnons|AAother
31|L|TTG|510659|3.38190455861935E-03|1.82900918225273E-03|3.35057249554007E-03|2.7219729800121E-04|2.91779837425757E-03|3.75984756951311E-03|2.73176424972437E-03|4.9680902520077E-03|2.99221202407085E-03|3.39952884410144E-03|3.0117945634954E-03|4.6821851764093E-03|3.74418153797348E-03|1.79767711917346E-03|2.32444742969378E-03|2.48698250691753E-03|3.29965789303625E-03|3.10970726061814E-03|2.39886107950706E-03|3.24482678264752E-03|0.933427198972308|3.91650788490949E-05|6.82843149733971E-03|0
32|D|GAT|510659|1.07703966835011E-04|2.24220076411068E-03|4.69980946189139E-05|1.54114585271188E-03|2.45760869778071E-03|1.93475489514529E-03|1.88971505446883E-03|2.96283821493403E-03|0|2.69847393270264E-03|1.72717997724508E-03|2.60251948952236E-03|9.59544431802827E-05|3.38777932044671E-03|1.75459553243945E-03|1.97196172005193E-03|3.41715312958353E-03|2.27549108113241E-03|4.88388533248214E-03|2.18345314583704E-03|0.955312645033182|3.91650788490949E-05|4.46481898879682E-03|0
33|S|TCT|510659|2.76897107463101E-03|2.11295600390867E-03|3.32903170217307E-05|2.74155551943664E-05|2.15212108275776E-03|1.78788584946118E-03|1.64101680377708E-03|2.11687251179358E-03|2.40081933344952E-03|1.31007188750222E-03|2.34598822306079E-03|1.17495236547284E-03|2.42040187287407E-03|3.91650788490949E-06|1.99546076736139E-03|2.09924822631149E-03|2.01504330678593E-03|2.11099774996622E-03|2.62993504471672E-03|1.40798458462496E-03|0.960547057821364|3.91650788490949E-05|4.85646977728777E-03|0
34|G|GGA|510659|1.93083838726038E-03|1.63514204194971E-03|2.20303568526159E-03|3.24091027476261E-03|2.46152520566562E-03|2.40473584133443E-03|2.34794647700324E-03|2.2715745732475E-04|2.81792742319238E-03|1.64493331166198E-03|1.70368092993563E-03|2.29311536661451E-03|2.15016282881531E-03|1.46085744107124E-03|1.37665252154568E-03|4.2063294683928E-03|2.2284929865135E-03|2.15995409852758E-03|2.0639996553473E-03|2.04441711592275E-03|0.944675409617768|3.91650788490949E-05|1.26816525313369E-02|0
35|I|ATC|510659|3.20957821168333E-03|2.83750996261693E-03|0|3.12537329215778E-03|4.16324788165879E-03|4.09666724761533E-03|2.42627663470143E-03|3.56793868315255E-03|7.04971419283709E-05|2.43410965047125E-03|3.17041313283423E-03|3.29182487726643E-03|1.37273601366077E-03|2.3107396520966E-03|3.13124805398514E-03|4.36690629167409E-03|3.71872423672156E-03|3.41127836775617E-03|2.77092932857347E-03|2.68084964722055E-03|0.940621823956887|3.91650788490949E-05|3.18020440254651E-03|0
36|H|CAT|510659|3.91650788490949E-05|2.04637536986521E-03|4.11233327915497E-05|2.23828425622577E-03|3.53464836613082E-03|2.20303568526159E-03|4.03008661357187E-03|2.81792742319238E-03|3.79117963259239E-03|2.36165425460042E-03|2.56531266461572E-03|2.76701282068856E-03|2.80226139165274E-03|3.19391218014369E-03|3.64235233296583E-03|2.80617789953765E-03|3.73830677614611E-03|2.74155551943665E-04|4.53335787678274E-03|2.32444742969378E-03|0.94374328074116|3.91650788490949E-05|4.46481898879682E-03|0
37|S|TCT|510659|2.66910012356582E-03|2.30486489026924E-03|4.11233327915497E-05|4.30815867340044E-05|2.54181361730626E-03|2.14820457487286E-03|3.00004503984067E-03|2.11099774996622E-03|3.47198423997227E-03|3.44065217689299E-03|2.69064091693282E-03|2.94325567550948E-03|3.37798805073444E-03|9.59544431802827E-05|3.3192404324608E-03|2.85121774021411E-03|2.45565044383825E-03|3.99092153472278E-03|3.40932011381371E-03|2.89429932694812E-03|0.944616661999494|4.11233327915497E-05|5.53990040320448E-03|0
38|G|GGT|510659|3.81859518778676E-03|2.00525203707366E-03|3.09012472119359E-03|3.26049281418715E-03|3.09991599090586E-03|3.75005629980084E-03|4.1240828028097E-03|0|2.86688377175375E-03|3.37407154284953E-03|2.60251948952236E-03|4.70960073160367E-03|2.44977568201089E-03|3.38582106650426E-03|3.4230278914109E-03|2.4360679044137E-03|2.55160488701853E-03|3.06858392782659E-03|4.29445089580326E-03|4.21220423022016E-03|0.927350736988871|4.11233327915497E-05|1.00830495496995E-02|0
39|A|GCC|510659|4.38453057715618E-03|0.004392363592926|3.14299757763987E-03|4.5999385108262E-03|8.51840464967816E-04|2.96479646887649E-03|4.84472025363305E-03|4.29836740368817E-03|3.86167677452076E-03|3.03137710291995E-03|3.91063312308213E-03|4.37278105350145E-03|4.63322882784793E-03|3.67955915787247E-03|3.58556296863464E-03|4.24157803935698E-03|3.94392344010386E-03|3.97329724924068E-03|3.34665598765516E-03|3.69718344335456E-03|0.914112940337877|4.11233327915497E-05|1.00869660575844E-02|0
40|T|ACC|510659|2.85513424809902E-03|4.41782089417791E-03|5.52815087954975E-03|3.88321756788776E-03|3.52289884247609E-03|3.59339598440446E-03|3.62472804748374E-03|4.9896310453747E-03|4.0418361372266E-03|4.10645851732761E-03|0|3.86167677452076E-03|4.40607137052318E-03|2.26374155747769E-03|3.75005629980084E-03|4.1887051829107E-03|2.85317599415657E-03|3.54052312795818E-03|4.16128962771634E-03|3.94000693221895E-03|0.920277523748724|4.11233327915497E-05|6.15087563325036E-03|0
41|T|ACC|510659|1.79767711917346E-03|4.12016629492479E-03|2.70630694847246E-03|3.56010566738273E-03|2.86688377175375E-03|2.04833362380766E-03|3.47590074785718E-03|2.64951758414127E-03|2.53006409365153E-03|2.16191235247004E-03|0|2.05812489351994E-03|1.92888013331792E-03|2.63385155260163E-03|2.03854235409539E-03|2.38906980979479E-03|2.65735059991109E-03|3.70501645912438E-03|2.65539234596864E-03|3.2193694813956E-03|0.943208677414869|4.11233327915497E-05|5.54577516503185E-03|0
42|T|ACA|510659|2.89625758089057E-03|2.83163520078956E-03|3.06270916599922E-03|2.91388186637266E-03|4.42761216389018E-03|2.39690282556461E-03|2.34990473094569E-05|3.9204243927944E-03|3.46219297025999E-03|3.11754027638796E-03|1.8995063241811E-04|3.36819678102216E-03|1.6096847406978E-03|1.48239823443824E-03|2.22261822468614E-03|1.30615537961731E-03|3.58556296863464E-03|3.91650788490949E-05|2.83359345473202E-03|5.67893643311877E-05|0.94999794383336|4.11233327915497E-05|4.21220423022016E-03|0
43|A|GCT|510659|1.76047029426682E-03|2.78072059828574E-03|2.65539234596864E-03|2.25199203382296E-04|0|3.37211328890707E-03|2.89821583483302E-03|3.35644725736744E-03|5.02096310845397E-03|2.10120648025394E-03|2.12862203544831E-03|3.39561233621653E-03|3.21153646562578E-03|1.13578728662375E-04|1.05745712892556E-04|1.7350129930149E-03|3.43086090718072E-03|2.42823488864388E-03|2.89234107300566E-03|1.6312255340648E-03|0.94900902559242|4.11233327915497E-05|5.70439373437068E-03|0
44|P|CCT|510659|2.39102806373724E-03|2.78463710617065E-03|1.8995063241811E-03|2.11687251179358E-03|2.73372250366683E-03|3.54248138190064E-03|3.75593106162821E-03|3.51898233459118E-03|1.63710029589217E-03|2.23240949439841E-03|3.39757059015899E-03|3.39561233621653E-03|2.70630694847246E-03|2.88450805723584E-03|3.02158583320767E-03|4.08687597790306E-03|0|1.99154425947648E-03|2.8257604389622E-03|1.66843235897144E-03|0.935636109419397|4.11233327915497E-05|1.17299411153039E-02|0
45|S|TCC|510659|2.10512298813885E-03|2.1854113997795E-03|4.27486835637871E-03|3.00591980166804E-03|2.91975662820003E-03|2.5790204422129E-03|2.50656504634207E-03|4.47069375062419E-03|4.12799931069461E-03|2.59860298163745E-03|3.96546423347086E-03|4.80751342872641E-03|2.14232981304549E-03|3.13320630792759E-05|3.63451931719601E-03|2.6005612355799E-03|0.003569896937095|2.89429932694812E-03|1.81921791254046E-03|5.61431405301776E-03|0.932224831051641|4.11233327915497E-05|5.87867833524915E-03|0
46|L|CTG|510659|8.38720163553369E-03|3.47198423997227E-03|2.93150615185476E-03|0|3.32903170217307E-05|2.7865953601131E-03|3.92825740856422E-03|4.32186645099763E-03|3.13320630792759E-03|3.34861424159762E-03|2.21282695497386E-03|3.85188550480849E-03|2.69847393270264E-03|1.66451585108653E-03|4.50398406764592E-05|4.56273168591956E-03|2.57706218827045E-03|2.48894076085998E-03|3.76180582345557E-03|3.84013598115376E-03|0.931559024711206|4.11233327915497E-05|8.3519530645695E-03|0
47|S|AGT|510659|3.43086090718072E-03|2.54573012519117E-03|3.35253074948253E-03|3.43673566900808E-03|3.80880391807448E-03|3.29769963909379E-03|2.74155551943664E-05|4.38257232321373E-03|3.50919106487891E-03|2.66714186962336E-03|3.48177550968454E-03|2.46544171355053E-03|3.07641694359641E-03|8.85130781989546E-04|2.00525203707366E-03|2.74155551943664E-05|3.30553265486361E-03|3.44652693872035E-03|1.76242854820927E-05|2.9902537701284E-03|0.94482032040951|4.11233327915497E-05|2.97654599253121E-03|0
48|G|GGT|510659|3.32903170217307E-05|1.62535077223744E-04|3.72068249066402E-05|2.15407933670022E-05|5.45961199156384E-03|1.76242854820927E-05|7.24553958708257E-05|0|2.71413996424228E-03|6.07058722160972E-05|1.25328252317103E-04|3.79313788653485E-03|1.07899792229256E-03|2.18932790766441E-03|4.45502771908455E-03|3.22328598928051E-03|2.16191235247004E-03|1.39036029914287E-04|2.14428806698795E-03|6.46223801010067E-05|0.963180909373965|4.11233327915497E-05|8.82193401075864E-03|0
49|K|AAA|510659|2.54573012519117E-05|4.54706565437992E-03|1.56660315396379E-05|0|0|0|3.27028408389943E-04|0|3.97525550318314E-04|8.12675386118721E-04|2.93738091368212E-05|1.95825394245474E-06|4.48244327427892E-03|2.03658410015293E-04|1.95825394245474E-06|0|0|5.09146025038234E-04|6.38390785240248E-04|6.40349039182703E-04|0.984825490199918|4.11233327915497E-05|2.49873203057226E-03|0
50|G|GGC|510659|0|0|0|0|0|0|0|0|0|0|0|0|0|4.69980946189139E-04|2.36948727037024E-04|0|0|0|0|0|0.999202990645421|4.11233327915497E-05|4.69980946189139E-05|0
