 101398 TAT
 115749 TGT
  11795 CCA
  12422 AAA
  12979 TTG
  13652 CGG
  14353 TAG
  15419 GAA
  15782 CTC
  15826 ATT
  16799 CGT
  18814 AGT
  20561 AGG
  22425 TCG
  22643 CCG
  25456 ACG
  28435 GGA
  31534 GCG
  36679 GTT
  37295 GCA
  41506 ATA
   4259 CGA
  45733 GTA
  45751 GTC
  48044 TCT
  52092 GGG
  52378 TCA
  52496 GAC
  54295 TTT
   5490 TTA
   5524 TAA
  57408 AAT
  59257 GCC
  60054 CAT
  60732 CTT
  66322 TGA
  66684 ACA
  70418 GGC
  73414 ACT
   7382 CAA
   8565 CTA
   8641 CGC
  88566 CCC
  88934 TCC
