[{
  "data_format": "MAF", 
  "cases": [
    {
      "case_id": "373c15fd-f995-419d-beef-951db2706411", 
      "project": {
        "project_id": "HCMI-CMDC"
      }
    }
  ], 
  "access": "controlled", 
  "file_name": "a069cc02-ca74-4dc3-96ae-e223abaf9f84.wxs.MuTect2.aliquot.maf.gz", 
  "data_category": "Simple Nucleotide Variation", 
  "file_size": 2320437
},{
  "data_format": "MAF", 
  "cases": [
    {
      "case_id": "211bc56d-ce9d-43ab-add5-850b13c35f50", 
      "project": {
        "project_id": "CPTAC-3"
      }
    }
  ], 
  "access": "controlled", 
  "file_name": "1d83f8c3-6999-49a4-b619-a21455170075.wxs.MuTect2.aliquot.maf.gz", 
  "data_category": "Simple Nucleotide Variation", 
  "file_size": 7750899
},{
  "data_format": "MAF", 
  "cases": [
    {
      "case_id": "6505022e-f2c9-4aa9-9904-27adcfe63f74", 
      "project": {
        "project_id": "CPTAC-3"
      }
    }
  ], 
  "access": "controlled", 
  "file_name": "c37e605b-9b8f-4c31-9316-751a697e66de.wxs.MuTect2.aliquot.maf.gz", 
  "data_category": "Simple Nucleotide Variation", 
  "file_size": 8924594
},{
  "data_format": "MAF", 
  "cases": [
    {
      "case_id": "e81835c9-4a39-4a60-b3e2-7184409ef91c", 
      "project": {
        "project_id": "CPTAC-3"
      }
    }
  ], 
  "access": "controlled", 
  "file_name": "d80a17c6-00fd-4865-8891-1f45504d1165.wxs.MuTect2.aliquot.maf.gz", 
  "data_category": "Simple Nucleotide Variation", 
  "file_size": 6242911
},{
  "data_format": "MAF", 
  "cases": [
    {
      "case_id": "dc0c495f-9f70-4931-8652-77a260f7b052", 
      "project": {
        "project_id": "CPTAC-3"
      }
    }
  ], 
  "access": "controlled", 
  "file_name": "3b0a90a0-7745-409d-bb3a-f801f9cfc9ac.wxs.MuTect2.aliquot.maf.gz", 
  "data_category": "Simple Nucleotide Variation", 
  "file_size": 5981731
},{
  "data_format": "MAF", 
  "cases": [
    {
      "case_id": "5b767817-54ae-459f-b1cf-837e09025e99", 
      "project": {
        "project_id": "CPTAC-3"
      }
    }
  ], 
  "access": "controlled", 
  "file_name": "ae297db6-f013-4d10-a82a-e050f17d9daa.wxs.MuTect2.aliquot.maf.gz", 
  "data_category": "Simple Nucleotide Variation", 
  "file_size": 8629721
},{
  "data_format": "MAF", 
  "cases": [
    {
      "case_id": "c94de5fb-4fcf-46f0-a4f1-41a88f557770", 
      "project": {
        "project_id": "CPTAC-3"
      }
    }
  ], 
  "access": "controlled", 
  "file_name": "c9d8f507-6ee5-495d-8123-d5c4922f1af0.wxs.MuTect2.aliquot.maf.gz", 
  "data_category": "Simple Nucleotide Variation", 
  "file_size": 7149772
},{
  "data_format": "MAF", 
  "cases": [
    {
      "case_id": "417c1659-201c-4d1d-99bf-c28c986c559d", 
      "project": {
        "project_id": "CPTAC-3"
      }
    }
  ], 
  "access": "controlled", 
  "file_name": "f7eaedcd-785b-465d-bc9b-eaf11f8d5d05.wxs.MuTect2.aliquot.maf.gz", 
  "data_category": "Simple Nucleotide Variation", 
  "file_size": 4062568
},{
  "data_format": "MAF", 
  "cases": [
    {
      "case_id": "4ee85d91-504d-4389-ab5a-e37b2cebdbcf", 
      "project": {
        "project_id": "CPTAC-3"
      }
    }
  ], 
  "access": "controlled", 
  "file_name": "7deb4689-0120-4b2c-a709-bc65f92d67d7.wxs.MuTect2.aliquot.maf.gz", 
  "data_category": "Simple Nucleotide Variation", 
  "annotations": [
    {
      "annotation_id": "08a2d88a-1414-4707-af30-5ca23a49af24"
    }, 
    {
      "annotation_id": "8cfdc4ea-d3eb-40d2-a0d9-a118d304a960"
    }, 
    {
      "annotation_id": "7e3da93c-928e-4214-a583-fe202e8a9bb2"
    }, 
    {
      "annotation_id": "805a822a-52ea-49c4-adb5-5d02cde115ce"
    }
  ], 
  "file_size": 6934855
},{
  "data_format": "MAF", 
  "cases": [
    {
      "case_id": "f3315152-5d90-42db-80c9-6814eced11e4", 
      "project": {
        "project_id": "CPTAC-3"
      }
    }
  ], 
  "access": "controlled", 
  "file_name": "0e15eeb4-0458-4694-9d34-653b74c68d6f.wxs.MuTect2.aliquot.maf.gz", 
  "data_category": "Simple Nucleotide Variation", 
  "file_size": 13432511
},{
  "data_format": "MAF", 
  "cases": [
    {
      "case_id": "aba43d9a-4044-44ce-8e33-37ea62f64cb9", 
      "project": {
        "project_id": "CPTAC-3"
      }
    }
  ], 
  "access": "controlled", 
  "file_name": "6202bdd7-b8c5-4b7a-b660-82e0d642d3ce.wxs.MuTect2.aliquot.maf.gz", 
  "data_category": "Simple Nucleotide Variation", 
  "file_size": 1967989
},{
  "data_format": "MAF", 
  "cases": [
    {
      "case_id": "074c8f3c-b4aa-4c10-ba83-2a874f88c478", 
      "project": {
        "project_id": "CPTAC-3"
      }
    }
  ], 
  "access": "controlled", 
  "file_name": "26e3fa9a-88d7-41c3-9b46-a6531291101e.wxs.MuTect2.aliquot.maf.gz", 
  "data_category": "Simple Nucleotide Variation", 
  "file_size": 6960162
},{
  "data_format": "MAF", 
  "cases": [
    {
      "case_id": "763e0702-8379-4b5e-95d1-a84f412c51e7", 
      "project": {
        "project_id": "CPTAC-3"
      }
    }
  ], 
  "access": "controlled", 
  "file_name": "91bed0ef-db36-4169-ad24-435a1b3df45a.wxs.MuTect2.aliquot.maf.gz", 
  "data_category": "Simple Nucleotide Variation", 
  "file_size": 8810206
},{
  "data_format": "MAF", 
  "cases": [
    {
      "case_id": "763e0702-8379-4b5e-95d1-a84f412c51e7", 
      "project": {
        "project_id": "CPTAC-3"
      }
    }
  ], 
  "access": "controlled", 
  "file_name": "594ffe8c-8482-4249-ba1b-43ac4dd1806c.wxs.MuTect2.aliquot.maf.gz", 
  "data_category": "Simple Nucleotide Variation", 
  "annotations": [
    {
      "annotation_id": "49981e05-f0fd-408b-931d-47b7e31029fb"
    }
  ], 
  "file_size": 2970116
},{
  "data_format": "MAF", 
  "cases": [
    {
      "case_id": "591733c5-3190-493a-8e56-b7e471473e22", 
      "project": {
        "project_id": "CPTAC-3"
      }
    }
  ], 
  "access": "controlled", 
  "file_name": "8d24f23a-44cc-48a3-b619-25fe0de47d48.wxs.MuTect2.aliquot.maf.gz", 
  "data_category": "Simple Nucleotide Variation", 
  "file_size": 6459151
},{
  "data_format": "MAF", 
  "cases": [
    {
      "case_id": "908255a2-a118-4055-987a-2b5d84c13f8c", 
      "project": {
        "project_id": "CPTAC-3"
      }
    }
  ], 
  "access": "controlled", 
  "file_name": "cc0fc708-72e4-4555-912f-7ffd7825a3c5.wxs.MuTect2.aliquot.maf.gz", 
  "data_category": "Simple Nucleotide Variation", 
  "file_size": 5557914
},{
  "data_format": "MAF", 
  "cases": [
    {
      "case_id": "739e221f-cc31-45b8-a440-0a0ed44fd15f", 
      "project": {
        "project_id": "CPTAC-3"
      }
    }
  ], 
  "access": "controlled", 
  "file_name": "259cdf1b-d160-4831-919c-8255c91d60dc.wxs.MuTect2.aliquot.maf.gz", 
  "data_category": "Simple Nucleotide Variation", 
  "file_size": 7369766
},{
  "data_format": "MAF", 
  "cases": [
    {
      "case_id": "4e43ac55-304c-45f8-96e7-d9eb4394cd42", 
      "project": {
        "project_id": "CPTAC-3"
      }
    }
  ], 
  "access": "controlled", 
  "file_name": "11a48363-9eff-468b-8905-319c24071a30.wxs.MuTect2.aliquot.maf.gz", 
  "data_category": "Simple Nucleotide Variation", 
  "file_size": 8085943
},{
  "data_format": "MAF", 
  "cases": [
    {
      "case_id": "5705efcc-b48f-435c-8a28-9e0d407ecadd", 
      "project": {
        "project_id": "CPTAC-3"
      }
    }
  ], 
  "access": "controlled", 
  "file_name": "8c27dcc5-8b46-4e7a-806a-c47865d9f2df.wxs.MuTect2.aliquot.maf.gz", 
  "data_category": "Simple Nucleotide Variation", 
  "file_size": 6716400
},{
  "data_format": "MAF", 
  "cases": [
    {
      "case_id": "09d22163-9473-4cea-afe3-fa6c891bc2b2", 
      "project": {
        "project_id": "CPTAC-3"
      }
    }
  ], 
  "access": "controlled", 
  "file_name": "c100a8a5-11e2-4d6d-9c1b-3e8018769238.wxs.MuTect2.aliquot.maf.gz", 
  "data_category": "Simple Nucleotide Variation", 
  "file_size": 6463961
},{
  "data_format": "MAF", 
  "cases": [
    {
      "case_id": "58447c8d-2e24-4f06-b477-c8a5785ed852", 
      "project": {
        "project_id": "CPTAC-3"
      }
    }
  ], 
  "access": "controlled", 
  "file_name": "813743a4-23b2-41ce-b241-76530f4057af.wxs.MuTect2.aliquot.maf.gz", 
  "data_category": "Simple Nucleotide Variation", 
  "file_size": 2440440
},{
  "data_format": "MAF", 
  "cases": [
    {
      "case_id": "ffef8d1d-f99d-4cc0-9f49-46488bfca131", 
      "project": {
        "project_id": "CPTAC-3"
      }
    }
  ], 
  "access": "controlled", 
  "file_name": "56521b00-3a3c-4ad6-b941-5af1dd2505f1.wxs.MuTect2.aliquot.maf.gz", 
  "data_category": "Simple Nucleotide Variation", 
  "file_size": 24449117
},{
  "data_format": "MAF", 
  "cases": [
    {
      "case_id": "81be5e86-3ff1-461a-83c1-648a4b35266d", 
      "project": {
        "project_id": "MMRF-COMMPASS"
      }
    }
  ], 
  "access": "controlled", 
  "file_name": "5ac4c43d-a27d-43b3-9350-aaa42e45b3f0.wxs.MuTect2.aliquot.maf.gz", 
  "data_category": "Simple Nucleotide Variation", 
  "file_size": 3058806
},{
  "data_format": "MAF", 
  "cases": [
    {
      "case_id": "a190d773-d2af-499c-b72a-e73719272c8e", 
      "project": {
        "project_id": "MMRF-COMMPASS"
      }
    }
  ], 
  "access": "controlled", 
  "file_name": "792278bf-44fb-422d-a1b3-3ce816d16e4b.wxs.MuTect2.aliquot.maf.gz", 
  "data_category": "Simple Nucleotide Variation", 
  "file_size": 4345139
},{
  "data_format": "MAF", 
  "cases": [
    {
      "case_id": "8a17eb7d-a11e-4983-b069-0e4b5f02c38d", 
      "project": {
        "project_id": "MMRF-COMMPASS"
      }
    }
  ], 
  "access": "controlled", 
  "file_name": "7da82ac1-6322-40a8-a020-532588d40d98.wxs.MuTect2.aliquot.maf.gz", 
  "data_category": "Simple Nucleotide Variation", 
  "file_size": 4576945
},{
  "data_format": "MAF", 
  "cases": [
    {
      "case_id": "55f38380-cd5f-4979-8280-e5aeae77dee1", 
      "project": {
        "project_id": "MMRF-COMMPASS"
      }
    }
  ], 
  "access": "controlled", 
  "file_name": "0d257732-8b05-47ef-8a5a-e6bcc738cb5b.wxs.MuTect2.aliquot.maf.gz", 
  "data_category": "Simple Nucleotide Variation", 
  "file_size": 3959583
},{
  "data_format": "MAF", 
  "cases": [
    {
      "case_id": "739d4e3c-536a-4760-8f57-1aef50ba3f09", 
      "project": {
        "project_id": "MMRF-COMMPASS"
      }
    }
  ], 
  "access": "controlled", 
  "file_name": "b0c5a646-c407-4355-a6d4-dee9963f5fb4.wxs.MuTect2.aliquot.maf.gz", 
  "data_category": "Simple Nucleotide Variation", 
  "file_size": 1457301
},{
  "data_format": "MAF", 
  "cases": [
    {
      "case_id": "c2e875d2-1832-4f94-b8d8-9c0fab711ef0", 
      "project": {
        "project_id": "CGCI-HTMCP-CC"
      }
    }
  ], 
  "access": "controlled", 
  "file_name": "a0d961f0-e268-415b-b3f0-0df5bb261c58.targeted_sequencing.MuTect2.aliquot.maf.gz", 
  "data_category": "Simple Nucleotide Variation", 
  "file_size": 1778175
},{
  "data_format": "MAF", 
  "cases": [
    {
      "case_id": "0a462ace-d6d4-4859-a152-ad978f69a9e8", 
      "project": {
        "project_id": "CGCI-HTMCP-CC"
      }
    }
  ], 
  "access": "controlled", 
  "file_name": "66be6ca8-9110-4a0c-a771-d38b5a975260.targeted_sequencing.MuTect2.aliquot.maf.gz", 
  "data_category": "Simple Nucleotide Variation", 
  "file_size": 1135495
},{
  "data_format": "MAF", 
  "cases": [
    {
      "case_id": "d8e4e548-b2fb-4d79-9cc0-566e70e629e7", 
      "project": {
        "project_id": "CPTAC-2"
      }
    }
  ], 
  "access": "controlled", 
  "file_name": "d308d494-bf16-4563-9beb-257b81db4e8f.wxs.MuTect2.aliquot.maf.gz", 
  "data_category": "Simple Nucleotide Variation", 
  "file_size": 12798867
},{
  "data_format": "MAF", 
  "cases": [
    {
      "case_id": "7a7e3e40-e6d8-4367-bc91-976273fc8b9e", 
      "project": {
        "project_id": "CPTAC-2"
      }
    }
  ], 
  "access": "controlled", 
  "file_name": "a74faef2-9f41-4ee0-89f0-cd4f4b0d795f.wxs.MuTect2.aliquot.maf.gz", 
  "data_category": "Simple Nucleotide Variation", 
  "file_size": 11505425
},{
  "data_format": "MAF", 
  "cases": [
    {
      "case_id": "c71b52c9-0fb0-57df-9257-d033521c23f0", 
      "project": {
        "project_id": "TARGET-WT"
      }
    }
  ], 
  "access": "controlled", 
  "file_name": "965629bd-d60c-4c64-8ea5-a65e38699455.wxs.MuTect2.aliquot.maf.gz", 
  "data_category": "Simple Nucleotide Variation", 
  "file_size": 1542411
},{
  "data_format": "MAF", 
  "cases": [
    {
      "case_id": "f14bae4c-bbfa-476a-aaf7-955c02715bdc", 
      "project": {
        "project_id": "CPTAC-2"
      }
    }
  ], 
  "access": "controlled", 
  "file_name": "50555455-2348-4927-ac55-e2449800cecc.wxs.MuTect2.aliquot.maf.gz", 
  "data_category": "Simple Nucleotide Variation", 
  "file_size": 5784731
},{
  "data_format": "MAF", 
  "cases": [
    {
      "case_id": "e965a8fa-a257-4fd7-8bbb-a0f134c0c7d3", 
      "project": {
        "project_id": "CPTAC-2"
      }
    }
  ], 
  "access": "controlled", 
  "file_name": "46ea96ed-1f68-40a6-95db-61ce42fbcd67.wxs.MuTect2.aliquot.maf.gz", 
  "data_category": "Simple Nucleotide Variation", 
  "file_size": 12703799
},{
  "data_format": "MAF", 
  "cases": [
    {
      "case_id": "7bb1ffc6-785f-4d78-9832-6bc54c6325a0", 
      "project": {
        "project_id": "CPTAC-2"
      }
    }
  ], 
  "access": "controlled", 
  "file_name": "03ba0297-879c-4ec1-87c7-3c8dcb311da2.wxs.MuTect2.aliquot.maf.gz", 
  "data_category": "Simple Nucleotide Variation", 
  "file_size": 4412477
},{
  "data_format": "MAF", 
  "cases": [
    {
      "case_id": "f60b31e6-dc47-44e0-8d49-42170430b2d8", 
      "project": {
        "project_id": "CPTAC-2"
      }
    }
  ], 
  "access": "controlled", 
  "file_name": "c75cf65f-efe7-4333-b4c2-758486d5a89d.wxs.MuTect2.aliquot.maf.gz", 
  "data_category": "Simple Nucleotide Variation", 
  "file_size": 17921478
},{
  "data_format": "MAF", 
  "cases": [
    {
      "case_id": "57ba7281-a126-4b47-82fa-c59e4135421d", 
      "project": {
        "project_id": "CPTAC-2"
      }
    }
  ], 
  "access": "controlled", 
  "file_name": "45d0ff40-d305-4188-8159-eff612d5bb58.wxs.MuTect2.aliquot.maf.gz", 
  "data_category": "Simple Nucleotide Variation", 
  "file_size": 11786699
},{
  "data_format": "MAF", 
  "cases": [
    {
      "case_id": "b72a4172-f197-4261-a48e-6b013cb6fe3a", 
      "project": {
        "project_id": "CPTAC-2"
      }
    }
  ], 
  "access": "controlled", 
  "file_name": "7e2dcb26-2187-4afb-87f3-0d4df50ea15f.wxs.MuTect2.aliquot.maf.gz", 
  "data_category": "Simple Nucleotide Variation", 
  "file_size": 7197661
},{
  "data_format": "MAF", 
  "cases": [
    {
      "case_id": "2cdf166f-eaf4-4347-ad5e-aca8c2ffb394", 
      "project": {
        "project_id": "CPTAC-2"
      }
    }
  ], 
  "access": "controlled", 
  "file_name": "e47f8f65-497b-4936-811d-23eb54299021.wxs.MuTect2.aliquot.maf.gz", 
  "data_category": "Simple Nucleotide Variation", 
  "file_size": 7107272
},{
  "data_format": "MAF", 
  "cases": [
    {
      "case_id": "60f872b3-79e2-4628-959d-aa45f47f4c00", 
      "project": {
        "project_id": "CPTAC-2"
      }
    }
  ], 
  "access": "controlled", 
  "file_name": "95127ed5-4e06-4a63-890d-423a72fb0afe.wxs.MuTect2.aliquot.maf.gz", 
  "data_category": "Simple Nucleotide Variation", 
  "file_size": 6073454
},{
  "data_format": "MAF", 
  "cases": [
    {
      "case_id": "a7deae0d-38d2-46e4-a90b-f79f57fd2808", 
      "project": {
        "project_id": "CPTAC-2"
      }
    }
  ], 
  "access": "controlled", 
  "file_name": "c1dc33d8-1291-4bf3-b141-b7ae6e134d4f.wxs.MuTect2.aliquot.maf.gz", 
  "data_category": "Simple Nucleotide Variation", 
  "file_size": 3736757
},{
  "data_format": "MAF", 
  "cases": [
    {
      "case_id": "6ce866aa-fc04-4353-b598-0ab5b65c968a", 
      "project": {
        "project_id": "CPTAC-2"
      }
    }
  ], 
  "access": "controlled", 
  "file_name": "02cd78dd-90cc-4e16-bce9-6b585dafce6e.wxs.MuTect2.aliquot.maf.gz", 
  "data_category": "Simple Nucleotide Variation", 
  "file_size": 7407483
},{
  "data_format": "MAF", 
  "cases": [
    {
      "case_id": "2b1894fb-b168-42ca-942f-a5def0bb8309", 
      "project": {
        "project_id": "CPTAC-3"
      }
    }
  ], 
  "access": "controlled", 
  "file_name": "cb5fb30d-1d22-417b-920d-bb85acb539ad.wxs.MuTect2.aliquot.maf.gz", 
  "data_category": "Simple Nucleotide Variation", 
  "file_size": 5781299
},{
  "data_format": "MAF", 
  "cases": [
    {
      "case_id": "84badbae-4a2b-41bc-a616-b085ac9e6fde", 
      "project": {
        "project_id": "CPTAC-3"
      }
    }
  ], 
  "access": "controlled", 
  "file_name": "e96fda10-03cd-46fc-93b8-54c5ab2ef641.wxs.MuTect2.aliquot.maf.gz", 
  "data_category": "Simple Nucleotide Variation", 
  "file_size": 8250615
},{
  "data_format": "MAF", 
  "cases": [
    {
      "case_id": "c0607363-1082-4ce9-a642-e9b2b903ae88", 
      "project": {
        "project_id": "CPTAC-3"
      }
    }
  ], 
  "access": "controlled", 
  "file_name": "598e19b5-024d-4e75-87c2-10cc8e14ce5c.wxs.MuTect2.aliquot.maf.gz", 
  "data_category": "Simple Nucleotide Variation", 
  "file_size": 15094105
},{
  "data_format": "MAF", 
  "cases": [
    {
      "case_id": "66baf8bb-278b-4a83-a971-71b394fb4630", 
      "project": {
        "project_id": "CPTAC-3"
      }
    }
  ], 
  "access": "controlled", 
  "file_name": "c199678a-a245-4a4c-a111-5ec9f35f32ce.wxs.MuTect2.aliquot.maf.gz", 
  "data_category": "Simple Nucleotide Variation", 
  "file_size": 5760070
},{
  "data_format": "MAF", 
  "cases": [
    {
      "case_id": "2525bfef-6962-4b7f-8e80-6186400ce624", 
      "project": {
        "project_id": "CPTAC-3"
      }
    }
  ], 
  "access": "controlled", 
  "file_name": "6e2b5c10-0363-4582-bd1f-d2e8ae897623.wxs.MuTect2.aliquot.maf.gz", 
  "data_category": "Simple Nucleotide Variation", 
  "file_size": 3238991
},{
  "data_format": "MAF", 
  "cases": [
    {
      "case_id": "e2b3a450-6215-4b4b-a77d-10b539023b2d", 
      "project": {
        "project_id": "CPTAC-3"
      }
    }
  ], 
  "access": "controlled", 
  "file_name": "a6c34ac0-3ce2-41af-a986-3fb7366b44bb.wxs.MuTect2.aliquot.maf.gz", 
  "data_category": "Simple Nucleotide Variation", 
  "file_size": 8035727
},{
  "data_format": "MAF", 
  "cases": [
    {
      "case_id": "0d46037d-04c5-484c-85cc-999f5991d538", 
      "project": {
        "project_id": "CPTAC-3"
      }
    }
  ], 
  "access": "controlled", 
  "file_name": "6a02c9de-d6d3-4f33-957c-5e9b3995899c.wxs.MuTect2.aliquot.maf.gz", 
  "data_category": "Simple Nucleotide Variation", 
  "file_size": 2012886
},{
  "data_format": "MAF", 
  "cases": [
    {
      "case_id": "8b0ad21d-929d-446c-be13-fde7d97ab4b5", 
      "project": {
        "project_id": "CPTAC-3"
      }
    }
  ], 
  "access": "controlled", 
  "file_name": "fd90dd52-19d9-46d3-abab-8f89801a8dfe.wxs.MuTect2.aliquot.maf.gz", 
  "data_category": "Simple Nucleotide Variation", 
  "file_size": 3352762
},{
  "data_format": "MAF", 
  "cases": [
    {
      "case_id": "939f730c-2fe0-4777-a067-48fdabc82f17", 
      "project": {
        "project_id": "CPTAC-3"
      }
    }
  ], 
  "access": "controlled", 
  "file_name": "ccacfb17-0a90-4424-8190-7b0c68a78c0e.wxs.MuTect2.aliquot.maf.gz", 
  "data_category": "Simple Nucleotide Variation", 
  "file_size": 7859213
},{
  "data_format": "MAF", 
  "cases": [
    {
      "case_id": "31ceaaeb-8186-4d4f-8981-d192368ad39a", 
      "project": {
        "project_id": "CPTAC-3"
      }
    }
  ], 
  "access": "controlled", 
  "file_name": "56e9a2cb-d861-4b01-b3ee-7b7ee289050a.wxs.MuTect2.aliquot.maf.gz", 
  "data_category": "Simple Nucleotide Variation", 
  "file_size": 20856446
},{
  "data_format": "MAF", 
  "cases": [
    {
      "case_id": "272d222a-761f-4543-86d0-37457731a3a5", 
      "project": {
        "project_id": "CPTAC-3"
      }
    }
  ], 
  "access": "controlled", 
  "file_name": "5db882a0-7bd1-46c9-9bc2-c83e575bd3bf.wxs.MuTect2.aliquot.maf.gz", 
  "data_category": "Simple Nucleotide Variation", 
  "file_size": 8864695
},{
  "data_format": "MAF", 
  "cases": [
    {
      "case_id": "9a0072b7-7bde-43b3-a4da-fb5ff9d10f4f", 
      "project": {
        "project_id": "CPTAC-3"
      }
    }
  ], 
  "access": "controlled", 
  "file_name": "d17fec33-c71b-47da-aa8c-5f5e60bf7711.wxs.MuTect2.aliquot.maf.gz", 
  "data_category": "Simple Nucleotide Variation", 
  "file_size": 1955916
},{
  "data_format": "MAF", 
  "cases": [
    {
      "case_id": "9816a96d-edbd-4f6e-8a93-69c5ff368417", 
      "project": {
        "project_id": "CPTAC-3"
      }
    }
  ], 
  "access": "controlled", 
  "file_name": "1b4e4980-0e2b-4a96-b9fe-cc1e1804fefb.wxs.MuTect2.aliquot.maf.gz", 
  "data_category": "Simple Nucleotide Variation", 
  "file_size": 7413628
},{
  "data_format": "MAF", 
  "cases": [
    {
      "case_id": "a3cbd921-6680-46d3-8de5-db5bcb94228d", 
      "project": {
        "project_id": "CPTAC-3"
      }
    }
  ], 
  "access": "controlled", 
  "file_name": "5ad33841-a93e-402f-b101-85b21083cadc.wxs.MuTect2.aliquot.maf.gz", 
  "data_category": "Simple Nucleotide Variation", 
  "file_size": 8090710
},{
  "data_format": "MAF", 
  "cases": [
    {
      "case_id": "caf7ccbe-e17a-4dcd-a6a3-aaa9848a9858", 
      "project": {
        "project_id": "CPTAC-3"
      }
    }
  ], 
  "access": "controlled", 
  "file_name": "d43f9a85-5905-47ec-b13e-ef0ca551b765.wxs.MuTect2.aliquot.maf.gz", 
  "data_category": "Simple Nucleotide Variation", 
  "file_size": 6045858
},{
  "data_format": "MAF", 
  "cases": [
    {
      "case_id": "9659c59a-0f56-4c97-a447-d1f8c6fe4e52", 
      "project": {
        "project_id": "CPTAC-3"
      }
    }
  ], 
  "access": "controlled", 
  "file_name": "665abda1-6740-43e7-965d-66d7a79b93e8.wxs.MuTect2.aliquot.maf.gz", 
  "data_category": "Simple Nucleotide Variation", 
  "file_size": 8035614
},{
  "data_format": "MAF", 
  "cases": [
    {
      "case_id": "c359d07b-0379-44af-ac0a-e57c0de129f3", 
      "project": {
        "project_id": "CPTAC-3"
      }
    }
  ], 
  "access": "controlled", 
  "file_name": "80b0ba90-8109-41f0-8019-a40839f5ef2a.wxs.MuTect2.aliquot.maf.gz", 
  "data_category": "Simple Nucleotide Variation", 
  "file_size": 2381907
},{
  "data_format": "MAF", 
  "cases": [
    {
      "case_id": "c4a660b0-7b34-4c80-98bb-0000e2b1c09a", 
      "project": {
        "project_id": "CPTAC-3"
      }
    }
  ], 
  "access": "controlled", 
  "file_name": "419819d4-d17e-4cc7-823b-bf350adb1711.wxs.MuTect2.aliquot.maf.gz", 
  "data_category": "Simple Nucleotide Variation", 
  "file_size": 7080101
},{
  "data_format": "MAF", 
  "cases": [
    {
      "case_id": "b3e9d84f-f513-47d5-b3dd-c940ecb19e16", 
      "project": {
        "project_id": "CPTAC-3"
      }
    }
  ], 
  "access": "controlled", 
  "file_name": "a50276eb-4d7f-4d68-89ba-c05bda224bcd.wxs.MuTect2.aliquot.maf.gz", 
  "data_category": "Simple Nucleotide Variation", 
  "file_size": 2600660
},{
  "data_format": "MAF", 
  "cases": [
    {
      "case_id": "eb103149-1de8-42e3-8ee9-68f74f31de41", 
      "project": {
        "project_id": "CPTAC-3"
      }
    }
  ], 
  "access": "controlled", 
  "file_name": "07881915-70ca-40e2-a9bb-8b07429e10a7.wxs.MuTect2.aliquot.maf.gz", 
  "data_category": "Simple Nucleotide Variation", 
  "file_size": 5589426
},{
  "data_format": "MAF", 
  "cases": [
    {
      "case_id": "096db53f-0a45-4778-a58f-4cf1de04c7d0", 
      "project": {
        "project_id": "CPTAC-3"
      }
    }
  ], 
  "access": "controlled", 
  "file_name": "d119c5ca-bb5b-4909-b9f4-19126a5c320b.wxs.MuTect2.aliquot.maf.gz", 
  "data_category": "Simple Nucleotide Variation", 
  "file_size": 7713583
},{
  "data_format": "MAF", 
  "cases": [
    {
      "case_id": "f8684ef1-bfef-4975-b1ae-b7085b11c1f8", 
      "project": {
        "project_id": "EXCEPTIONAL_RESPONDERS-ER"
      }
    }
  ], 
  "access": "controlled", 
  "file_name": "6d3fff1e-6c1f-4926-9c9d-142b728fac6f.wxs.MuTect2.aliquot.maf.gz", 
  "data_category": "Simple Nucleotide Variation", 
  "file_size": 2413103
},{
  "data_format": "MAF", 
  "cases": [
    {
      "case_id": "373c15fd-f995-419d-beef-951db2706411", 
      "project": {
        "project_id": "HCMI-CMDC"
      }
    }
  ], 
  "access": "controlled", 
  "file_name": "5f4c2cf6-cde3-43a3-a3d3-c07f973b0f9f.wxs.MuTect2.aliquot.maf.gz", 
  "data_category": "Simple Nucleotide Variation", 
  "file_size": 2479360
},{
  "data_format": "MAF", 
  "cases": [
    {
      "case_id": "373c15fd-f995-419d-beef-951db2706411", 
      "project": {
        "project_id": "HCMI-CMDC"
      }
    }
  ], 
  "access": "controlled", 
  "file_name": "7ff6ca8b-952a-456b-a7a8-5cf8b21d0ca9.wxs.MuTect2.aliquot.maf.gz", 
  "data_category": "Simple Nucleotide Variation", 
  "file_size": 2400226
},{
  "data_format": "MAF", 
  "cases": [
    {
      "case_id": "373c15fd-f995-419d-beef-951db2706411", 
      "project": {
        "project_id": "HCMI-CMDC"
      }
    }
  ], 
  "access": "controlled", 
  "file_name": "e9f20db9-7a48-4258-8eb9-bb775c27b965.wxs.MuTect2.aliquot.maf.gz", 
  "data_category": "Simple Nucleotide Variation", 
  "file_size": 2384724
},{
  "data_format": "MAF", 
  "cases": [
    {
      "case_id": "de19bdf6-63b3-4e75-bf11-a7b6ebcea466", 
      "project": {
        "project_id": "HCMI-CMDC"
      }
    }
  ], 
  "access": "controlled", 
  "file_name": "b2c5fd14-b299-4504-a86f-1d43302b3c21.wxs.MuTect2.aliquot.maf.gz", 
  "data_category": "Simple Nucleotide Variation", 
  "file_size": 8053058
}]