90c9f8cd-4c8c-4f07-af2f-e17db69bd561.rna_seq.augmented_star_gene_counts.tsv	7784	0	7784	143.1399	42.3302	37.6130
701405d4-c4f1-4889-9b2d-1301e6d2db9b.rna_seq.augmented_star_gene_counts.tsv	1625	850	775	16.3917	9.9861	10.7715
ba056a7d-5370-4fe9-af1e-2e3de42e205f.rna_seq.augmented_star_gene_counts.tsv	2008	969	1039	33.2846	12.7570	19.9144
16a248f2-9b21-4cfd-b3bf-1817e692d20d.rna_seq.augmented_star_gene_counts.tsv	867	450	417	60.9474	25.9640	28.0168
a2289b57-3c34-4fec-a5c5-10bea95e30fb.rna_seq.augmented_star_gene_counts.tsv	4869	2390	2479	77.5654	27.4694	44.7611
90242448-2567-4d5b-b015-43c0ce31f0ad.rna_seq.augmented_star_gene_counts.tsv	1181	592	589	25.6507	8.6350	8.5992
07ba0ffd-9a39-498d-b289-a8896d1c3caf.rna_seq.augmented_star_gene_counts.tsv	16314	7950	8364	374.1107	115.8001	136.6344
86db93b2-14b0-4094-bd69-222582df130c.rna_seq.augmented_star_gene_counts.tsv	511	250	261	6.9791	5.2973	9.0378
28e28451-9c55-4f01-9ac1-fda75a6f828d.rna_seq.augmented_star_gene_counts.tsv	1478	720	758	21.3936	8.4660	21.8232
bf95f48b-ab11-4950-9bbe-8f4e7445dca1.rna_seq.augmented_star_gene_counts.tsv	2899	1491	1408	87.8108	28.0786	30.2499
1e35ac73-0f87-46b1-8a2f-66276bc9fa02.rna_seq.augmented_star_gene_counts.tsv	2428	1187	1241	73.8450	31.6992	37.8500
1e655307-21a7-430a-8f85-a2d5f8b26662.rna_seq.augmented_star_gene_counts.tsv	1777	904	873	23.5466	14.3225	24.7703
f45c520f-016e-4c29-8d84-2e985763ed0a.rna_seq.augmented_star_gene_counts.tsv	1521	768	753	26.7833	10.8178	19.6112
ce5fb607-99c5-457f-9022-df38b540fce6.rna_seq.augmented_star_gene_counts.tsv	2383	1217	1167	78.2059	23.9579	23.2653
7d4fc12f-0cbb-45e9-966f-d3a71f80d0ba.rna_seq.augmented_star_gene_counts.tsv	2122	1044	1078	18.7944	14.3029	16.2540
70fd4ee9-d29b-43f6-a434-149b7a65197f.rna_seq.augmented_star_gene_counts.tsv	171	57	114	5.8410	3.5449	4.8534
c9432a6e-4d79-4de2-8ffa-e3b05129f78f.rna_seq.augmented_star_gene_counts.tsv	1164	586	578	11.8049	4.5590	9.9421
289b3dee-bd46-4286-8e7b-86ffb573d37e.rna_seq.augmented_star_gene_counts.tsv	2111	1045	1066	43.3059	20.6835	22.4734
640b257c-bbc3-4483-a7b5-191bb7ef5421.rna_seq.augmented_star_gene_counts.tsv	3527	1815	1712	50.2302	17.6203	18.2586
ced9db0e-74ff-434c-baf6-aec17cb60794.rna_seq.augmented_star_gene_counts.tsv	4754	2	4753	79.0213	27.7687	25.7021
d8ad017c-bf83-42cf-9d46-4f47c8d28a8f.rna_seq.augmented_star_gene_counts.tsv	2301	1151	1150	85.7676	30.3745	27.8726
e61b4b6e-6426-41a8-a959-99d300d5c531.rna_seq.augmented_star_gene_counts.tsv	253	131	122	14.8955	3.9647	3.2950
d1dea496-436a-474a-b0c7-b3c70f8d4fcf.rna_seq.augmented_star_gene_counts.tsv	4736	2411	2325	89.6727	28.0404	29.0299
0d8569e2-cc8c-4bcc-b451-b837eb5513d2.rna_seq.augmented_star_gene_counts.tsv	1759	867	892	22.9036	8.2088	9.8347
acdfe319-b98d-4208-b528-6841ab3514b0.rna_seq.augmented_star_gene_counts.tsv	154	63	91	5.3691	2.3410	2.8989
32ffdfa3-91d3-4583-811f-40752d73182e.rna_seq.augmented_star_gene_counts.tsv	1994	1023	971	34.8640	12.5151	14.8287
d512620a-6a4e-4f8b-88a7-3dbad09b951d.rna_seq.augmented_star_gene_counts.tsv	2099	1074	1025	90.2397	29.0554	30.0347
29eab3ff-c824-421c-9499-93fb24353201.rna_seq.augmented_star_gene_counts.tsv	1191	570	621	25.7022	7.7588	8.1489
20d40b1a-fbe0-4710-b0db-5c190e00addd.rna_seq.augmented_star_gene_counts.tsv	8136	4069	4067	137.0244	36.1386	36.6721
2a675a2c-53ca-4fa1-80d8-d9d59bda26d9.rna_seq.augmented_star_gene_counts.tsv	1686	837	850	30.5436	13.4341	15.2044
dd2b52ba-d990-4d04-b070-c385de438ba8.rna_seq.augmented_star_gene_counts.tsv	5266	2629	2637	74.2698	29.6035	31.5889
fd804c92-b610-4fe4-8df2-1a272fb34052.rna_seq.augmented_star_gene_counts.tsv	6101	3088	3013	95.2683	33.1108	34.3339
c30fdec0-6bbc-4719-ad1e-ff1e15eae98e.rna_seq.augmented_star_gene_counts.tsv	2764	1406	1358	41.6704	15.7820	25.4398
02f204de-780f-4854-aab1-1dc003163d2e.rna_seq.augmented_star_gene_counts.tsv	491	0	491	16.7257	5.1481	4.4985
b9389390-aa03-406c-957e-2bc264f9468e.rna_seq.augmented_star_gene_counts.tsv	996	1	995	28.7185	13.9928	16.9211
d0b02f2e-ff79-430c-80f7-6156860e6780.rna_seq.augmented_star_gene_counts.tsv	2839	1433	1406	118.1098	31.8552	29.7942
a3b44031-71ef-476f-a8bd-3694226ce026.rna_seq.augmented_star_gene_counts.tsv	2034	850	1184	110.2748	40.3606	40.2416
32a200c7-6f8a-4393-ae39-48c73b7935cf.rna_seq.augmented_star_gene_counts.tsv	11597	5783	5814	167.9582	61.6982	65.9148
3f42e0b8-7e82-48e2-a138-5d6e527e7b0e.rna_seq.augmented_star_gene_counts.tsv	2650	1316	1335	36.7961	13.6665	14.5954
1f108190-3a84-4f4a-8d99-2621ccac226d.rna_seq.augmented_star_gene_counts.tsv	322	163	159	12.2760	3.8076	4.8491
5957c3ef-b6e7-4b4d-b8cf-d04f85b4160b.rna_seq.augmented_star_gene_counts.tsv	130905	65074	65831	2578.8157	861.8639	1104.7178
022396e9-30da-4818-8706-61b721f1bfa6.rna_seq.augmented_star_gene_counts.tsv	4697	1	4696	130.2266	45.3130	42.6928
20af5f64-f766-4930-bb97-b337847c8244.rna_seq.augmented_star_gene_counts.tsv	5932	2957	2975	130.2395	38.4369	37.9116
ebf8d429-0437-4987-9bca-89e62910f168.rna_seq.augmented_star_gene_counts.tsv	8374	4120	4254	170.8124	48.5811	48.3040
841ae9cb-ae41-46f9-84ae-03c99fd4e6dd.rna_seq.augmented_star_gene_counts.tsv	1551	768	783	75.3142	26.3516	27.1837
a5b5b737-3f68-49a0-ac50-2884dbb90496.rna_seq.augmented_star_gene_counts.tsv	2665	1342	1323	38.7720	15.2065	23.6447
f3bf4152-5e1d-42d2-920e-9dfbe2e0dbc5.rna_seq.augmented_star_gene_counts.tsv	7489	3766	3723	130.5397	42.2189	43.0908
d340b888-151f-443f-950b-f9e5555509fa.rna_seq.augmented_star_gene_counts.tsv	1598	804	794	51.6116	17.9696	17.0913
6916d291-a782-4469-8a66-e9454cc3752f.rna_seq.augmented_star_gene_counts.tsv	388	182	206	5.2406	2.5007	4.6047
e3fb8ce3-dc67-4f02-9e0b-41c2181ef0de.rna_seq.augmented_star_gene_counts.tsv	714	359	355	16.2124	5.5038	6.3357
b2dfe637-d3a5-4400-88db-5d60f0a167d5.rna_seq.augmented_star_gene_counts.tsv	1884	953	931	28.7697	10.6327	15.5296
8b7f2fa6-a31b-41f7-9493-872d2a80814d.rna_seq.augmented_star_gene_counts.tsv	5319	2681	2638	76.1809	29.1013	44.1548
cf4b2081-1949-4f03-8d1d-2d17db27f1e6.rna_seq.augmented_star_gene_counts.tsv	2310	1165	1145	57.4854	20.9662	22.0495
6a7ea1b4-e24a-4e33-919c-9d9d290fc562.rna_seq.augmented_star_gene_counts.tsv	6090	3048	3042	103.8698	34.2136	35.6327
363e5da6-0866-46d5-9d3a-f61f1b59e077.rna_seq.augmented_star_gene_counts.tsv	8327	4106	4221	117.8117	51.5570	62.2760
19d1b700-c0c1-4482-83df-cb197073b373.rna_seq.augmented_star_gene_counts.tsv	2781	6	2776	76.7340	24.6010	23.6622
6bdfd354-391c-48d9-8bb4-fd62eab673b1.rna_seq.augmented_star_gene_counts.tsv	3490	1749	1741	82.8671	35.4039	39.3627
66330a7d-9744-4d05-9ec6-787ccb3b0f47.rna_seq.augmented_star_gene_counts.tsv	459	236	223	23.2770	10.3367	11.4279
b8921ae5-1378-406c-9c48-6405e2f3bf06.rna_seq.augmented_star_gene_counts.tsv	3880	1	3879	102.6397	50.5708	64.1608
161a4d97-48cf-46c4-b33b-315501a4c2fb.rna_seq.augmented_star_gene_counts.tsv	2220	0	2220	68.0007	24.9193	21.9538
1782c608-e7e6-4413-8d87-660979f32485.rna_seq.augmented_star_gene_counts.tsv	4190	2128	2062	57.4484	19.4018	20.3862
09a8a39a-ab72-4061-9a38-0034a79a8074.rna_seq.augmented_star_gene_counts.tsv	194	93	101	4.0221	1.4657	2.1266
ca9ca606-cb39-4d39-a098-a3f444719200.rna_seq.augmented_star_gene_counts.tsv	561	0	561	11.1401	3.6441	3.0868
7ad804b5-0e75-4562-99db-e6f508950c03.rna_seq.augmented_star_gene_counts.tsv	2021	1	2020	79.7163	25.4336	24.7320
d53203c7-5070-455b-aec3-ce01f32186de.rna_seq.augmented_star_gene_counts.tsv	4381	2169	2212	119.3686	43.7740	40.9176
673ef155-1bba-466d-92b4-cecb4121946e.rna_seq.augmented_star_gene_counts.tsv	7432	3722	3710	157.5719	45.8230	44.7595
213f702a-56fd-4ab0-940c-a71e4e01b6f8.rna_seq.augmented_star_gene_counts.tsv	3137	1531	1606	63.6857	20.9404	20.1170
5d220ed4-22c2-4ff1-b597-3822204d57e7.rna_seq.augmented_star_gene_counts.tsv	222	121	101	3.8016	1.3815	1.9677
21c23e1b-93c9-4c03-8fa5-f545c5e0edea.rna_seq.augmented_star_gene_counts.tsv	4516	1	4515	142.0463	42.8579	41.5714
4f8b284e-7e42-45c5-b7cc-57cc678ec3df.rna_seq.augmented_star_gene_counts.tsv	3741	1869	1872	98.8183	27.5692	27.7640
6399dc78-5784-490f-a20d-998554980012.rna_seq.augmented_star_gene_counts.tsv	1578	788	790	64.3954	19.9839	19.2879
9da2fda3-2abd-405d-b918-9808b580f849.rna_seq.augmented_star_gene_counts.tsv	1948	957	991	63.6790	23.2597	23.4638
37c85ea2-c091-413d-b5a0-df72d2399336.rna_seq.augmented_star_gene_counts.tsv	579	1	578	19.7882	7.4836	7.3947
cdb21b35-6884-40a4-b66d-2275eb5ca0a1.rna_seq.augmented_star_gene_counts.tsv	8069	3941	4128	64.7616	21.1776	31.9241
c4fbf368-9e12-4cda-adfa-c6679bec1529.rna_seq.augmented_star_gene_counts.tsv	4857	2454	2403	68.0239	22.7143	23.2092
20056b8d-000f-4a0a-954a-f537186278b1.rna_seq.augmented_star_gene_counts.tsv	2428	1225	1203	55.1619	23.2836	33.9592
b1b2c2c2-0b5d-4948-b019-8f27dd1e4d6a.rna_seq.augmented_star_gene_counts.tsv	565	289	276	23.1918	9.1292	8.6151
7bfe8d8a-61bf-4ee7-9749-209858e74b5f.rna_seq.augmented_star_gene_counts.tsv	4794	2436	2358	103.7674	32.6740	31.5218
f2f8e7bc-0133-4a21-bf58-10cb27b39755.rna_seq.augmented_star_gene_counts.tsv	383	198	185	12.3189	6.3453	6.6303
cb3d7da5-bd29-44c6-8308-d40fbafa83d7.rna_seq.augmented_star_gene_counts.tsv	3424	1706	1718	90.0313	26.8125	24.4971
87dc0bab-b318-47ec-a9a3-819a7388e731.rna_seq.augmented_star_gene_counts.tsv	6370	3199	3171	113.6079	29.2132	27.1667
ede604e3-31d2-4008-9f54-215b85530191.rna_seq.augmented_star_gene_counts.tsv	2563	1311	1252	51.9064	16.5160	16.9530
0a540449-152b-4a8a-b4c1-73d9a8a712da.rna_seq.augmented_star_gene_counts.tsv	8375	4193	4182	182.7107	58.1679	58.8671
0a950719-ca7a-4dbf-8755-262cabf3d4b7.rna_seq.augmented_star_gene_counts.tsv	14126	7088	7038	255.3382	68.5595	62.7549
bf424b14-03e8-43a3-a978-ff5fb436886c.rna_seq.augmented_star_gene_counts.tsv	990	501	489	13.6289	5.9000	15.2114
fcd89df9-1e6f-4d19-a205-be0362567c60.rna_seq.augmented_star_gene_counts.tsv	27103	13667	13440	266.6870	93.8102	93.5668
52bfcfee-5de0-4e8f-9f11-7a643858bcb0.rna_seq.augmented_star_gene_counts.tsv	8782	4478	4304	118.6911	43.2648	46.0195
bf5f606f-17ae-46bb-b687-7863ab3d97b1.rna_seq.augmented_star_gene_counts.tsv	2627	1274	1353	66.8079	18.4380	15.9481
7ff6dbf9-64ae-423b-9d69-9df673b93861.rna_seq.augmented_star_gene_counts.tsv	4261	2097	2164	87.0519	31.6066	33.8589
c74b62ad-52f4-4488-8628-ffc88df5d1bf.rna_seq.augmented_star_gene_counts.tsv	3099	1528	1571	46.5947	18.7051	38.1271
40b92a76-f324-4cdd-8209-517d021acd47.rna_seq.augmented_star_gene_counts.tsv	1671	856	815	51.1620	16.2407	24.2687
65bd5f28-4822-454d-9f6d-ce9b06ca9261.rna_seq.augmented_star_gene_counts.tsv	16577	8285	8292	246.0955	103.7575	157.1677
679e7543-4593-46ed-9ddf-c5348000a975.rna_seq.augmented_star_gene_counts.tsv	1577	0	1577	46.7179	20.7696	22.8660
6faaeb84-a771-4f31-88f6-df304396340d.rna_seq.augmented_star_gene_counts.tsv	6208	3162	3046	90.5985	27.8225	27.8543
50f58d2f-7e67-40d8-a35c-a3e2c0bbe457.rna_seq.augmented_star_gene_counts.tsv	9052	4559	4493	99.2471	36.6859	38.9367
7cacddb5-48c3-4174-8674-9c0e74c9b6ad.rna_seq.augmented_star_gene_counts.tsv	230	102	128	7.2968	4.0193	4.7127
93bbdfef-3d7a-490f-9747-2fd5b01391b8.rna_seq.augmented_star_gene_counts.tsv	7489	3698	3791	109.8035	39.9205	69.4334
d3feaf5b-68fd-4df3-a30f-af8fcd5a5ed8.rna_seq.augmented_star_gene_counts.tsv	8380	4251	4129	153.8297	46.0756	48.3161
eee7d179-f3bd-4752-a745-28bf812e572e.rna_seq.augmented_star_gene_counts.tsv	4435	2294	2141	89.0234	29.6562	39.1806
60da62bd-de6d-4b19-b56f-e5cea1146588.rna_seq.augmented_star_gene_counts.tsv	2300	1122	1178	91.1869	33.6949	37.6720
308a5759-8930-433f-8d11-4c3da6ed0e29.rna_seq.augmented_star_gene_counts.tsv	3268	1629	1639	57.3985	22.4463	23.2097
7df5668f-1dd8-438f-bbf9-2c531ecd65b8.rna_seq.augmented_star_gene_counts.tsv	3195	4	3191	64.0862	24.7353	21.7192
29774d01-31ba-4ef6-a0cd-fc405ca38efe.rna_seq.augmented_star_gene_counts.tsv	857	418	439	43.7213	12.9286	12.8187
b120d22d-2171-47b5-b510-7498b0c1178b.rna_seq.augmented_star_gene_counts.tsv	7494	3848	3647	110.4483	42.3181	46.6311
5ee23af5-35ec-4f62-bfe6-08948cee2d9b.rna_seq.augmented_star_gene_counts.tsv	1836	1	1835	40.0635	12.4663	10.9112
0a0b75ab-0e92-4d25-abd0-5ebc075b432b.rna_seq.augmented_star_gene_counts.tsv	7145	3536	3609	126.4397	39.2109	37.5746
427c0560-88ff-45a9-98a7-9d7cf3354138.rna_seq.augmented_star_gene_counts.tsv	39017	19606	19411	641.8750	247.2969	480.6941
b5022139-cc8a-40ca-b249-19d4431ceee6.rna_seq.augmented_star_gene_counts.tsv	6455	3189	3268	146.5599	50.5394	53.4563
64a608f6-9848-4c97-820d-d87f9ee04a7b.rna_seq.augmented_star_gene_counts.tsv	1836	920	916	63.0943	23.1789	25.0965
27f76511-b825-41a5-a0b5-257c80223d8b.rna_seq.augmented_star_gene_counts.tsv	5788	2825	2963	129.0657	34.0089	32.4049
d79abaf2-fc86-4da0-9eb1-2f46a83460c6.rna_seq.augmented_star_gene_counts.tsv	988	2	986	19.8580	6.8480	6.6579
a03d4b08-f826-4216-878e-f8c818a3791c.rna_seq.augmented_star_gene_counts.tsv	7361	3780	3581	146.0857	46.1339	48.8770
c60e5bb7-e2f1-4583-a0eb-1584c45e8afd.rna_seq.augmented_star_gene_counts.tsv	6940	3512	3428	83.5923	27.7753	27.9293
d3be84d5-9dd7-4366-9aea-532dc76f19ba.rna_seq.augmented_star_gene_counts.tsv	3160	1633	1527	54.2111	19.6143	22.7447
6349132e-e881-4f96-9697-915a55206f70.rna_seq.augmented_star_gene_counts.tsv	5315	2578	2737	92.2734	28.3614	29.7407
6abac00b-ac00-47e5-8c1d-2d697db1c0cb.rna_seq.augmented_star_gene_counts.tsv	4113	2018	2095	179.5939	51.6585	52.7247
aa43bf5b-6618-4bb5-8de2-6554cc98c115.rna_seq.augmented_star_gene_counts.tsv	229	116	113	4.3573	1.7151	2.0068
78767f1f-fa6f-4d1a-beb7-a2c11381958e.rna_seq.augmented_star_gene_counts.tsv	3096	1512	1584	47.4204	16.5405	28.3317
6ac09968-001a-4ee8-9aae-c3e7a46c728f.rna_seq.augmented_star_gene_counts.tsv	1724	828	896	67.1600	23.6400	20.7295
d1305843-a9f4-44ca-883e-46e3d518ad24.rna_seq.augmented_star_gene_counts.tsv	10038	5043	4995	210.7499	65.9695	72.3848
55464269-7892-426e-bbc4-96eead7bd59e.rna_seq.augmented_star_gene_counts.tsv	4143	2055	2089	45.8085	13.5071	14.2465
ed9513cb-89a6-4f5e-afaa-bfd47df25f01.rna_seq.augmented_star_gene_counts.tsv	5149	2614	2535	106.6492	35.8124	34.8267
c7bf2ffe-055a-4658-9a6a-c2f2e6ddc7df.rna_seq.augmented_star_gene_counts.tsv	24713	12550	12163	421.8982	143.9673	216.1094
00c8b8e2-4093-49bc-9124-ca075a707571.rna_seq.augmented_star_gene_counts.tsv	4424	4	4420	119.6119	40.2452	36.8483
f7ddd671-b2ba-4952-918b-07ae0ea84263.rna_seq.augmented_star_gene_counts.tsv	7912	3986	3926	122.2344	34.6938	35.3059
b9a5de02-bff2-4304-9359-4c2fb7ddb006.rna_seq.augmented_star_gene_counts.tsv	1243	4	1239	58.3733	21.1362	23.9506
7aeeeae6-6243-4c04-99c9-6609949a0436.rna_seq.augmented_star_gene_counts.tsv	404	190	214	34.2139	9.9278	9.8067
76ac10f3-0299-4c25-b241-812f90a7d1d6.rna_seq.augmented_star_gene_counts.tsv	1838	918	920	39.3173	14.4341	19.5940
0c7a9377-9787-4ea5-aae4-9e08665aab78.rna_seq.augmented_star_gene_counts.tsv	2348	1150	1198	83.3267	29.2817	31.1814
9088aea9-d215-4eb7-b0d9-cb66b87d1f31.rna_seq.augmented_star_gene_counts.tsv	1426	707	719	63.3820	21.0030	22.3196
950a00f6-2b31-46c8-901b-7094effb6297.rna_seq.augmented_star_gene_counts.tsv	1711	0	1711	76.5006	26.0185	23.1785
2645561c-8313-4196-b321-b4a83879df88.rna_seq.augmented_star_gene_counts.tsv	2652	1292	1360	45.2649	15.3879	15.7606
080d03cb-01ea-4dc7-af41-12e3f3877283.rna_seq.augmented_star_gene_counts.tsv	3665	1789	1876	46.5520	20.1322	21.6481
934a9544-1fd3-4aac-9e5c-90a266d1f125.rna_seq.augmented_star_gene_counts.tsv	3688	1846	1842	71.5018	21.7737	24.7104
32e9669c-0c2c-47a5-b53b-c833c776607d.rna_seq.augmented_star_gene_counts.tsv	12951	6440	6511	226.8294	88.8008	134.0116
eb908245-e14f-442f-a9ce-85e66c169d73.rna_seq.augmented_star_gene_counts.tsv	642	320	322	22.8145	8.8964	9.8109
bc895549-854b-484f-8a6d-9e5152829bcb.rna_seq.augmented_star_gene_counts.tsv	1397	641	756	58.6869	22.1899	23.6819
8b6bb4a3-2bd0-4221-a4d7-9641c24b0681.rna_seq.augmented_star_gene_counts.tsv	14963	7499	7465	257.6629	89.1708	134.7020
602893fe-90d1-4ffd-8d8c-2380d098dae3.rna_seq.augmented_star_gene_counts.tsv	1745	880	865	39.1992	14.3331	14.5208
eeb197bf-8e25-47e9-afaf-e42dc3f5541a.rna_seq.augmented_star_gene_counts.tsv	1540	774	766	90.7665	26.6197	26.6299
85094fa3-e9f3-4cab-8a1d-37cb0462404d.rna_seq.augmented_star_gene_counts.tsv	7914	4008	3906	103.2441	29.6216	31.6459
9d164d74-ec27-4cef-81b0-0580550e96af.rna_seq.augmented_star_gene_counts.tsv	909	462	447	16.7831	6.0921	8.6540
22fc2b56-fe94-4b09-ae7d-37d463b3995d.rna_seq.augmented_star_gene_counts.tsv	3208	1619	1589	37.5130	14.2641	37.6252
9316e258-e626-4a41-ab07-85210c5290b8.rna_seq.augmented_star_gene_counts.tsv	520	269	251	15.5404	8.3848	8.5082
a17b6971-a249-484a-805e-d20ef3c4cd15.rna_seq.augmented_star_gene_counts.tsv	6198	3089	3109	122.3842	32.9982	31.0046
19157b7f-adee-40f3-a215-e5855541bb1e.rna_seq.augmented_star_gene_counts.tsv	7401	3714	3687	126.9818	34.1392	32.6592
6f8d77aa-5852-4467-8ef9-b7881294b969.rna_seq.augmented_star_gene_counts.tsv	1094	516	578	25.3213	9.7129	18.7919
12f3c95d-26ef-47d4-ba42-e8c35cbd7d25.rna_seq.augmented_star_gene_counts.tsv	5463	1	5462	134.6158	47.8156	59.7579
70df5df0-50b6-4aae-a162-cc99ae687418.rna_seq.augmented_star_gene_counts.tsv	193	92	101	6.7111	2.5008	2.8136
be150892-6890-4414-9f4d-aeda4ee38708.rna_seq.augmented_star_gene_counts.tsv	143	70	73	2.0653	0.8288	1.2278
ebc79b86-12cb-4a5b-b0e4-4d1017ef22f4.rna_seq.augmented_star_gene_counts.tsv	7373	3953	3420	344.0182	126.7990	126.3678
769ad26a-1ab3-487d-8645-97b5638cfe6a.rna_seq.augmented_star_gene_counts.tsv	349	146	203	8.0491	4.8328	7.1416
45a2676b-25ba-41b0-9e55-08c6eb3a8f2f.rna_seq.augmented_star_gene_counts.tsv	2347	1143	1204	99.6400	35.8484	37.5690
f9c74189-6bdc-49b9-b984-917ffe2b097d.rna_seq.augmented_star_gene_counts.tsv	3111	1597	1514	138.2986	39.7060	36.8921
57395707-26c6-4dfc-9948-18409156a9b6.rna_seq.augmented_star_gene_counts.tsv	7329	3601	3729	87.5233	28.8005	29.2162
ee667570-d3c6-4906-980d-5ff7a66f521d.rna_seq.augmented_star_gene_counts.tsv	6559	3262	3297	130.7120	42.5029	57.6903
d18e3fad-68c9-4320-9969-3837c2ae8930.rna_seq.augmented_star_gene_counts.tsv	3723	1835	1888	58.9596	23.5940	25.5294
c000c10f-6fb0-470d-9ece-281d7106be58.rna_seq.augmented_star_gene_counts.tsv	426	224	202	16.4825	6.8777	7.0671
91bac874-6ad2-4946-9c3f-0ed733975fcf.rna_seq.augmented_star_gene_counts.tsv	10595	5327	5268	118.7036	50.0576	130.9999
42d7be38-8a03-49c6-871c-032d65c8b167.rna_seq.augmented_star_gene_counts.tsv	1618	0	1618	56.0572	18.4627	16.4354
d17659bf-fc02-4c26-bb3c-206fc71e644d.rna_seq.augmented_star_gene_counts.tsv	1774	901	873	32.5525	12.2729	20.4318
6e9584a5-2bfa-4c58-8b19-03e4184282eb.rna_seq.augmented_star_gene_counts.tsv	1698	825	873	68.4537	19.6829	18.1015
4fc09296-6048-4ae2-a1f3-5c168e5078cb.rna_seq.augmented_star_gene_counts.tsv	3513	1736	1777	35.6472	18.7589	24.2935
43adcecf-c596-4e69-9c83-16d5b28f276f.rna_seq.augmented_star_gene_counts.tsv	1103	588	515	40.9181	10.1707	10.1355
741e51fd-4360-4e80-9a34-50a22df1f43d.rna_seq.augmented_star_gene_counts.tsv	2501	1257	1244	101.1216	28.0661	26.0356
18b024b6-f991-4414-8d9b-4cc112d8ec38.rna_seq.augmented_star_gene_counts.tsv	1116	570	546	22.4171	9.9286	19.9715
594ab534-9266-4d20-95f4-69e0a5837643.rna_seq.augmented_star_gene_counts.tsv	5058	2	5056	67.3474	33.4875	32.6453
cf94beef-f198-47d0-b900-46e01be7d468.rna_seq.augmented_star_gene_counts.tsv	2612	9	2603	36.3176	10.6963	10.7681
0f26c63f-1e8d-494c-ac23-a07b6b4dd70e.rna_seq.augmented_star_gene_counts.tsv	2663	3	2661	61.9956	21.1692	19.7683
2de83d09-9782-42f1-9434-8df1f3bab7fd.rna_seq.augmented_star_gene_counts.tsv	3410	1709	1701	56.9412	31.9028	70.8067
e5ee0383-6fc3-4bd8-a7a7-5cf2c6e2bb99.rna_seq.augmented_star_gene_counts.tsv	728	357	371	28.6718	9.0495	8.8704
f7b0a537-4bfc-4cb1-9c5c-f3dd917405d5.rna_seq.augmented_star_gene_counts.tsv	87	39	48	1.6209	0.6846	1.6219
1d974cac-fb5e-4737-a6b0-d22d398fea59.rna_seq.augmented_star_gene_counts.tsv	1836	917	919	50.5000	19.8896	28.2452
fca4c327-dfab-4455-84a8-f890a7326132.rna_seq.augmented_star_gene_counts.tsv	5788	2953	2835	141.6913	44.1278	45.5667
04a99183-5548-4712-94ea-f965dff6c62a.rna_seq.augmented_star_gene_counts.tsv	2365	0	2365	56.2990	25.2282	21.5532
6c8e3af5-9adf-457d-a108-58ad5b57c6f4.rna_seq.augmented_star_gene_counts.tsv	5311	7	5304	143.5732	49.1062	45.4317
966a5b1e-7050-4fa6-9a22-0a7b9eb06dee.rna_seq.augmented_star_gene_counts.tsv	2156	1023	1133	92.4009	27.7122	28.7054
71106ad8-a2c4-4337-9682-c407356d39ef.rna_seq.augmented_star_gene_counts.tsv	10648	5267	5382	85.9833	39.2570	46.9876
be4a42fc-e668-44f5-83aa-7976a664490f.rna_seq.augmented_star_gene_counts.tsv	2825	1388	1437	32.6405	11.0443	14.1533
fbb8955a-12cc-4e48-b4ab-f1c612d56b8a.rna_seq.augmented_star_gene_counts.tsv	4084	2009	2075	64.7020	27.1693	27.0338
e28edd15-0242-4630-8914-eb4c664e273a.rna_seq.augmented_star_gene_counts.tsv	1173	0	1174	37.1653	12.7267	10.5659
d5b99bc0-037c-4843-8536-f4d06d607751.rna_seq.augmented_star_gene_counts.tsv	8896	1	8895	232.1713	80.8753	75.0026
42b88263-95a0-43fb-b7e4-a840df8d4a92.rna_seq.augmented_star_gene_counts.tsv	3548	1807	1741	78.1414	29.0999	31.3758
b652254e-228b-40d4-be79-536ad87dad69.rna_seq.augmented_star_gene_counts.tsv	5071	2535	2536	89.8286	27.8341	25.3363
b3f38fc5-d1e6-4fd9-bd36-b413a3ac850e.rna_seq.augmented_star_gene_counts.tsv	24144	12081	12063	256.2787	95.1432	101.6002
97b2a851-6fec-4283-a666-58245018f90d.rna_seq.augmented_star_gene_counts.tsv	6716	3428	3288	133.7103	41.2875	46.4846
7c4477a6-c744-412a-8571-bfb62f0dc714.rna_seq.augmented_star_gene_counts.tsv	5385	2640	2745	106.8465	29.3291	29.7249
e3386c41-2cf3-4c92-a849-f9da60ac3b21.rna_seq.augmented_star_gene_counts.tsv	2665	1297	1368	37.6921	10.8642	10.5667
7c3fd6c4-1ae1-45a4-9819-b0b702baa6ac.rna_seq.augmented_star_gene_counts.tsv	12909	6364	6545	387.2483	146.3960	225.9954
e8ca791a-3a3a-4d64-b1c2-9e71a57a75d1.rna_seq.augmented_star_gene_counts.tsv	5606	2807	2799	93.8365	28.1897	28.7644
c398da46-fe84-4456-8478-8a7d7191f55c.rna_seq.augmented_star_gene_counts.tsv	14328	1	14327	251.5266	76.1431	63.3258
2d5509a1-627d-4182-b727-a6c8f27182e2.rna_seq.augmented_star_gene_counts.tsv	901	469	432	39.0723	12.7537	14.6493
dfb9b39b-08cd-42c3-b59f-22eb1cfa0b53.rna_seq.augmented_star_gene_counts.tsv	2485	1223	1263	33.7306	10.9071	10.7226
44775d34-6995-4670-b6b9-df0a5de0d3fd.rna_seq.augmented_star_gene_counts.tsv	1558	766	792	24.5277	8.1808	10.3851
f6c23150-8009-4de9-919d-8814973af20b.rna_seq.augmented_star_gene_counts.tsv	947	451	496	33.5373	10.7147	13.2273
f0339554-e555-43cd-be40-a1fc6d5c53ce.rna_seq.augmented_star_gene_counts.tsv	922	454	468	39.0757	11.6089	10.5078
7f51ff28-397d-466f-82b0-25e9c9182ea7.rna_seq.augmented_star_gene_counts.tsv	2323	1132	1191	43.8699	14.4669	20.2087
e25887be-64fe-4e7c-983b-4fbdec52c4b7.rna_seq.augmented_star_gene_counts.tsv	7927	4066	3861	113.9249	35.1891	34.1497
4ba838f4-c8ce-4511-b740-0f4f91ec9cf5.rna_seq.augmented_star_gene_counts.tsv	2061	0	2061	64.9143	20.6997	18.1535
7fc94e9c-ba0d-439d-8428-bd87c9307702.rna_seq.augmented_star_gene_counts.tsv	32809	16542	16267	397.3361	116.1960	112.5888
6cae08b5-33e9-4a0c-b399-3bc723f6e10f.rna_seq.augmented_star_gene_counts.tsv	1753	894	859	41.6045	15.8282	21.9458
001cfe8f-6e1d-439a-ab55-629f8bfb1c25.rna_seq.augmented_star_gene_counts.tsv	1999	1016	983	95.0026	25.1019	23.1738
46a6f49d-2ab8-41fb-ba8c-951a160e5d08.rna_seq.augmented_star_gene_counts.tsv	1208	588	620	37.5568	12.6665	12.1849
3a39e135-430b-4858-aa0a-54d3a68db335.rna_seq.augmented_star_gene_counts.tsv	2656	1311	1345	60.1545	19.0493	22.0897
69c4d355-ccb9-4e0b-8e29-c15a242a4cb1.rna_seq.augmented_star_gene_counts.tsv	658	320	338	20.5848	9.4455	11.5717
0a238ed3-971c-48a5-b34d-eafa4e4ed448.rna_seq.augmented_star_gene_counts.tsv	1300	647	653	71.5033	27.5460	28.9718
4b5b50cd-2bcf-4c8a-b5d7-09adeef205fd.rna_seq.augmented_star_gene_counts.tsv	994	460	534	13.0502	5.7434	10.8386
bfcc7d54-3213-4263-a8f0-0479eccb4da0.rna_seq.augmented_star_gene_counts.tsv	966	484	482	39.5942	11.8176	11.4905
242a1034-4aae-46f8-a40d-91710af30d0a.rna_seq.augmented_star_gene_counts.tsv	4155	2065	2090	101.9653	31.9132	33.7868
62f40b9a-32de-4432-b15e-32c82be5ee8b.rna_seq.augmented_star_gene_counts.tsv	279	136	143	4.3527	1.6435	3.0967
1026ea02-0009-403f-95bd-cde07dbdd21b.rna_seq.augmented_star_gene_counts.tsv	1409	716	693	12.9703	10.5876	23.7813
cadbc884-10b6-41e4-8aee-dc11a1453b8c.rna_seq.augmented_star_gene_counts.tsv	8858	4464	4394	141.8017	43.9348	49.4722
96bbaa9e-f354-4778-8b0f-b02bb169d728.rna_seq.augmented_star_gene_counts.tsv	2994	0	2995	84.1516	29.9817	25.9877
3be93921-b171-44e3-a1d8-4da348948b56.rna_seq.augmented_star_gene_counts.tsv	6269	3089	3180	108.1943	39.9833	66.1487
1f758d8e-3f2c-4f10-b80b-ce3daba6e0d9.rna_seq.augmented_star_gene_counts.tsv	2307	1115	1192	25.5790	8.4982	9.1942
3ab4bb66-d6cd-4df8-9e0b-c3ce0c06c0e7.rna_seq.augmented_star_gene_counts.tsv	899	440	459	11.9050	4.6519	8.2953
deb28527-958e-4a4d-a0c8-c863715360af.rna_seq.augmented_star_gene_counts.tsv	3178	1571	1607	20.4185	15.2747	17.1160
8d858683-bfc5-4e08-8a99-69dee5db8fbd.rna_seq.augmented_star_gene_counts.tsv	1789	887	902	76.6871	21.9054	27.0394
b952371d-4fcd-4df6-8aca-af126cb09e3e.rna_seq.augmented_star_gene_counts.tsv	38310	19412	18898	506.8723	214.0300	332.9472
981c9bee-bedd-4a1a-929a-26013d1077e0.rna_seq.augmented_star_gene_counts.tsv	2316	1144	1173	40.3973	15.7905	19.1490
7b5d9241-4c32-4957-bfb5-d9bc4f711ee6.rna_seq.augmented_star_gene_counts.tsv	6315	3183	3133	70.1669	25.1387	32.0001
6e2e99b7-d686-4a88-867c-edbcc22acaed.rna_seq.augmented_star_gene_counts.tsv	17954	8916	9038	252.5169	91.1652	154.8860
f201b51f-7f4b-42a5-951a-a5f1b634baf3.rna_seq.augmented_star_gene_counts.tsv	2834	1406	1428	80.7491	20.1867	20.3510
59594573-ae69-40ea-8894-f6c473138316.rna_seq.augmented_star_gene_counts.tsv	9653	61	9592	166.1234	45.6755	50.9192
198aea6e-88e9-4bf5-a08f-f32b01e017e7.rna_seq.augmented_star_gene_counts.tsv	1341	668	673	40.4714	16.4229	21.2032
7a94d8a1-ae96-43e3-a9d8-8953af78df94.rna_seq.augmented_star_gene_counts.tsv	2778	1388	1390	84.0893	39.9055	39.3872
f713691a-df6d-4c44-a9bf-81d45ea69d61.rna_seq.augmented_star_gene_counts.tsv	3428	1707	1721	70.1816	21.2329	23.5586
2109e5d5-43e6-4ca8-bd8c-8f34489437e8.rna_seq.augmented_star_gene_counts.tsv	393	199	194	14.2310	5.1163	7.1970
e48cabb8-73cd-4d42-81b0-f9ab7bebecc1.rna_seq.augmented_star_gene_counts.tsv	9307	4693	4614	126.2856	44.8404	47.1345
dbfd4261-2413-4571-8211-936eaa34aa19.rna_seq.augmented_star_gene_counts.tsv	5315	2686	2629	96.3996	29.4638	29.7729
1e670d11-7516-4e03-8ec9-8a08514efb78.rna_seq.augmented_star_gene_counts.tsv	1813	912	901	66.4354	20.6944	20.5341
4b5ffc48-de6c-4f22-92c8-8c41c821a37f.rna_seq.augmented_star_gene_counts.tsv	2997	1507	1490	35.1507	15.9253	29.3106
3259055f-7131-4e7a-a2d9-dad1876b03f2.rna_seq.augmented_star_gene_counts.tsv	4731	2374	2357	57.0143	20.4830	21.8531
ad33911a-c00f-4ee6-9044-13f1ece08bd2.rna_seq.augmented_star_gene_counts.tsv	5427	1	5426	221.0111	71.0683	65.0780
fc4f0b8e-ced1-4543-a21d-3cbb2d269eb0.rna_seq.augmented_star_gene_counts.tsv	2444	1215	1229	58.0688	18.8068	20.3812
6452215d-e0ae-482f-8f32-963e7017bec0.rna_seq.augmented_star_gene_counts.tsv	12522	6340	6182	228.5078	80.3232	98.7564
7e02abeb-88a6-4d15-8d27-7f7d05d22fee.rna_seq.augmented_star_gene_counts.tsv	216	104	112	3.7292	1.2305	1.5809
9934181c-8472-45de-ba46-f5ff1863af25.rna_seq.augmented_star_gene_counts.tsv	657	315	342	25.2808	7.4971	8.7100
b9189c77-004e-461a-9c15-b504b12a3030.rna_seq.augmented_star_gene_counts.tsv	602	302	300	29.0025	10.1676	13.9368
7f812fa1-53dc-4ebe-97b3-9b633af148ce.rna_seq.augmented_star_gene_counts.tsv	1514	723	791	22.2600	10.5094	20.8744
8d38156f-5309-4b5d-a293-e1a0f1ada67b.rna_seq.augmented_star_gene_counts.tsv	2837	1388	1449	121.5918	34.7530	35.1476
b0829ff3-92ce-40ec-bde8-9de00566cd5c.rna_seq.augmented_star_gene_counts.tsv	1427	673	754	69.8577	19.8822	21.0402
0be9bcfa-aa98-45b8-9648-890cfa07c4e9.rna_seq.augmented_star_gene_counts.tsv	5414	2762	2652	123.2449	37.3817	37.4729
4a4dd56e-7eeb-48ec-88e6-e75a5ea633fa.rna_seq.augmented_star_gene_counts.tsv	301	148	153	4.2325	1.6219	2.3580
6095f562-35b1-46e4-b3db-2ab498c16f16.rna_seq.augmented_star_gene_counts.tsv	259	136	123	22.2958	9.2702	10.2223
f3b31315-692c-4040-9f89-1a9988ed2fbc.rna_seq.augmented_star_gene_counts.tsv	8734	4379	4355	130.2883	42.6633	44.4029
a315cfa7-3adf-4451-ae61-258d3a82cfbf.rna_seq.augmented_star_gene_counts.tsv	2159	0	2159	42.3921	15.1888	13.7346
b9cadac9-9bb4-4bc8-9303-d05ad06778cc.rna_seq.augmented_star_gene_counts.tsv	2746	1366	1380	73.3277	21.9207	21.5390
ea6626d3-7799-4481-b545-f78988ed5ece.rna_seq.augmented_star_gene_counts.tsv	2077	1059	1018	44.6440	14.6868	16.2709
bdf7034a-9247-4a9d-8d6e-ffc6151edca9.rna_seq.augmented_star_gene_counts.tsv	223	0	223	5.9963	2.7109	2.6304
7ddd6269-658e-4ef3-956b-9d095b4eec30.rna_seq.augmented_star_gene_counts.tsv	6210	3079	3131	137.3672	34.9380	32.7994
fc962f33-2c10-44e8-8eff-c5375c02c151.rna_seq.augmented_star_gene_counts.tsv	148	69	79	3.0815	1.0724	1.3634
70c1d5c6-fb89-4b92-abc3-c0440231ca4d.rna_seq.augmented_star_gene_counts.tsv	4048	2020	2029	89.5398	25.7839	25.7331
4bc57c95-5c4e-4aad-a05a-ab5fafd76a1d.rna_seq.augmented_star_gene_counts.tsv	270	137	133	8.0332	2.7305	4.6689
ca667d02-0c68-4ece-8ede-a81413a629a5.rna_seq.augmented_star_gene_counts.tsv	1012	512	500	17.3996	7.4955	9.2499
ef23aadc-bbe0-4070-b3b1-4e5d84b0e0ea.rna_seq.augmented_star_gene_counts.tsv	2102	1061	1041	86.4668	28.1461	31.2525
33e23705-397c-4651-beea-254110c365e4.rna_seq.augmented_star_gene_counts.tsv	5239	2639	2600	104.4194	32.8137	46.2572
8e0dceff-a192-4a03-967d-1aff965ca4d2.rna_seq.augmented_star_gene_counts.tsv	1830	892	938	77.5026	26.6451	31.5742
495c8ae2-4d4d-49ac-9b0a-3081f02fd041.rna_seq.augmented_star_gene_counts.tsv	7375	3683	3692	149.5609	54.5091	76.2880
6ff7be81-1c7d-4a49-b5ab-3b1c171d4f87.rna_seq.augmented_star_gene_counts.tsv	3569	1800	1769	58.6274	23.1174	37.4046
92385f19-0c30-4014-845b-cad864782b61.rna_seq.augmented_star_gene_counts.tsv	2084	1051	1033	43.5740	15.5111	33.9192
714a804d-cf2e-41a2-9763-ecf617ea3061.rna_seq.augmented_star_gene_counts.tsv	5263	3	5260	123.4116	44.3251	43.1017
93bbec66-e574-4c6a-96cc-24c4c1cb41a7.rna_seq.augmented_star_gene_counts.tsv	2966	1471	1495	136.4025	38.8118	35.6633
c329e10b-efa3-4caa-a792-18a4df50fc8c.rna_seq.augmented_star_gene_counts.tsv	563	4	559	24.2166	12.2686	13.1517
1075a6d9-44df-4720-ba41-8050ae748344.rna_seq.augmented_star_gene_counts.tsv	2528	1232	1296	95.9433	29.3264	28.0887
063eb81b-ea56-4c6d-b011-a024f971cb1c.rna_seq.augmented_star_gene_counts.tsv	4004	6	3998	112.3990	38.7364	35.9203
5b40cf16-d9cc-4ef8-9aab-11f941f6aec5.rna_seq.augmented_star_gene_counts.tsv	1927	0	1927	31.6261	12.2560	12.3282
1cb99a58-aee1-4c4c-a9e2-fd8c084fe073.rna_seq.augmented_star_gene_counts.tsv	1525	747	778	26.7857	11.7685	16.7405
2ddbf110-a158-47bc-8da9-6705c563ce1d.rna_seq.augmented_star_gene_counts.tsv	2528	1271	1257	68.7357	18.8400	17.7872
1a7e9700-1994-4624-bfe9-e94f33ee3989.rna_seq.augmented_star_gene_counts.tsv	474	269	205	8.3686	2.9128	3.4591
db9cb4ae-07f5-4599-9e0b-b2289cc487d9.rna_seq.augmented_star_gene_counts.tsv	684	322	362	32.8554	9.7020	10.0827
8eb51333-09bf-4477-9725-355d65c72753.rna_seq.augmented_star_gene_counts.tsv	74	28	46	1.2094	0.4928	0.8994
f66fabc1-1e97-4c21-a63f-5313d362775e.rna_seq.augmented_star_gene_counts.tsv	425	220	205	15.7283	6.5889	8.2197
d563ff4e-7e86-45eb-849b-3e7e5bdfd98e.rna_seq.augmented_star_gene_counts.tsv	21797	10839	10959	355.0817	83.0585	74.1109
6f2c61ef-9038-4d9c-a11e-0ad8e1938026.rna_seq.augmented_star_gene_counts.tsv	1508	779	729	25.4019	11.4294	25.4246
fc47ffc6-4a8e-446e-91d9-e983362c6dfe.rna_seq.augmented_star_gene_counts.tsv	8115	4072	4043	136.2916	47.1986	71.6811
f9963ac2-b1c9-4a24-b077-be1a4007d20d.rna_seq.augmented_star_gene_counts.tsv	3875	1975	1900	71.9688	25.9603	34.9652
ce7375f7-b7ef-48cf-897a-59d5df6253da.rna_seq.augmented_star_gene_counts.tsv	1819	912	907	72.4907	23.6131	25.0573
4772e349-a753-4c41-9c48-ae3af0f58520.rna_seq.augmented_star_gene_counts.tsv	3747	1877	1870	69.7910	26.9134	29.4278
7cca1b38-779e-4cef-b0ab-4bc45994f4df.rna_seq.augmented_star_gene_counts.tsv	1326	626	700	40.7068	17.6264	18.6851
43d39f8d-3fc9-4e76-9502-75fbbcf1b859.rna_seq.augmented_star_gene_counts.tsv	310	1	309	21.5921	8.3543	6.9992
f71229d0-d648-46db-833d-f72192a54d32.rna_seq.augmented_star_gene_counts.tsv	393	3	390	40.6119	17.0076	15.6705
fab2447c-95cb-4fd7-94d1-b9c9674f5cf5.rna_seq.augmented_star_gene_counts.tsv	2696	4	2693	62.0098	21.6309	21.5555
caf40242-69a1-4e80-9f56-978262af3deb.rna_seq.augmented_star_gene_counts.tsv	4022	2084	1939	44.3672	19.9364	30.7317
1c7309b2-91f0-4305-aad7-f86c0d143559.rna_seq.augmented_star_gene_counts.tsv	6224	3055	3169	99.9688	28.2294	26.8878
ad1f66de-1ad0-406f-a093-e401d7402af4.rna_seq.augmented_star_gene_counts.tsv	807	4	803	28.3891	10.2737	9.6865
8583e22d-3d94-4185-82b0-7659c09fc51a.rna_seq.augmented_star_gene_counts.tsv	2929	0	2929	71.3215	30.4407	26.6462
77005fc3-4d4e-419e-93b1-9dfe6999f587.rna_seq.augmented_star_gene_counts.tsv	1765	934	831	29.8645	10.9200	15.2773
74c5f3e2-ba66-4d3e-8a44-6e97ede2ef22.rna_seq.augmented_star_gene_counts.tsv	256	127	129	8.7103	3.6217	4.4553
436b1b6a-4915-40b5-9f97-5b0ee2d6d3fb.rna_seq.augmented_star_gene_counts.tsv	4169	0	4169	127.5787	51.4172	56.0359
a738f130-d151-463b-9889-2d379ebe52d2.rna_seq.augmented_star_gene_counts.tsv	6747	3413	3335	98.9328	37.1368	82.4688
45ea416c-9172-4eda-9d87-b9e17148d2d4.rna_seq.augmented_star_gene_counts.tsv	8037	3947	4090	84.0144	32.1109	67.6684
57c4a274-647d-4499-a8f8-a79e446ab4a7.rna_seq.augmented_star_gene_counts.tsv	2068	1027	1041	45.8477	13.8271	12.7138
6718463d-6f44-47c7-a622-c149f344ffbd.rna_seq.augmented_star_gene_counts.tsv	1178	601	577	41.9937	14.6507	15.7789
e5c4a8d4-f43f-4dc6-913d-3b2005326fc2.rna_seq.augmented_star_gene_counts.tsv	1166	601	565	53.2636	19.3480	22.4669
0984499c-19ef-4174-82ce-491a336f8e70.rna_seq.augmented_star_gene_counts.tsv	6966	3540	3426	128.7927	41.0757	41.0368
f1bfbced-7b76-4cba-98d5-59d02ebb1a52.rna_seq.augmented_star_gene_counts.tsv	3289	0	3289	68.7898	26.5096	24.0414
404902c7-47fd-4860-b7e2-e682d8a1880a.rna_seq.augmented_star_gene_counts.tsv	1472	775	697	24.4097	6.8336	6.4809
7bbee063-8892-4e22-add3-77bfabbfd0ad.rna_seq.augmented_star_gene_counts.tsv	6254	3168	3086	98.1662	31.6562	30.4237
a1eaf5b1-6c7f-47bf-8a51-6bc24129aa7f.rna_seq.augmented_star_gene_counts.tsv	220	116	104	3.5599	1.4143	1.9600
9e28b00a-85df-4126-a619-cffc2d5abad2.rna_seq.augmented_star_gene_counts.tsv	3385	1673	1712	68.4414	24.3453	26.4808
f0944087-afaa-4817-9529-e6e5a8c50ca7.rna_seq.augmented_star_gene_counts.tsv	2730	1338	1392	115.8113	41.9005	39.6490
7519dae8-dfee-413d-995d-d005fdddb4b1.rna_seq.augmented_star_gene_counts.tsv	190	86	104	2.2397	0.8736	1.2853
96a00cc6-3880-4f03-a08d-73d284787971.rna_seq.augmented_star_gene_counts.tsv	2010	994	1016	75.3068	23.8516	22.9835
7298e35d-8405-4662-bc88-6d9fecb41286.rna_seq.augmented_star_gene_counts.tsv	1582	789	793	53.7121	18.3917	18.6746
e7766ea7-e3c8-4bcb-ac94-1811088a0aea.rna_seq.augmented_star_gene_counts.tsv	2188	1062	1126	59.9818	24.8671	25.7058
1ca692e6-1dff-4d84-ace1-671bac7b9f61.rna_seq.augmented_star_gene_counts.tsv	1447	2	1445	54.0935	21.1017	19.7923
48e3eab5-b82e-4dbb-88d2-e5cfe295fa88.rna_seq.augmented_star_gene_counts.tsv	9659	4964	4695	179.5478	52.7863	50.9076
437791c8-3239-4983-8f7c-b05de583e0f4.rna_seq.augmented_star_gene_counts.tsv	135	0	135	13.2101	4.5877	4.0192
d1f2718d-c821-45b8-aabc-0e536c2d3fd3.rna_seq.augmented_star_gene_counts.tsv	4043	2073	1970	71.9570	24.9745	27.9212
da658a99-8972-473e-9754-9712be0b1b25.rna_seq.augmented_star_gene_counts.tsv	6832	3484	3348	98.7749	37.4370	40.0194
94a92a4a-6c40-40c4-913d-0cdba8cb5892.rna_seq.augmented_star_gene_counts.tsv	1874	939	935	86.6085	31.1792	34.4404
871e5874-2343-46c5-a234-9017a7f29ca2.rna_seq.augmented_star_gene_counts.tsv	1466	766	700	21.1693	9.0306	15.0441
5b5ae19f-dd3c-4569-98a7-6e713fa6a08b.rna_seq.augmented_star_gene_counts.tsv	170	0	170	6.2988	2.8046	2.6635
40540422-c580-45b1-8549-4444761059f5.rna_seq.augmented_star_gene_counts.tsv	1915	0	1915	74.9431	27.8524	24.9087
dc3154b7-6ae4-446a-8a80-91a86c57cefe.rna_seq.augmented_star_gene_counts.tsv	1715	865	850	27.8314	14.6115	23.7938
e8968a79-81e7-47e3-8ec2-f832b9bdda93.rna_seq.augmented_star_gene_counts.tsv	752	7	745	24.0441	11.1371	11.1780
263a1bf6-1d33-4148-8c26-5607d03f8099.rna_seq.augmented_star_gene_counts.tsv	771	361	410	14.6059	5.4042	8.3982
00871caf-3f63-499e-a152-5a6b19834bf7.rna_seq.augmented_star_gene_counts.tsv	1066	0	1066	34.5695	12.2337	11.7937
891cdc8f-5bda-455c-81f7-cac85d470368.rna_seq.augmented_star_gene_counts.tsv	639	313	326	19.6147	9.1729	10.9762
9460e172-628a-4cc0-bd66-ae2635b858bc.rna_seq.augmented_star_gene_counts.tsv	1924	946	978	61.4523	20.7868	20.8402
e06d03bf-f690-495f-b131-57ae563af95e.rna_seq.augmented_star_gene_counts.tsv	677	4	673	36.9076	16.6861	16.2554
35b681b7-178f-4057-be97-096cf9b8d1ab.rna_seq.augmented_star_gene_counts.tsv	132	55	77	3.7512	2.1343	2.9417
0181bca8-b347-4106-8084-a32f87253dc9.rna_seq.augmented_star_gene_counts.tsv	2666	1321	1345	40.3193	15.1808	15.0894
8befb9ff-1628-4469-9b84-4fa9c72efd19.rna_seq.augmented_star_gene_counts.tsv	174	77	97	21.9537	11.0485	13.5624
e5e88ea0-10c6-4424-943a-161b11b26cbe.rna_seq.augmented_star_gene_counts.tsv	6022	2999	3023	133.4217	37.6651	34.8665
ae0d8ed3-e789-4ef8-b0c2-58e8ad7a3962.rna_seq.augmented_star_gene_counts.tsv	2489	1229	1260	44.7023	15.6320	22.0234
415b79c0-10e4-403a-9d45-dba9a7b7dae6.rna_seq.augmented_star_gene_counts.tsv	755	375	380	25.3584	8.3601	8.2631
7241900e-f913-49b9-970f-74f571a3a47d.rna_seq.augmented_star_gene_counts.tsv	183	87	96	8.2108	2.2525	2.0681
3a1fb884-c461-455e-b01e-2bf92780b2a5.rna_seq.augmented_star_gene_counts.tsv	1418	702	716	28.1221	10.7830	12.7839
f069599f-19ca-44eb-b0cb-52eeefc35b82.rna_seq.augmented_star_gene_counts.tsv	327	163	164	11.1089	4.1186	3.8491
8652918d-bf8c-484b-9dd0-518424df879e.rna_seq.augmented_star_gene_counts.tsv	2061	995	1066	40.9377	13.6898	16.5983
cce82505-bf1b-4b33-9359-9cf9a75e3f4b.rna_seq.augmented_star_gene_counts.tsv	9363	4679	4684	123.6572	38.0715	36.1268
734ed05f-459e-4cd4-8d1e-e9b2d89df3ea.rna_seq.augmented_star_gene_counts.tsv	1343	677	666	26.4627	10.6125	19.6893
64c42fa6-9a40-4007-a0c1-c71dd67f402a.rna_seq.augmented_star_gene_counts.tsv	134	65	69	5.6401	1.8999	2.4112
245a08d4-fcda-4bbf-b213-6e815d914e1d.rna_seq.augmented_star_gene_counts.tsv	762	367	395	13.1586	4.4275	5.1078
c7c1bdcf-667e-497c-8167-6f84fa5a99e3.rna_seq.augmented_star_gene_counts.tsv	415	202	213	4.7889	1.8903	3.5113
829c5a9a-cc8f-48f9-8a44-7abe9e57d67f.rna_seq.augmented_star_gene_counts.tsv	5046	2491	2555	105.8102	33.6538	31.2699
a88a1582-88b8-4e7e-9baf-09279b49a492.rna_seq.augmented_star_gene_counts.tsv	8961	4461	4500	142.4565	36.9380	35.9460
042bb5d0-32af-4905-a09f-6baa2133ac78.rna_seq.augmented_star_gene_counts.tsv	554	292	262	25.9601	9.2330	10.8226
c9121b65-c539-4f45-9f3c-334c85aa1cd0.rna_seq.augmented_star_gene_counts.tsv	539	0	541	24.3334	8.7414	8.0699
2d3a1314-af5e-4982-83bb-92b37289615a.rna_seq.augmented_star_gene_counts.tsv	3203	4	3199	61.3127	27.5327	24.7821
4c34db2e-e3cd-46d9-85ac-4277a1f036f1.rna_seq.augmented_star_gene_counts.tsv	3867	1889	1978	107.7185	46.2589	69.9081
7e019662-154e-4eca-b85c-ac01411fabea.rna_seq.augmented_star_gene_counts.tsv	18814	9428	9386	281.5778	102.2649	144.6108
c9d871ba-e6ca-49b0-99e1-02d2760291f7.rna_seq.augmented_star_gene_counts.tsv	337	166	171	6.0420	2.0313	2.2187
2fc30776-1bf8-4481-9145-4e3dc5556aca.rna_seq.augmented_star_gene_counts.tsv	4273	2184	2089	81.2480	28.1910	27.9421
3e4041a1-13b5-48de-b952-0dcee41c4232.rna_seq.augmented_star_gene_counts.tsv	1080	525	555	37.9891	16.5151	18.6755
6cbe403c-5c2c-4cb7-8f8c-37424f2917a2.rna_seq.augmented_star_gene_counts.tsv	4185	2	4183	59.5189	26.6136	23.2916
c39123ba-a337-44f3-9a35-8be6098de781.rna_seq.augmented_star_gene_counts.tsv	29353	14796	14557	453.2134	140.6144	141.7372
25b91c9a-6d52-4bc9-b6cc-e41d2c128b7b.rna_seq.augmented_star_gene_counts.tsv	4842	2471	2371	67.0004	22.5680	22.2416
1047bb4b-a6f2-4827-84c1-f3d4f08363d2.rna_seq.augmented_star_gene_counts.tsv	5475	0	5475	99.2094	36.6502	33.0504
11f1bcdf-e5f6-484c-8cdc-347dcee69169.rna_seq.augmented_star_gene_counts.tsv	987	486	501	27.9184	11.2128	13.9462
9aa5eb7d-1d54-47f6-aeeb-59be4880f004.rna_seq.augmented_star_gene_counts.tsv	9067	4514	4553	147.9453	48.4067	47.8200
ec3aac56-028a-4869-8d68-019a58774640.rna_seq.augmented_star_gene_counts.tsv	144	82	62	2.3162	0.8684	1.3977
99898625-cd73-44bf-8a52-dbd47eeb12af.rna_seq.augmented_star_gene_counts.tsv	2345	1191	1154	108.2118	31.5089	32.7688
86a0a3ab-d3bc-4897-b6ed-97246cccc122.rna_seq.augmented_star_gene_counts.tsv	607	297	310	15.8450	4.5240	4.0967
b849f8c0-4937-4e95-bfc7-c8da9340d021.rna_seq.augmented_star_gene_counts.tsv	6017	3067	2950	65.3504	22.6585	24.7888
6f0598b2-b16b-435d-86b4-d08fc01d25de.rna_seq.augmented_star_gene_counts.tsv	2127	3	2124	36.4364	15.0161	14.2838
7acbca97-f38d-4da8-8d82-53a8eb0a43ef.rna_seq.augmented_star_gene_counts.tsv	14265	7233	7032	188.9973	50.4202	52.1605
7f9dadec-d447-41be-a192-637ce36467da.rna_seq.augmented_star_gene_counts.tsv	3277	1638	1639	62.4922	22.8686	24.6208
b794f773-0759-4192-a509-2fd9970b3cf1.rna_seq.augmented_star_gene_counts.tsv	223	0	223	5.3646	1.7564	1.6126
e70a35cc-868c-4c31-af69-a0b2b566936d.rna_seq.augmented_star_gene_counts.tsv	3677	1840	1837	49.1307	19.9265	24.1567
5acb13f5-bf70-4a8f-81d6-cd8e13565af7.rna_seq.augmented_star_gene_counts.tsv	9314	4653	4663	111.2171	35.8198	36.3172
00f7bc03-af70-4cab-9ff2-c0a7b7887236.rna_seq.augmented_star_gene_counts.tsv	4727	5	4723	152.9118	63.2794	64.5570
819e9776-131f-4c00-b93c-9936cbcc55b8.rna_seq.augmented_star_gene_counts.tsv	4754	2341	2413	153.8954	43.5855	41.9749
35f0d6a3-a27f-4359-b9d1-75c915f311fd.rna_seq.augmented_star_gene_counts.tsv	5552	2756	2796	97.7139	33.4238	33.8511
6bf245e5-f2c6-48af-8490-9e18981c1c28.rna_seq.augmented_star_gene_counts.tsv	5274	2625	2650	105.2366	29.4913	27.1327
25c06372-1130-44dd-bd1b-61660e57c271.rna_seq.augmented_star_gene_counts.tsv	3970	1	3969	123.3944	50.7063	58.5907
fa8a5220-adec-491f-a3f6-a4ca35beb540.rna_seq.augmented_star_gene_counts.tsv	5538	2771	2767	69.6008	20.6179	21.3218
0203f8e9-dd4b-45f7-bc05-aff182ced29d.rna_seq.augmented_star_gene_counts.tsv	1692	870	822	18.0450	8.4096	10.8978
2a85a4ed-ee55-44df-b29e-52d0c51d23e4.rna_seq.augmented_star_gene_counts.tsv	3334	1697	1637	86.6216	27.7175	28.1857
4ab26916-9f30-417e-bc71-a454e92a731a.rna_seq.augmented_star_gene_counts.tsv	6046	2967	3079	83.5724	25.9270	27.4129
7914c6cf-464e-4e63-80f6-47f10cc90f35.rna_seq.augmented_star_gene_counts.tsv	2092	1067	1025	74.4685	22.6606	22.5654
aa74d8a8-4089-477b-bf4e-25bb23cda909.rna_seq.augmented_star_gene_counts.tsv	551	258	293	17.5911	7.9125	10.3973
8d6ae71d-5622-4553-b992-c0c59c703e59.rna_seq.augmented_star_gene_counts.tsv	1133	567	566	36.7194	12.9573	17.9510
c4466851-a97d-4bd4-9329-a75ecc915692.rna_seq.augmented_star_gene_counts.tsv	793	402	391	25.8532	9.5942	12.8128
c59d226c-73f2-4d14-8af9-5130673f9cd7.rna_seq.augmented_star_gene_counts.tsv	229	100	129	8.3052	2.8649	3.1602
8c76ce45-f110-4f6a-b413-13a1a1aeddef.rna_seq.augmented_star_gene_counts.tsv	196	96	100	11.0609	3.7546	4.4382
ac4ec2c7-9dcb-4863-9e27-00dabfa7c747.rna_seq.augmented_star_gene_counts.tsv	3266	1588	1678	60.9245	24.7068	39.4234
0084369c-3778-4220-9846-f1193b48e1db.rna_seq.augmented_star_gene_counts.tsv	295	160	135	20.6435	6.3803	6.3729
b52b8324-2c05-4cd0-8838-840c52cebff4.rna_seq.augmented_star_gene_counts.tsv	2782	1	2781	67.8348	21.8671	20.8462
c04d4ab8-8c79-4f44-9ad4-b71b0aca3194.rna_seq.augmented_star_gene_counts.tsv	1269	603	666	49.5470	14.8938	13.8812
3bfa7140-ed14-41bf-aa12-5eac3535885a.rna_seq.augmented_star_gene_counts.tsv	4815	2434	2381	79.4581	30.2438	44.9642
b13b2626-0127-4087-811e-5f4b103935ec.rna_seq.augmented_star_gene_counts.tsv	5673	0	5673	129.6165	40.6768	35.8830
cb871791-fc35-4adf-90e6-0bb363558df1.rna_seq.augmented_star_gene_counts.tsv	4703	2424	2279	85.9506	28.0262	26.5363
730603d9-7613-469b-990b-1b79ab133290.rna_seq.augmented_star_gene_counts.tsv	944	469	475	27.6231	11.7226	15.3807
46a4ba0d-0b16-4c58-839a-4a38eabc6657.rna_seq.augmented_star_gene_counts.tsv	2118	0	2118	74.0463	22.3584	21.4862
765304e7-ec35-4aef-a646-8f264044cf23.rna_seq.augmented_star_gene_counts.tsv	835	415	420	14.5063	5.9694	14.0360
f20785b9-991d-4b87-8ba7-ca32373f1996.rna_seq.augmented_star_gene_counts.tsv	3496	1740	1756	64.4120	20.3390	20.7904
f363b139-4741-4d30-84f7-4bd25ba062bc.rna_seq.augmented_star_gene_counts.tsv	4302	2189	2113	84.3790	27.7596	29.5422
b5fdddac-3219-4d9a-bdec-ba5a505c154b.rna_seq.augmented_star_gene_counts.tsv	6108	3081	3028	88.9804	25.7793	25.9352
40520155-cef3-46d1-a6f4-9d6b7005a6de.rna_seq.augmented_star_gene_counts.tsv	2019	0	2019	40.2078	16.6868	14.1545
fc8cc23a-6b02-4a99-a6d7-5c01b85fa0d1.rna_seq.augmented_star_gene_counts.tsv	616	321	295	16.6069	6.3491	10.8454
d48a588b-b49b-4b35-bd73-141669318f13.rna_seq.augmented_star_gene_counts.tsv	2288	1156	1132	38.0355	15.6941	17.7668
927fbb8a-acc0-4f3a-9d58-20650e187554.rna_seq.augmented_star_gene_counts.tsv	108	61	47	1.6404	0.5654	0.7763
44b89131-757f-4f93-9e83-b7011ee83266.rna_seq.augmented_star_gene_counts.tsv	1136	566	570	22.4409	16.0156	25.2805
af1598cb-dea5-45dd-861b-8c0df85f8951.rna_seq.augmented_star_gene_counts.tsv	214	124	90	25.3987	8.3704	8.4894
01d0e31b-3978-4208-b963-bbaffe938aa7.rna_seq.augmented_star_gene_counts.tsv	317	163	154	13.1299	4.6312	6.7035
9d2f9191-338e-49ea-a887-a808cdf2703f.rna_seq.augmented_star_gene_counts.tsv	37286	18661	18625	685.4189	267.8391	306.8139
52ead51d-c3eb-4915-8c87-773c06b31779.rna_seq.augmented_star_gene_counts.tsv	1255	614	641	51.5209	15.8225	16.9420
235b04f8-cfb4-49ab-93c0-e9dd4cbe4e46.rna_seq.augmented_star_gene_counts.tsv	1164	588	576	63.1331	20.5042	23.5396
7472f815-529d-4c2b-815b-be731c9ff4b9.rna_seq.augmented_star_gene_counts.tsv	1396	16	1380	58.6759	23.6761	20.9010
311d89d5-9845-4d61-a801-8e0990be5d24.rna_seq.augmented_star_gene_counts.tsv	1276	656	620	42.7013	14.1589	21.0778
8ece5ec1-88c8-4d50-942c-11be8ca9b8c9.rna_seq.augmented_star_gene_counts.tsv	6005	2	6003	133.6807	49.3407	45.4360
c84fcf80-2e54-4890-839e-ac187d38431f.rna_seq.augmented_star_gene_counts.tsv	2107	1049	1058	53.3218	21.8264	30.8901
6c8ba378-3d51-46a8-ac10-41652da21459.rna_seq.augmented_star_gene_counts.tsv	11057	5517	5540	196.8298	80.4070	137.6448
3c05c010-995e-4576-a4a6-8843ecc67368.rna_seq.augmented_star_gene_counts.tsv	582	0	583	33.6726	12.2272	11.0191
14e80841-cfb9-42fb-9cae-db9f282ba4fd.rna_seq.augmented_star_gene_counts.tsv	878	432	446	12.1342	4.2474	5.8280
7c1d65f0-c157-4502-a8ed-c88578d4eade.rna_seq.augmented_star_gene_counts.tsv	31416	15809	15607	428.6136	142.3227	188.9471
ba8781b9-be39-4c02-82ad-19ab29b7af15.rna_seq.augmented_star_gene_counts.tsv	2012	0	2012	74.9084	20.8428	20.0438
9f051fa2-2cc7-433a-b8b4-5829a51e9a65.rna_seq.augmented_star_gene_counts.tsv	4145	2063	2082	94.3410	28.1271	28.5367
4d4134d3-87a8-449a-a6e4-587f1cfebdac.rna_seq.augmented_star_gene_counts.tsv	2269	1138	1131	58.3755	15.6083	15.0533
48431b07-9e30-47cf-9419-5252f720d63f.rna_seq.augmented_star_gene_counts.tsv	549	0	549	14.3310	5.6905	4.9711
39585364-6f4c-4b42-843f-ddca80061eb3.rna_seq.augmented_star_gene_counts.tsv	999	490	509	18.1239	6.1850	5.9748
70b45a47-52ad-40a1-97db-ef145353922e.rna_seq.augmented_star_gene_counts.tsv	1169	567	602	17.6246	6.1811	7.7688
f48956a3-c821-429f-b1ad-a27133d739bd.rna_seq.augmented_star_gene_counts.tsv	9830	4905	4925	237.8767	62.4547	58.9326
dddbb4fe-4c79-4f38-9105-1caf7678e971.rna_seq.augmented_star_gene_counts.tsv	803	408	395	36.0535	10.4924	10.0003
885565bd-ab8a-4270-8c9e-f34a028c4ffc.rna_seq.augmented_star_gene_counts.tsv	639	6	633	19.6864	7.3318	6.7702
813798a6-fbf5-442a-829c-7f7eb5062dbf.rna_seq.augmented_star_gene_counts.tsv	143	70	73	4.7918	1.7365	1.6823
89e9e5fd-875b-4574-81f8-016eb83d32d1.rna_seq.augmented_star_gene_counts.tsv	2927	1445	1482	108.3557	32.3473	32.8040
dc644a23-b141-42bc-b380-0b99ff5b3e14.rna_seq.augmented_star_gene_counts.tsv	3257	1	3256	65.4980	25.3179	22.0561
d85ea3ad-ab38-453d-b382-06cea6bc9e1b.rna_seq.augmented_star_gene_counts.tsv	67	30	37	0.8894	0.3464	0.4914
cc279c31-96a1-45aa-82fd-e8a548086706.rna_seq.augmented_star_gene_counts.tsv	7221	3588	3633	144.9824	42.2022	40.2029
05ac3e7c-1b87-4391-83c9-d0e0a95f1a56.rna_seq.augmented_star_gene_counts.tsv	2647	1	2646	57.6714	20.3930	20.1288
87bf2a08-7e13-451d-94e8-55f8ddbc4b58.rna_seq.augmented_star_gene_counts.tsv	3658	1	3657	106.2681	36.9900	34.0572
b4aa381f-9895-4bdc-818b-6deec03782bf.rna_seq.augmented_star_gene_counts.tsv	2425	11	2414	46.0900	15.0689	13.7429
b6d05718-ee0c-46be-b612-03d2b37662cf.rna_seq.augmented_star_gene_counts.tsv	3064	4	3060	70.7033	25.1523	23.2286
fe036511-fe82-467c-9c6e-59bfb8b0a329.rna_seq.augmented_star_gene_counts.tsv	2299	1137	1162	80.6807	19.4183	17.4248
17de0382-9545-4c6e-b348-3f53e3d58ddb.rna_seq.augmented_star_gene_counts.tsv	3513	1729	1784	34.4824	13.5745	16.1453
646acf23-d998-46bc-a5cc-998c7cff6924.rna_seq.augmented_star_gene_counts.tsv	842	409	433	40.0197	12.4109	13.2862
752a68ed-433b-4da9-8e88-b49ba308c53c.rna_seq.augmented_star_gene_counts.tsv	9716	4918	4798	157.1088	38.6242	35.5269
13e18e29-9f8a-4bd4-9a5d-e6c30668d07a.rna_seq.augmented_star_gene_counts.tsv	2710	1337	1373	45.7079	17.2687	24.4531
8683d8f5-bba5-40a1-a460-ad6183d2302b.rna_seq.augmented_star_gene_counts.tsv	2665	1384	1281	47.6892	16.7892	21.4849
4df97711-6ecf-483c-a2c7-4952c44a2b69.rna_seq.augmented_star_gene_counts.tsv	138	75	63	1.5644	0.6425	1.0665
5461c4fa-4a05-411a-b445-1634d0c099c8.rna_seq.augmented_star_gene_counts.tsv	8930	3	8927	139.1263	49.6422	44.3101
b496f33b-4f96-408d-9851-c5ccf57640c3.rna_seq.augmented_star_gene_counts.tsv	228	114	114	4.5663	1.5377	2.1793
a30fbe4d-3d15-46e6-acba-58a35c22965b.rna_seq.augmented_star_gene_counts.tsv	3080	0	3080	73.0662	26.3286	22.2515
240a8e7c-fd1e-4c02-9333-732bd7c0ba28.rna_seq.augmented_star_gene_counts.tsv	2292	0	2292	62.0765	24.8489	21.5855
cfbc5655-64b8-4adf-85b2-3176defb6c42.rna_seq.augmented_star_gene_counts.tsv	3242	1526	1716	153.5281	41.9018	42.8337
8f9e712f-e4e8-44b2-96be-fa87b630428c.rna_seq.augmented_star_gene_counts.tsv	98	52	46	1.4079	0.6075	1.0339
d5de14af-ed60-4f85-9fc2-8844f0894166.rna_seq.augmented_star_gene_counts.tsv	822	2	820	32.3257	12.3698	12.0170
81f9213e-6abf-4a0e-9dac-103c76294772.rna_seq.augmented_star_gene_counts.tsv	7209	3615	3594	186.1035	49.9853	53.2979
d25af392-21ad-4aa6-8669-34656bf71af5.rna_seq.augmented_star_gene_counts.tsv	627	295	332	49.1722	17.6716	18.2466
f5f63b6b-a693-460f-a25c-69e3b0944a8e.rna_seq.augmented_star_gene_counts.tsv	2532	1266	1266	114.9617	31.1953	27.7947
b2081f1a-e729-4120-8bbd-19a6cff35bd1.rna_seq.augmented_star_gene_counts.tsv	2176	1089	1087	32.7423	11.9462	17.6805
9953447a-4d33-4a53-8395-4ac0fa67ed42.rna_seq.augmented_star_gene_counts.tsv	54	32	22	0.5410	0.2289	0.4031
7763cc7c-8b33-46ec-9614-b6eafc7a3191.rna_seq.augmented_star_gene_counts.tsv	3597	1852	1745	48.7388	19.1750	20.8885
8a6fcf82-a349-4f74-9969-65a056fe9577.rna_seq.augmented_star_gene_counts.tsv	628	340	288	8.2928	3.3580	6.7928
de5a4588-05ec-461f-9235-90611b01f4b6.rna_seq.augmented_star_gene_counts.tsv	3046	1537	1509	53.3712	13.7235	13.2455
e393396b-ac51-4a3c-953e-c675943bccef.rna_seq.augmented_star_gene_counts.tsv	2656	7	2649	61.0118	21.0054	19.9237
566d5a5c-9035-4945-89f1-f1101bff18ff.rna_seq.augmented_star_gene_counts.tsv	2533	1242	1291	89.9736	26.6508	27.2654
8ad884fa-e426-4bc0-960d-08db42d341da.rna_seq.augmented_star_gene_counts.tsv	726	333	393	9.9720	6.8569	14.2364
40f50e4f-9834-4f9f-b6c8-c8b05715eb89.rna_seq.augmented_star_gene_counts.tsv	1064	544	520	55.2373	17.6450	17.1557
98f4637a-4953-4f52-b90a-c768d005a3e7.rna_seq.augmented_star_gene_counts.tsv	23933	11979	11954	265.8877	88.9709	99.1124
f2f218c6-82c6-454a-aebd-792807b9d166.rna_seq.augmented_star_gene_counts.tsv	1318	657	661	108.5036	40.9440	39.4663
3d05e9c9-36ba-445f-a51d-b4091f8d38b4.rna_seq.augmented_star_gene_counts.tsv	1210	614	596	35.1656	21.1852	28.3082
1d36ab5e-839d-47ac-914f-2c7f8499a498.rna_seq.augmented_star_gene_counts.tsv	3872	1954	1918	76.8979	35.7360	35.7972
992ce1bc-46a2-4f57-ac7a-c6368c69c67c.rna_seq.augmented_star_gene_counts.tsv	3628	1863	1765	77.8352	25.9933	26.7844
6ce73d9b-3037-437d-862a-8f8b87a09fe0.rna_seq.augmented_star_gene_counts.tsv	393	187	206	9.2974	4.6511	6.5688
3925a63a-fe3f-4aea-a45e-cab2790ed53e.rna_seq.augmented_star_gene_counts.tsv	1087	0	1087	23.1106	7.0550	6.1851
95cb4391-30a4-4e88-9f45-d6dc817c1ee2.rna_seq.augmented_star_gene_counts.tsv	4306	2	4304	114.9881	54.5298	66.7905
c3ee66f2-c489-47df-9b05-6dac8205f8f9.rna_seq.augmented_star_gene_counts.tsv	15239	7627	7613	234.8647	85.7787	85.3947
43e174bb-c161-4eb9-8643-de690413a7a4.rna_seq.augmented_star_gene_counts.tsv	668	342	326	10.3790	2.9446	2.6528
4999a004-b9d4-4f1a-95a9-24ba6c2888ad.rna_seq.augmented_star_gene_counts.tsv	1493	744	749	58.3627	18.8028	20.1549
a68cfb4e-161c-4d0d-851d-47d2c0be582c.rna_seq.augmented_star_gene_counts.tsv	1272	652	620	6.6584	11.8952	15.0841
bf96da08-98b9-4f16-95f6-c73f1e70c312.rna_seq.augmented_star_gene_counts.tsv	991	500	491	36.3413	12.2012	12.8847
894424ab-29c3-4f41-88e7-f59d0df10c28.rna_seq.augmented_star_gene_counts.tsv	3350	1743	1607	100.2670	28.1049	27.9140
96d07b9b-c31c-40cc-8e12-0748cafbf5cd.rna_seq.augmented_star_gene_counts.tsv	2197	1139	1058	24.6371	10.0652	19.7323
c00f7120-4106-4f03-a967-e80a35e311ce.rna_seq.augmented_star_gene_counts.tsv	1382	718	664	53.2835	16.6026	16.3886
0de12afd-43cc-49e7-a932-21f43ec4f92a.rna_seq.augmented_star_gene_counts.tsv	9964	0	9964	92.6603	39.8576	37.1340
1b8a76cc-0a8b-422b-901e-2c1a45fb9486.rna_seq.augmented_star_gene_counts.tsv	9138	4567	4571	153.6800	52.5771	67.7532
571cd609-a911-4617-95ae-f55ec2805067.rna_seq.augmented_star_gene_counts.tsv	476	222	254	8.7081	3.3121	7.2527
c1f2ea2b-7576-4d3d-ab1f-7d4592146140.rna_seq.augmented_star_gene_counts.tsv	2907	0	2907	72.3294	21.2254	19.0658
6f73a012-899f-46a6-963f-4c04a3c6af2b.rna_seq.augmented_star_gene_counts.tsv	2302	1104	1198	116.3949	34.8329	31.1031
1f6d7667-b1ed-4577-9005-a6ffb9a4f547.rna_seq.augmented_star_gene_counts.tsv	2120	1083	1037	36.4567	12.8844	21.1843
bf312cd5-e251-4d63-95b5-c379b3ef5ded.rna_seq.augmented_star_gene_counts.tsv	2274	1095	1179	58.3766	18.5550	18.9228
0290399e-1ee7-4b96-a482-5db47d84b606.rna_seq.augmented_star_gene_counts.tsv	29	0	29	49.0748	25.5361	9.9960
4cc5206f-03b3-4977-8e3e-4c6ea83406fa.rna_seq.augmented_star_gene_counts.tsv	6047	2	6045	175.5794	67.9482	76.5675
cabd9320-506a-4695-a18a-7c8602633f90.rna_seq.augmented_star_gene_counts.tsv	5308	2653	2655	102.1651	34.1514	33.3330
5929f6bf-85f8-4b79-ae2d-c5cddf2a9ed1.rna_seq.augmented_star_gene_counts.tsv	2601	1256	1345	58.0681	19.7911	23.2297
24eb973a-961c-4d12-a3f5-3ac7d841780b.rna_seq.augmented_star_gene_counts.tsv	3686	3	3684	80.4737	27.1143	24.3396
1f986941-841d-44d4-95f9-c3d4fcb71c04.rna_seq.augmented_star_gene_counts.tsv	187	92	95	4.5339	3.1355	5.7098
9c6906c3-a740-4231-88eb-54954e3ee8f6.rna_seq.augmented_star_gene_counts.tsv	1844	906	938	64.2818	22.7722	23.6383
097399b6-be8c-4a85-a5ce-399ad24e8680.rna_seq.augmented_star_gene_counts.tsv	1432	742	690	29.5289	9.4337	10.0551
64be61be-941f-4bb5-a06a-d281c3d4883f.rna_seq.augmented_star_gene_counts.tsv	964	3	961	21.0400	8.1390	7.6582
73fc90cb-2b56-4a6b-8083-42f6647a2478.rna_seq.augmented_star_gene_counts.tsv	3807	1914	1893	45.5433	16.0390	17.1609
a45a7511-4aa9-4d04-8f5f-34d12e4d5917.rna_seq.augmented_star_gene_counts.tsv	7178	3582	3596	161.6399	44.3083	40.6047
0aa9c77a-9724-4e8b-a114-e6d40373f6b4.rna_seq.augmented_star_gene_counts.tsv	4504	7	4498	139.6204	45.6738	46.6366
06cc0bc6-1b36-4318-99ee-dfc83cc134c0.rna_seq.augmented_star_gene_counts.tsv	12332	6204	6128	186.0107	67.3416	73.0921
f7b21076-fac1-4cb4-85a1-d293504b88e8.rna_seq.augmented_star_gene_counts.tsv	1282	607	675	78.6057	20.7817	21.2675
d705d53d-7b72-4a4c-b0fb-5c8cb551e634.rna_seq.augmented_star_gene_counts.tsv	1615	806	809	65.1789	19.7258	19.9604
e542fb86-0a49-4605-9c90-db135ab74bec.rna_seq.augmented_star_gene_counts.tsv	1865	888	977	32.6064	11.9000	17.0768
cec2d27e-cffc-425c-bbc5-8fda77eaa9b7.rna_seq.augmented_star_gene_counts.tsv	3142	2	3140	71.9208	26.1522	23.3632
169e2872-37bb-4091-bc4f-e23b506f6f4f.rna_seq.augmented_star_gene_counts.tsv	1671	805	866	72.7595	19.3665	16.6842
7f12ed96-b2d8-4b4b-8212-1d496f0a8923.rna_seq.augmented_star_gene_counts.tsv	1046	6	1040	41.2790	15.5817	15.2343
bcb03eb3-000b-403f-92b3-2732802dd9e0.rna_seq.augmented_star_gene_counts.tsv	3142	0	3142	70.4428	26.9657	23.7330
70298d42-f2da-4630-8808-b28ea38242ba.rna_seq.augmented_star_gene_counts.tsv	3040	4	3036	78.5856	25.6712	22.8181
364e9fa9-3e1f-47cc-959a-1a2b3061c5d4.rna_seq.augmented_star_gene_counts.tsv	4911	2447	2464	104.3347	29.4011	30.2041
b291037d-31f4-4303-95c9-7322950a45a7.rna_seq.augmented_star_gene_counts.tsv	1383	681	702	44.7862	12.1269	11.4196
4056b190-7cec-46d3-a4ee-6f76934ba58d.rna_seq.augmented_star_gene_counts.tsv	897	428	469	54.1440	20.3898	20.4308
748df5d4-527b-49d9-8093-c326cb61a015.rna_seq.augmented_star_gene_counts.tsv	4311	2136	2175	81.5862	22.3376	22.5183
56ba32c5-5ff7-4376-9acd-2deeb552dac2.rna_seq.augmented_star_gene_counts.tsv	729	350	379	36.8037	12.4664	12.9525
12305e97-f72f-4de7-9735-4cdbecb60296.rna_seq.augmented_star_gene_counts.tsv	480	240	240	17.4165	6.9971	10.4276
77c3097b-b711-43d9-9431-e27153899d55.rna_seq.augmented_star_gene_counts.tsv	276	120	156	8.3392	4.8193	6.6476
9f909512-d56f-4fcf-b5a3-c09f6599376c.rna_seq.augmented_star_gene_counts.tsv	1835	941	894	68.3097	22.3686	20.6551
a825833a-556e-434e-9b0f-68e12579648d.rna_seq.augmented_star_gene_counts.tsv	402	205	197	11.6877	5.8224	7.7846
97141ff2-cce4-4df8-8944-819e6831ba80.rna_seq.augmented_star_gene_counts.tsv	24668	12526	12142	335.9274	125.4513	128.1829
4e22718d-479f-4de9-991b-40c08ab98ed0.rna_seq.augmented_star_gene_counts.tsv	2789	0	2789	73.9961	26.3492	23.2457
b9a6d63c-70cc-46bd-becc-b595a2052194.rna_seq.augmented_star_gene_counts.tsv	28971	14392	14579	373.7972	208.7622	515.3326
78537d48-e056-476a-a4d1-fcf284189c46.rna_seq.augmented_star_gene_counts.tsv	2323	0	2323	69.4980	22.5923	19.9624
dfc8986d-1ec3-4c77-926e-d71cc217ffcd.rna_seq.augmented_star_gene_counts.tsv	203	105	98	3.4334	1.3311	1.8855
a041897e-41b7-4132-b44c-dc658b197c4b.rna_seq.augmented_star_gene_counts.tsv	3516	1	3515	81.1574	32.1728	28.3308
8847424a-ca98-4012-afe0-2d6bdf223d2f.rna_seq.augmented_star_gene_counts.tsv	179	4	175	15.1283	9.0541	7.3842
2743de97-cf9e-47f1-8ad9-691976703802.rna_seq.augmented_star_gene_counts.tsv	2847	0	2847	53.9380	23.8601	21.7724
665ce266-2e04-4dbd-a714-90425aaa3a25.rna_seq.augmented_star_gene_counts.tsv	1329	646	683	48.2245	15.6695	15.9429
1084d48c-88e8-4d67-9049-d0e4cd7f9535.rna_seq.augmented_star_gene_counts.tsv	4289	2258	2031	101.9282	30.4860	30.8137
93b38022-dab2-4aeb-bb3c-0833cbeee37a.rna_seq.augmented_star_gene_counts.tsv	932	0	932	16.0955	5.4557	4.6368
8f7fc4d6-30f6-4361-94f3-48ef923cc9ec.rna_seq.augmented_star_gene_counts.tsv	20	12	8	0.4024	0.1548	0.2555
2dae2e49-314d-4a80-8699-7ccbe516e587.rna_seq.augmented_star_gene_counts.tsv	44	22	22	0.5627	0.2177	0.3722
1514f0e4-4726-47e1-af26-140ff7fb0490.rna_seq.augmented_star_gene_counts.tsv	591	263	328	21.8840	7.4802	8.0696
19cdeb2c-fdb2-4bd5-97da-bf15411d3f49.rna_seq.augmented_star_gene_counts.tsv	7547	3	7544	276.6502	93.6652	95.0948
93c623c5-5ca3-44d8-8871-955a94778cc2.rna_seq.augmented_star_gene_counts.tsv	2896	1453	1443	58.5018	18.1729	17.7479
