90c9f8cd-4c8c-4f07-af2f-e17db69bd561.rna_seq.augmented_star_gene_counts.tsv	390	260	159	2.4074	0.7119	0.6326
701405d4-c4f1-4889-9b2d-1301e6d2db9b.rna_seq.augmented_star_gene_counts.tsv	150	82	84	0.5079	0.3094	0.3338
ba056a7d-5370-4fe9-af1e-2e3de42e205f.rna_seq.augmented_star_gene_counts.tsv	3398	1683	1722	18.9071	7.2466	11.3123
16a248f2-9b21-4cfd-b3bf-1817e692d20d.rna_seq.augmented_star_gene_counts.tsv	1243	626	622	29.3312	12.4953	13.4832
a2289b57-3c34-4fec-a5c5-10bea95e30fb.rna_seq.augmented_star_gene_counts.tsv	781	389	402	4.1764	1.4791	2.4101
90242448-2567-4d5b-b015-43c0ce31f0ad.rna_seq.augmented_star_gene_counts.tsv	1385	691	701	10.0977	3.3993	3.3852
07ba0ffd-9a39-498d-b289-a8896d1c3caf.rna_seq.augmented_star_gene_counts.tsv	989	454	540	7.6131	2.3565	2.7805
86db93b2-14b0-4094-bd69-222582df130c.rna_seq.augmented_star_gene_counts.tsv	1235	632	621	5.6620	4.2976	7.3321
28e28451-9c55-4f01-9ac1-fda75a6f828d.rna_seq.augmented_star_gene_counts.tsv	189	98	92	0.9183	0.3634	0.9368
bf95f48b-ab11-4950-9bbe-8f4e7445dca1.rna_seq.augmented_star_gene_counts.tsv	142	73	72	1.4438	0.4617	0.4974
1e35ac73-0f87-46b1-8a2f-66276bc9fa02.rna_seq.augmented_star_gene_counts.tsv	2568	1320	1249	26.2175	11.2543	13.4380
1e655307-21a7-430a-8f85-a2d5f8b26662.rna_seq.augmented_star_gene_counts.tsv	1198	579	623	5.3287	3.2412	5.6056
f45c520f-016e-4c29-8d84-2e985763ed0a.rna_seq.augmented_star_gene_counts.tsv	283	132	156	1.6728	0.6756	1.2249
ce5fb607-99c5-457f-9022-df38b540fce6.rna_seq.augmented_star_gene_counts.tsv	394	210	197	4.3405	1.3297	1.2912
7d4fc12f-0cbb-45e9-966f-d3a71f80d0ba.rna_seq.augmented_star_gene_counts.tsv	41	30	21	0.1219	0.0928	0.1054
70fd4ee9-d29b-43f6-a434-149b7a65197f.rna_seq.augmented_star_gene_counts.tsv	640	280	360	7.3383	4.4536	6.0975
c9432a6e-4d79-4de2-8ffa-e3b05129f78f.rna_seq.augmented_star_gene_counts.tsv	583	265	326	1.9847	0.7665	1.6715
289b3dee-bd46-4286-8e7b-86ffb573d37e.rna_seq.augmented_star_gene_counts.tsv	1030	539	499	7.0928	3.3876	3.6808
640b257c-bbc3-4483-a7b5-191bb7ef5421.rna_seq.augmented_star_gene_counts.tsv	3409	1636	1790	16.2971	5.7169	5.9240
ced9db0e-74ff-434c-baf6-aec17cb60794.rna_seq.augmented_star_gene_counts.tsv	8887	972	8054	49.5865	17.4251	16.1283
d8ad017c-bf83-42cf-9d46-4f47c8d28a8f.rna_seq.augmented_star_gene_counts.tsv	1068	510	559	13.3629	4.7325	4.3427
e61b4b6e-6426-41a8-a959-99d300d5c531.rna_seq.augmented_star_gene_counts.tsv	311	162	152	6.1464	1.6360	1.3596
d1dea496-436a-474a-b0c7-b3c70f8d4fcf.rna_seq.augmented_star_gene_counts.tsv	335	189	183	2.1292	0.6658	0.6893
0d8569e2-cc8c-4bcc-b451-b837eb5513d2.rna_seq.augmented_star_gene_counts.tsv	2876	1468	1437	12.5704	4.5053	5.3977
acdfe319-b98d-4208-b528-6841ab3514b0.rna_seq.augmented_star_gene_counts.tsv	814	398	416	9.5265	4.1535	5.1435
32ffdfa3-91d3-4583-811f-40752d73182e.rna_seq.augmented_star_gene_counts.tsv	8777	4383	4401	51.5136	18.4918	21.9103
d512620a-6a4e-4f8b-88a7-3dbad09b951d.rna_seq.augmented_star_gene_counts.tsv	708	366	344	10.2174	3.2898	3.4007
29eab3ff-c824-421c-9499-93fb24353201.rna_seq.augmented_star_gene_counts.tsv	2068	1057	1019	14.9807	4.5223	4.7497
20d40b1a-fbe0-4710-b0db-5c190e00addd.rna_seq.augmented_star_gene_counts.tsv	324	167	173	1.8317	0.4831	0.4902
2a675a2c-53ca-4fa1-80d8-d9d59bda26d9.rna_seq.augmented_star_gene_counts.tsv	3754	1756	2014	22.8286	10.0408	11.3640
dd2b52ba-d990-4d04-b070-c385de438ba8.rna_seq.augmented_star_gene_counts.tsv	734	353	386	3.4750	1.3851	1.4780
fd804c92-b610-4fe4-8df2-1a272fb34052.rna_seq.augmented_star_gene_counts.tsv	355	179	209	1.8608	0.6467	0.6706
c30fdec0-6bbc-4719-ad1e-ff1e15eae98e.rna_seq.augmented_star_gene_counts.tsv	930	468	477	4.7065	1.7825	2.8733
02f204de-780f-4854-aab1-1dc003163d2e.rna_seq.augmented_star_gene_counts.tsv	1022	763	324	11.6863	3.5970	3.1431
b9389390-aa03-406c-957e-2bc264f9468e.rna_seq.augmented_star_gene_counts.tsv	335	203	160	3.2424	1.5798	1.9105
d0b02f2e-ff79-430c-80f7-6156860e6780.rna_seq.augmented_star_gene_counts.tsv	267	136	134	3.7287	1.0057	0.9406
a3b44031-71ef-476f-a8bd-3694226ce026.rna_seq.augmented_star_gene_counts.tsv	1229	525	707	22.3666	8.1862	8.1621
32a200c7-6f8a-4393-ae39-48c73b7935cf.rna_seq.augmented_star_gene_counts.tsv	1761	884	890	8.5613	3.1449	3.3598
3f42e0b8-7e82-48e2-a138-5d6e527e7b0e.rna_seq.augmented_star_gene_counts.tsv	1037	515	537	4.8335	1.7952	1.9172
1f108190-3a84-4f4a-8d99-2621ccac226d.rna_seq.augmented_star_gene_counts.tsv	1021	509	518	13.0662	4.0527	5.1612
5957c3ef-b6e7-4b4d-b8cf-d04f85b4160b.rna_seq.augmented_star_gene_counts.tsv	678	355	334	4.4835	1.4984	1.9206
022396e9-30da-4818-8706-61b721f1bfa6.rna_seq.augmented_star_gene_counts.tsv	464	485	52	4.3184	1.5026	1.4157
20af5f64-f766-4930-bb97-b337847c8244.rna_seq.augmented_star_gene_counts.tsv	154	88	93	1.1350	0.3350	0.3304
ebf8d429-0437-4987-9bca-89e62910f168.rna_seq.augmented_star_gene_counts.tsv	584	279	313	3.9987	1.1373	1.1308
841ae9cb-ae41-46f9-84ae-03c99fd4e6dd.rna_seq.augmented_star_gene_counts.tsv	537	249	288	8.7531	3.0626	3.1593
a5b5b737-3f68-49a0-ac50-2884dbb90496.rna_seq.augmented_star_gene_counts.tsv	1932	961	979	9.4352	3.7005	5.7540
f3bf4152-5e1d-42d2-920e-9dfbe2e0dbc5.rna_seq.augmented_star_gene_counts.tsv	229	120	135	1.3399	0.4334	0.4423
d340b888-151f-443f-950b-f9e5555509fa.rna_seq.augmented_star_gene_counts.tsv	703	329	378	7.6216	2.6536	2.5239
6916d291-a782-4469-8a66-e9454cc3752f.rna_seq.augmented_star_gene_counts.tsv	471	236	243	2.1355	1.0190	1.8763
e3fb8ce3-dc67-4f02-9e0b-41c2181ef0de.rna_seq.augmented_star_gene_counts.tsv	2780	1454	1335	21.1893	7.1934	8.2807
b2dfe637-d3a5-4400-88db-5d60f0a167d5.rna_seq.augmented_star_gene_counts.tsv	4918	2349	2586	25.2096	9.3169	13.6079
8b7f2fa6-a31b-41f7-9493-872d2a80814d.rna_seq.augmented_star_gene_counts.tsv	5308	2614	2728	25.5194	9.7485	14.7911
cf4b2081-1949-4f03-8d1d-2d17db27f1e6.rna_seq.augmented_star_gene_counts.tsv	365	188	179	3.0490	1.1120	1.1695
6a7ea1b4-e24a-4e33-919c-9d9d290fc562.rna_seq.augmented_star_gene_counts.tsv	171	102	103	0.9790	0.3225	0.3359
363e5da6-0866-46d5-9d3a-f61f1b59e077.rna_seq.augmented_star_gene_counts.tsv	3436	1809	1674	16.3183	7.1413	8.6260
19d1b700-c0c1-4482-83df-cb197073b373.rna_seq.augmented_star_gene_counts.tsv	802	708	204	7.4282	2.3815	2.2906
6bdfd354-391c-48d9-8bb4-fd62eab673b1.rna_seq.augmented_star_gene_counts.tsv	2165	1058	1114	17.2559	7.3724	8.1967
66330a7d-9744-4d05-9ec6-787ccb3b0f47.rna_seq.augmented_star_gene_counts.tsv	3298	1628	1677	56.1421	24.9312	27.5630
b8921ae5-1378-406c-9c48-6405e2f3bf06.rna_seq.augmented_star_gene_counts.tsv	927	6	922	8.2316	4.0557	5.1457
161a4d97-48cf-46c4-b33b-315501a4c2fb.rna_seq.augmented_star_gene_counts.tsv	619	416	256	6.3646	2.3324	2.0548
1782c608-e7e6-4413-8d87-660979f32485.rna_seq.augmented_star_gene_counts.tsv	1272	647	655	5.8543	1.9771	2.0775
09a8a39a-ab72-4061-9a38-0034a79a8074.rna_seq.augmented_star_gene_counts.tsv	153	69	84	1.0648	0.3880	0.5630
ca9ca606-cb39-4d39-a098-a3f444719200.rna_seq.augmented_star_gene_counts.tsv	1429	866	624	9.5254	3.1159	2.6394
7ad804b5-0e75-4562-99db-e6f508950c03.rna_seq.augmented_star_gene_counts.tsv	547	7	546	7.2425	2.3107	2.2470
d53203c7-5070-455b-aec3-ce01f32186de.rna_seq.augmented_star_gene_counts.tsv	518	264	256	4.7377	1.7374	1.6240
673ef155-1bba-466d-92b4-cecb4121946e.rna_seq.augmented_star_gene_counts.tsv	603	315	306	4.2915	1.2480	1.2190
213f702a-56fd-4ab0-940c-a71e4e01b6f8.rna_seq.augmented_star_gene_counts.tsv	1437	759	682	9.7928	3.2200	3.0934
5d220ed4-22c2-4ff1-b597-3822204d57e7.rna_seq.augmented_star_gene_counts.tsv	3276	1680	1609	18.8315	6.8433	9.7470
21c23e1b-93c9-4c03-8fa5-f545c5e0edea.rna_seq.augmented_star_gene_counts.tsv	1070	1046	138	11.2975	3.4087	3.3063
4f8b284e-7e42-45c5-b7cc-57cc678ec3df.rna_seq.augmented_star_gene_counts.tsv	410	211	204	3.6354	1.0142	1.0214
6399dc78-5784-490f-a20d-998554980012.rna_seq.augmented_star_gene_counts.tsv	2043	1026	1021	27.9859	8.6849	8.3824
9da2fda3-2abd-405d-b918-9808b580f849.rna_seq.augmented_star_gene_counts.tsv	133	68	70	1.4594	0.5331	0.5378
37c85ea2-c091-413d-b5a0-df72d2399336.rna_seq.augmented_star_gene_counts.tsv	964	30	956	11.0593	4.1824	4.1328
cdb21b35-6884-40a4-b66d-2275eb5ca0a1.rna_seq.augmented_star_gene_counts.tsv	2931	1455	1505	7.8965	2.5822	3.8926
c4fbf368-9e12-4cda-adfa-c6679bec1529.rna_seq.augmented_star_gene_counts.tsv	1097	568	537	5.1573	1.7221	1.7596
20056b8d-000f-4a0a-954a-f537186278b1.rna_seq.augmented_star_gene_counts.tsv	138	72	71	1.0524	0.4442	0.6479
b1b2c2c2-0b5d-4948-b019-8f27dd1e4d6a.rna_seq.augmented_star_gene_counts.tsv	1358	696	666	18.7115	7.3656	6.9508
7bfe8d8a-61bf-4ee7-9749-209858e74b5f.rna_seq.augmented_star_gene_counts.tsv	2303	1121	1191	16.7332	5.2689	5.0831
f2f8e7bc-0133-4a21-bf58-10cb27b39755.rna_seq.augmented_star_gene_counts.tsv	730	370	360	7.8817	4.0598	4.2421
cb3d7da5-bd29-44c6-8308-d40fbafa83d7.rna_seq.augmented_star_gene_counts.tsv	1297	672	672	11.4478	3.4093	3.1149
87dc0bab-b318-47ec-a9a3-819a7388e731.rna_seq.augmented_star_gene_counts.tsv	787	373	427	4.7116	1.2115	1.1267
ede604e3-31d2-4008-9f54-215b85530191.rna_seq.augmented_star_gene_counts.tsv	4000	1983	2058	27.1929	8.6525	8.8814
0a540449-152b-4a8a-b4c1-73d9a8a712da.rna_seq.augmented_star_gene_counts.tsv	1999	1010	998	14.6391	4.6605	4.7165
0a950719-ca7a-4dbf-8755-262cabf3d4b7.rna_seq.augmented_star_gene_counts.tsv	3710	1886	1864	22.5109	6.0443	5.5326
bf424b14-03e8-43a3-a978-ff5fb436886c.rna_seq.augmented_star_gene_counts.tsv	150	75	81	0.6932	0.3001	0.7737
fcd89df9-1e6f-4d19-a205-be0362567c60.rna_seq.augmented_star_gene_counts.tsv	16879	8347	8615	55.7512	19.6111	19.5602
52bfcfee-5de0-4e8f-9f11-7a643858bcb0.rna_seq.augmented_star_gene_counts.tsv	3333	1624	1720	15.1211	5.5119	5.8628
bf5f606f-17ae-46bb-b687-7863ab3d97b1.rna_seq.augmented_star_gene_counts.tsv	5306	2637	2678	45.2958	12.5010	10.8128
7ff6dbf9-64ae-423b-9d69-9df673b93861.rna_seq.augmented_star_gene_counts.tsv	397	211	189	2.7226	0.9885	1.0589
c74b62ad-52f4-4488-8628-ffc88df5d1bf.rna_seq.augmented_star_gene_counts.tsv	472	235	242	2.3822	0.9563	1.9493
40b92a76-f324-4cdd-8209-517d021acd47.rna_seq.augmented_star_gene_counts.tsv	952	477	476	9.7843	3.1059	4.6412
65bd5f28-4822-454d-9f6d-ce9b06ca9261.rna_seq.augmented_star_gene_counts.tsv	882	450	434	4.3953	1.8531	2.8070
679e7543-4593-46ed-9ddf-c5348000a975.rna_seq.augmented_star_gene_counts.tsv	814	11	809	8.0947	3.5987	3.9619
6faaeb84-a771-4f31-88f6-df304396340d.rna_seq.augmented_star_gene_counts.tsv	4112	2061	2068	20.1440	6.1862	6.1932
50f58d2f-7e67-40d8-a35c-a3e2c0bbe457.rna_seq.augmented_star_gene_counts.tsv	166	97	81	0.6109	0.2258	0.2397
7cacddb5-48c3-4174-8674-9c0e74c9b6ad.rna_seq.augmented_star_gene_counts.tsv	1214	579	635	12.9285	7.1213	8.3500
93bbdfef-3d7a-490f-9747-2fd5b01391b8.rna_seq.augmented_star_gene_counts.tsv	3419	1712	1721	16.8273	6.1178	10.6406
d3feaf5b-68fd-4df3-a30f-af8fcd5a5ed8.rna_seq.augmented_star_gene_counts.tsv	1109	541	596	6.8336	2.0468	2.1464
eee7d179-f3bd-4752-a745-28bf812e572e.rna_seq.augmented_star_gene_counts.tsv	2901	1563	1370	19.5471	6.5117	8.6030
60da62bd-de6d-4b19-b56f-e5cea1146588.rna_seq.augmented_star_gene_counts.tsv	175	81	94	2.3290	0.8606	0.9622
308a5759-8930-433f-8d11-4c3da6ed0e29.rna_seq.augmented_star_gene_counts.tsv	2148	1101	1057	12.6641	4.9524	5.1209
7df5668f-1dd8-438f-bbf9-2c531ecd65b8.rna_seq.augmented_star_gene_counts.tsv	1658	939	811	11.1635	4.3088	3.7834
29774d01-31ba-4ef6-a0cd-fc405ca38efe.rna_seq.augmented_star_gene_counts.tsv	455	224	233	7.7920	2.3041	2.2845
b120d22d-2171-47b5-b510-7498b0c1178b.rna_seq.augmented_star_gene_counts.tsv	4417	2207	2225	21.8522	8.3726	9.2260
5ee23af5-35ec-4f62-bfe6-08948cee2d9b.rna_seq.augmented_star_gene_counts.tsv	1976	827	1229	14.4739	4.5038	3.9419
0a0b75ab-0e92-4d25-abd0-5ebc075b432b.rna_seq.augmented_star_gene_counts.tsv	597	309	320	3.5463	1.0998	1.0539
427c0560-88ff-45a9-98a7-9d7cf3354138.rna_seq.augmented_star_gene_counts.tsv	197	92	110	1.0879	0.4191	0.8147
b5022139-cc8a-40ca-b249-19d4431ceee6.rna_seq.augmented_star_gene_counts.tsv	3743	1841	1920	28.5274	9.8373	10.4051
64a608f6-9848-4c97-820d-d87f9ee04a7b.rna_seq.augmented_star_gene_counts.tsv	1022	519	515	11.7894	4.3311	4.6894
27f76511-b825-41a5-a0b5-257c80223d8b.rna_seq.augmented_star_gene_counts.tsv	2040	1048	1006	15.2699	4.0236	3.8339
d79abaf2-fc86-4da0-9eb1-2f46a83460c6.rna_seq.augmented_star_gene_counts.tsv	2735	649	2171	18.4527	6.3634	6.1868
a03d4b08-f826-4216-878e-f8c818a3791c.rna_seq.augmented_star_gene_counts.tsv	493	250	248	3.2843	1.0372	1.0988
c60e5bb7-e2f1-4583-a0eb-1584c45e8afd.rna_seq.augmented_star_gene_counts.tsv	1330	658	710	5.3775	1.7868	1.7967
d3be84d5-9dd7-4366-9aea-532dc76f19ba.rna_seq.augmented_star_gene_counts.tsv	2130	1054	1084	12.2660	4.4380	5.1463
6349132e-e881-4f96-9697-915a55206f70.rna_seq.augmented_star_gene_counts.tsv	4015	2102	1943	23.3982	7.1917	7.5415
6abac00b-ac00-47e5-8c1d-2d697db1c0cb.rna_seq.augmented_star_gene_counts.tsv	2000	1014	987	29.3147	8.4321	8.6061
aa43bf5b-6618-4bb5-8de2-6554cc98c115.rna_seq.augmented_star_gene_counts.tsv	876	387	491	5.5951	2.2023	2.5769
78767f1f-fa6f-4d1a-beb7-a2c11381958e.rna_seq.augmented_star_gene_counts.tsv	148	75	79	0.7609	0.2654	0.4546
6ac09968-001a-4ee8-9aae-c3e7a46c728f.rna_seq.augmented_star_gene_counts.tsv	538	274	267	7.0352	2.4764	2.1715
d1305843-a9f4-44ca-883e-46e3d518ad24.rna_seq.augmented_star_gene_counts.tsv	1848	923	932	13.0240	4.0768	4.4733
55464269-7892-426e-bbc4-96eead7bd59e.rna_seq.augmented_star_gene_counts.tsv	3829	1921	1932	14.2115	4.1904	4.4198
ed9513cb-89a6-4f5e-afaa-bfd47df25f01.rna_seq.augmented_star_gene_counts.tsv	1216	569	652	8.4546	2.8390	2.7609
c7bf2ffe-055a-4658-9a6a-c2f2e6ddc7df.rna_seq.augmented_star_gene_counts.tsv	4916	2403	2539	28.1720	9.6133	14.4306
00c8b8e2-4093-49bc-9124-ca075a707571.rna_seq.augmented_star_gene_counts.tsv	868	789	171	7.8778	2.6506	2.4269
f7ddd671-b2ba-4952-918b-07ae0ea84263.rna_seq.augmented_star_gene_counts.tsv	7144	3469	3695	37.0486	10.5155	10.7010
b9a5de02-bff2-4304-9359-4c2fb7ddb006.rna_seq.augmented_star_gene_counts.tsv	876	217	678	13.8093	5.0002	5.6659
7aeeeae6-6243-4c04-99c9-6609949a0436.rna_seq.augmented_star_gene_counts.tsv	1351	659	695	38.4061	11.1442	11.0082
76ac10f3-0299-4c25-b241-812f90a7d1d6.rna_seq.augmented_star_gene_counts.tsv	2812	1385	1441	20.1919	7.4128	10.0627
0c7a9377-9787-4ea5-aae4-9e08665aab78.rna_seq.augmented_star_gene_counts.tsv	1798	862	939	21.4190	7.5268	8.0151
9088aea9-d215-4eb7-b0d9-cb66b87d1f31.rna_seq.augmented_star_gene_counts.tsv	1823	895	928	27.1992	9.0131	9.5780
950a00f6-2b31-46c8-901b-7094effb6297.rna_seq.augmented_star_gene_counts.tsv	2403	20	2404	36.0655	12.2662	10.9273
2645561c-8313-4196-b321-b4a83879df88.rna_seq.augmented_star_gene_counts.tsv	703	372	334	4.0278	1.3693	1.4024
080d03cb-01ea-4dc7-af41-12e3f3877283.rna_seq.augmented_star_gene_counts.tsv	2437	1182	1268	10.3906	4.4936	4.8320
934a9544-1fd3-4aac-9e5c-90a266d1f125.rna_seq.augmented_star_gene_counts.tsv	5496	2718	2784	35.7681	10.8921	12.3612
32e9669c-0c2c-47a5-b53b-c833c776607d.rna_seq.augmented_star_gene_counts.tsv	2033	1024	1031	11.9524	4.6792	7.0615
eb908245-e14f-442f-a9ce-85e66c169d73.rna_seq.augmented_star_gene_counts.tsv	1226	613	618	14.6248	5.7029	6.2891
bc895549-854b-484f-8a6d-9e5152829bcb.rna_seq.augmented_star_gene_counts.tsv	809	383	428	11.4082	4.3135	4.6035
8b6bb4a3-2bd0-4221-a4d7-9641c24b0681.rna_seq.augmented_star_gene_counts.tsv	1444	742	713	8.3469	2.8886	4.3636
602893fe-90d1-4ffd-8d8c-2380d098dae3.rna_seq.augmented_star_gene_counts.tsv	470	235	248	3.5441	1.2959	1.3129
eeb197bf-8e25-47e9-afaf-e42dc3f5541a.rna_seq.augmented_star_gene_counts.tsv	422	206	217	8.3491	2.4486	2.4495
85094fa3-e9f3-4cab-8a1d-37cb0462404d.rna_seq.augmented_star_gene_counts.tsv	237	147	152	1.0379	0.2978	0.3181
9d164d74-ec27-4cef-81b0-0580550e96af.rna_seq.augmented_star_gene_counts.tsv	809	413	404	5.0140	1.8200	2.5854
22fc2b56-fe94-4b09-ae7d-37d463b3995d.rna_seq.augmented_star_gene_counts.tsv	208	107	112	0.8165	0.3105	0.8189
9316e258-e626-4a41-ab07-85210c5290b8.rna_seq.augmented_star_gene_counts.tsv	4951	2518	2447	49.6677	26.7981	27.1925
a17b6971-a249-484a-805e-d20ef3c4cd15.rna_seq.augmented_star_gene_counts.tsv	1041	510	535	6.9000	1.8604	1.7480
19157b7f-adee-40f3-a215-e5855541bb1e.rna_seq.augmented_star_gene_counts.tsv	3867	1870	2009	22.2714	5.9877	5.7281
6f8d77aa-5852-4467-8ef9-b7881294b969.rna_seq.augmented_star_gene_counts.tsv	195	97	103	1.5151	0.5812	1.1244
12f3c95d-26ef-47d4-ba42-e8c35cbd7d25.rna_seq.augmented_star_gene_counts.tsv	668	650	88	5.5254	1.9626	2.4528
70df5df0-50b6-4aae-a162-cc99ae687418.rna_seq.augmented_star_gene_counts.tsv	1011	496	516	11.8007	4.3973	4.9474
be150892-6890-4414-9f4d-aeda4ee38708.rna_seq.augmented_star_gene_counts.tsv	1317	662	662	6.3850	2.5622	3.7959
ebc79b86-12cb-4a5b-b0e4-4d1017ef22f4.rna_seq.augmented_star_gene_counts.tsv	321	168	158	5.0277	1.8531	1.8468
769ad26a-1ab3-487d-8645-97b5638cfe6a.rna_seq.augmented_star_gene_counts.tsv	1166	591	577	9.0270	5.4199	8.0093
45a2676b-25ba-41b0-9e55-08c6eb3a8f2f.rna_seq.augmented_star_gene_counts.tsv	753	367	388	10.7310	3.8608	4.0461
f9c74189-6bdc-49b9-b984-917ffe2b097d.rna_seq.augmented_star_gene_counts.tsv	546	265	292	8.1477	2.3392	2.1734
57395707-26c6-4dfc-9948-18409156a9b6.rna_seq.augmented_star_gene_counts.tsv	3721	1889	1851	14.9163	4.9084	4.9792
ee667570-d3c6-4906-980d-5ff7a66f521d.rna_seq.augmented_star_gene_counts.tsv	2355	1170	1198	15.7540	5.1227	6.9531
d18e3fad-68c9-4320-9969-3837c2ae8930.rna_seq.augmented_star_gene_counts.tsv	3156	1594	1578	16.7773	6.7138	7.2645
c000c10f-6fb0-470d-9ece-281d7106be58.rna_seq.augmented_star_gene_counts.tsv	196	105	93	2.5456	1.0622	1.0915
91bac874-6ad2-4946-9c3f-0ed733975fcf.rna_seq.augmented_star_gene_counts.tsv	403	202	207	1.5156	0.6391	1.6726
42d7be38-8a03-49c6-871c-032d65c8b167.rna_seq.augmented_star_gene_counts.tsv	1133	678	521	13.1767	4.3398	3.8633
d17659bf-fc02-4c26-bb3c-206fc71e644d.rna_seq.augmented_star_gene_counts.tsv	587	308	319	3.6157	1.3632	2.2694
6e9584a5-2bfa-4c58-8b19-03e4184282eb.rna_seq.augmented_star_gene_counts.tsv	3057	1487	1582	41.3693	11.8952	10.9395
4fc09296-6048-4ae2-a1f3-5c168e5078cb.rna_seq.augmented_star_gene_counts.tsv	129	65	69	0.4394	0.2312	0.2994
43adcecf-c596-4e69-9c83-16d5b28f276f.rna_seq.augmented_star_gene_counts.tsv	357	178	192	4.4456	1.1050	1.1012
741e51fd-4360-4e80-9a34-50a22df1f43d.rna_seq.augmented_star_gene_counts.tsv	1714	855	865	23.2629	6.4566	5.9895
18b024b6-f991-4414-8d9b-4cc112d8ec38.rna_seq.augmented_star_gene_counts.tsv	721	363	366	4.8615	2.1532	4.3312
594ab534-9266-4d20-95f4-69e0a5837643.rna_seq.augmented_star_gene_counts.tsv	773	545	298	3.4550	1.7179	1.6747
cf94beef-f198-47d0-b900-46e01be7d468.rna_seq.augmented_star_gene_counts.tsv	1491	26	1481	6.9590	2.0496	2.0633
0f26c63f-1e8d-494c-ac23-a07b6b4dd70e.rna_seq.augmented_star_gene_counts.tsv	649	498	187	5.0717	1.7318	1.6172
2de83d09-9782-42f1-9434-8df1f3bab7fd.rna_seq.augmented_star_gene_counts.tsv	1387	693	702	7.7745	4.3559	9.6676
e5ee0383-6fc3-4bd8-a7a7-5cf2c6e2bb99.rna_seq.augmented_star_gene_counts.tsv	444	224	220	5.8699	1.8527	1.8160
f7b0a537-4bfc-4cb1-9c5c-f3dd917405d5.rna_seq.augmented_star_gene_counts.tsv	345	171	174	2.1577	0.9113	2.1590
1d974cac-fb5e-4737-a6b0-d22d398fea59.rna_seq.augmented_star_gene_counts.tsv	1818	879	939	16.7856	6.6110	9.3884
fca4c327-dfab-4455-84a8-f890a7326132.rna_seq.augmented_star_gene_counts.tsv	743	350	417	6.1056	1.9015	1.9635
04a99183-5548-4712-94ea-f965dff6c62a.rna_seq.augmented_star_gene_counts.tsv	1248	870	436	9.9726	4.4688	3.8178
6c8e3af5-9adf-457d-a108-58ad5b57c6f4.rna_seq.augmented_star_gene_counts.tsv	1062	933	226	9.6371	3.2962	3.0495
966a5b1e-7050-4fa6-9a22-0a7b9eb06dee.rna_seq.augmented_star_gene_counts.tsv	1751	877	876	25.1905	7.5549	7.8257
71106ad8-a2c4-4337-9682-c407356d39ef.rna_seq.augmented_star_gene_counts.tsv	5970	3028	2989	16.1824	7.3883	8.8433
be4a42fc-e668-44f5-83aa-7976a664490f.rna_seq.augmented_star_gene_counts.tsv	3713	1795	1938	14.4008	4.8727	6.2444
fbb8955a-12cc-4e48-b4ab-f1c612d56b8a.rna_seq.augmented_star_gene_counts.tsv	2987	1475	1516	15.8851	6.6704	6.6371
e28edd15-0242-4630-8914-eb4c664e273a.rna_seq.augmented_star_gene_counts.tsv	2058	451	1653	21.8881	7.4953	6.2227
d5b99bc0-037c-4843-8536-f4d06d607751.rna_seq.augmented_star_gene_counts.tsv	885	620	341	7.7532	2.7008	2.5047
42b88263-95a0-43fb-b7e4-a840df8d4a92.rna_seq.augmented_star_gene_counts.tsv	667	336	342	4.9311	1.8364	1.9800
b652254e-228b-40d4-be79-536ad87dad69.rna_seq.augmented_star_gene_counts.tsv	2457	1216	1255	14.6100	4.5270	4.1208
b3f38fc5-d1e6-4fd9-bd36-b413a3ac850e.rna_seq.augmented_star_gene_counts.tsv	2089	1010	1090	7.4433	2.7633	2.9508
97b2a851-6fec-4283-a666-58245018f90d.rna_seq.augmented_star_gene_counts.tsv	1712	861	885	11.4415	3.5329	3.9776
7c4477a6-c744-412a-8571-bfb62f0dc714.rna_seq.augmented_star_gene_counts.tsv	2539	1236	1308	16.9106	4.6419	4.7046
e3386c41-2cf3-4c92-a849-f9da60ac3b21.rna_seq.augmented_star_gene_counts.tsv	6175	3082	3116	29.3166	8.4501	8.2187
7c3fd6c4-1ae1-45a4-9819-b0b702baa6ac.rna_seq.augmented_star_gene_counts.tsv	1371	662	711	13.8057	5.2191	8.0569
e8ca791a-3a3a-4d64-b1c2-9e71a57a75d1.rna_seq.augmented_star_gene_counts.tsv	356	186	176	2.0003	0.6009	0.6132
c398da46-fe84-4456-8478-8a7d7191f55c.rna_seq.augmented_star_gene_counts.tsv	4461	916	3666	26.2878	7.9579	6.6184
2d5509a1-627d-4182-b727-a6c8f27182e2.rna_seq.augmented_star_gene_counts.tsv	820	398	424	11.9366	3.8963	4.4754
dfb9b39b-08cd-42c3-b59f-22eb1cfa0b53.rna_seq.augmented_star_gene_counts.tsv	5152	2498	2670	23.4745	7.5907	7.4623
44775d34-6995-4670-b6b9-df0a5de0d3fd.rna_seq.augmented_star_gene_counts.tsv	189	90	99	0.9988	0.3331	0.4229
f6c23150-8009-4de9-919d-8814973af20b.rna_seq.augmented_star_gene_counts.tsv	717	358	362	8.5236	2.7232	3.3617
f0339554-e555-43cd-be40-a1fc6d5c53ce.rna_seq.augmented_star_gene_counts.tsv	864	426	442	12.2917	3.6517	3.3054
7f51ff28-397d-466f-82b0-25e9c9182ea7.rna_seq.augmented_star_gene_counts.tsv	2553	1311	1243	16.1842	5.3370	7.4553
e25887be-64fe-4e7c-983b-4fbdec52c4b7.rna_seq.augmented_star_gene_counts.tsv	630	301	333	3.0393	0.9388	0.9110
4ba838f4-c8ce-4511-b740-0f4f91ec9cf5.rna_seq.augmented_star_gene_counts.tsv	1435	383	1080	15.1718	4.8379	4.2428
7fc94e9c-ba0d-439d-8428-bd87c9307702.rna_seq.augmented_star_gene_counts.tsv	4927	2418	2531	20.0295	5.8574	5.6755
6cae08b5-33e9-4a0c-b399-3bc723f6e10f.rna_seq.augmented_star_gene_counts.tsv	1197	584	615	9.5362	3.6280	5.0302
001cfe8f-6e1d-439a-ab55-629f8bfb1c25.rna_seq.augmented_star_gene_counts.tsv	399	186	213	6.3653	1.6819	1.5527
46a6f49d-2ab8-41fb-ba8c-951a160e5d08.rna_seq.augmented_star_gene_counts.tsv	1630	811	822	17.0111	5.7372	5.5191
3a39e135-430b-4858-aa0a-54d3a68db335.rna_seq.augmented_star_gene_counts.tsv	1101	549	578	8.3705	2.6507	3.0738
69c4d355-ccb9-4e0b-8e29-c15a242a4cb1.rna_seq.augmented_star_gene_counts.tsv	441	231	211	4.6311	2.1250	2.6034
0a238ed3-971c-48a5-b34d-eafa4e4ed448.rna_seq.augmented_star_gene_counts.tsv	1352	673	683	24.9622	9.6164	10.1142
4b5b50cd-2bcf-4c8a-b5d7-09adeef205fd.rna_seq.augmented_star_gene_counts.tsv	648	346	308	2.8558	1.2568	2.3718
bfcc7d54-3213-4263-a8f0-0479eccb4da0.rna_seq.augmented_star_gene_counts.tsv	2041	1040	1003	28.0815	8.3814	8.1495
242a1034-4aae-46f8-a40d-91710af30d0a.rna_seq.augmented_star_gene_counts.tsv	1320	647	676	10.8737	3.4033	3.6031
62f40b9a-32de-4432-b15e-32c82be5ee8b.rna_seq.augmented_star_gene_counts.tsv	413	211	207	2.1629	0.8167	1.5387
1026ea02-0009-403f-95bd-cde07dbdd21b.rna_seq.augmented_star_gene_counts.tsv	1014	510	511	3.1333	2.5577	5.7449
cadbc884-10b6-41e4-8aee-dc11a1453b8c.rna_seq.augmented_star_gene_counts.tsv	1514	756	767	8.1357	2.5207	2.8384
96bbaa9e-f354-4778-8b0f-b02bb169d728.rna_seq.augmented_star_gene_counts.tsv	527	364	213	4.9722	1.7715	1.5355
3be93921-b171-44e3-a1d8-4da348948b56.rna_seq.augmented_star_gene_counts.tsv	1346	678	678	7.7978	2.8817	4.7675
1f758d8e-3f2c-4f10-b80b-ce3daba6e0d9.rna_seq.augmented_star_gene_counts.tsv	636	352	344	2.3671	0.7864	0.8508
3ab4bb66-d6cd-4df8-9e0b-c3ce0c06c0e7.rna_seq.augmented_star_gene_counts.tsv	1175	604	580	5.2231	2.0410	3.6394
deb28527-958e-4a4d-a0c8-c863715360af.rna_seq.augmented_star_gene_counts.tsv	163	108	100	0.3515	0.2630	0.2947
8d858683-bfc5-4e08-8a99-69dee5db8fbd.rna_seq.augmented_star_gene_counts.tsv	118	62	69	1.6979	0.4850	0.5987
b952371d-4fcd-4df6-8aca-af126cb09e3e.rna_seq.augmented_star_gene_counts.tsv	2743	1347	1429	12.1825	5.1441	8.0023
981c9bee-bedd-4a1a-929a-26013d1077e0.rna_seq.augmented_star_gene_counts.tsv	1613	801	818	9.4443	3.6916	4.4768
7b5d9241-4c32-4957-bfb5-d9bc4f711ee6.rna_seq.augmented_star_gene_counts.tsv	8500	4213	4299	31.7030	11.3583	14.4584
6e2e99b7-d686-4a88-867c-edbcc22acaed.rna_seq.augmented_star_gene_counts.tsv	1349	663	697	6.3689	2.2993	3.9065
f201b51f-7f4b-42a5-951a-a5f1b634baf3.rna_seq.augmented_star_gene_counts.tsv	1141	571	587	10.9131	2.7282	2.7504
59594573-ae69-40ea-8894-f6c473138316.rna_seq.augmented_star_gene_counts.tsv	2034	633	1409	11.7501	3.2307	3.6016
198aea6e-88e9-4bf5-a08f-f32b01e017e7.rna_seq.augmented_star_gene_counts.tsv	2821	1392	1439	28.5789	11.5970	14.9726
7a94d8a1-ae96-43e3-a9d8-8953af78df94.rna_seq.augmented_star_gene_counts.tsv	1915	964	955	19.4581	9.2341	9.1141
f713691a-df6d-4c44-a9bf-81d45ea69d61.rna_seq.augmented_star_gene_counts.tsv	1520	773	755	10.4460	3.1603	3.5065
2109e5d5-43e6-4ca8-bd8c-8f34489437e8.rna_seq.augmented_star_gene_counts.tsv	2318	1189	1135	28.1761	10.1297	14.2493
e48cabb8-73cd-4d42-81b0-f9ab7bebecc1.rna_seq.augmented_star_gene_counts.tsv	2413	1193	1255	10.9907	3.9025	4.1021
dbfd4261-2413-4571-8211-936eaa34aa19.rna_seq.augmented_star_gene_counts.tsv	1732	861	898	10.5449	3.2230	3.2568
1e670d11-7516-4e03-8ec9-8a08514efb78.rna_seq.augmented_star_gene_counts.tsv	2972	1469	1506	36.5573	11.3875	11.2993
4b5ffc48-de6c-4f22-92c8-8c41c821a37f.rna_seq.augmented_star_gene_counts.tsv	1852	906	956	7.2914	3.3034	6.0800
3259055f-7131-4e7a-a2d9-dad1876b03f2.rna_seq.augmented_star_gene_counts.tsv	3073	1539	1553	12.4313	4.4661	4.7648
ad33911a-c00f-4ee6-9044-13f1ece08bd2.rna_seq.augmented_star_gene_counts.tsv	437	10	430	5.9739	1.9210	1.7591
fc4f0b8e-ced1-4543-a21d-3cbb2d269eb0.rna_seq.augmented_star_gene_counts.tsv	299	158	157	2.3847	0.7723	0.8370
6452215d-e0ae-482f-8f32-963e7017bec0.rna_seq.augmented_star_gene_counts.tsv	4103	2067	2050	25.1334	8.8347	10.8622
7e02abeb-88a6-4d15-8d27-7f7d05d22fee.rna_seq.augmented_star_gene_counts.tsv	3820	1937	1898	22.1387	7.3047	9.3852
9934181c-8472-45de-ba46-f5ff1863af25.rna_seq.augmented_star_gene_counts.tsv	1409	724	694	18.1995	5.3971	6.2703
b9189c77-004e-461a-9c15-b504b12a3030.rna_seq.augmented_star_gene_counts.tsv	514	226	288	8.3124	2.9141	3.9944
7f812fa1-53dc-4ebe-97b3-9b633af148ce.rna_seq.augmented_star_gene_counts.tsv	3201	1576	1647	15.7982	7.4586	14.8148
8d38156f-5309-4b5d-a293-e1a0f1ada67b.rna_seq.augmented_star_gene_counts.tsv	1546	803	746	22.2422	6.3572	6.4294
b0829ff3-92ce-40ec-bde8-9de00566cd5c.rna_seq.augmented_star_gene_counts.tsv	275	125	150	4.5190	1.2862	1.3611
0be9bcfa-aa98-45b8-9648-890cfa07c4e9.rna_seq.augmented_star_gene_counts.tsv	645	326	329	4.9287	1.4949	1.4986
4a4dd56e-7eeb-48ec-88e6-e75a5ea633fa.rna_seq.augmented_star_gene_counts.tsv	3966	1978	1995	18.7200	7.1737	10.4292
6095f562-35b1-46e4-b3db-2ab498c16f16.rna_seq.augmented_star_gene_counts.tsv	1077	520	562	31.1215	12.9398	14.2688
f3b31315-692c-4040-9f89-1a9988ed2fbc.rna_seq.augmented_star_gene_counts.tsv	2064	997	1071	10.3353	3.3843	3.5223
a315cfa7-3adf-4451-ae61-258d3a82cfbf.rna_seq.augmented_star_gene_counts.tsv	1413	597	896	9.3132	3.3369	3.0174
b9cadac9-9bb4-4bc8-9303-d05ad06778cc.rna_seq.augmented_star_gene_counts.tsv	2297	1135	1166	20.5898	6.1551	6.0480
ea6626d3-7799-4481-b545-f78988ed5ece.rna_seq.augmented_star_gene_counts.tsv	2540	1263	1282	18.3267	6.0290	6.6793
bdf7034a-9247-4a9d-8d6e-ffc6151edca9.rna_seq.augmented_star_gene_counts.tsv	12511	815	11774	112.9266	51.0541	49.5370
7ddd6269-658e-4ef3-956b-9d095b4eec30.rna_seq.augmented_star_gene_counts.tsv	1359	699	669	10.0910	2.5665	2.4094
fc962f33-2c10-44e8-8eff-c5375c02c151.rna_seq.augmented_star_gene_counts.tsv	2823	1391	1438	19.7307	6.8665	8.7297
70c1d5c6-fb89-4b92-abc3-c0440231ca4d.rna_seq.augmented_star_gene_counts.tsv	2264	1138	1183	16.8103	4.8407	4.8311
4bc57c95-5c4e-4aad-a05a-ab5fafd76a1d.rna_seq.augmented_star_gene_counts.tsv	207	116	96	2.0674	0.7027	1.2015
ca667d02-0c68-4ece-8ede-a81413a629a5.rna_seq.augmented_star_gene_counts.tsv	2769	1377	1404	15.9810	6.8844	8.4958
ef23aadc-bbe0-4070-b3b1-4e5d84b0e0ea.rna_seq.augmented_star_gene_counts.tsv	1804	846	962	24.9102	8.1086	9.0035
33e23705-397c-4651-beea-254110c365e4.rna_seq.augmented_star_gene_counts.tsv	3373	1683	1703	22.5669	7.0916	9.9970
8e0dceff-a192-4a03-967d-1aff965ca4d2.rna_seq.augmented_star_gene_counts.tsv	686	352	335	9.7524	3.3529	3.9731
495c8ae2-4d4d-49ac-9b0a-3081f02fd041.rna_seq.augmented_star_gene_counts.tsv	656	322	343	4.4656	1.6275	2.2778
6ff7be81-1c7d-4a49-b5ab-3b1c171d4f87.rna_seq.augmented_star_gene_counts.tsv	2587	1237	1364	14.2651	5.6249	9.1012
92385f19-0c30-4014-845b-cad864782b61.rna_seq.augmented_star_gene_counts.tsv	157	83	84	1.1019	0.3923	0.8578
714a804d-cf2e-41a2-9763-ecf617ea3061.rna_seq.augmented_star_gene_counts.tsv	725	641	161	5.7067	2.0496	1.9931
93bbec66-e574-4c6a-96cc-24c4c1cb41a7.rna_seq.augmented_star_gene_counts.tsv	3053	1528	1531	47.1304	13.4104	12.3226
c329e10b-efa3-4caa-a792-18a4df50fc8c.rna_seq.augmented_star_gene_counts.tsv	464	183	302	6.6996	3.3941	3.6384
1075a6d9-44df-4720-ba41-8050ae748344.rna_seq.augmented_star_gene_counts.tsv	1519	737	788	19.3517	5.9151	5.6655
063eb81b-ea56-4c6d-b011-a024f971cb1c.rna_seq.augmented_star_gene_counts.tsv	981	961	119	9.2440	3.1858	2.9542
5b40cf16-d9cc-4ef8-9aab-11f941f6aec5.rna_seq.augmented_star_gene_counts.tsv	3185	1142	2173	17.5467	6.7998	6.8399
1cb99a58-aee1-4c4c-a9e2-fd8c084fe073.rna_seq.augmented_star_gene_counts.tsv	4140	2151	2002	24.4094	10.7245	15.2553
2ddbf110-a158-47bc-8da9-6705c563ce1d.rna_seq.augmented_star_gene_counts.tsv	1498	759	747	13.6723	3.7475	3.5381
1a7e9700-1994-4624-bfe9-e94f33ee3989.rna_seq.augmented_star_gene_counts.tsv	4733	2301	2463	28.0501	9.7633	11.5942
db9cb4ae-07f5-4599-9e0b-b2289cc487d9.rna_seq.augmented_star_gene_counts.tsv	347	184	165	5.5950	1.6522	1.7170
8eb51333-09bf-4477-9725-355d65c72753.rna_seq.augmented_star_gene_counts.tsv	293	150	155	1.6074	0.6550	1.1954
f66fabc1-1e97-4c21-a63f-5313d362775e.rna_seq.augmented_star_gene_counts.tsv	641	339	303	7.9630	3.3359	4.1615
d563ff4e-7e86-45eb-849b-3e7e5bdfd98e.rna_seq.augmented_star_gene_counts.tsv	71990	35934	36105	393.6650	92.0837	82.1638
6f2c61ef-9038-4d9c-a11e-0ad8e1938026.rna_seq.augmented_star_gene_counts.tsv	899	428	476	5.0833	2.2872	5.0879
fc47ffc6-4a8e-446e-91d9-e983362c6dfe.rna_seq.augmented_star_gene_counts.tsv	640	308	334	3.6081	1.2495	1.8977
f9963ac2-b1c9-4a24-b077-be1a4007d20d.rna_seq.augmented_star_gene_counts.tsv	2504	1251	1265	15.6110	5.6311	7.5844
ce7375f7-b7ef-48cf-897a-59d5df6253da.rna_seq.augmented_star_gene_counts.tsv	2872	1377	1499	38.4200	12.5149	13.2804
4772e349-a753-4c41-9c48-ae3af0f58520.rna_seq.augmented_star_gene_counts.tsv	465	258	212	2.9073	1.1211	1.2259
7cca1b38-779e-4cef-b0ab-4bc45994f4df.rna_seq.augmented_star_gene_counts.tsv	1906	933	977	19.6413	8.5048	9.0157
43d39f8d-3fc9-4e76-9502-75fbbcf1b859.rna_seq.augmented_star_gene_counts.tsv	418	273	159	9.7731	3.7813	3.1680
f71229d0-d648-46db-833d-f72192a54d32.rna_seq.augmented_star_gene_counts.tsv	886	182	722	30.7339	12.8709	11.8590
fab2447c-95cb-4fd7-94d1-b9c9674f5cf5.rna_seq.augmented_star_gene_counts.tsv	772	767	117	5.9605	2.0792	2.0720
caf40242-69a1-4e80-9f56-978262af3deb.rna_seq.augmented_star_gene_counts.tsv	1037	523	557	3.8399	1.7255	2.6598
1c7309b2-91f0-4305-aad7-f86c0d143559.rna_seq.augmented_star_gene_counts.tsv	8677	4239	4445	46.7829	13.2107	12.5828
ad1f66de-1ad0-406f-a093-e401d7402af4.rna_seq.augmented_star_gene_counts.tsv	3033	441	2639	35.8157	12.9612	12.2205
8583e22d-3d94-4185-82b0-7659c09fc51a.rna_seq.augmented_star_gene_counts.tsv	781	503	332	6.3837	2.7246	2.3850
77005fc3-4d4e-419e-93b1-9dfe6999f587.rna_seq.augmented_star_gene_counts.tsv	1582	766	839	8.9854	3.2855	4.5966
74c5f3e2-ba66-4d3e-8a44-6e97ede2ef22.rna_seq.augmented_star_gene_counts.tsv	2770	1418	1352	31.6372	13.1544	16.1824
436b1b6a-4915-40b5-9f97-5b0ee2d6d3fb.rna_seq.augmented_star_gene_counts.tsv	1044	8	1042	10.7243	4.3222	4.7104
a738f130-d151-463b-9889-2d379ebe52d2.rna_seq.augmented_star_gene_counts.tsv	277	152	139	1.3634	0.5118	1.1365
45ea416c-9172-4eda-9d87-b9e17148d2d4.rna_seq.augmented_star_gene_counts.tsv	572	277	304	2.0071	0.7671	1.6166
57c4a274-647d-4499-a8f8-a79e446ab4a7.rna_seq.augmented_star_gene_counts.tsv	2531	1263	1280	18.8357	5.6806	5.2232
6718463d-6f44-47c7-a622-c149f344ffbd.rna_seq.augmented_star_gene_counts.tsv	2701	1328	1374	32.3212	11.2762	12.1445
e5c4a8d4-f43f-4dc6-913d-3b2005326fc2.rna_seq.augmented_star_gene_counts.tsv	1732	885	850	26.5585	9.6474	11.2025
0984499c-19ef-4174-82ce-491a336f8e70.rna_seq.augmented_star_gene_counts.tsv	2370	1210	1192	14.7089	4.6911	4.6866
f1bfbced-7b76-4cba-98d5-59d02ebb1a52.rna_seq.augmented_star_gene_counts.tsv	1718	652	1139	12.0616	4.6482	4.2154
404902c7-47fd-4860-b7e2-e682d8a1880a.rna_seq.augmented_star_gene_counts.tsv	1735	861	876	9.6578	2.7038	2.5642
7bbee063-8892-4e22-add3-77bfabbfd0ad.rna_seq.augmented_star_gene_counts.tsv	12628	6329	6312	66.5368	21.4565	20.6211
a1eaf5b1-6c7f-47bf-8a51-6bc24129aa7f.rna_seq.augmented_star_gene_counts.tsv	2331	1163	1181	12.6615	5.0303	6.9712
9e28b00a-85df-4126-a619-cffc2d5abad2.rna_seq.augmented_star_gene_counts.tsv	4384	2190	2201	29.7546	10.5840	11.5124
f0944087-afaa-4817-9529-e6e5a8c50ca7.rna_seq.augmented_star_gene_counts.tsv	311	150	162	4.4287	1.6023	1.5162
7519dae8-dfee-413d-995d-d005fdddb4b1.rna_seq.augmented_star_gene_counts.tsv	2319	1131	1207	9.1763	3.5793	5.2658
96a00cc6-3880-4f03-a08d-73d284787971.rna_seq.augmented_star_gene_counts.tsv	1742	859	884	21.9083	6.9389	6.6864
7298e35d-8405-4662-bc88-6d9fecb41286.rna_seq.augmented_star_gene_counts.tsv	10519	5339	5186	119.8846	41.0501	41.6815
e7766ea7-e3c8-4bcb-ac94-1811088a0aea.rna_seq.augmented_star_gene_counts.tsv	1326	661	669	12.2022	5.0588	5.2294
1ca692e6-1dff-4d84-ace1-671bac7b9f61.rna_seq.augmented_star_gene_counts.tsv	846	708	226	10.6162	4.1414	3.8844
48e3eab5-b82e-4dbb-88d2-e5cfe295fa88.rna_seq.augmented_star_gene_counts.tsv	2347	1168	1184	14.6448	4.3055	4.1523
437791c8-3239-4983-8f7c-b05de583e0f4.rna_seq.augmented_star_gene_counts.tsv	363	226	163	11.9235	4.1408	3.6277
d1f2718d-c821-45b8-aabc-0e536c2d3fd3.rna_seq.augmented_star_gene_counts.tsv	1669	818	853	9.9712	3.4608	3.8691
da658a99-8972-473e-9754-9712be0b1b25.rna_seq.augmented_star_gene_counts.tsv	6814	3358	3493	33.0692	12.5337	13.3982
94a92a4a-6c40-40c4-913d-0cdba8cb5892.rna_seq.augmented_star_gene_counts.tsv	591	298	293	9.1686	3.3007	3.6459
871e5874-2343-46c5-a234-9017a7f29ca2.rna_seq.augmented_star_gene_counts.tsv	3625	1798	1844	17.5713	7.4957	12.4872
5b5ae19f-dd3c-4569-98a7-6e713fa6a08b.rna_seq.augmented_star_gene_counts.tsv	2730	442	2319	33.9542	15.1187	14.3579
40540422-c580-45b1-8549-4444761059f5.rna_seq.augmented_star_gene_counts.tsv	2003	366	1667	26.3128	9.7791	8.7455
dc3154b7-6ae4-446a-8a80-91a86c57cefe.rna_seq.augmented_star_gene_counts.tsv	1745	864	883	9.5058	4.9905	8.1268
e8968a79-81e7-47e3-8ec2-f832b9bdda93.rna_seq.augmented_star_gene_counts.tsv	803	655	245	8.6185	3.9920	4.0067
263a1bf6-1d33-4148-8c26-5607d03f8099.rna_seq.augmented_star_gene_counts.tsv	278	146	138	1.7678	0.6541	1.0165
00871caf-3f63-499e-a152-5a6b19834bf7.rna_seq.augmented_star_gene_counts.tsv	1798	388	1470	19.5726	6.9265	6.6774
891cdc8f-5bda-455c-81f7-cac85d470368.rna_seq.augmented_star_gene_counts.tsv	191	101	90	1.9681	0.9204	1.1013
9460e172-628a-4cc0-bd66-ae2635b858bc.rna_seq.augmented_star_gene_counts.tsv	14120	7197	6936	151.3877	51.2083	51.3399
e06d03bf-f690-495f-b131-57ae563af95e.rna_seq.augmented_star_gene_counts.tsv	596	224	398	10.9068	4.9310	4.8037
35b681b7-178f-4057-be97-096cf9b8d1ab.rna_seq.augmented_star_gene_counts.tsv	923	440	485	8.8048	5.0097	6.9049
0181bca8-b347-4106-8084-a32f87253dc9.rna_seq.augmented_star_gene_counts.tsv	208	105	115	1.0559	0.3976	0.3952
8befb9ff-1628-4469-9b84-4fa9c72efd19.rna_seq.augmented_star_gene_counts.tsv	216	106	110	9.1482	4.6039	5.6515
e5e88ea0-10c6-4424-943a-161b11b26cbe.rna_seq.augmented_star_gene_counts.tsv	2008	1009	1045	14.9339	4.2158	3.9026
ae0d8ed3-e789-4ef8-b0c2-58e8ad7a3962.rna_seq.augmented_star_gene_counts.tsv	3218	1627	1616	19.4006	6.7842	9.5580
415b79c0-10e4-403a-9d45-dba9a7b7dae6.rna_seq.augmented_star_gene_counts.tsv	731	353	384	8.2417	2.7171	2.6856
7241900e-f913-49b9-970f-74f571a3a47d.rna_seq.augmented_star_gene_counts.tsv	10603	5343	5264	159.6934	43.8095	40.2235
3a1fb884-c461-455e-b01e-2bf92780b2a5.rna_seq.augmented_star_gene_counts.tsv	476	215	268	3.1689	1.2150	1.4405
f069599f-19ca-44eb-b0cb-52eeefc35b82.rna_seq.augmented_star_gene_counts.tsv	591	289	303	6.7396	2.4987	2.3352
8652918d-bf8c-484b-9dd0-518424df879e.rna_seq.augmented_star_gene_counts.tsv	2033	1018	1017	13.5552	4.5329	5.4960
cce82505-bf1b-4b33-9359-9cf9a75e3f4b.rna_seq.augmented_star_gene_counts.tsv	3689	1861	1844	16.3545	5.0352	4.7780
734ed05f-459e-4cd4-8d1e-e9b2d89df3ea.rna_seq.augmented_star_gene_counts.tsv	2340	1108	1245	15.4774	6.2070	11.5158
64c42fa6-9a40-4007-a0c1-c71dd67f402a.rna_seq.augmented_star_gene_counts.tsv	1598	789	813	22.5779	7.6054	9.6524
245a08d4-fcda-4bbf-b213-6e815d914e1d.rna_seq.augmented_star_gene_counts.tsv	2890	1406	1507	16.7523	5.6366	6.5028
c7c1bdcf-667e-497c-8167-6f84fa5a99e3.rna_seq.augmented_star_gene_counts.tsv	307	160	170	1.1892	0.4694	0.8719
829c5a9a-cc8f-48f9-8a44-7abe9e57d67f.rna_seq.augmented_star_gene_counts.tsv	1829	925	914	12.8741	4.0947	3.8047
a88a1582-88b8-4e7e-9baf-09279b49a492.rna_seq.augmented_star_gene_counts.tsv	1916	967	980	10.2246	2.6512	2.5800
042bb5d0-32af-4905-a09f-6baa2133ac78.rna_seq.augmented_star_gene_counts.tsv	525	271	256	8.2581	2.9371	3.4427
c9121b65-c539-4f45-9f3c-334c85aa1cd0.rna_seq.augmented_star_gene_counts.tsv	1262	383	916	19.1248	6.8703	6.3425
2d3a1314-af5e-4982-83bb-92b37289615a.rna_seq.augmented_star_gene_counts.tsv	695	593	174	4.4658	2.0054	1.8050
4c34db2e-e3cd-46d9-85ac-4277a1f036f1.rna_seq.augmented_star_gene_counts.tsv	1803	897	917	16.8591	7.2400	10.9414
7e019662-154e-4eca-b85c-ac01411fabea.rna_seq.augmented_star_gene_counts.tsv	1163	607	570	5.8428	2.1220	3.0007
c9d871ba-e6ca-49b0-99e1-02d2760291f7.rna_seq.augmented_star_gene_counts.tsv	6615	3246	3415	39.8114	13.3846	14.6190
2fc30776-1bf8-4481-9145-4e3dc5556aca.rna_seq.augmented_star_gene_counts.tsv	1207	623	607	7.7039	2.6731	2.6495
3e4041a1-13b5-48de-b952-0dcee41c4232.rna_seq.augmented_star_gene_counts.tsv	954	474	482	11.2644	4.8970	5.5376
6cbe403c-5c2c-4cb7-8f8c-37424f2917a2.rna_seq.augmented_star_gene_counts.tsv	1445	793	720	6.8984	3.0846	2.6996
c39123ba-a337-44f3-9a35-8be6098de781.rna_seq.augmented_star_gene_counts.tsv	7610	3801	3837	39.4419	12.2373	12.3350
25b91c9a-6d52-4bc9-b6cc-e41d2c128b7b.rna_seq.augmented_star_gene_counts.tsv	3365	1623	1781	15.6301	5.2647	5.1886
1047bb4b-a6f2-4827-84c1-f3d4f08363d2.rna_seq.augmented_star_gene_counts.tsv	3584	350	3298	21.8002	8.0535	7.2624
11f1bcdf-e5f6-484c-8cdc-347dcee69169.rna_seq.augmented_star_gene_counts.tsv	2070	1079	995	19.6547	7.8939	9.8182
9aa5eb7d-1d54-47f6-aeeb-59be4880f004.rna_seq.augmented_star_gene_counts.tsv	1474	749	735	8.0734	2.6416	2.6096
ec3aac56-028a-4869-8d68-019a58774640.rna_seq.augmented_star_gene_counts.tsv	477	253	232	2.5754	0.9656	1.5542
99898625-cd73-44bf-8a52-dbd47eeb12af.rna_seq.augmented_star_gene_counts.tsv	4626	2258	2374	71.6573	20.8650	21.6993
86a0a3ab-d3bc-4897-b6ed-97246cccc122.rna_seq.augmented_star_gene_counts.tsv	1246	620	629	10.9180	3.1173	2.8228
b849f8c0-4937-4e95-bfc7-c8da9340d021.rna_seq.augmented_star_gene_counts.tsv	4379	2216	2168	15.9649	5.5354	6.0558
6f0598b2-b16b-435d-86b4-d08fc01d25de.rna_seq.augmented_star_gene_counts.tsv	975	826	240	5.6065	2.3106	2.1979
7acbca97-f38d-4da8-8d82-53a8eb0a43ef.rna_seq.augmented_star_gene_counts.tsv	1029	514	534	4.5764	1.2209	1.2630
7f9dadec-d447-41be-a192-637ce36467da.rna_seq.augmented_star_gene_counts.tsv	765	398	375	4.8970	1.7920	1.9293
b794f773-0759-4192-a509-2fd9970b3cf1.rna_seq.augmented_star_gene_counts.tsv	1599	814	887	12.9124	4.2275	3.8814
e70a35cc-868c-4c31-af69-a0b2b566936d.rna_seq.augmented_star_gene_counts.tsv	159	88	84	0.7131	0.2892	0.3506
5acb13f5-bf70-4a8f-81d6-cd8e13565af7.rna_seq.augmented_star_gene_counts.tsv	1650	853	812	6.6137	2.1301	2.1596
00f7bc03-af70-4cab-9ff2-c0a7b7887236.rna_seq.augmented_star_gene_counts.tsv	1551	14	1543	16.8419	6.9697	7.1104
819e9776-131f-4c00-b93c-9936cbcc55b8.rna_seq.augmented_star_gene_counts.tsv	550	275	288	5.9766	1.6927	1.6301
35f0d6a3-a27f-4359-b9d1-75c915f311fd.rna_seq.augmented_star_gene_counts.tsv	4697	2358	2356	27.7492	9.4918	9.6132
6bf245e5-f2c6-48af-8490-9e18981c1c28.rna_seq.augmented_star_gene_counts.tsv	10446	5241	5231	69.9680	19.6077	18.0396
25c06372-1130-44dd-bd1b-61660e57c271.rna_seq.augmented_star_gene_counts.tsv	204	15	203	2.1284	0.8746	1.0106
fa8a5220-adec-491f-a3f6-a4ca35beb540.rna_seq.augmented_star_gene_counts.tsv	8284	4133	4173	34.9482	10.3527	10.7062
0203f8e9-dd4b-45f7-bc05-aff182ced29d.rna_seq.augmented_star_gene_counts.tsv	838	428	428	3.0000	1.3981	1.8118
2a85a4ed-ee55-44df-b29e-52d0c51d23e4.rna_seq.augmented_star_gene_counts.tsv	5274	2526	2780	45.9964	14.7181	14.9667
4ab26916-9f30-417e-bc71-a454e92a731a.rna_seq.augmented_star_gene_counts.tsv	2285	1146	1150	10.6024	3.2892	3.4777
7914c6cf-464e-4e63-80f6-47f10cc90f35.rna_seq.augmented_star_gene_counts.tsv	475	228	250	5.6758	1.7271	1.7199
aa74d8a8-4089-477b-bf4e-25bb23cda909.rna_seq.augmented_star_gene_counts.tsv	527	257	275	5.6477	2.5404	3.3381
8d6ae71d-5622-4553-b992-c0c59c703e59.rna_seq.augmented_star_gene_counts.tsv	1651	830	825	17.9612	6.3380	8.7807
c4466851-a97d-4bd4-9329-a75ecc915692.rna_seq.augmented_star_gene_counts.tsv	1849	943	912	20.2349	7.5092	10.0283
c59d226c-73f2-4d14-8af9-5130673f9cd7.rna_seq.augmented_star_gene_counts.tsv	1759	860	902	21.4143	7.3869	8.1482
8c76ce45-f110-4f6a-b413-13a1a1aeddef.rna_seq.augmented_star_gene_counts.tsv	524	250	277	9.9264	3.3695	3.9829
ac4ec2c7-9dcb-4863-9e27-00dabfa7c747.rna_seq.augmented_star_gene_counts.tsv	1669	786	890	10.4509	4.2382	6.7627
0084369c-3778-4220-9846-f1193b48e1db.rna_seq.augmented_star_gene_counts.tsv	991	492	507	23.2786	7.1948	7.1864
b52b8324-2c05-4cd0-8838-840c52cebff4.rna_seq.augmented_star_gene_counts.tsv	735	663	188	6.0160	1.9393	1.8488
c04d4ab8-8c79-4f44-9ad4-b71b0aca3194.rna_seq.augmented_star_gene_counts.tsv	3665	1851	1816	48.0345	14.4392	13.4574
3bfa7140-ed14-41bf-aa12-5eac3535885a.rna_seq.augmented_star_gene_counts.tsv	3105	1612	1511	17.1999	6.5467	9.7332
b13b2626-0127-4087-811e-5f4b103935ec.rna_seq.augmented_star_gene_counts.tsv	6716	632	6167	51.5088	16.1647	14.2597
cb871791-fc35-4adf-90e6-0bb363558df1.rna_seq.augmented_star_gene_counts.tsv	3156	1588	1593	19.3613	6.3132	5.9776
730603d9-7613-469b-990b-1b79ab133290.rna_seq.augmented_star_gene_counts.tsv	4205	2123	2082	41.3038	17.5284	22.9981
46a4ba0d-0b16-4c58-839a-4a38eabc6657.rna_seq.augmented_star_gene_counts.tsv	517	394	188	6.0672	1.8320	1.7605
765304e7-ec35-4aef-a646-8f264044cf23.rna_seq.augmented_star_gene_counts.tsv	859	437	422	5.0094	2.0614	4.8470
f20785b9-991d-4b87-8ba7-ca32373f1996.rna_seq.augmented_star_gene_counts.tsv	290	155	145	1.7936	0.5663	0.5789
f363b139-4741-4d30-84f7-4bd25ba062bc.rna_seq.augmented_star_gene_counts.tsv	1603	793	815	10.5541	3.4722	3.6951
b5fdddac-3219-4d9a-bdec-ba5a505c154b.rna_seq.augmented_star_gene_counts.tsv	2893	1469	1436	14.1471	4.0987	4.1235
40520155-cef3-46d1-a6f4-9d6b7005a6de.rna_seq.augmented_star_gene_counts.tsv	4179	540	3712	27.9363	11.5939	9.8345
fc8cc23a-6b02-4a99-a6d7-5c01b85fa0d1.rna_seq.augmented_star_gene_counts.tsv	1773	873	903	16.0450	6.1343	10.4784
d48a588b-b49b-4b35-bd73-141669318f13.rna_seq.augmented_star_gene_counts.tsv	2293	1148	1171	12.7956	5.2797	5.9770
927fbb8a-acc0-4f3a-9d58-20650e187554.rna_seq.augmented_star_gene_counts.tsv	4786	2359	2455	24.4017	8.4106	11.5474
44b89131-757f-4f93-9e83-b7011ee83266.rna_seq.augmented_star_gene_counts.tsv	569	303	280	3.7731	2.6928	4.2505
af1598cb-dea5-45dd-861b-8c0df85f8951.rna_seq.augmented_star_gene_counts.tsv	1140	541	599	45.4177	14.9679	15.1807
01d0e31b-3978-4208-b963-bbaffe938aa7.rna_seq.augmented_star_gene_counts.tsv	1609	805	807	22.3707	7.8907	11.4214
9d2f9191-338e-49ea-a887-a808cdf2703f.rna_seq.augmented_star_gene_counts.tsv	1115	582	550	6.8803	2.6886	3.0798
52ead51d-c3eb-4915-8c87-773c06b31779.rna_seq.augmented_star_gene_counts.tsv	1058	525	535	14.5797	4.4775	4.7943
235b04f8-cfb4-49ab-93c0-e9dd4cbe4e46.rna_seq.augmented_star_gene_counts.tsv	2958	1486	1474	53.8549	17.4909	20.0801
7472f815-529d-4c2b-815b-be731c9ff4b9.rna_seq.augmented_star_gene_counts.tsv	4596	413	4220	64.8451	26.1654	23.0985
311d89d5-9845-4d61-a801-8e0990be5d24.rna_seq.augmented_star_gene_counts.tsv	1237	631	616	13.8958	4.6076	6.8591
8ece5ec1-88c8-4d50-942c-11be8ca9b8c9.rna_seq.augmented_star_gene_counts.tsv	440	259	228	3.2880	1.2136	1.1175
c84fcf80-2e54-4890-839e-ac187d38431f.rna_seq.augmented_star_gene_counts.tsv	1773	877	937	15.0616	6.1652	8.7254
6c8ba378-3d51-46a8-ac10-41652da21459.rna_seq.augmented_star_gene_counts.tsv	867	426	445	5.1808	2.1164	3.6230
3c05c010-995e-4576-a4a6-8843ecc67368.rna_seq.augmented_star_gene_counts.tsv	919	356	595	17.8481	6.4810	5.8407
14e80841-cfb9-42fb-9cae-db9f282ba4fd.rna_seq.augmented_star_gene_counts.tsv	5834	2873	2983	27.0650	9.4736	12.9992
7c1d65f0-c157-4502-a8ed-c88578d4eade.rna_seq.augmented_star_gene_counts.tsv	4866	2505	2386	22.2849	7.3998	9.8239
ba8781b9-be39-4c02-82ad-19ab29b7af15.rna_seq.augmented_star_gene_counts.tsv	1404	1092	449	17.5466	4.8822	4.6951
9f051fa2-2cc7-433a-b8b4-5829a51e9a65.rna_seq.augmented_star_gene_counts.tsv	227	114	114	1.7343	0.5171	0.5246
4d4134d3-87a8-449a-a6e4-587f1cfebdac.rna_seq.augmented_star_gene_counts.tsv	3157	1550	1621	27.2642	7.2899	7.0306
48431b07-9e30-47cf-9419-5252f720d63f.rna_seq.augmented_star_gene_counts.tsv	7712	514	7284	67.5765	26.8329	23.4409
39585364-6f4c-4b42-843f-ddca80061eb3.rna_seq.augmented_star_gene_counts.tsv	9805	4758	5067	59.7115	20.3773	19.6845
70b45a47-52ad-40a1-97db-ef145353922e.rna_seq.augmented_star_gene_counts.tsv	5767	2851	2930	29.1863	10.2358	12.8651
f48956a3-c821-429f-b1ad-a27133d739bd.rna_seq.augmented_star_gene_counts.tsv	2463	1228	1249	20.0072	5.2529	4.9567
dddbb4fe-4c79-4f38-9105-1caf7678e971.rna_seq.augmented_star_gene_counts.tsv	1446	734	716	21.7933	6.3423	6.0449
885565bd-ab8a-4270-8c9e-f34a028c4ffc.rna_seq.augmented_star_gene_counts.tsv	1620	559	1117	16.7534	6.2395	5.7615
813798a6-fbf5-442a-829c-7f7eb5062dbf.rna_seq.augmented_star_gene_counts.tsv	1356	706	650	15.2527	5.5275	5.3548
89e9e5fd-875b-4574-81f8-016eb83d32d1.rna_seq.augmented_star_gene_counts.tsv	3196	1606	1594	39.7154	11.8562	12.0236
dc644a23-b141-42bc-b380-0b99ff5b3e14.rna_seq.augmented_star_gene_counts.tsv	1148	584	630	7.7495	2.9955	2.6096
d85ea3ad-ab38-453d-b382-06cea6bc9e1b.rna_seq.augmented_star_gene_counts.tsv	2263	1118	1152	10.0844	3.9270	5.5711
cc279c31-96a1-45aa-82fd-e8a548086706.rna_seq.augmented_star_gene_counts.tsv	475	255	238	3.2014	0.9319	0.8877
05ac3e7c-1b87-4391-83c9-d0e0a95f1a56.rna_seq.augmented_star_gene_counts.tsv	1123	725	475	8.2131	2.9042	2.8666
87bf2a08-7e13-451d-94e8-55f8ddbc4b58.rna_seq.augmented_star_gene_counts.tsv	868	663	259	8.4645	2.9463	2.7127
b4aa381f-9895-4bdc-818b-6deec03782bf.rna_seq.augmented_star_gene_counts.tsv	3497	946	2633	22.3107	7.2944	6.6525
b6d05718-ee0c-46be-b612-03d2b37662cf.rna_seq.augmented_star_gene_counts.tsv	944	678	359	7.3122	2.6013	2.4023
fe036511-fe82-467c-9c6e-59bfb8b0a329.rna_seq.augmented_star_gene_counts.tsv	2247	1143	1118	26.4702	6.3709	5.7168
17de0382-9545-4c6e-b348-3f53e3d58ddb.rna_seq.augmented_star_gene_counts.tsv	1459	739	756	4.8073	1.8924	2.2508
646acf23-d998-46bc-a5cc-998c7cff6924.rna_seq.augmented_star_gene_counts.tsv	2662	1347	1318	42.4711	13.1711	14.1000
752a68ed-433b-4da9-8e88-b49ba308c53c.rna_seq.augmented_star_gene_counts.tsv	154	80	92	0.8359	0.2055	0.1890
13e18e29-9f8a-4bd4-9a5d-e6c30668d07a.rna_seq.augmented_star_gene_counts.tsv	4290	2123	2178	24.2886	9.1764	12.9941
8683d8f5-bba5-40a1-a460-ad6183d2302b.rna_seq.augmented_star_gene_counts.tsv	1196	567	632	7.1842	2.5292	3.2366
4df97711-6ecf-483c-a2c7-4952c44a2b69.rna_seq.augmented_star_gene_counts.tsv	1651	816	863	6.2827	2.5803	4.2832
5461c4fa-4a05-411a-b445-1634d0c099c8.rna_seq.augmented_star_gene_counts.tsv	2516	1068	1562	13.1581	4.6950	4.1907
b496f33b-4f96-408d-9851-c5ccf57640c3.rna_seq.augmented_star_gene_counts.tsv	477	231	252	3.2068	1.0799	1.5305
a30fbe4d-3d15-46e6-acba-58a35c22965b.rna_seq.augmented_star_gene_counts.tsv	860	438	471	6.8484	2.4677	2.0856
240a8e7c-fd1e-4c02-9333-732bd7c0ba28.rna_seq.augmented_star_gene_counts.tsv	1494	549	998	13.5827	5.4371	4.7230
cfbc5655-64b8-4adf-85b2-3176defb6c42.rna_seq.augmented_star_gene_counts.tsv	221	116	106	3.5131	0.9588	0.9801
8f9e712f-e4e8-44b2-96be-fa87b630428c.rna_seq.augmented_star_gene_counts.tsv	1071	532	544	5.1648	2.2286	3.7928
d5de14af-ed60-4f85-9fc2-8844f0894166.rna_seq.augmented_star_gene_counts.tsv	11200	497	10773	147.8485	56.5759	54.9625
81f9213e-6abf-4a0e-9dac-103c76294772.rna_seq.augmented_star_gene_counts.tsv	387	181	219	3.3536	0.9007	0.9604
d25af392-21ad-4aa6-8669-34656bf71af5.rna_seq.augmented_star_gene_counts.tsv	406	201	210	10.6881	3.8411	3.9661
f5f63b6b-a693-460f-a25c-69e3b0944a8e.rna_seq.augmented_star_gene_counts.tsv	845	417	430	12.8786	3.4947	3.1137
b2081f1a-e729-4120-8bbd-19a6cff35bd1.rna_seq.augmented_star_gene_counts.tsv	1894	910	1000	9.5665	3.4904	5.1658
9953447a-4d33-4a53-8395-4ac0fa67ed42.rna_seq.augmented_star_gene_counts.tsv	2814	1447	1407	9.4641	4.0041	7.0509
7763cc7c-8b33-46ec-9614-b6eafc7a3191.rna_seq.augmented_star_gene_counts.tsv	1088	582	514	4.9486	1.9469	2.1209
8a6fcf82-a349-4f74-9969-65a056fe9577.rna_seq.augmented_star_gene_counts.tsv	543	273	277	2.4069	0.9747	1.9716
de5a4588-05ec-461f-9235-90611b01f4b6.rna_seq.augmented_star_gene_counts.tsv	622	293	332	3.6584	0.9407	0.9079
e393396b-ac51-4a3c-953e-c675943bccef.rna_seq.augmented_star_gene_counts.tsv	1152	1043	264	8.8830	3.0583	2.9008
566d5a5c-9035-4945-89f1-f1101bff18ff.rna_seq.augmented_star_gene_counts.tsv	774	402	374	9.2288	2.7336	2.7967
8ad884fa-e426-4bc0-960d-08db42d341da.rna_seq.augmented_star_gene_counts.tsv	2252	1120	1142	10.3834	7.1397	14.8237
40f50e4f-9834-4f9f-b6c8-c8b05715eb89.rna_seq.augmented_star_gene_counts.tsv	905	480	425	15.7711	5.0379	4.8982
98f4637a-4953-4f52-b90a-c768d005a3e7.rna_seq.augmented_star_gene_counts.tsv	1148	560	603	4.2812	1.4326	1.5959
f2f218c6-82c6-454a-aebd-792807b9d166.rna_seq.augmented_star_gene_counts.tsv	746	387	361	20.6153	7.7792	7.4985
3d05e9c9-36ba-445f-a51d-b4091f8d38b4.rna_seq.augmented_star_gene_counts.tsv	293	145	149	2.8584	1.7220	2.3010
1d36ab5e-839d-47ac-914f-2c7f8499a498.rna_seq.augmented_star_gene_counts.tsv	579	300	280	3.8599	1.7938	1.7969
992ce1bc-46a2-4f57-ac7a-c6368c69c67c.rna_seq.augmented_star_gene_counts.tsv	302	135	169	2.1749	0.7263	0.7484
6ce73d9b-3037-437d-862a-8f8b87a09fe0.rna_seq.augmented_star_gene_counts.tsv	777	399	378	6.1704	3.0868	4.3595
3925a63a-fe3f-4aea-a45e-cab2790ed53e.rna_seq.augmented_star_gene_counts.tsv	4582	601	4073	32.7009	9.9826	8.7517
95cb4391-30a4-4e88-9f45-d6dc817c1ee2.rna_seq.augmented_star_gene_counts.tsv	574	2	575	5.1453	2.4400	2.9887
c3ee66f2-c489-47df-9b05-6dac8205f8f9.rna_seq.augmented_star_gene_counts.tsv	3674	1789	1922	19.0074	6.9420	6.9109
43e174bb-c161-4eb9-8643-de690413a7a4.rna_seq.augmented_star_gene_counts.tsv	9249	4473	4794	48.2388	13.6859	12.3297
4999a004-b9d4-4f1a-95a9-24ba6c2888ad.rna_seq.augmented_star_gene_counts.tsv	3235	1668	1572	42.4496	13.6760	14.6595
a68cfb4e-161c-4d0d-851d-47d2c0be582c.rna_seq.augmented_star_gene_counts.tsv	165	103	93	0.2899	0.5180	0.6568
bf96da08-98b9-4f16-95f6-c73f1e70c312.rna_seq.augmented_star_gene_counts.tsv	1292	675	626	15.9042	5.3397	5.6388
894424ab-29c3-4f41-88e7-f59d0df10c28.rna_seq.augmented_star_gene_counts.tsv	991	518	477	9.9566	2.7908	2.7719
96d07b9b-c31c-40cc-8e12-0748cafbf5cd.rna_seq.augmented_star_gene_counts.tsv	675	332	358	2.5409	1.0381	2.0351
c00f7120-4106-4f03-a967-e80a35e311ce.rna_seq.augmented_star_gene_counts.tsv	2257	1150	1112	29.2105	9.1017	8.9844
0de12afd-43cc-49e7-a932-21f43ec4f92a.rna_seq.augmented_star_gene_counts.tsv	1992	321	1736	6.2183	2.6748	2.4920
1b8a76cc-0a8b-422b-901e-2c1a45fb9486.rna_seq.augmented_star_gene_counts.tsv	4724	2440	2288	26.6685	9.1239	11.7574
571cd609-a911-4617-95ae-f55ec2805067.rna_seq.augmented_star_gene_counts.tsv	247	120	131	1.5168	0.5769	1.2633
c1f2ea2b-7576-4d3d-ab1f-7d4592146140.rna_seq.augmented_star_gene_counts.tsv	1467	792	760	12.2525	3.5955	3.2297
6f73a012-899f-46a6-963f-4c04a3c6af2b.rna_seq.augmented_star_gene_counts.tsv	459	239	222	7.7905	2.3314	2.0818
1f6d7667-b1ed-4577-9005-a6ffb9a4f547.rna_seq.augmented_star_gene_counts.tsv	4120	2038	2100	23.7827	8.4052	13.8197
bf312cd5-e251-4d63-95b5-c379b3ef5ded.rna_seq.augmented_star_gene_counts.tsv	1367	680	710	11.7799	3.7442	3.8184
0290399e-1ee7-4b96-a482-5db47d84b606.rna_seq.augmented_star_gene_counts.tsv	20	5	15	11.3609	5.9117	2.3141
4cc5206f-03b3-4977-8e3e-4c6ea83406fa.rna_seq.augmented_star_gene_counts.tsv	344	7	343	3.3529	1.2975	1.4621
cabd9320-506a-4695-a18a-7c8602633f90.rna_seq.augmented_star_gene_counts.tsv	3171	1631	1547	20.4876	6.8485	6.6844
5929f6bf-85f8-4b79-ae2d-c5cddf2a9ed1.rna_seq.augmented_star_gene_counts.tsv	3524	1781	1752	26.4092	9.0009	10.5648
24eb973a-961c-4d12-a3f5-3ac7d841780b.rna_seq.augmented_star_gene_counts.tsv	1064	656	492	7.7976	2.6273	2.3584
1f986941-841d-44d4-95f9-c3d4fcb71c04.rna_seq.augmented_star_gene_counts.tsv	2528	1250	1281	20.5748	14.2289	25.9106
9c6906c3-a740-4231-88eb-54954e3ee8f6.rna_seq.augmented_star_gene_counts.tsv	5473	2726	2754	64.0435	22.6879	23.5507
097399b6-be8c-4a85-a5ce-399ad24e8680.rna_seq.augmented_star_gene_counts.tsv	2201	1067	1188	15.2352	4.8673	5.1879
64be61be-941f-4bb5-a06a-d281c3d4883f.rna_seq.augmented_star_gene_counts.tsv	1472	660	867	10.7845	4.1718	3.9254
73fc90cb-2b56-4a6b-8083-42f6647a2478.rna_seq.augmented_star_gene_counts.tsv	751	356	424	3.0158	1.0621	1.1364
a45a7511-4aa9-4d04-8f5f-34d12e4d5917.rna_seq.augmented_star_gene_counts.tsv	2595	1247	1368	19.6158	5.3770	4.9276
0aa9c77a-9724-4e8b-a114-e6d40373f6b4.rna_seq.augmented_star_gene_counts.tsv	996	921	197	10.3641	3.3904	3.4619
06cc0bc6-1b36-4318-99ee-dfc83cc134c0.rna_seq.augmented_star_gene_counts.tsv	1960	978	995	9.9239	3.5928	3.8996
f7b21076-fac1-4cb4-85a1-d293504b88e8.rna_seq.augmented_star_gene_counts.tsv	511	260	254	10.5174	2.7806	2.8456
d705d53d-7b72-4a4c-b0fb-5c8cb551e634.rna_seq.augmented_star_gene_counts.tsv	1468	730	746	19.8877	6.0188	6.0904
e542fb86-0a49-4605-9c90-db135ab74bec.rna_seq.augmented_star_gene_counts.tsv	1482	704	779	8.6975	3.1742	4.5551
cec2d27e-cffc-425c-bbc5-8fda77eaa9b7.rna_seq.augmented_star_gene_counts.tsv	1662	710	1031	12.7703	4.6436	4.1484
169e2872-37bb-4091-bc4f-e23b506f6f4f.rna_seq.augmented_star_gene_counts.tsv	1669	832	837	24.3945	6.4931	5.5938
7f12ed96-b2d8-4b4b-8212-1d496f0a8923.rna_seq.augmented_star_gene_counts.tsv	6510	556	6029	86.2385	32.5527	31.8270
bcb03eb3-000b-403f-92b3-2732802dd9e0.rna_seq.augmented_star_gene_counts.tsv	1588	358	1269	11.9510	4.5749	4.0264
70298d42-f2da-4630-8808-b28ea38242ba.rna_seq.augmented_star_gene_counts.tsv	12190	437	11853	105.7782	34.5540	30.7137
364e9fa9-3e1f-47cc-959a-1a2b3061c5d4.rna_seq.augmented_star_gene_counts.tsv	2029	979	1062	14.4699	4.0775	4.1889
b291037d-31f4-4303-95c9-7322950a45a7.rna_seq.augmented_star_gene_counts.tsv	367	186	183	3.9894	1.0802	1.0172
4056b190-7cec-46d3-a4ee-6f76934ba58d.rna_seq.augmented_star_gene_counts.tsv	1672	796	877	33.8780	12.7579	12.7836
748df5d4-527b-49d9-8093-c326cb61a015.rna_seq.augmented_star_gene_counts.tsv	144	76	77	0.9148	0.2505	0.2525
56ba32c5-5ff7-4376-9acd-2deeb552dac2.rna_seq.augmented_star_gene_counts.tsv	1300	641	663	22.0308	7.4624	7.7534
12305e97-f72f-4de7-9735-4cdbecb60296.rna_seq.augmented_star_gene_counts.tsv	296	145	151	3.6052	1.4484	2.1585
77c3097b-b711-43d9-9431-e27153899d55.rna_seq.augmented_star_gene_counts.tsv	678	338	342	6.8765	3.9740	5.4816
9f909512-d56f-4fcf-b5a3-c09f6599376c.rna_seq.augmented_star_gene_counts.tsv	34	19	16	0.4249	0.1391	0.1285
a825833a-556e-434e-9b0f-68e12579648d.rna_seq.augmented_star_gene_counts.tsv	1879	895	985	18.3380	9.1353	12.2140
97141ff2-cce4-4df8-8944-819e6831ba80.rna_seq.augmented_star_gene_counts.tsv	1366	672	707	6.2443	2.3319	2.3827
4e22718d-479f-4de9-991b-40c08ab98ed0.rna_seq.augmented_star_gene_counts.tsv	3219	429	2854	28.6685	10.2085	9.0061
b9a6d63c-70cc-46bd-becc-b595a2052194.rna_seq.augmented_star_gene_counts.tsv	871	435	438	3.7724	2.1068	5.2007
78537d48-e056-476a-a4d1-fcf284189c46.rna_seq.augmented_star_gene_counts.tsv	549	505	95	5.5134	1.7923	1.5836
dfc8986d-1ec3-4c77-926e-d71cc217ffcd.rna_seq.augmented_star_gene_counts.tsv	2016	1012	1028	11.4456	4.4372	6.2855
a041897e-41b7-4132-b44c-dc658b197c4b.rna_seq.augmented_star_gene_counts.tsv	867	616	305	6.7177	2.6631	2.3451
8847424a-ca98-4012-afe0-2d6bdf223d2f.rna_seq.augmented_star_gene_counts.tsv	544	316	229	15.4333	9.2367	7.5331
2743de97-cf9e-47f1-8ad9-691976703802.rna_seq.augmented_star_gene_counts.tsv	664	408	306	4.2228	1.8680	1.7046
665ce266-2e04-4dbd-a714-90425aaa3a25.rna_seq.augmented_star_gene_counts.tsv	4778	2425	2359	58.1986	18.9103	19.2403
1084d48c-88e8-4d67-9049-d0e4cd7f9535.rna_seq.augmented_star_gene_counts.tsv	71	39	35	0.5664	0.1694	0.1712
93b38022-dab2-4aeb-bb3c-0833cbeee37a.rna_seq.augmented_star_gene_counts.tsv	7164	1241	6050	41.5305	14.0772	11.9640
8f7fc4d6-30f6-4361-94f3-48ef923cc9ec.rna_seq.augmented_star_gene_counts.tsv	874	430	449	5.9034	2.2712	3.7485
2dae2e49-314d-4a80-8699-7ccbe516e587.rna_seq.augmented_star_gene_counts.tsv	1542	778	773	6.6196	2.5606	4.3783
1514f0e4-4726-47e1-af26-140ff7fb0490.rna_seq.augmented_star_gene_counts.tsv	928	454	474	11.5348	3.9427	4.2534
19cdeb2c-fdb2-4bd5-97da-bf15411d3f49.rna_seq.augmented_star_gene_counts.tsv	442	23	437	5.4388	1.8414	1.8695
93c623c5-5ca3-44d8-8871-955a94778cc2.rna_seq.augmented_star_gene_counts.tsv	1698	813	892	11.5141	3.5767	3.4931
