case_id	aachange	WNT7B	WNT7A	OAT	LGR5	TBX3	LEF1	WNT5A	GLUL	AXIN2	TCF7	FZD10	SP5
0648f046-2206-4b97-9b6e-419c2e325b6d	S45F	1.5064	22.7972	21.8840	72.3706	14.0399	108.8154	32.2184	103.9226	16.7048	11.5348	37.4220	53.9560
734ef97f-807c-480e-8df9-feaf041032d2	S33C	2.5703	0.1901	77.5026	36.7849	2.8408	59.4980	13.1992	255.2158	33.1332	9.7524	125.3861	138.0203
661dc657-d2b3-44fa-b859-2c4ee42b0046	S33Y	9.2112	0.0484	25.7022	1.3859	397.4661	17.1977	9.2606	105.9513	29.6121	14.9807	1.9381	87.1800
a25a714e-c142-482b-91c8-4fea763e0254	T41I	0.0461	0.0103	12.1342	14.8816	103.0662	6.7427	8.1825	616.1308	39.6838	27.0650	0.0000	92.1339
4af65655-a3bd-4252-9b2f-2b2c4394f95c	S33C	1.5471	5.5216	60.9474	18.5134	8.1919	53.6217	37.4579	101.0103	59.0972	29.3312	207.5423	106.6808
03381d49-e25f-4376-8e36-f47063a7d3fb	G34E	1.0449	1.8515	16.2124	15.7600	3.2785	60.6136	15.5622	60.6097	14.2320	21.1893	21.1896	16.8028
5b8d04b2-ef40-4216-a3bb-42520efbe863	S45Y	0.0505	0.0000	14.6059	0.3441	14.3657	0.4669	1.7587	359.2606	0.8595	1.7678	0.0587	3.3112
ee6d81bf-0470-4652-aff0-d85f6ab67626	D32G	0.0611	0.0000	28.7697	15.6408	82.0233	9.7374	3.8117	1579.6980	20.6273	25.2096	0.0473	29.9344
ae8a4958-5407-4c01-93c3-8090862533ae	T41A	3.7917	0.0427	81.2480	18.9697	12.1167	26.1118	10.0147	198.6032	28.0753	7.7039	46.4997	18.5123
9a56d8a8-dadd-442e-bc09-732cd619aef7	D32G	0.0000	0.0105	252.5169	23.8392	65.0885	3.2532	3.0044	2573.5193	8.4873	6.3689	0.0000	17.8749
efa4c675-e35e-4f48-8d12-a40f30b63ddb	S37F	6.0711	22.7624	8.3052	147.1520	4.6593	33.8527	10.0147	81.7667	99.9539	21.4143	73.6044	54.5052
d1c65e6a-098e-4c10-9183-c303ba66015a	G34E	0.7574	8.9200	83.3267	88.7890	8.2510	30.2549	15.6155	123.4313	28.2242	21.4190	60.3005	28.1746
6ff12a54-10da-4941-bfea-7b66e19b4be9	D32G	1.0397	0.1749	86.6216	0.1180	25.0929	75.9563	124.9671	128.1086	291.7257	45.9964	63.5912	222.0138
65e430e1-0c9a-4045-83a9-653b7cff811d	S33C	0.7911	0.0137	228.5078	23.1418	62.1683	43.7199	1.5558	2851.1260	52.9430	25.1334	8.4394	94.7660
87e44856-eb9a-475f-96b1-047b7f77b0da	G34E	2.0149	3.1819	23.5466	12.3859	0.8286	6.9924	10.2678	62.1718	6.5361	5.3287	12.2698	10.8662
3c969bdf-cae8-44f5-839f-5abd4cba0ec8	S33C	0.0000	0.0000	22.4171	0.3648	10.4709	0.0635	0.5613	113.4768	2.0832	4.8615	0.2281	9.0237
73a0dd38-115d-48fb-b683-04aa5d612f2a	S37F	6.6980	11.2550	25.2808	5.7159	8.9026	51.8211	37.1437	114.5435	71.4315	18.1995	201.1123	123.6417
1e9f910c-82c0-4222-a62f-b656839307fc	S33F	0.0000	0.0000	226.8294	0.6703	110.2847	0.0775	0.0332	1014.1046	6.8682	11.9524	0.0000	22.2020
a2a2dbda-d10c-49c4-86a8-61baf6160cda	G34R	1.9748	0.2486	8.3392	9.0940	8.1069	45.1015	18.2035	64.8881	19.9366	6.8765	14.9089	86.4733
cc141997-edab-4aae-a056-0c079eaa7362	T41A	6.3168	0.8977	92.4009	29.9688	22.3162	156.6583	38.0816	391.7154	103.1717	25.1905	254.0362	235.3048
503e6c30-1b62-4f85-bcb4-e34c009894ab	S37F	1.0725	4.1679	60.1545	28.0018	1.4162	53.7891	16.2091	65.6768	20.1412	8.3705	38.6705	8.1025
52fef8a9-6860-48bd-b992-a56ccad1243c	D32A	6.9733	11.5384	105.2366	12.0892	26.3268	41.9039	85.3150	133.8004	197.8056	69.9680	218.8982	244.4357
838fcc2b-48b4-49dd-b8fc-ff27bbd16b17	D32A	1.3386	0.4028	69.8577	54.1742	5.1482	253.4416	38.8847	314.5350	49.1828	4.5190	60.9961	22.4715
0f59bb0a-135c-4793-b1a7-5ad5172ed82d	T41I	0.4251	13.1402	33.5373	64.6666	1.9528	47.6488	31.0485	58.8335	18.5243	8.5236	83.4255	57.9091
4eb95566-0e73-4260-853e-f7df650667a0	D32N	21.1939	15.0821	27.6231	2.3916	24.4354	101.5799	94.5375	161.2831	133.2410	41.3038	73.2516	171.6049
0f4fb205-b13c-4a85-97b3-779429e6ccdd	S37C	0.7254	0.0000	10.3790	0.0202	280.9481	88.3532	11.3038	151.1496	346.6114	48.2388	9.1424	75.1032
3f305a1f-1020-4ebb-82ab-fd132bcaea02	S37C	1.9608	9.0675	17.3996	0.6469	25.3333	74.4516	42.1999	55.2318	44.7663	15.9810	27.5635	65.4409
e56c6abc-b36c-4667-a347-0a541ce4791d	D32N	0.4907	4.5409	78.6057	10.7785	14.3253	196.7687	46.3214	84.6850	68.2381	10.5174	105.7030	62.2002
d70b3c6e-04da-4abc-a832-a461e4cfcc94	S33F	3.3591	1.8401	49.5470	31.1772	115.0139	56.5053	16.2740	226.2122	337.1700	48.0345	627.7531	398.5668
2714af93-e200-4b4a-9df8-7d837b37489f	T41A	0.3729	33.9900	85.7676	265.2386	3.6868	58.0895	30.9841	88.9627	11.4035	13.3629	33.6682	14.3090
c353f949-5f66-4a2c-b8f0-17be8bf19e0a	S33Y	30.7235	0.0000	685.4189	4.3524	5.4025	6.8078	6.9307	118.1057	17.0983	6.8803	0.2277	3.5134
09790a9b-cc2f-4d7e-a971-8fb4ecd9f791	S37Y	0.0000	0.0000	71.9688	29.3597	120.6323	0.1291	11.2776	5122.5292	37.4028	15.6110	0.0000	62.1048
490ae247-ee67-48d4-94ed-93df5b9bbefe	S37C	0.1322	0.1779	91.1869	0.6944	8.3388	102.4016	36.6931	38.9957	27.5737	2.3290	68.5526	79.3369
290890eb-321c-45dc-9cd1-45676c6e5e96	S45Y	0.0000	0.0000	5.6401	17.3919	79.2450	3.9900	6.1204	3836.8809	5.9747	22.5779	0.0869	43.5234
d74bc72e-8103-4aed-8958-5f40953d48eb	S33F	2.2527	2.4416	95.9433	12.5554	18.8343	50.4399	26.4247	124.9907	50.9950	19.3517	103.7041	105.3952
a6733fa1-030a-45ed-9c24-0e64164d4998	S45P	0.0350	0.0785	32.6064	47.2802	33.1847	8.1320	4.9768	141.5782	17.2250	8.6975	0.0541	1.9135
e46b6434-ee88-4630-9fc3-441afc431745	T41I	2.6448	1.5426	7.2968	30.3544	7.5745	49.7829	22.8104	30.8474	28.6655	12.9285	18.7002	19.3308
0b1f4f52-12ec-44ab-8283-a502bdf48c3a	T41I	0.0000	0.0951	142.4565	0.0206	3.1810	6.7112	0.5723	89.8681	5.8013	10.2246	0.2954	10.2059
61935424-44d0-4211-81c1-c925e436eac5	D32N	0.5446	1.5451	32.8554	5.8889	19.6598	104.5772	17.5185	139.1362	98.4471	5.5950	141.0213	111.6580
a1867d3e-a006-4e04-8118-478792bdca4b	D32H	0.1514	0.1529	146.5599	48.4844	41.9985	3.7163	2.7423	72.3834	134.4663	28.5274	0.3984	152.3274
0c53b010-4243-4da3-a059-7f54c9a850ec	T41A	13.1640	5.7481	141.8017	17.6322	15.1425	12.4740	24.3089	159.9877	18.0753	8.1357	14.5423	48.2477
64bd568d-0509-48fe-8d0a-aef2a85d5c57	S45F	0.5549	0.0622	118.1098	2.7526	24.6189	4.4696	5.3006	169.4340	72.6725	3.7287	0.3865	7.2038
31c7d56b-4af7-4fdb-ba83-63bf615fcc3d	D32G	0.0098	0.0000	109.8035	52.3473	129.4795	0.1946	10.7364	4403.1393	33.3573	16.8273	0.0454	40.8847
adc22472-e31d-419f-aeae-cb01b9423343	S33F	2.8191	4.0921	89.9736	175.2967	8.6825	80.7230	23.1165	162.7468	25.6251	9.2288	52.4349	43.1125
0955d871-5413-4ab2-8fdf-b4feb3aeef5d	S33C	0.0417	0.0156	3.0815	19.7730	180.5699	14.2901	13.9645	1887.4949	16.5054	19.7307	0.0000	52.5838
7b356c12-b226-4e58-be7f-44e50e3eefbe	T41A	0.1452	0.0543	18.1239	2.0712	21.7088	128.6749	6.4447	93.7690	343.6863	59.7115	225.4292	287.5003
76cc9c06-0827-465e-bab3-5f4115295ebe	S45P	0.0177	0.0396	11.9050	2.9034	12.6843	3.3141	1.7688	383.7665	1.4935	5.2231	0.0137	4.6293
7ad77384-0946-4fb5-9b10-bdc8a5fc8d87	S33Y	0.0285	0.0160	39.3173	26.9886	22.0340	8.6790	0.0811	986.4028	37.3115	20.1919	0.1325	206.7986
75fb484d-cd12-4cf0-a99d-faf27aead118	G34V	1.5114	23.3372	85.9506	5.7615	49.8254	103.9822	47.7305	160.4638	260.5961	19.3613	182.1320	526.3335
f89bbd17-c732-4847-b71c-a8627a702747	S45P	0.2752	0.0325	25.6507	22.5702	11.1613	2.1824	5.6992	145.6978	86.1289	10.0977	0.3139	15.3273
7b9479ff-23d6-4689-91f0-02efc94300f9	S33F	17.9340	0.1186	98.8183	8.5673	3.6939	14.8739	15.8894	304.5538	62.6645	3.6354	0.2181	150.8105
f311877d-021a-423b-a6f5-e574c9a3ca7c	S37F	0.0000	0.0000	27.8314	0.1263	3.7177	15.1272	0.2613	52.8059	8.8883	9.5058	0.5863	18.7954
994347ba-3045-4ade-926f-06420fbd906c	S33P	0.0881	0.0276	69.9364	3.6159	45.3040	4.7878	2.4143	997.1276	5.8974	9.5434	0.0174	24.5859
353c5fcc-9c6a-4ac6-99dc-fb4573b2ae6c	D32H	59.6883	1.6851	397.3361	1.4612	541.1089	19.9145	4.6291	192.3292	91.5203	20.0295	0.9501	66.5314
420dc176-e9a8-484b-bfa3-1b84e039c26b	S45P	0.1017	0.0000	35.1507	6.7255	21.4618	0.3928	3.8887	708.2602	5.7625	7.2914	0.0000	14.5803
553f0ccd-4e6f-4ae2-9b39-97529eb3d826	D32Y	12.4583	13.4162	13.1299	7.6035	6.7574	58.4242	37.6667	109.8485	38.1493	22.3707	115.1443	127.1343
fc83ab27-929e-4ad4-ba18-abb0694f1e43	G34E	0.0189	0.0318	117.8117	15.8679	281.2260	38.1254	64.6535	18.7480	38.5984	16.3183	1.4313	13.4742
44dec838-b653-42a7-a58b-a1fd232cd68c	S37F	11.2134	0.0238	256.2787	7.2365	1.0016	4.6554	4.1528	122.4446	16.6085	7.4433	0.1424	14.3745
8bdd4e0e-5bec-43f2-b9fa-d6e94a72fe05	S37C	0.3071	2.0896	19.6147	32.7943	0.6805	27.1780	7.6766	80.2326	14.3651	1.9681	63.5965	38.9115
0b672aa4-fc13-476f-b61e-5f2c3a615c23	T41I	1.4623	3.1518	90.2397	27.7201	17.3272	79.5254	105.4597	65.3021	33.1885	10.2174	437.8560	15.8017
93afbfa1-4d03-4105-8dda-b095f0ab308a	T41A	0.0134	0.0000	0.5410	2.6451	18.7380	4.6476	1.0203	1018.4778	9.8971	9.4641	0.0000	20.9660
f85bc60b-ab07-4b24-820b-6860b198e910	S33Y	0.4891	27.6247	36.3413	8.5873	18.6364	83.1295	21.6595	63.5073	38.5539	15.9042	30.7767	52.1770
33efe6c6-9159-48e8-b759-fba9ddbde761	T41A	0.6441	6.2957	136.4025	1.9390	15.3980	129.5944	31.6063	307.1317	158.0751	47.1304	395.6958	286.0017
69b23036-add9-42c9-941f-02fb74d9b08c	S45F	21.1991	0.0000	100.2670	1.1455	14.0027	18.6504	52.6089	244.0831	41.5550	9.9566	0.0927	35.3497
91909c63-debc-42ad-b4be-56870195bdcb	S45F	0.0534	0.0150	4.5663	1.7928	28.0296	3.3288	0.2277	442.9618	4.1021	3.2068	0.0207	6.0198
1c7b41fc-daa7-4a6e-b553-aff73e8ebac6	S37F	1.1602	14.1609	109.1238	38.7019	59.3573	67.6193	55.8243	142.9369	45.6990	5.6470	73.4049	95.9008
6c2a0f37-49cd-4fd0-b126-58b35f9121df	D32N	1.9668	53.9895	72.4907	15.6656	18.5537	123.8362	75.5975	182.9448	201.9207	38.4200	73.0630	227.5263
bb38805e-2ccc-4169-ba01-34b98adf5bd0	S33F	2.1076	0.3481	71.5018	0.0252	39.0145	55.5895	182.9607	27.9935	326.6178	35.7681	0.3002	11.4649
c77e1eef-ec9a-42ea-96cc-70aa437a00e6	S45P	0.1649	0.0347	122.2344	0.0200	3.3460	138.8953	0.3000	9.9524	40.5458	37.0486	0.9409	72.9861
81a7184e-f9f5-4e3f-9603-5f5642386c1e	S33A	0.0899	0.0144	102.1651	40.0900	9.4970	2.4084	6.2721	24.7518	122.7228	20.4876	0.2384	14.1802
b181b591-269c-4e48-b681-243d28772025	T41A	0.0106	0.0119	77.5654	1.7774	16.5992	2.5773	0.1056	383.3801	2.2097	4.1764	0.0822	8.9000
46874009-4b32-43ff-a36a-236a3ca28fef	D32Y	0.0435	0.0000	355.0817	0.2113	83.5564	3.4591	8.6958	198.2286	484.2459	393.6650	0.4036	0.2129
92554413-9ebc-4354-8e1b-9682f3a031d9	S45F	0.0000	0.0657	57.3985	8.6474	5.7110	1.4652	1.8967	68.8384	48.2356	12.6641	0.0725	3.8447
f47df5f9-7c60-4b1a-b574-7036245af341	D32Y	2.3546	6.1727	51.5209	12.0632	13.7452	161.1902	30.7222	101.9207	109.7094	14.5797	83.0193	300.1009
554a7381-46fd-4301-b91b-5af7f173c350	D32H	13.0386	0.0278	40.9181	4.9571	92.9141	21.3812	34.2633	104.0347	18.8275	4.4456	8.3484	21.3919
aa597e8b-7813-4837-b778-4dafe3b091bb	T41N	0.0119	0.0535	47.6892	0.0348	31.0765	73.9942	0.0593	9.0619	14.3941	7.1842	0.2956	28.5012
ff82548a-f1bb-4daa-a8f7-b3831b5843ad	T41I	1.4516	6.1764	9.2974	24.9370	2.0307	33.3104	7.7877	19.8571	7.5904	6.1704	16.5578	37.1386
e2b1d0de-5221-44a1-8fad-9708a3cada14	S33C	5.7412	124.1568	22.2958	6.7008	16.4422	48.9080	28.1337	96.3021	141.8926	31.1215	185.9929	89.8582
5e086192-ab74-4aa3-bf6b-b34ab19995db	S45P	0.0617	0.0138	128.7927	84.4194	1008.6711	75.7031	2.6797	36.9257	46.9050	14.7089	0.5535	4.9230
cf77afe9-3785-45d4-ba2a-61c9cb706225	S45Y	0.4442	0.9679	4.3573	47.5808	2.2714	54.9538	0.9283	47.5916	9.4842	5.5951	75.5044	26.2338
397d3f69-1453-4057-b177-8723eec923d1	G34V	2.2969	0.0166	265.8877	14.3842	4.3639	3.3771	1.1734	147.1064	107.4387	4.2812	0.3211	46.3689
073e51f9-fb79-4a5f-9ba0-2c9af03c0b85	S37F	0.0263	0.3389	2578.8157	65.7337	42.4089	3.4237	0.2613	143.7901	10.3556	4.4835	0.6101	51.7470
4c960eee-e4b5-499d-a596-238aa78745a4	T41A	0.0000	0.0000	107.7185	7.4626	61.7400	7.0064	0.1319	2318.9826	19.3193	16.8591	0.0000	60.5660
931e39cd-b0c4-437f-b6c5-9358d74ea533	S37F	0.0000	0.0000	9.9720	0.0000	0.3436	9.5485	0.0390	0.9095	6.2410	10.3834	0.0000	24.7714
36c14e9d-1863-4c55-bbbb-f8c9dd418932	S33F	5.3361	0.0376	93.8365	0.0109	259.4401	4.4852	4.9868	133.2813	5.4356	2.0003	4.1643	0.1367
cca827ca-0066-497d-83dc-477f3b08ea6d	T41A	0.0113	0.0000	29.8645	27.2418	32.6548	2.4060	1.4826	1971.8440	12.6782	8.9854	0.1048	17.8833
39e147c9-2acb-4ba8-a991-e43e1719b2d8	S45P	0.0516	0.0676	373.7972	4.3521	17.6761	5.6099	0.4706	440.0270	5.6952	3.7724	2.4374	29.9292
cf97d5ff-1cb7-434e-9ca8-c396cf960e5a	D32G	0.2025	0.0252	45.7079	0.0219	1.6491	14.8374	0.2716	44.0987	10.3529	24.2886	0.2960	9.5331
e60a8f8a-0fe6-40e5-9f30-bcff48ac73f4	G34V	8.5576	0.3141	344.0182	4.4189	4.2173	7.4013	2.1437	177.9447	33.1466	5.0277	11.3190	39.6347
d7ebd11a-1339-4b28-be90-a788d2cfa706	T41I	0.3395	0.0000	115.8113	154.4017	3.2073	1.7962	4.6214	63.0943	33.4084	4.4287	2.1458	15.3149
24170a77-94e0-4002-9d3e-a46c84e84fca	D32G	0.0099	0.0000	246.0955	24.0940	56.8963	0.7975	1.1672	1533.2873	14.5974	4.3953	0.0000	37.8803
f9cf4125-0db3-4b66-b51b-bc2f0240c9ef	G34R	20.9612	12.4342	108.3557	9.0290	10.9007	99.4062	94.6492	373.6945	126.9093	39.7154	95.3846	264.3288
b7d6621c-8bce-4a01-8588-9d7761d9372b	T41I	0.0468	26.8824	19.8763	18.7179	74.0204	3.3074	2.6726	2243.7138	19.9977	4.9964	0.1278	14.0642
f0ece8e2-a6b0-4ed9-a613-d2fbb20e51b1	S33C	0.0000	0.0000	56.9412	6.5965	28.9609	8.4528	2.6416	1679.6279	3.7232	7.7745	0.0690	9.9836
13f31bcb-befd-4ed2-adc0-dc9e9ce52b75	S45F	8.8360	57.0299	15.7283	3.4328	12.2227	44.3201	47.2398	47.9685	89.6893	7.9630	108.3059	28.2927
5e3b981e-73fe-4cc9-8c89-b420e8e2f426	D32N	2.3955	0.2067	40.7068	106.4374	0.8551	80.5911	11.3852	82.9480	130.3532	19.6413	47.6941	160.0740
59e9029a-8ddd-4447-b35a-72bc39f82a30	D32G	3.3674	0.4501	52.3028	2.0231	16.1299	24.9568	8.9908	99.4130	49.1320	10.6763	27.6992	13.6465
5750a6ed-2516-456d-97d4-2f6486845ed8	T41A	30.2822	5.3450	64.7020	8.6016	11.0773	11.8444	8.0817	94.1719	114.9805	15.8851	22.8799	48.1112
fb7e9935-32a2-422b-8004-88b827a686c2	D32Y	41.4293	1.3387	107.5101	0.4217	199.1303	12.3663	27.2956	282.1778	18.2153	5.0729	8.8429	6.4997
3405c549-7da5-48ee-ba48-177a67bbcc5d	T41I	5.4486	0.4132	11.6877	3.0363	4.2971	20.4133	10.3280	47.8481	13.1160	18.3380	48.8908	23.4619
0004d251-3f70-4395-b175-c94c2f5b1b81	I35S	0.0000	0.0000	387.2483	8.7371	133.6593	3.0902	1.5772	4586.4347	19.6385	13.8057	0.3716	81.3956
c7b3ac87-5260-4042-895a-279cd8cda620	G34R	1.4366	5.4076	106.6492	56.2953	1.4365	67.6742	30.1966	109.5037	36.4498	8.4546	51.7862	18.3725
916ccf0d-02ef-4ccb-824b-6b4294095a08	S33C	4.5179	5.0370	64.3954	16.3856	25.1695	77.6269	62.3931	248.3465	110.0089	27.9859	139.3537	140.7916
3c51fee0-da54-40e9-a954-dfe30f6f075c	S45P	0.0287	0.0000	76.1809	13.8429	42.1413	3.5572	2.9035	3867.9855	24.3318	25.5194	0.0739	22.6478
d17668c4-5d66-4e16-8b70-b54616581aae	G34R	7.0017	0.0363	4.5339	2.1075	4.2037	25.2670	7.9124	56.7498	15.2125	20.5748	16.9695	72.9557
1dbe1e26-3bcd-45cf-990e-ad7c8754f4d4	S37F	1.8882	0.0000	90.5985	21.2714	109.6559	16.7119	26.7714	90.9184	44.2034	20.1440	4.8058	11.0617
2d166dc0-8890-4b00-ab73-9e2dbb6c530d	S33C	0.7410	1.7983	58.5018	63.5267	14.9628	60.6786	10.8598	125.4004	48.9703	11.5141	68.5449	27.5874
b54df65f-8a6b-4405-9918-90d53418804c	D32V	0.0000	0.0085	1.5644	4.8902	24.1467	0.0430	0.0000	321.8665	6.9732	6.2827	0.0117	44.3710
0ec37c2c-8d90-48c1-9cbc-69fe6473c980	S45F	3.8417	1.7385	40.9377	0.0515	68.0185	53.9522	20.6319	50.0486	276.0971	13.5552	208.7976	218.7278
8e8f19bd-dbaa-4738-bad2-207f634cd63d	S33F	1.2473	196.3738	126.9818	117.7053	4.8376	32.5073	45.7687	155.1891	56.3943	22.2714	103.4707	7.7076
9ec86c06-e7a9-4ea6-b36d-6f832909054b	S45F	0.0951	0.0237	58.9596	25.8358	457.7272	30.6753	5.9408	32.2571	20.4373	16.7773	0.4577	8.2784
e0863874-f7b8-49b6-a88b-5ae5f1ec2b15	D32V	0.0000	0.2402	374.1107	90.9916	207.8684	22.5355	22.2012	5650.6779	94.2961	7.6131	0.0237	198.0915
2d1dc64d-27de-4c83-a7fa-88da5b48bf24	D32V	0.0085	0.0096	0.5627	19.5859	93.0530	2.8934	1.0055	3410.4426	35.2790	6.6196	0.0000	26.3226
0df573ee-28f0-4244-b434-09e6ca59fbf0	S37C	3.0710	0.0611	119.3686	4.4893	2.5711	3.1856	37.5290	267.9895	20.0449	4.7377	57.1538	83.7221
fbfed398-2a44-44a9-83cf-657c29cb7d28	D32H	1.4626	7.6991	13.1586	20.0620	7.2150	63.2202	12.5796	54.8994	21.6584	16.7523	44.9221	117.2370
d492383f-5449-4845-bfb3-b2cb4eb49c4e	T41A	35.5044	24.5144	37.6921	2.3303	214.1668	23.3019	14.3023	243.3843	106.2864	29.3166	1.1534	17.3049
424a497a-48b9-4507-b234-c4fd08c8acad	T41A	0.0317	0.0000	82.8671	16.8653	320.5795	97.0564	4.0824	18.2431	89.0484	17.2559	9.9515	9.2314
2854ffe8-1f77-497a-bf49-11e0189fee35	H36P	0.1828	0.0787	77.0906	5.6930	44.0906	8.6130	3.5338	1765.0927	23.6126	16.8550	0.0115	67.0898
a9a57127-94d3-425f-a4c5-5cbcf24a9a35	S45P	0.0246	0.0000	12.9703	0.8479	64.1651	15.0325	0.1090	3.9805	3.5979	3.1333	0.0000	2.2105
82940e94-ac74-4a9b-9da5-9e4b7d4d45c0	G34R	0.0242	0.0000	96.3996	20.4477	552.2788	72.0287	1.2628	35.6062	26.4277	10.5449	0.2621	8.2959
518aa9cc-71cf-4734-9d55-b435da99d300	H36P	0.0000	0.0252	24.6371	0.9966	16.0067	0.8221	2.1724	387.2671	3.7869	2.5409	0.0810	4.0301
3837c8ac-6c9e-499b-a4e7-d42c870bcb49	S33Y	0.1888	0.0000	68.4414	39.8972	135.4180	15.2440	6.9623	3088.7996	108.9585	29.7546	0.2922	131.1580
19511f9e-7b0e-4a06-998d-c1837d37c6ec	S45C	5.6859	32.7160	39.5942	146.5769	8.4811	44.7865	24.5002	109.6604	22.4227	28.0815	31.0144	11.9182
cf358fb8-866c-4780-a550-d6c1c30b8c63	T41A	0.0000	0.0220	22.2600	8.0590	57.2097	6.0582	0.1532	1989.2010	10.5115	15.7982	0.0152	68.0185
6ea0ef82-694d-492d-95da-a3bc8de99149	S37A	0.0000	0.0751	42.7013	11.5919	50.8495	2.9397	4.1212	2850.7116	8.8283	13.8958	0.1036	19.7894
516c8594-2973-41e5-a5ce-76d177edfa48	G34E	0.0476	0.0065	29.0401	2.1153	11.7886	0.3636	0.1525	324.1637	1.5168	3.0556	0.0628	8.3922
4dff4242-4a53-4f46-b200-7ed83f6b7808	D32N	0.0000	0.0000	0.8894	13.3216	66.8386	4.3039	1.4399	720.6047	4.6207	10.0844	0.0685	10.2574
94e387ae-b641-4e9f-bb53-22c7b2a9cccb	S45F	0.0000	0.0126	136.2916	0.5338	30.5512	0.3715	0.0159	395.9829	3.1352	3.6081	0.0173	8.6422
5dfdfcfc-72cc-4e33-aa3f-0d744eb94330	D32G	4.7970	26.1429	58.3627	5.5278	9.1997	124.8805	48.0472	124.2660	86.6295	42.4496	66.3007	243.3601
c21d2c68-920f-4526-b754-286579c049f3	T41A	0.1369	0.0083	68.2590	4.8532	29.7238	3.2620	7.5824	72.4590	47.3183	8.3555	0.6460	4.7664
66c6f413-b7a8-4d7c-9e1d-c4fb257b9e5c	G34V	0.0973	0.0049	55.9915	1.2024	16.7840	1.5947	1.1227	271.8714	1.3165	2.1096	0.2440	6.0235
b4a520ae-f259-48c8-823e-c10b9b8a133a	S37C	2.4068	2.5287	53.2636	2.3113	2.9863	48.8173	9.6066	72.6805	21.8514	26.5585	19.9941	132.7525
1b391187-1d9a-4428-ba9a-ef1800f17d3e	D32H	0.9633	0.0441	110.4483	6.6635	81.8535	39.7621	2.5061	65.4133	22.4685	21.8522	29.9416	77.0906
8e1ff72b-f1db-4bf9-a8d3-f422e25a65e1	T41A	13.5234	0.0000	24.5277	0.1532	68.9808	3.0842	30.7214	33.1893	7.1838	0.9988	0.7801	4.3719
bca1057a-1e96-404d-8a37-5a8dc1944ee7	S37F	13.9878	31.5149	48.2245	66.8710	11.0562	94.3649	73.6803	95.0294	131.7109	58.1986	130.0926	106.9929
ee143e06-0334-45dd-a2b0-1169527d6b4e	S45F	0.1536	0.1312	99.2471	0.0427	7.0989	33.8551	1.7553	66.4508	10.6244	0.6109	0.1924	7.6478
b8588e0f-aad6-4ded-845e-3cff67a48d8f	S37P	8.1332	1.3938	34.2139	7.8556	8.8580	73.3229	59.4062	182.0340	176.9182	38.4061	125.1025	384.3158
5fd0f07b-8bb9-4378-bd26-28a26057e8fe	S37F	1.2850	0.0711	126.2856	1.2498	1.3730	4.7592	1.4975	218.1840	28.8388	10.9907	28.2524	43.4445
91a0c8cd-4f23-4569-8e5c-e5442f7af530	S45F	0.1623	0.0607	149.5609	9.1556	42.9763	3.2425	0.3170	271.0106	7.5318	4.4656	0.0837	8.9445
79d33c28-a7e2-4fca-8be1-a16fb6d68d49	T41A	0.7658	0.2797	73.3277	38.4369	6.9220	5.2146	20.7428	79.7834	112.8338	20.5898	43.7471	1.1342
40f43483-b504-4ea7-ad24-40682b10caac	I35S	2.7103	4.2668	41.9937	2.9367	12.0169	109.6699	41.6209	141.9253	145.4541	32.3212	71.7226	482.5821
4c2e6abf-02e1-4ef7-a0be-6a6d4069581d	D32N	1.5146	0.2929	15.8450	12.3778	25.1964	165.4966	10.7690	91.6378	40.5229	10.9180	10.7788	100.2942
cf332daa-f335-4af1-81de-cbfdafb0f764	G34V	0.0275	0.0000	29.5289	35.7541	367.0269	69.0159	12.2673	40.0007	39.9905	15.2352	1.1495	48.5740
d8faa3a7-6b3f-4e69-8c88-184e41055bd7	S37F	27.3252	0.8666	147.9453	4.4136	6.0754	9.5694	13.4243	219.9631	24.6531	8.0734	0.6401	8.0763
9cde90c8-2be0-4328-a032-ff1dc19e66fd	S37F	6.7610	114.1064	90.7665	403.4633	3.8195	34.8268	11.3620	61.6218	21.2790	8.3491	100.0256	12.0351
2b85b84f-e680-4b5c-93ea-3c71567227e8	S33Y	1.8938	0.1585	39.0757	51.2168	31.1751	230.4218	38.6422	221.5066	44.8319	12.2917	115.7632	119.0801
3ea53b15-37f0-446e-a130-6bb2dee56865	G34R	2.1555	21.2620	40.0197	5.1179	17.6160	128.0486	36.0194	91.7274	81.3619	42.4711	216.0797	175.7814
f82aff25-0725-48d1-aefd-d60800f7d1ab	S37C	0.0000	0.0000	428.6136	23.9478	149.9844	1.5606	0.9758	5985.3054	35.7351	22.2849	0.0845	51.3936
c1afc5eb-8c1d-4b6c-8453-48728fc023ba	S37F	9.5071	0.1043	133.7103	0.0517	56.2368	43.9617	59.3144	116.5713	63.1165	11.4415	0.9454	88.4297
0f344863-11cc-4fae-8386-8247dff59de4	G34R	30.2234	1.3169	85.9833	1.0109	2.4145	6.8944	31.1792	96.8084	9.4213	16.1824	4.8681	54.2154
45effb44-0b5f-4081-a202-d85969c72f2b	S33C	6.9877	0.9123	43.5101	20.4699	4.7572	30.7914	5.3193	96.8436	25.0540	20.5942	34.6324	106.1130
c36f9ffe-515b-4895-b82a-aadc49fe3016	D32N	0.0000	0.0000	36.7194	17.8063	93.9026	2.3963	2.9319	2279.3371	14.2215	17.9612	0.0000	28.9593
dd7a53ee-cb08-40c4-9935-51d1ca17e9e8	S45P	0.3419	0.1598	50.2302	2.9562	3.9345	20.6107	11.0289	100.0443	7.4402	16.2971	0.6910	3.3501
9bc2f33f-3067-4000-bc8a-1c5bb671d101	S33Y	0.9421	8.4534	65.1789	51.5209	8.4885	71.3641	24.2769	110.3353	25.5314	19.8877	35.1627	5.8017
d262fdf0-30bf-4618-9342-de5a2a053828	S33P	0.3544	0.0221	266.6870	24.4013	45.5756	6.9584	2.1765	87.4815	311.8776	55.7512	0.0914	142.4462
8751429b-4a11-451e-b978-dc9e9db0eb36	D32Y	16.0315	0.1138	23.2770	2.7961	10.3780	53.5536	20.2247	165.9409	159.2903	56.1421	129.0960	506.2464
5cba9441-6812-49c0-a0f6-7928ed4e5b81	D32Y	2.4689	6.2046	25.9601	7.9030	5.6738	72.9091	11.8742	115.9228	41.8843	8.2581	36.5214	46.6174
c49b41bf-0025-4682-966b-cfe8fb2b2546	D32N	0.0479	0.0134	44.7023	9.9142	72.8240	5.1643	0.9613	2224.9268	20.2207	19.4006	0.1298	21.7693
a782f174-241d-42c6-9bc4-61cc39f8b397	T41A	1.4038	0.0242	44.7862	6.6589	15.1686	5.2801	11.9946	177.8374	39.1044	3.9894	0.3677	0.5290
976bb47a-d999-4e24-ad08-452fea73c846	S37F	1.4905	1.6479	17.5911	16.1946	17.4950	51.2676	18.5390	41.0559	26.0116	5.6477	20.7628	13.2989
fbb0e4bc-5398-4a7e-963c-86ea1108a2de	S45P	0.0119	0.0000	196.8298	0.9122	24.8834	1.2825	1.0624	150.6678	1.6961	5.1808	0.1103	9.0437
5ed1b22d-99ca-4c21-b5d4-851e4a6217e9	G34E	2.6879	0.5000	51.9064	0.4861	80.6335	61.7799	227.9540	84.5927	137.4521	27.1929	100.2248	130.0499
89d1261c-6d93-4298-a2af-b5ff52be0cb6	S37F	0.0110	0.0000	79.4581	15.3288	61.0126	6.3304	9.0746	3749.1366	13.3917	17.1999	0.1704	29.9765
3b21b47e-a15c-4b10-9702-62a14afdfb8c	T41I	0.9044	0.2341	6.7111	4.7818	14.6865	120.9510	14.0158	120.4652	47.2857	11.8007	47.5972	221.7004
e2b48d0d-57ca-400b-8598-55ef132e350e	T41A	4.9274	9.1839	137.3672	109.4955	1.9616	208.3213	19.3095	164.0660	63.1723	10.0910	63.8460	1.5177
aa6b44ab-14b1-4b5d-8679-ba958b546afa	S37C	3.1084	0.1726	108.2118	1.0177	68.2291	109.5647	78.5971	88.7108	295.6048	71.6573	102.7512	284.4155
7b8c04d7-824d-493d-8f2c-9ed87a907192	S37C	26.2022	0.0713	335.9274	0.2738	2.8488	4.7506	30.3993	138.4493	17.0445	6.2443	34.2307	9.3877
6813c53c-b256-4115-ad90-24d75328779e	D32G	0.6354	0.0000	133.4217	0.8336	76.7386	112.8403	91.6755	100.6034	282.6479	14.9339	177.2524	297.3949
b44f664c-444c-4c64-a407-52fd9b55f178	S33Y	0.0149	0.0167	58.0681	26.0381	81.4759	13.3471	0.8036	3939.1464	26.2063	26.4092	0.0461	97.3010
3f6a6891-c6d5-447b-ad32-325fd46ec32b	G34R	0.0806	0.1807	108.1943	19.4348	63.7798	3.2721	2.9101	6509.9280	13.2673	7.7978	0.0000	35.6923
959918d7-cb84-4745-a72f-d138176b1ecb	S33A	0.1070	0.0149	64.8704	39.3710	136.0647	0.2177	7.1155	2778.9450	23.9828	12.0410	0.0205	29.5223
d3c83c5e-acb1-4cb0-8f56-96341822582f	S37A	4.4761	1.2302	63.3820	28.2262	15.2104	75.9821	61.7046	95.8838	55.7178	27.1992	94.7482	153.4194
87aa894e-7676-40b7-9557-6541446d8cea	S33P	0.0000	0.0000	257.6629	18.7434	86.2101	0.0326	0.0082	1394.4226	5.0450	8.3469	0.0178	20.5348
263b18e1-5722-4650-b16b-dac1961a3af8	S37C	0.3621	0.0000	33.7306	11.8161	3.4414	3.3970	7.2135	87.1867	461.1263	23.4745	0.4904	30.4441
02b2cd50-221f-437c-a1ce-6da1467ec809	G34V	0.7934	0.8376	20.6435	11.3027	5.7282	52.4055	26.3502	142.7050	103.9147	23.2786	118.0369	52.4696
f3f6ba92-c68f-4313-99f4-0281272e02b6	D32V	0.0000	0.0000	60.9245	26.4756	70.7716	8.6648	4.2057	1937.6714	9.5762	10.4509	0.0000	22.9764
80e7742f-abbe-4f11-b4e4-c999dc1bd459	S45P	0.0388	0.0544	38.7720	10.1922	26.1091	8.0358	1.3989	405.2104	7.6289	9.4352	0.3604	34.9835
ca858743-1f06-40e3-accf-395d08375b63	S37A	1.1163	1.1243	5.8410	0.0665	11.9805	35.0140	3.8991	36.9397	4.4723	7.3383	2.1509	5.5241
344f7ea4-2bd4-4f2d-89f2-9fc7f572a3d6	S45P	0.0957	0.0000	6.0420	127.9061	373.1527	21.7094	25.5524	77.9260	19.2561	39.8114	0.1666	7.6442
efc865fd-7c74-4361-9d7a-eef923dbcd24	D32Y	0.0000	0.0000	33.2846	11.6878	81.5349	9.8261	7.3723	5035.1008	30.4918	18.9071	0.0342	76.8199
8a67ed86-156f-4b45-b460-000fe33da26b	S33C	2.7232	0.0790	97.7139	3.0254	45.5714	67.4583	45.2233	202.8287	66.3700	27.7492	84.8455	206.7718
0caa706a-251f-43a0-897a-111aec0acc82	G34R	0.0580	0.0000	167.9582	0.0564	3.0462	71.6022	1.5640	13.3289	10.3731	8.5613	0.5382	0.0473
d46d5af5-62ae-43eb-a885-4c078e0c956e	S33C	2.3788	42.4040	34.8640	3.6180	20.2461	49.4916	21.1675	77.8270	240.3722	51.5136	528.2994	151.4067
496beef9-80d9-4734-a23d-334ae1b6aaab	G34R	0.0000	0.0298	130.7120	2.7147	149.6051	30.0879	0.1416	9103.3719	106.8899	15.7540	0.0206	209.2936
608ef42f-ccd7-4ae0-8156-8775a0f09bcf	S37F	10.4828	0.0116	453.2134	54.1840	307.5996	4.1861	6.1723	165.3854	401.5253	39.4419	0.8607	166.5934
dcff8659-ecca-4798-80a3-dd6e7642ba2b	S37P	2.7903	0.3651	5.3691	0.9499	1.3279	16.1946	3.9632	28.5442	22.4175	9.5265	22.8540	76.8870
5b6b9d0f-787c-4ae9-afd4-de7ce6c57a42	S33F	4.5708	0.2666	59.9818	0.4623	10.8462	101.1599	63.7802	62.0416	43.5163	12.2022	47.6845	32.0194
d5f2bae1-7cd1-49bf-ae41-12d2aa44408e	S33Y	6.0562	36.1047	114.9617	147.5538	15.6408	56.2397	36.4084	188.2611	32.3428	12.8786	44.6670	21.5091
2e5cf721-90b1-4470-b430-f055a1297c7f	S37C	2.2771	1.0463	86.4668	8.7788	17.9587	112.1747	66.2641	522.9518	105.3185	24.9102	46.5406	207.6394
08cbbb39-d05a-48b0-a966-5212c5923c8b	S45P	0.0000	0.0000	26.7857	5.1726	41.4461	16.3839	0.5491	1520.2374	16.8950	24.4094	0.0725	96.8658
fce1fd5a-54d2-4260-b187-4eb7035e96e9	T41I	28.3755	0.0190	66.8079	11.1516	19.6465	6.9752	12.2020	37.0197	154.9152	45.2958	0.3150	23.6382
a308a5ee-8ea1-47ee-823d-14736d74a925	S45P	25.0294	6.7372	44.6440	5.2146	8.8097	15.2275	7.6051	106.9645	33.1167	18.3267	3.8608	5.4775
8373bc4a-490d-4050-bbb1-48b6472eba34	S33A	8.1477	2.1414	98.7749	37.3911	61.5077	2.2203	8.4228	122.1504	141.8594	33.0692	30.0880	92.2734
d6486001-240a-455a-980c-e06c25c61fa5	S33F	0.0077	0.0086	8.5288	36.4128	127.5394	23.4822	3.7573	2462.2433	73.0360	23.3483	0.0445	55.5969
501c987e-d1eb-48a9-89eb-72a5062c90b4	S37F	27.1536	0.2136	170.8124	24.3063	1.7277	7.9795	6.8596	180.3989	36.4250	3.9987	0.3369	199.7942
c7f1b389-aec7-4993-8afb-b7a56064f8fc	S37F	0.0235	0.0396	8.3686	30.4749	36.4516	7.7880	6.3805	2843.0405	44.7447	28.0501	0.0000	7.6717
e2aaabd9-f4ba-4763-a28a-c14d46a4bc5d	S37F	4.3429	0.0000	88.9804	25.6371	19.3780	51.3076	30.1393	249.0210	133.3468	14.1471	1.4738	153.1365
564b4f4d-3c18-40d5-9d95-916774df600c	S45P	0.0791	0.0178	41.6045	9.5757	71.5041	6.0145	0.0225	2922.0041	8.9069	9.5362	0.0490	25.4717
4244912d-8527-410c-a084-a56c55eb1f82	I35S	0.0000	0.0000	2.0653	34.8703	138.7766	0.0913	11.7868	2861.4647	40.1328	6.3850	0.0000	32.6768
6d2e8bc2-ca86-41c1-ae49-289e20fce758	D32G	0.0000	0.0000	50.5000	5.5310	124.5692	21.3111	4.3904	2682.7852	43.0197	16.7856	0.1420	184.2651
1043bc90-72c9-48c9-ae24-f617d0485e78	D32Y	0.0000	0.0000	421.8982	44.5508	183.9320	6.3547	8.4661	8085.2803	18.8557	28.1720	0.0176	54.9951
88832340-46ad-449c-8f81-6a8e5b495510	S45F	0.2310	0.0269	83.2312	2.9601	10.8815	6.3924	6.2716	175.7351	5.2490	2.6082	0.0949	0.2594
c5df9142-27f6-4d97-933e-c79ea9199362	S37C	1.5261	77.6340	8.2108	62.2252	25.1483	122.8063	24.6943	185.6430	278.6939	159.6934	197.2638	500.2330
2f0640bc-598c-4714-9e9b-7e0f2ca4567f	S33Y	5.9596	1.3596	36.8037	25.2816	12.1395	106.9144	42.8028	200.2911	74.3470	22.0308	81.9781	294.9972
cc058b8c-df40-4f9e-88e3-3d1131b22b41	S37F	7.5253	0.8418	73.8450	7.1615	10.8402	81.3806	50.1743	183.0678	73.2947	26.2175	74.0009	261.4813
f4a7f2ff-be76-48d3-9f59-9223db33680e	I35S	3.2817	6.3237	21.9537	34.9469	5.0206	53.4232	26.7726	56.5873	12.9213	9.1482	16.9319	7.6260
f70a64a8-3faa-468a-a6f3-4815eb01e5a3	S33P	0.0404	0.0000	84.0893	0.0196	4.1985	43.6920	70.6393	59.5458	32.0003	19.4581	2.0311	135.3375
431a72e1-ea03-4e40-89c4-2f02d454c897	I35S	0.0108	0.0000	3.5599	19.1141	39.7651	5.6449	2.2763	5154.0218	19.8965	12.6615	0.0000	22.4420
b43de98d-4bb1-41a1-91f2-ce4e7ea4d0ca	S37F	7.7556	12.9332	58.3755	168.7882	26.7051	79.7503	98.7652	305.1996	94.1015	27.2642	50.5936	75.1026
f15279dd-5d12-460b-9bd1-b4f95681ca65	G34E	0.1206	0.0605	12.5976	3.6962	35.9049	3.1389	3.9312	890.9937	20.6384	9.8749	0.0781	17.7225
69c0ef46-3117-46f3-b36e-581eb03eb829	T41A	0.0126	0.0141	43.8699	0.0000	2.3403	102.8183	0.8408	210.1529	15.9742	16.1842	0.7213	98.3800
23489245-48d7-4f19-8a42-e23b1181412b	G34E	2.6544	0.4253	22.8145	42.6223	10.7469	70.5186	29.1864	155.9327	61.4775	14.6248	62.0333	59.7927
08b11e0e-5b8e-45ea-9b6b-30e3185b03d7	S33F	1.0869	0.1806	54.1440	22.7879	6.9655	83.2740	19.8700	110.5855	49.1795	33.8780	85.4280	12.8185
f7165dea-c528-44f3-954f-e111a3d77b4e	T41I	1.3056	0.2034	68.7357	5.6263	0.5719	8.7462	1.6227	150.0450	155.6699	13.6723	1.8525	25.4060
e095a927-d985-4fbd-8093-46c1c6ace4de	G34V	0.7905	59.6395	64.2818	54.9034	5.7666	74.3529	67.9441	105.9286	111.6659	64.0435	209.1497	320.7755
afcb9708-92b3-4727-9c0d-63e7ff22d87b	S33C	0.0180	0.0000	16.6069	8.3241	27.7692	2.9986	0.0638	1171.1343	4.3860	16.0450	0.0278	9.0281
3fa3cffe-40f1-4853-9cbb-54a99ffd6108	S33C	40.2645	0.0155	4.0221	0.1210	225.3154	2.8694	1.2177	24.7552	13.1829	1.0648	0.4494	44.0280
284174fd-1320-4617-9e99-75bd75df9bf3	S33C	1.7064	8.6940	39.0723	4.6977	8.7266	110.9385	12.6731	66.2417	45.6198	11.9366	55.3309	62.4809
001e0309-9c50-42b0-9e38-347883ee2cd3	G34R	9.6118	55.2334	14.2310	8.6205	10.2305	48.6753	13.8755	57.3230	42.6471	28.1761	37.3060	141.9677
68181bc9-aa8b-44ec-8601-564b30ea0561	S37C	22.3492	11.8357	53.7121	3.6559	16.8877	116.5744	37.5498	269.7978	150.4385	119.8846	145.0311	438.2104
71681db9-fa90-4fe1-a497-67d501eb75f0	D32G	0.0000	0.0000	32.7423	13.6355	56.3767	12.7615	2.1381	4531.6280	48.7166	9.5665	0.1087	22.7859
5262d82d-fc43-41f4-9b23-c9ac6f237ff0	S37F	1.9053	0.0117	98.1662	29.1100	196.4713	182.7025	161.7702	123.4020	113.6648	66.5368	438.8883	81.9750
c3a8881b-70f8-402c-ac75-1cc49fca4e87	S45C	0.1827	0.0098	103.2441	0.0423	13.7566	93.9961	1.3470	157.0328	16.7934	1.0379	0.4848	0.4049
24434832-46fc-485a-9ff4-2aa95c3d3936	D32Y	0.3791	0.0425	3.7512	8.9958	0.7431	49.8736	2.8939	19.4497	15.2701	8.8048	7.7154	2.0426
21faf1a4-f6d3-4cc6-a49a-04b8541ef598	G34V	33.9631	0.0894	15.5404	18.0869	6.4217	100.2128	12.2017	60.2718	83.6047	49.6677	190.7798	208.0685
eba5208b-404a-45df-9133-31ff122e7fc0	D32V	0.0224	0.0377	153.6800	20.3891	175.0267	14.8690	8.1329	3427.6439	70.8986	26.6685	3.1423	169.1492
027322f0-d720-41f8-897c-a10e5c1424c5	G34V	0.0101	0.0000	1.6404	24.9171	50.5532	3.6860	1.2446	461.0657	29.3283	24.4017	0.0470	59.0522
cca5717d-226d-4390-a99b-c7aed6d9d70e	S37A	2.7848	1.0412	36.0535	23.4450	3.9560	65.4601	4.5509	118.4623	61.1142	21.7933	90.5188	41.1461
dd056692-4e2a-4e45-a4d0-357af9754f0e	S33P	0.0696	0.0309	20.0458	0.9622	26.5412	5.6645	1.4105	1468.8781	3.8815	8.0853	0.0478	28.0950
0ef95351-0133-4f34-a59c-90934fb161f8	T41A	0.0902	0.0506	27.3140	1.2763	7.2824	0.5166	1.1710	165.5002	0.6104	2.2248	0.0000	1.8960
a3de401d-91fe-49a2-bb07-81c1a06506e6	T41A	4.9744	0.1562	130.2883	14.8050	4.7911	5.1002	6.5710	121.6712	90.6376	10.3353	1.2473	179.6438
ef7bc188-6aec-467e-801a-ab2109a28104	S45F	0.2035	0.0000	99.9688	0.0313	33.6092	82.3722	2.1986	153.9818	218.5130	46.7829	0.0995	2.7550
aa3ad7c0-37cf-4337-945e-cefeee801bbb	D32V	2.5735	16.8722	30.5436	9.4363	7.0542	47.7186	18.3196	148.7998	30.7766	22.8286	82.6963	91.6513
38243a33-073a-479b-8cf6-c8847aeb5a48	S37F	0.0872	2.7877	63.6790	122.2235	13.8811	50.9239	17.1400	101.5064	18.8153	1.4594	34.5551	20.8794
fba80122-d8b2-4d8d-a032-9767e8160f9f	S33F	14.3823	4.0950	38.2514	17.9731	9.2376	22.5871	13.6567	98.8805	32.9224	25.1982	12.9800	48.3462
0119eab6-00e7-4346-aa52-cbbeeba3621d	S33F	8.9445	38.3550	25.3987	234.8891	6.0046	56.7794	17.9326	130.1324	59.3889	45.4177	104.7534	35.2861
60fcf50a-8598-475d-8dd0-6b3044661233	S33Y	8.0304	14.0791	63.1331	13.1583	14.9843	83.3272	43.2101	145.3580	83.6001	53.8549	52.5184	385.0602
948a9bbc-60b0-4fb7-a707-76bc41294217	S45F	0.0176	0.0198	8.2928	0.1884	16.9647	0.5424	1.1321	106.9756	0.7104	2.4069	0.0273	1.3806
9c5e2438-f587-4935-92f0-4bfd57468eaa	S45P	0.0249	0.0000	1.6209	0.0242	7.6256	1.5895	0.2030	199.9866	0.6763	2.1577	0.0000	2.5566
87750e70-3af7-452a-9aa5-375acd3843ea	D32G	0.0618	0.0000	506.8723	9.5007	32.3033	0.8111	0.0815	481.0405	20.9079	12.1825	0.0546	117.3602
1724c96a-2aa3-43d4-992a-08af948c0f45	S45P	0.0000	0.0000	36.4567	33.3642	143.0739	18.5077	3.8119	5841.7828	16.2513	23.7827	0.0000	94.1910
41fb30aa-63b4-4cc6-a275-b77048612fa0	H36P	0.0112	1.7389	25.4019	1.6718	27.2806	0.7878	0.1755	601.5524	1.0918	5.0833	0.0000	5.7510
5a7706ba-3cea-41eb-b78a-fd69206daa93	S37A	0.0438	0.0369	58.6274	41.2691	81.3895	2.0036	4.9795	3392.2857	18.4946	14.2651	0.1187	29.3298
7f4f3aed-69af-421e-817b-b258dcc0bac5	S37F	25.7556	14.6354	8.7103	16.6414	10.5605	85.8173	32.5699	63.5122	48.0997	31.6372	45.7662	140.3988
29c8f468-5ac1-4d6c-8376-e36e6d246926	S37C	5.3254	25.2790	61.4523	7.0235	20.6802	115.8422	178.8005	279.3755	205.7626	151.3877	149.1957	251.9038
6f4f0cdd-8387-45d0-a9e8-efce6260159d	S33F	16.8074	11.6089	25.8532	6.7673	19.2925	37.5394	22.2825	60.2092	25.0198	20.2349	99.8873	71.2045
a7329910-b1c7-4a18-b28e-8fad79121339	G34R	6.8636	0.2032	40.4714	0.4698	4.8552	68.8532	9.7204	151.9670	47.1245	28.5789	139.3552	208.0987
