0648f046-2206-4b97-9b6e-419c2e325b6d	S45F	117.4984
734ef97f-807c-480e-8df9-feaf041032d2	S33C	139.0423
661dc657-d2b3-44fa-b859-2c4ee42b0046	S33Y	264.1597
a25a714e-c142-482b-91c8-4fea763e0254	T41I	38.2995
4af65655-a3bd-4252-9b2f-2b2c4394f95c	S33C	159.8438
03381d49-e25f-4376-8e36-f47063a7d3fb	G34E	165.0773
5b8d04b2-ef40-4216-a3bb-42520efbe863	S45Y	28.6997
ee6d81bf-0470-4652-aff0-d85f6ab67626	D32G	42.9881
ae8a4958-5407-4c01-93c3-8090862533ae	T41A	250.8522
9a56d8a8-dadd-442e-bc09-732cd619aef7	D32G	37.1496
efa4c675-e35e-4f48-8d12-a40f30b63ddb	S37F	170.8313
d1c65e6a-098e-4c10-9183-c303ba66015a	G34E	197.8168
6ff12a54-10da-4941-bfea-7b66e19b4be9	D32G	243.2179
65e430e1-0c9a-4045-83a9-653b7cff811d	S33C	57.6826
87e44856-eb9a-475f-96b1-047b7f77b0da	G34E	77.9734
3c969bdf-cae8-44f5-839f-5abd4cba0ec8	S33C	50.0236
73a0dd38-115d-48fb-b683-04aa5d612f2a	S37F	75.1274
1e9f910c-82c0-4222-a62f-b656839307fc	S33F	26.4171
a2a2dbda-d10c-49c4-86a8-61baf6160cda	G34R	36.4480
cc141997-edab-4aae-a056-0c079eaa7362	T41A	168.6840
503e6c30-1b62-4f85-bcb4-e34c009894ab	S37F	217.6392
52fef8a9-6860-48bd-b992-a56ccad1243c	D32A	274.0256
838fcc2b-48b4-49dd-b8fc-ff27bbd16b17	D32A	243.3094
0f59bb0a-135c-4793-b1a7-5ad5172ed82d	T41I	158.7526
4eb95566-0e73-4260-853e-f7df650667a0	D32N	59.5841
0f4fb205-b13c-4a85-97b3-779429e6ccdd	S37C	174.4745
3f305a1f-1020-4ebb-82ab-fd132bcaea02	S37C	54.7480
e56c6abc-b36c-4667-a347-0a541ce4791d	D32N	195.0386
d70b3c6e-04da-4abc-a832-a461e4cfcc94	S33F	195.2470
2714af93-e200-4b4a-9df8-7d837b37489f	T41A	105.3026
c353f949-5f66-4a2c-b8f0-17be8bf19e0a	S33Y	177.0965
09790a9b-cc2f-4d7e-a971-8fb4ecd9f791	S37Y	30.6938
490ae247-ee67-48d4-94ed-93df5b9bbefe	S37C	122.6353
290890eb-321c-45dc-9cd1-45676c6e5e96	S45Y	5.4676
d74bc72e-8103-4aed-8958-5f40953d48eb	S33F	206.3888
a6733fa1-030a-45ed-9c24-0e64164d4998	S45P	43.6850
e46b6434-ee88-4630-9fc3-441afc431745	T41I	52.2193
0b1f4f52-12ec-44ab-8283-a502bdf48c3a	T41I	75.6410
61935424-44d0-4211-81c1-c925e436eac5	D32N	222.7639
a1867d3e-a006-4e04-8118-478792bdca4b	D32H	165.1794
0c53b010-4243-4da3-a059-7f54c9a850ec	T41A	197.0116
64bd568d-0509-48fe-8d0a-aef2a85d5c57	S45F	221.7364
31c7d56b-4af7-4fdb-ba83-63bf615fcc3d	D32G	0.4314
adc22472-e31d-419f-aeae-cb01b9423343	S33F	235.4421
0955d871-5413-4ab2-8fdf-b4feb3aeef5d	S33C	64.7863
7b356c12-b226-4e58-be7f-44e50e3eefbe	T41A	217.6819
76cc9c06-0827-465e-bab3-5f4115295ebe	S45P	59.9357
7ad77384-0946-4fb5-9b10-bdc8a5fc8d87	S33Y	34.8891
75fb484d-cd12-4cf0-a99d-faf27aead118	G34V	175.0710
f89bbd17-c732-4847-b71c-a8627a702747	S45P	355.5566
7b9479ff-23d6-4689-91f0-02efc94300f9	S33F	286.6648
f311877d-021a-423b-a6f5-e574c9a3ca7c	S37F	63.5576
994347ba-3045-4ade-926f-06420fbd906c	S33P	25.9769
353c5fcc-9c6a-4ac6-99dc-fb4573b2ae6c	D32H	400.4371
420dc176-e9a8-484b-bfa3-1b84e039c26b	S45P	31.7802
553f0ccd-4e6f-4ae2-9b39-97529eb3d826	D32Y	75.5330
fc83ab27-929e-4ad4-ba18-abb0694f1e43	G34E	0.0236
44dec838-b653-42a7-a58b-a1fd232cd68c	S37F	226.0087
8bdd4e0e-5bec-43f2-b9fa-d6e94a72fe05	S37C	112.1433
0b672aa4-fc13-476f-b61e-5f2c3a615c23	T41I	60.1431
93afbfa1-4d03-4105-8dda-b095f0ab308a	T41A	24.8566
f85bc60b-ab07-4b24-820b-6860b198e910	S33Y	123.9370
33efe6c6-9159-48e8-b759-fba9ddbde761	T41A	118.3827
69b23036-add9-42c9-941f-02fb74d9b08c	S45F	167.7501
91909c63-debc-42ad-b4be-56870195bdcb	S45F	103.6098
1c7b41fc-daa7-4a6e-b553-aff73e8ebac6	S37F	189.9976
6c2a0f37-49cd-4fd0-b126-58b35f9121df	D32N	146.4562
bb38805e-2ccc-4169-ba01-34b98adf5bd0	S33F	7.0927
c77e1eef-ec9a-42ea-96cc-70aa437a00e6	S45P	496.7048
81a7184e-f9f5-4e3f-9603-5f5642386c1e	S33A	308.2817
b181b591-269c-4e48-b681-243d28772025	T41A	42.7145
46874009-4b32-43ff-a36a-236a3ca28fef	D32Y	350.8657
92554413-9ebc-4354-8e1b-9682f3a031d9	S45F	341.9338
f47df5f9-7c60-4b1a-b574-7036245af341	D32Y	145.8088
554a7381-46fd-4301-b91b-5af7f173c350	D32H	301.4339
aa597e8b-7813-4837-b778-4dafe3b091bb	T41N	0.5861
ff82548a-f1bb-4daa-a8f7-b3831b5843ad	T41I	51.1272
e2b1d0de-5221-44a1-8fad-9708a3cada14	S33C	75.3623
5e086192-ab74-4aa3-bf6b-b34ab19995db	S45P	0.1847
cf77afe9-3785-45d4-ba2a-61c9cb706225	S45Y	79.1163
397d3f69-1453-4057-b177-8723eec923d1	G34V	166.0446
073e51f9-fb79-4a5f-9ba0-2c9af03c0b85	S37F	75.8531
4c960eee-e4b5-499d-a596-238aa78745a4	T41A	3.6340
931e39cd-b0c4-437f-b6c5-9358d74ea533	S37F	24.4614
36c14e9d-1863-4c55-bbbb-f8c9dd418932	S33F	173.8663
cca827ca-0066-497d-83dc-477f3b08ea6d	T41A	55.7764
39e147c9-2acb-4ba8-a991-e43e1719b2d8	S45P	6.3461
cf97d5ff-1cb7-434e-9ca8-c396cf960e5a	D32G	22.1720
e60a8f8a-0fe6-40e5-9f30-bcff48ac73f4	G34V	160.5938
d7ebd11a-1339-4b28-be90-a788d2cfa706	T41I	183.6183
24170a77-94e0-4002-9d3e-a46c84e84fca	D32G	8.8677
f9cf4125-0db3-4b66-b51b-bc2f0240c9ef	G34R	142.3966
b7d6621c-8bce-4a01-8588-9d7761d9372b	T41I	24.0290
f0ece8e2-a6b0-4ed9-a613-d2fbb20e51b1	S33C	10.1134
13f31bcb-befd-4ed2-adc0-dc9e9ce52b75	S45F	100.0925
5e3b981e-73fe-4cc9-8c89-b420e8e2f426	D32N	105.0305
59e9029a-8ddd-4447-b35a-72bc39f82a30	D32G	31.2469
5750a6ed-2516-456d-97d4-2f6486845ed8	T41A	184.2623
fb7e9935-32a2-422b-8004-88b827a686c2	D32Y	317.7813
3405c549-7da5-48ee-ba48-177a67bbcc5d	T41I	67.6586
0004d251-3f70-4395-b175-c94c2f5b1b81	I35S	16.0203
c7b3ac87-5260-4042-895a-279cd8cda620	G34R	216.0881
916ccf0d-02ef-4ccb-824b-6b4294095a08	S33C	241.4028
3c51fee0-da54-40e9-a954-dfe30f6f075c	S45P	34.1730
d17668c4-5d66-4e16-8b70-b54616581aae	G34R	16.9592
1dbe1e26-3bcd-45cf-990e-ad7c8754f4d4	S37F	378.4567
2d166dc0-8890-4b00-ab73-9e2dbb6c530d	S33C	247.9472
b54df65f-8a6b-4405-9918-90d53418804c	D32V	43.1846
0ec37c2c-8d90-48c1-9cbc-69fe6473c980	S45F	177.8935
8e8f19bd-dbaa-4738-bad2-207f634cd63d	S33F	225.6877
9ec86c06-e7a9-4ea6-b36d-6f832909054b	S45F	0.1934
e0863874-f7b8-49b6-a88b-5ae5f1ec2b15	D32V	13.5451
2d1dc64d-27de-4c83-a7fa-88da5b48bf24	D32V	6.5741
0df573ee-28f0-4244-b434-09e6ca59fbf0	S37C	209.2647
fbfed398-2a44-44a9-83cf-657c29cb7d28	D32H	149.0011
d492383f-5449-4845-bfb3-b2cb4eb49c4e	T41A	291.4403
424a497a-48b9-4507-b234-c4fd08c8acad	T41A	0.0000
2854ffe8-1f77-497a-bf49-11e0189fee35	H36P	38.8733
a9a57127-94d3-425f-a4c5-5cbcf24a9a35	S45P	0.0051
82940e94-ac74-4a9b-9da5-9e4b7d4d45c0	G34R	0.0101
518aa9cc-71cf-4734-9d55-b435da99d300	H36P	13.5649
3837c8ac-6c9e-499b-a4e7-d42c870bcb49	S33Y	159.2732
19511f9e-7b0e-4a06-998d-c1837d37c6ec	S45C	321.9666
cf358fb8-866c-4780-a550-d6c1c30b8c63	T41A	65.5005
6ea0ef82-694d-492d-95da-a3bc8de99149	S37A	99.0745
516c8594-2973-41e5-a5ce-76d177edfa48	G34E	40.1803
4dff4242-4a53-4f46-b200-7ed83f6b7808	D32N	8.0034
94e387ae-b641-4e9f-bb53-22c7b2a9cccb	S45F	6.8808
5dfdfcfc-72cc-4e33-aa3f-0d744eb94330	D32G	110.7826
c21d2c68-920f-4526-b754-286579c049f3	T41A	257.8171
66c6f413-b7a8-4d7c-9e1d-c4fb257b9e5c	G34V	58.0624
b4a520ae-f259-48c8-823e-c10b9b8a133a	S37C	96.2628
1b391187-1d9a-4428-ba9a-ef1800f17d3e	D32H	7.3717
8e1ff72b-f1db-4bf9-a8d3-f422e25a65e1	T41A	192.4712
bca1057a-1e96-404d-8a37-5a8dc1944ee7	S37F	203.1711
ee143e06-0334-45dd-a2b0-1169527d6b4e	S45F	14.4374
b8588e0f-aad6-4ded-845e-3cff67a48d8f	S37P	203.8500
5fd0f07b-8bb9-4378-bd26-28a26057e8fe	S37F	170.7261
91a0c8cd-4f23-4569-8e5c-e5442f7af530	S45F	83.6685
79d33c28-a7e2-4fca-8be1-a16fb6d68d49	T41A	430.0611
40f43483-b504-4ea7-ad24-40682b10caac	I35S	118.4612
4c2e6abf-02e1-4ef7-a0be-6a6d4069581d	D32N	348.4261
cf332daa-f335-4af1-81de-cbfdafb0f764	G34V	0.0000
d8faa3a7-6b3f-4e69-8c88-184e41055bd7	S37F	346.8985
9cde90c8-2be0-4328-a032-ff1dc19e66fd	S37F	281.8772
2b85b84f-e680-4b5c-93ea-3c71567227e8	S33Y	233.0165
3ea53b15-37f0-446e-a130-6bb2dee56865	G34R	142.2431
f82aff25-0725-48d1-aefd-d60800f7d1ab	S37C	53.8120
c1afc5eb-8c1d-4b6c-8453-48728fc023ba	S37F	17.7501
0f344863-11cc-4fae-8386-8247dff59de4	G34R	100.5439
45effb44-0b5f-4081-a202-d85969c72f2b	S33C	106.7810
c36f9ffe-515b-4895-b82a-aadc49fe3016	D32N	42.1359
dd7a53ee-cb08-40c4-9935-51d1ca17e9e8	S45P	264.9161
9bc2f33f-3067-4000-bc8a-1c5bb671d101	S33Y	243.0213
d262fdf0-30bf-4618-9342-de5a2a053828	S33P	231.7319
8751429b-4a11-451e-b978-dc9e9db0eb36	D32Y	57.7687
5cba9441-6812-49c0-a0f6-7928ed4e5b81	D32Y	53.7436
c49b41bf-0025-4682-966b-cfe8fb2b2546	D32N	48.9339
a782f174-241d-42c6-9bc4-61cc39f8b397	T41A	396.1457
976bb47a-d999-4e24-ad08-452fea73c846	S37F	137.4076
fbb0e4bc-5398-4a7e-963c-86ea1108a2de	S45P	16.5823
5ed1b22d-99ca-4c21-b5d4-851e4a6217e9	G34E	184.0438
89d1261c-6d93-4298-a2af-b5ff52be0cb6	S37F	5.8539
3b21b47e-a15c-4b10-9702-62a14afdfb8c	T41I	168.7502
e2b48d0d-57ca-400b-8598-55ef132e350e	T41A	232.5673
aa6b44ab-14b1-4b5d-8679-ba958b546afa	S37C	162.6949
7b8c04d7-824d-493d-8f2c-9ed87a907192	S37C	186.7805
6813c53c-b256-4115-ad90-24d75328779e	D32G	326.3043
b44f664c-444c-4c64-a407-52fd9b55f178	S33Y	65.0539
3f6a6891-c6d5-447b-ad32-325fd46ec32b	G34R	4.8479
959918d7-cb84-4745-a72f-d138176b1ecb	S33A	60.8402
d3c83c5e-acb1-4cb0-8f56-96341822582f	S37A	158.0394
87aa894e-7676-40b7-9557-6541446d8cea	S33P	59.2686
263b18e1-5722-4650-b16b-dac1961a3af8	S37C	317.3099
02b2cd50-221f-437c-a1ce-6da1467ec809	G34V	91.7185
f3f6ba92-c68f-4313-99f4-0281272e02b6	D32V	25.1745
80e7742f-abbe-4f11-b4e4-c999dc1bd459	S45P	106.6819
ca858743-1f06-40e3-accf-395d08375b63	S37A	6.9782
344f7ea4-2bd4-4f2d-89f2-9fc7f572a3d6	S45P	0.9356
efc865fd-7c74-4361-9d7a-eef923dbcd24	D32Y	5.8524
8a67ed86-156f-4b45-b460-000fe33da26b	S33C	61.3671
0caa706a-251f-43a0-897a-111aec0acc82	G34R	0.1286
d46d5af5-62ae-43eb-a885-4c078e0c956e	S33C	137.8000
496beef9-80d9-4734-a23d-334ae1b6aaab	G34R	0.2545
608ef42f-ccd7-4ae0-8156-8775a0f09bcf	S37F	404.0630
dcff8659-ecca-4798-80a3-dd6e7642ba2b	S37P	103.3923
5b6b9d0f-787c-4ae9-afd4-de7ce6c57a42	S33F	103.0751
d5f2bae1-7cd1-49bf-ae41-12d2aa44408e	S33Y	203.1032
2e5cf721-90b1-4470-b430-f055a1297c7f	S37C	178.5305
08cbbb39-d05a-48b0-a966-5212c5923c8b	S45P	13.5241
fce1fd5a-54d2-4260-b187-4eb7035e96e9	T41I	514.0015
a308a5ee-8ea1-47ee-823d-14736d74a925	S45P	278.1792
8373bc4a-490d-4050-bbb1-48b6472eba34	S33A	222.2718
d6486001-240a-455a-980c-e06c25c61fa5	S33F	49.5226
501c987e-d1eb-48a9-89eb-72a5062c90b4	S37F	296.4986
c7f1b389-aec7-4993-8afb-b7a56064f8fc	S37F	39.1063
e2aaabd9-f4ba-4763-a28a-c14d46a4bc5d	S37F	255.9987
564b4f4d-3c18-40d5-9d95-916774df600c	S45P	69.2885
4244912d-8527-410c-a084-a56c55eb1f82	I35S	56.3491
6d2e8bc2-ca86-41c1-ae49-289e20fce758	D32G	11.4672
1043bc90-72c9-48c9-ae24-f617d0485e78	D32Y	3.1749
88832340-46ad-449c-8f81-6a8e5b495510	S45F	147.9603
c5df9142-27f6-4d97-933e-c79ea9199362	S37C	320.8122
2f0640bc-598c-4714-9e9b-7e0f2ca4567f	S33Y	98.9045
cc058b8c-df40-4f9e-88e3-3d1131b22b41	S37F	49.5880
f4a7f2ff-be76-48d3-9f59-9223db33680e	I35S	49.7297
f70a64a8-3faa-468a-a6f3-4815eb01e5a3	S33P	113.8293
431a72e1-ea03-4e40-89c4-2f02d454c897	I35S	41.6809
b43de98d-4bb1-41a1-91f2-ce4e7ea4d0ca	S37F	370.5523
f15279dd-5d12-460b-9bd1-b4f95681ca65	G34E	25.3890
69c0ef46-3117-46f3-b36e-581eb03eb829	T41A	94.3749
23489245-48d7-4f19-8a42-e23b1181412b	G34E	98.7174
08b11e0e-5b8e-45ea-9b6b-30e3185b03d7	S33F	199.1090
f7165dea-c528-44f3-954f-e111a3d77b4e	T41I	314.3787
e095a927-d985-4fbd-8093-46c1c6ace4de	G34V	190.5983
afcb9708-92b3-4727-9c0d-63e7ff22d87b	S33C	37.5051
3fa3cffe-40f1-4853-9cbb-54a99ffd6108	S33C	165.8039
284174fd-1320-4617-9e99-75bd75df9bf3	S33C	149.4259
001e0309-9c50-42b0-9e38-347883ee2cd3	G34R	41.4909
68181bc9-aa8b-44ec-8601-564b30ea0561	S37C	147.5801
71681db9-fa90-4fe1-a497-67d501eb75f0	D32G	14.0333
5262d82d-fc43-41f4-9b23-c9ac6f237ff0	S37F	0.1481
c3a8881b-70f8-402c-ac75-1cc49fca4e87	S45C	397.0671
24434832-46fc-485a-9ff4-2aa95c3d3936	D32Y	41.5855
21faf1a4-f6d3-4cc6-a49a-04b8541ef598	G34V	116.9959
eba5208b-404a-45df-9133-31ff122e7fc0	D32V	28.5405
027322f0-d720-41f8-897c-a10e5c1424c5	G34V	32.5302
cca5717d-226d-4390-a99b-c7aed6d9d70e	S37A	391.9923
dd056692-4e2a-4e45-a4d0-357af9754f0e	S33P	25.5370
0ef95351-0133-4f34-a59c-90934fb161f8	T41A	111.1700
a3de401d-91fe-49a2-bb07-81c1a06506e6	T41A	149.5499
ef7bc188-6aec-467e-801a-ab2109a28104	S45F	75.6120
aa3ad7c0-37cf-4337-945e-cefeee801bbb	D32V	115.9255
38243a33-073a-479b-8cf6-c8847aeb5a48	S37F	86.0899
fba80122-d8b2-4d8d-a032-9767e8160f9f	S33F	162.7945
0119eab6-00e7-4346-aa52-cbbeeba3621d	S33F	352.2299
60fcf50a-8598-475d-8dd0-6b3044661233	S33Y	143.2612
948a9bbc-60b0-4fb7-a707-76bc41294217	S45F	27.3651
9c5e2438-f587-4935-92f0-4bfd57468eaa	S45P	27.4500
87750e70-3af7-452a-9aa5-375acd3843ea	D32G	71.2750
1724c96a-2aa3-43d4-992a-08af948c0f45	S45P	3.2649
41fb30aa-63b4-4cc6-a275-b77048612fa0	H36P	8.5189
5a7706ba-3cea-41eb-b78a-fd69206daa93	S37A	27.2936
7f4f3aed-69af-421e-817b-b258dcc0bac5	S37F	60.5374
29c8f468-5ac1-4d6c-8376-e36e6d246926	S37C	133.0888
6f4f0cdd-8387-45d0-a9e8-efce6260159d	S33F	61.8062
a7329910-b1c7-4a18-b28e-8fad79121339	G34R	29.5541
