ENSG00000188064	WNT7B
ENSG00000154764	WNT7A
ENSG00000065154	OAT
ENSG00000139292	LGR5
ENSG00000135111	TBX3
ENSG00000138795	LEF1
ENSG00000114251	WNT5A
ENSG00000135821	GLUL
ENSG00000168646	AXIN2
ENSG00000081059	TCF7
ENSG00000111432	FZD10
ENSG00000204335	SP5
